1.614882975059388
1.7923737917720848
1.7986372108086928
1.8051376273700128
1.809045786981122
1.8167790030694289
1.8200764778424907
1.8200764778424907
1.8229149723923137
1.8254591971511842
1.8254591971511842
1.8279306290436834
1.8279306290436834
1.8304883070376963
1.8304883070376963
1.8331871528231527
1.8331871528231527
1.8331871528231527
1.8360074452937816
1.8360074452937816
1.8360074452937816
1.8360074452937816
1.8389607163818262
1.8389607163818262
1.8389607163818262
1.8389607163818262
1.8419436931324134
1.8419436931324134
1.8419436931324134
1.8419436931324134
1.8419436931324134
1.8449830473793631
1.8449830473793631
1.8449830473793631
1.8449830473793631
1.8449830473793631
1.8449830473793631
1.8481040765490588
1.8481040765490588
1.8481040765490588
1.8481040765490588
1.8481040765490588
1.8481040765490588
1.8481040765490588
1.8481040765490588
1.8513524664163559
1.8513524664163559
1.8513524664163559
1.8513524664163559
1.8513524664163559
1.8513524664163559
1.8513524664163559
1.8513524664163559
1.8547982138362298
1.8547982138362298
1.8547982138362298
1.8547982138362298
1.8547982138362298
1.8547982138362298
1.8547982138362298
1.8547982138362298
1.8547982138362298
1.8547982138362298
1.8547982138362298
1.8585324487800603
1.8585324487800603
1.8585324487800603
1.8585324487800603
1.8585324487800603
1.8585324487800603
1.8585324487800603
1.8585324487800603
1.8585324487800603
1.8585324487800603
1.8585324487800603
1.8585324487800603
1.8585324487800603
1.8626696958570317
1.8626696958570317
1.8626696958570317
1.8626696958570317
1.8626696958570317
1.8626696958570317
1.8626696958570317
1.8626696958570317
1.8626696958570317
1.8626696958570317
1.8626696958570317
1.8626696958570317
1.8626696958570317
1.8626696958570317
1.8626696958570317
1.8673467709231255
1.8673467709231255
1.8673467709231255
1.8673467709231255
1.8673467709231255
1.8673467709231255
1.8673467709231255
1.8673467709231255
1.8673467709231255
1.8673467709231255
1.8673467709231255
1.8673467709231255
1.8673467709231255
1.8673467709231255
1.8673467709231255
1.8673467709231255
1.8673467709231255
1.8673467709231255
1.8727379658907297
1.8727379658907297
1.8727379658907297
1.8727379658907297
1.8727379658907297
1.8727379658907297
1.8727379658907297
1.8727379658907297
1.8727379658907297
1.8727379658907297
1.8727379658907297
1.8727379658907297
1.8727379658907297
1.8727379658907297
1.8727379658907297
1.8727379658907297
1.8727379658907297
1.8727379658907297
1.8727379658907297
1.8727379658907297
1.8727379658907297
1.8727379658907297
1.8790314409206657
1.8790314409206657
1.8790314409206657
1.8790314409206657
1.8790314409206657
1.8790314409206657
1.8790314409206657
1.8790314409206657
1.8790314409206657
1.8790314409206657
1.8790314409206657
1.8790314409206657
1.8790314409206657
1.8790314409206657
1.8790314409206657
1.8790314409206657
1.8790314409206657
1.8790314409206657
1.8790314409206657
1.8790314409206657
1.8790314409206657
1.8790314409206657
1.8790314409206657
1.8790314409206657
1.8790314409206657
1.8790314409206657
1.8864688049051337
1.8864688049051337
1.8864688049051337
1.8864688049051337
1.8864688049051337
1.8864688049051337
1.8864688049051337
1.8864688049051337
1.8864688049051337
1.8864688049051337
1.8864688049051337
1.8864688049051337
1.8864688049051337
1.8864688049051337
1.8864688049051337
1.8864688049051337
1.8864688049051337
1.8864688049051337
1.8864688049051337
1.8864688049051337
1.8864688049051337
1.8864688049051337
1.8864688049051337
1.8864688049051337
1.8864688049051337
1.8864688049051337
1.8864688049051337
1.8864688049051337
1.8864688049051337
1.8864688049051337
1.8864688049051337
1.8864688049051337
1.8953366735174446
1.8953366735174446
1.8953366735174446
1.8953366735174446
1.8953366735174446
1.8953366735174446
1.8953366735174446
1.8953366735174446
1.8953366735174446
1.8953366735174446
1.8953366735174446
1.8953366735174446
1.8953366735174446
1.8953366735174446
1.8953366735174446
1.8953366735174446
1.8953366735174446
1.8953366735174446
1.8953366735174446
1.8953366735174446
1.8953366735174446
1.8953366735174446
1.8953366735174446
1.8953366735174446
1.8953366735174446
1.8953366735174446
1.8953366735174446
1.8953366735174446
1.8953366735174446
1.8953366735174446
1.8953366735174446
1.8953366735174446
1.8953366735174446
1.8953366735174446
1.8953366735174446
1.8953366735174446
1.8953366735174446
1.8953366735174446
1.905973016969507
1.905973016969507
1.905973016969507
1.905973016969507
1.905973016969507
1.905973016969507
1.905973016969507
1.905973016969507
1.905973016969507
1.905973016969507
1.905973016969507
1.905973016969507
1.905973016969507
1.905973016969507
1.905973016969507
1.905973016969507
1.905973016969507
1.905973016969507
1.905973016969507
1.905973016969507
1.905973016969507
1.905973016969507
1.905973016969507
1.905973016969507
1.905973016969507
1.905973016969507
1.905973016969507
1.905973016969507
1.905973016969507
1.905973016969507
1.905973016969507
1.905973016969507
1.905973016969507
1.905973016969507
1.905973016969507
1.905973016969507
1.905973016969507
1.905973016969507
1.905973016969507
1.905973016969507
1.905973016969507
1.905973016969507
1.905973016969507
1.905973016969507
1.905973016969507
1.905973016969507
1.9187947123323246
1.9187947123323246
1.9187947123323246
1.9187947123323246
1.9187947123323246
1.9187947123323246
1.9187947123323246
1.9187947123323246
1.9187947123323246
1.9187947123323246
1.9187947123323246
1.9187947123323246
1.9187947123323246
1.9187947123323246
1.9187947123323246
1.9187947123323246
1.9187947123323246
1.9187947123323246
1.9187947123323246
1.9187947123323246
1.9187947123323246
1.9187947123323246
1.9187947123323246
1.9187947123323246
1.9187947123323246
1.9187947123323246
1.9187947123323246
1.9187947123323246
1.9187947123323246
1.9187947123323246
1.9187947123323246
1.9187947123323246
1.9187947123323246
1.9187947123323246
1.9187947123323246
1.9187947123323246
1.9187947123323246
1.9187947123323246
1.9187947123323246
1.9187947123323246
1.9187947123323246
1.9187947123323246
1.9187947123323246
1.9187947123323246
1.9187947123323246
1.9187947123323246
1.9187947123323246
1.9187947123323246
1.9187947123323246
1.9187947123323246
1.9187947123323246
1.9187947123323246
1.9187947123323246
1.9187947123323246
1.9343165337333443
1.9343165337333443
1.9343165337333443
1.9343165337333443
1.9343165337333443
1.9343165337333443
1.9343165337333443
1.9343165337333443
1.9343165337333443
1.9343165337333443
1.9343165337333443
1.9343165337333443
1.9343165337333443
1.9343165337333443
1.9343165337333443
1.9343165337333443
1.9343165337333443
1.9343165337333443
1.9343165337333443
1.9343165337333443
1.9343165337333443
1.9343165337333443
1.9343165337333443
1.9343165337333443
1.9343165337333443
1.9343165337333443
1.9343165337333443
1.9343165337333443
1.9343165337333443
1.9343165337333443
1.9343165337333443
1.9343165337333443
1.9343165337333443
1.9343165337333443
1.9343165337333443
1.9343165337333443
1.9343165337333443
1.9343165337333443
1.9343165337333443
1.9343165337333443
1.9343165337333443
1.9343165337333443
1.9343165337333443
1.9343165337333443
1.9343165337333443
1.9343165337333443
1.9343165337333443
1.9343165337333443
1.9343165337333443
1.9343165337333443
1.9343165337333443
1.9343165337333443
1.9343165337333443
1.9343165337333443
1.9343165337333443
1.9343165337333443
1.9343165337333443
1.9343165337333443
1.9343165337333443
1.9343165337333443
1.9343165337333443
1.9343165337333443
1.9343165337333443
1.9343165337333443
1.9343165337333443
1.9343165337333443
1.9531895542909603
1.9531895542909603
1.9531895542909603
1.9531895542909603
1.9531895542909603
1.9531895542909603
1.9531895542909603
1.9531895542909603
1.9531895542909603
1.9531895542909603
1.9531895542909603
1.9531895542909603
1.9531895542909603
1.9531895542909603
1.9531895542909603
1.9531895542909603
1.9531895542909603
1.9531895542909603
1.9531895542909603
1.9531895542909603
1.9531895542909603
1.9531895542909603
1.9531895542909603
1.9531895542909603
1.9531895542909603
1.9531895542909603
1.9531895542909603
1.9531895542909603
1.9531895542909603
1.9531895542909603
1.9531895542909603
1.9531895542909603
1.9531895542909603
1.9531895542909603
1.9531895542909603
1.9531895542909603
1.9531895542909603
1.9531895542909603
1.9531895542909603
1.9531895542909603
1.9531895542909603
1.9531895542909603
1.9531895542909603
1.9531895542909603
1.9531895542909603
1.9531895542909603
1.9531895542909603
1.9531895542909603
1.9531895542909603
1.9531895542909603
1.9531895542909603
1.9531895542909603
1.9531895542909603
1.9531895542909603
1.9531895542909603
1.9531895542909603
1.9531895542909603
1.9531895542909603
1.9531895542909603
1.9531895542909603
1.9531895542909603
1.9531895542909603
1.9531895542909603
1.9531895542909603
1.9531895542909603
1.9531895542909603
1.9531895542909603
1.9531895542909603
1.9531895542909603
1.9531895542909603
1.9531895542909603
1.9531895542909603
1.9531895542909603
1.9531895542909603
1.9531895542909603
1.9531895542909603
1.9531895542909603
1.9531895542909603
1.9762135466823867
1.9762135466823867
1.9762135466823867
1.9762135466823867
1.9762135466823867
1.9762135466823867
1.9762135466823867
1.9762135466823867
1.9762135466823867
1.9762135466823867
1.9762135466823867
1.9762135466823867
1.9762135466823867
1.9762135466823867
1.9762135466823867
1.9762135466823867
1.9762135466823867
1.9762135466823867
1.9762135466823867
1.9762135466823867
1.9762135466823867
1.9762135466823867
1.9762135466823867
1.9762135466823867
1.9762135466823867
1.9762135466823867
1.9762135466823867
1.9762135466823867
1.9762135466823867
1.9762135466823867
1.9762135466823867
1.9762135466823867
1.9762135466823867
1.9762135466823867
1.9762135466823867
1.9762135466823867
1.9762135466823867
1.9762135466823867
1.9762135466823867
1.9762135466823867
1.9762135466823867
1.9762135466823867
1.9762135466823867
1.9762135466823867
1.9762135466823867
1.9762135466823867
1.9762135466823867
1.9762135466823867
1.9762135466823867
1.9762135466823867
1.9762135466823867
1.9762135466823867
1.9762135466823867
1.9762135466823867
1.9762135466823867
1.9762135466823867
1.9762135466823867
1.9762135466823867
1.9762135466823867
1.9762135466823867
1.9762135466823867
1.9762135466823867
1.9762135466823867
1.9762135466823867
1.9762135466823867
1.9762135466823867
1.9762135466823867
1.9762135466823867
1.9762135466823867
1.9762135466823867
1.9762135466823867
1.9762135466823867
1.9762135466823867
1.9762135466823867
1.9762135466823867
1.9762135466823867
1.9762135466823867
1.9762135466823867
1.9762135466823867
1.9762135466823867
1.9762135466823867
1.9762135466823867
1.9762135466823867
1.9762135466823867
1.9762135466823867
1.9762135466823867
1.9762135466823867
1.9762135466823867
1.9762135466823867
1.9762135466823867
1.9762135466823867
1.9762135466823867
1.9762135466823867
1.9762135466823867
1.9762135466823867
2.0044673334403016
2.0044673334403016
2.0044673334403016
2.0044673334403016
2.0044673334403016
2.0044673334403016
2.0044673334403016
2.0044673334403016
2.0044673334403016
2.0044673334403016
2.0044673334403016
2.0044673334403016
2.0044673334403016
2.0044673334403016
2.0044673334403016
2.0044673334403016
2.0044673334403016
2.0044673334403016
2.0044673334403016
2.0044673334403016
2.0044673334403016
2.0044673334403016
2.0044673334403016
2.0044673334403016
2.0044673334403016
2.0044673334403016
2.0044673334403016
2.0044673334403016
2.0044673334403016
2.0044673334403016
2.0044673334403016
2.0044673334403016
2.0044673334403016
2.0044673334403016
2.0044673334403016
2.0044673334403016
2.0044673334403016
2.0044673334403016
2.0044673334403016
2.0044673334403016
2.0044673334403016
2.0044673334403016
2.0044673334403016
2.0044673334403016
2.0044673334403016
2.0044673334403016
2.0044673334403016
2.0044673334403016
2.0044673334403016
2.0044673334403016
2.0044673334403016
2.0044673334403016
2.0044673334403016
2.0044673334403016
2.0044673334403016
2.0044673334403016
2.0044673334403016
2.0044673334403016
2.0044673334403016
2.0044673334403016
2.0044673334403016
2.0044673334403016
2.0044673334403016
2.0044673334403016
2.0044673334403016
2.0044673334403016
2.0044673334403016
2.0044673334403016
2.0044673334403016
2.0044673334403016
2.0044673334403016
2.0044673334403016
2.0044673334403016
2.0044673334403016
2.0044673334403016
2.0044673334403016
2.0044673334403016
2.0044673334403016
2.0044673334403016
2.0044673334403016
2.0044673334403016
2.0044673334403016
2.0044673334403016
2.0044673334403016
2.0044673334403016
2.0044673334403016
2.0044673334403016
2.0044673334403016
2.0044673334403016
2.0044673334403016
2.0044673334403016
2.0044673334403016
2.0044673334403016
2.0044673334403016
2.0044673334403016
2.0044673334403016
2.0044673334403016
2.0044673334403016
2.0044673334403016
2.0044673334403016
2.0044673334403016
2.0044673334403016
2.0044673334403016
2.0044673334403016
2.0044673334403016
2.0044673334403016
2.0044673334403016
2.0044673334403016
2.0044673334403016
2.0044673334403016
2.0044673334403016
2.0044673334403016
2.0044673334403016
2.03923197866925
2.03923197866925
2.03923197866925
2.03923197866925
2.03923197866925
2.03923197866925
2.03923197866925
2.03923197866925
2.03923197866925
2.03923197866925
2.03923197866925
2.03923197866925
2.03923197866925
2.03923197866925
2.03923197866925
2.03923197866925
2.03923197866925
2.03923197866925
2.03923197866925
2.03923197866925
2.03923197866925
2.03923197866925
2.03923197866925
2.03923197866925
2.03923197866925
2.03923197866925
2.03923197866925
2.03923197866925
2.03923197866925
2.03923197866925
2.03923197866925
2.03923197866925
2.03923197866925
2.03923197866925
2.03923197866925
2.03923197866925
2.03923197866925
2.03923197866925
2.03923197866925
2.03923197866925
2.03923197866925
2.03923197866925
2.03923197866925
2.03923197866925
2.03923197866925
2.03923197866925
2.03923197866925
2.03923197866925
2.03923197866925
2.03923197866925
2.03923197866925
2.03923197866925
2.03923197866925
2.03923197866925
2.03923197866925
2.03923197866925
2.03923197866925
2.03923197866925
2.03923197866925
2.03923197866925
2.03923197866925
2.03923197866925
2.03923197866925
2.03923197866925
2.03923197866925
2.03923197866925
2.03923197866925
2.03923197866925
2.03923197866925
2.03923197866925
2.03923197866925
2.03923197866925
2.03923197866925
2.03923197866925
2.03923197866925
2.03923197866925
2.03923197866925
2.03923197866925
2.03923197866925
2.03923197866925
2.03923197866925
2.03923197866925
2.03923197866925
2.03923197866925
2.03923197866925
2.03923197866925
2.03923197866925
2.03923197866925
2.03923197866925
2.03923197866925
2.03923197866925
2.03923197866925
2.03923197866925
2.03923197866925
2.03923197866925
2.03923197866925
2.03923197866925
2.03923197866925
2.03923197866925
2.03923197866925
2.03923197866925
2.03923197866925
2.03923197866925
2.03923197866925
2.03923197866925
2.03923197866925
2.03923197866925
2.03923197866925
2.03923197866925
2.03923197866925
2.03923197866925
2.03923197866925
2.03923197866925
2.03923197866925
2.03923197866925
2.03923197866925
2.03923197866925
2.03923197866925
2.03923197866925
2.03923197866925
2.03923197866925
2.03923197866925
2.03923197866925
2.03923197866925
2.03923197866925
2.03923197866925
2.03923197866925
2.03923197866925
2.03923197866925
2.03923197866925
2.03923197866925
2.03923197866925
2.03923197866925
2.03923197866925
2.03923197866925
2.03923197866925
2.075026392859091
2.075026392859091
2.075026392859091
2.075026392859091
2.075026392859091
2.075026392859091
2.075026392859091
2.075026392859091
2.075026392859091
2.075026392859091
2.075026392859091
2.075026392859091
2.075026392859091
2.075026392859091
2.075026392859091
2.075026392859091
2.075026392859091
2.075026392859091
2.075026392859091
2.075026392859091
2.075026392859091
2.075026392859091
2.075026392859091
2.075026392859091
2.075026392859091
2.075026392859091
2.075026392859091
2.075026392859091
2.075026392859091
2.075026392859091
2.075026392859091
2.075026392859091
2.075026392859091
2.075026392859091
2.075026392859091
2.075026392859091
2.075026392859091
2.075026392859091
2.075026392859091
2.075026392859091
2.075026392859091
2.075026392859091
2.075026392859091
2.075026392859091
2.075026392859091
2.075026392859091
2.075026392859091
2.075026392859091
2.075026392859091
2.075026392859091
2.075026392859091
2.075026392859091
2.075026392859091
2.075026392859091
2.075026392859091
2.075026392859091
2.075026392859091
2.075026392859091
2.075026392859091
2.075026392859091
2.075026392859091
2.075026392859091
2.075026392859091
2.075026392859091
2.075026392859091
2.075026392859091
2.075026392859091
2.075026392859091
2.075026392859091
2.075026392859091
2.075026392859091
2.075026392859091
2.075026392859091
2.075026392859091
2.075026392859091
2.075026392859091
2.075026392859091
2.075026392859091
2.075026392859091
2.075026392859091
2.075026392859091
2.075026392859091
2.075026392859091
2.075026392859091
2.075026392859091
2.075026392859091
2.075026392859091
2.075026392859091
2.075026392859091
2.075026392859091
2.075026392859091
2.075026392859091
2.075026392859091
2.075026392859091
2.075026392859091
2.075026392859091
2.075026392859091
2.075026392859091
2.075026392859091
2.075026392859091
2.075026392859091
2.075026392859091
2.075026392859091
2.075026392859091
2.075026392859091
2.075026392859091
2.075026392859091
2.075026392859091
2.075026392859091
2.075026392859091
2.075026392859091
2.075026392859091
2.075026392859091
2.075026392859091
2.075026392859091
2.075026392859091
2.075026392859091
2.075026392859091
2.075026392859091
2.075026392859091
2.075026392859091
2.075026392859091
2.075026392859091
2.075026392859091
2.075026392859091
2.075026392859091
2.075026392859091
2.075026392859091
2.075026392859091
2.075026392859091
2.075026392859091
2.075026392859091
2.075026392859091
2.075026392859091
2.075026392859091
2.075026392859091
2.075026392859091
2.1100127520353915
2.1100127520353915
2.1100127520353915
2.1100127520353915
2.1100127520353915
2.1100127520353915
2.1100127520353915
2.1100127520353915
2.1100127520353915
2.1100127520353915
2.1100127520353915
2.1100127520353915
2.1100127520353915
2.1100127520353915
2.1100127520353915
2.1100127520353915
2.1100127520353915
2.1100127520353915
2.1100127520353915
2.1100127520353915
2.1100127520353915
2.1100127520353915
2.1100127520353915
2.1100127520353915
2.1100127520353915
2.1100127520353915
2.1100127520353915
2.1100127520353915
2.1100127520353915
2.1100127520353915
2.1100127520353915
2.1100127520353915
2.1100127520353915
2.1100127520353915
2.1100127520353915
2.1100127520353915
2.1100127520353915
2.1100127520353915
2.1100127520353915
2.1100127520353915
2.1100127520353915
2.1100127520353915
2.1100127520353915
2.1100127520353915
2.1100127520353915
2.1100127520353915
2.1100127520353915
2.1100127520353915
2.1100127520353915
2.1100127520353915
2.1100127520353915
2.1100127520353915
2.1100127520353915
2.1100127520353915
2.1100127520353915
2.1100127520353915
2.1100127520353915
2.1100127520353915
2.1100127520353915
2.1100127520353915
2.1100127520353915
2.1100127520353915
2.1100127520353915
2.1100127520353915
2.1100127520353915
2.1100127520353915
2.1100127520353915
2.1100127520353915
2.1100127520353915
2.1100127520353915
2.1100127520353915
2.1100127520353915
2.1100127520353915
2.1100127520353915
2.1100127520353915
2.1100127520353915
2.1100127520353915
2.1100127520353915
2.1100127520353915
2.1100127520353915
2.1100127520353915
2.1100127520353915
2.1100127520353915
2.1100127520353915
2.1100127520353915
2.1100127520353915
2.1100127520353915
2.1100127520353915
2.1100127520353915
2.1100127520353915
2.1100127520353915
2.1100127520353915
2.1100127520353915
2.1100127520353915
2.1100127520353915
2.1100127520353915
2.1100127520353915
2.1100127520353915
2.1100127520353915
2.1100127520353915
2.1100127520353915
2.1100127520353915
2.1100127520353915
2.1100127520353915
2.1100127520353915
2.1100127520353915
2.1100127520353915
2.1100127520353915
2.1100127520353915
2.1100127520353915
2.1100127520353915
2.1100127520353915
2.1100127520353915
2.1100127520353915
2.1100127520353915
2.1100127520353915
2.1100127520353915
2.1100127520353915
2.1100127520353915
2.1100127520353915
2.1100127520353915
2.1100127520353915
2.1100127520353915
2.1100127520353915
2.1100127520353915
2.1100127520353915
2.1100127520353915
2.1100127520353915
2.1100127520353915
2.1100127520353915
2.1100127520353915
2.144987348571029
2.144987348571029
2.144987348571029
2.144987348571029
2.144987348571029
2.144987348571029
2.144987348571029
2.144987348571029
2.144987348571029
2.144987348571029
2.144987348571029
2.144987348571029
2.144987348571029
2.144987348571029
2.144987348571029
2.144987348571029
2.144987348571029
2.144987348571029
2.144987348571029
2.144987348571029
2.144987348571029
2.144987348571029
2.144987348571029
2.144987348571029
2.144987348571029
2.144987348571029
2.144987348571029
2.144987348571029
2.144987348571029
2.144987348571029
2.144987348571029
2.144987348571029
2.144987348571029
2.144987348571029
2.144987348571029
2.144987348571029
2.144987348571029
2.144987348571029
2.144987348571029
2.144987348571029
2.144987348571029
2.144987348571029
2.144987348571029
2.144987348571029
2.144987348571029
2.144987348571029
2.144987348571029
2.144987348571029
2.144987348571029
2.144987348571029
2.144987348571029
2.144987348571029
2.144987348571029
2.144987348571029
2.144987348571029
2.144987348571029
2.144987348571029
2.144987348571029
2.144987348571029
2.144987348571029
2.144987348571029
2.144987348571029
2.144987348571029
2.144987348571029
2.144987348571029
2.144987348571029
2.144987348571029
2.144987348571029
2.144987348571029
2.144987348571029
2.144987348571029
2.144987348571029
2.144987348571029
2.144987348571029
2.144987348571029
2.144987348571029
2.144987348571029
2.144987348571029
2.144987348571029
2.144987348571029
2.144987348571029
2.144987348571029
2.144987348571029
2.144987348571029
2.144987348571029
2.144987348571029
2.144987348571029
2.144987348571029
2.144987348571029
2.144987348571029
2.144987348571029
2.144987348571029
2.144987348571029
2.144987348571029
2.144987348571029
2.144987348571029
2.144987348571029
2.144987348571029
2.144987348571029
2.144987348571029
2.144987348571029
2.144987348571029
2.144987348571029
2.144987348571029
2.144987348571029
2.144987348571029
2.144987348571029
2.144987348571029
2.144987348571029
2.144987348571029
2.144987348571029
2.144987348571029
2.144987348571029
2.144987348571029
2.144987348571029
2.144987348571029
2.144987348571029
2.144987348571029
2.144987348571029
2.144987348571029
2.144987348571029
2.144987348571029
2.144987348571029
2.144987348571029
2.144987348571029
2.144987348571029
2.144987348571029
2.144987348571029
2.162489238991033
2.162489238991033
2.162489238991033
2.162489238991033
2.162489238991033
2.162489238991033
2.162489238991033
2.162489238991033
2.162489238991033
2.162489238991033
2.162489238991033
2.162489238991033
2.162489238991033
2.162489238991033
2.162489238991033
2.162489238991033
2.162489238991033
2.162489238991033
2.162489238991033
2.162489238991033
2.162489238991033
2.162489238991033
2.162489238991033
2.162489238991033
2.162489238991033
2.162489238991033
2.162489238991033
2.162489238991033
2.162489238991033
2.162489238991033
2.162489238991033
2.162489238991033
2.162489238991033
2.162489238991033
2.162489238991033
2.162489238991033
2.162489238991033
2.162489238991033
2.162489238991033
2.162489238991033
2.162489238991033
2.162489238991033
2.162489238991033
2.162489238991033
2.162489238991033
2.162489238991033
2.162489238991033
2.162489238991033
2.162489238991033
2.162489238991033
2.162489238991033
2.162489238991033
2.162489238991033
2.162489238991033
2.162489238991033
2.162489238991033
2.162489238991033
2.162489238991033
2.162489238991033
2.162489238991033
2.162489238991033
2.162489238991033
2.162489238991033
2.162489238991033
2.1800556855125697
2.1800556855125697
2.1800556855125697
2.1800556855125697
2.1800556855125697
2.1800556855125697
2.1800556855125697
2.1800556855125697
2.1800556855125697
2.1800556855125697
2.1800556855125697
2.1800556855125697
2.1800556855125697
2.1800556855125697
2.1800556855125697
2.1800556855125697
2.1800556855125697
2.1800556855125697
2.1800556855125697
2.1800556855125697
2.1800556855125697
2.1800556855125697
2.1800556855125697
2.1800556855125697
2.1800556855125697
2.1800556855125697
2.1800556855125697
2.1800556855125697
2.1800556855125697
2.1800556855125697
2.1800556855125697
2.1800556855125697
2.1800556855125697
2.1800556855125697
2.1800556855125697
2.1800556855125697
2.1800556855125697
2.1800556855125697
2.1800556855125697
2.1800556855125697
2.1800556855125697
2.1800556855125697
2.1800556855125697
2.1800556855125697
2.1800556855125697
2.1800556855125697
2.1800556855125697
2.1800556855125697
2.1800556855125697
2.1800556855125697
2.1800556855125697
2.1800556855125697
2.1800556855125697
2.1800556855125697
2.1800556855125697
2.1800556855125697
2.1800556855125697
2.1800556855125697
2.1800556855125697
2.1800556855125697
2.1800556855125697
2.1800556855125697
2.1800556855125697
2.1977596011858624
2.1977596011858624
2.1977596011858624
2.1977596011858624
2.1977596011858624
2.1977596011858624
2.1977596011858624
2.1977596011858624
2.1977596011858624
2.1977596011858624
2.1977596011858624
2.1977596011858624
2.1977596011858624
2.1977596011858624
2.1977596011858624
2.1977596011858624
2.1977596011858624
2.1977596011858624
2.1977596011858624
2.1977596011858624
2.1977596011858624
2.1977596011858624
2.1977596011858624
2.1977596011858624
2.1977596011858624
2.1977596011858624
2.1977596011858624
2.1977596011858624
2.1977596011858624
2.1977596011858624
2.1977596011858624
2.1977596011858624
2.1977596011858624
2.1977596011858624
2.1977596011858624
2.1977596011858624
2.1977596011858624
2.1977596011858624
2.1977596011858624
2.1977596011858624
2.1977596011858624
2.1977596011858624
2.1977596011858624
2.1977596011858624
2.1977596011858624
2.1977596011858624
2.1977596011858624
2.1977596011858624
2.1977596011858624
2.1977596011858624
2.1977596011858624
2.1977596011858624
2.1977596011858624
2.1977596011858624
2.1977596011858624
2.1977596011858624
2.1977596011858624
2.1977596011858624
2.1977596011858624
2.1977596011858624
2.1977596011858624
2.1977596011858624
2.1977596011858624
2.1977596011858624
2.206648539020856
2.206648539020856
2.206648539020856
2.206648539020856
2.206648539020856
2.206648539020856
2.206648539020856
2.206648539020856
2.206648539020856
2.206648539020856
2.206648539020856
2.206648539020856
2.206648539020856
2.206648539020856
2.206648539020856
2.206648539020856
2.206648539020856
2.206648539020856
2.206648539020856
2.206648539020856
2.206648539020856
2.206648539020856
2.206648539020856
2.206648539020856
2.206648539020856
2.206648539020856
2.206648539020856
2.206648539020856
2.206648539020856
2.206648539020856
2.206648539020856
2.206648539020856
2.2155470639311856
2.2155470639311856
2.2155470639311856
2.2155470639311856
2.2155470639311856
2.2155470639311856
2.2155470639311856
2.2155470639311856
2.2155470639311856
2.2155470639311856
2.2155470639311856
2.2155470639311856
2.2155470639311856
2.2155470639311856
2.2155470639311856
2.2155470639311856
2.2155470639311856
2.2155470639311856
2.2155470639311856
2.2155470639311856
2.2155470639311856
2.2155470639311856
2.2155470639311856
2.2155470639311856
2.2155470639311856
2.2155470639311856
2.2155470639311856
2.2155470639311856
2.2155470639311856
2.2155470639311856
2.2155470639311856
2.2155470639311856
2.224463115629228
2.224463115629228
2.224463115629228
2.224463115629228
2.224463115629228
2.224463115629228
2.224463115629228
2.224463115629228
2.224463115629228
2.224463115629228
2.224463115629228
2.224463115629228
2.224463115629228
2.224463115629228
2.224463115629228
2.224463115629228
2.224463115629228
2.224463115629228
2.224463115629228
2.224463115629228
2.224463115629228
2.224463115629228
2.224463115629228
2.224463115629228
2.224463115629228
2.224463115629228
2.224463115629228
2.224463115629228
2.224463115629228
2.224463115629228
2.224463115629228
2.224463115629228
2.233363612322414
2.233363612322414
2.233363612322414
2.233363612322414
2.233363612322414
2.233363612322414
2.233363612322414
2.233363612322414
2.233363612322414
2.233363612322414
2.233363612322414
2.233363612322414
2.233363612322414
2.233363612322414
2.233363612322414
2.233363612322414
2.233363612322414
2.233363612322414
2.233363612322414
2.233363612322414
2.233363612322414
2.233363612322414
2.233363612322414
2.233363612322414
2.233363612322414
2.233363612322414
2.233363612322414
2.233363612322414
2.233363612322414
2.233363612322414
2.233363612322414
2.233363612322414
2.2423008522985377
2.2423008522985377
2.2423008522985377
2.2423008522985377
2.2423008522985377
2.2423008522985377
2.2423008522985377
2.2423008522985377
2.2423008522985377
2.2423008522985377
2.2423008522985377
2.2423008522985377
2.2423008522985377
2.2423008522985377
2.2423008522985377
2.2423008522985377
2.2423008522985377
2.2423008522985377
2.2423008522985377
2.2423008522985377
2.2423008522985377
2.2423008522985377
2.2423008522985377
2.2423008522985377
2.2423008522985377
2.2423008522985377
2.2423008522985377
2.2423008522985377
2.2423008522985377
2.2423008522985377
2.2423008522985377
2.2530789599788412
2.2530789599788412
2.2530789599788412
2.2530789599788412
2.2530789599788412
2.2530789599788412
2.2530789599788412
2.2530789599788412
2.2530789599788412
2.2530789599788412
2.2530789599788412
2.2530789599788412
2.2530789599788412
2.2530789599788412
2.2530789599788412
2.2530789599788412
2.2530789599788412
2.2530789599788412
2.2530789599788412
2.2530789599788412
2.2530789599788412
2.2530789599788412
2.2530789599788412
2.2530789599788412
2.2530789599788412
2.2530789599788412
2.2530789599788412
2.2530789599788412
2.2530789599788412
2.2530789599788412
2.2530789599788412
2.2530789599788412
2.2530789599788412
2.2530789599788412
2.2530789599788412
2.2530789599788412
2.2530789599788412
2.2530789599788412
2.2530789599788412
2.260851955906593
2.260851955906593
2.260851955906593
2.260851955906593
2.260851955906593
2.260851955906593
2.260851955906593
2.260851955906593
2.260851955906593
2.260851955906593
2.260851955906593
2.260851955906593
2.260851955906593
2.260851955906593
2.260851955906593
2.260851955906593
2.260851955906593
2.260851955906593
2.260851955906593
2.260851955906593
2.260851955906593
2.260851955906593
2.260851955906593
2.260851955906593
2.260851955906593
2.260851955906593
2.260851955906593
2.268638573045093
2.268638573045093
2.268638573045093
2.268638573045093
2.268638573045093
2.268638573045093
2.268638573045093
2.268638573045093
2.268638573045093
2.268638573045093
2.268638573045093
2.268638573045093
2.268638573045093
2.268638573045093
2.268638573045093
2.268638573045093
2.268638573045093
2.268638573045093
2.268638573045093
2.268638573045093
2.268638573045093
2.268638573045093
2.268638573045093
2.268638573045093
2.268638573045093
2.268638573045093
2.268638573045093
2.268638573045093
2.2764046810917717
2.2764046810917717
2.2764046810917717
2.2764046810917717
2.2764046810917717
2.2764046810917717
2.2764046810917717
2.2764046810917717
2.2764046810917717
2.2764046810917717
2.2764046810917717
2.2764046810917717
2.2764046810917717
2.2764046810917717
2.2764046810917717
2.2764046810917717
2.2764046810917717
2.2764046810917717
2.2764046810917717
2.2764046810917717
2.2764046810917717
2.2764046810917717
2.2764046810917717
2.2764046810917717
2.2764046810917717
2.2764046810917717
2.2764046810917717
2.2841796024570593
2.2841796024570593
2.2841796024570593
2.2841796024570593
2.2841796024570593
2.2841796024570593
2.2841796024570593
2.2841796024570593
2.2841796024570593
2.2841796024570593
2.2841796024570593
2.2841796024570593
2.2841796024570593
2.2841796024570593
2.2841796024570593
2.2841796024570593
2.2841796024570593
2.2841796024570593
2.2841796024570593
2.2841796024570593
2.2841796024570593
2.2841796024570593
2.2841796024570593
2.2841796024570593
2.2841796024570593
2.2841796024570593
2.2841796024570593
2.2841796024570593
2.291986129147456
2.291986129147456
2.291986129147456
2.291986129147456
2.291986129147456
2.291986129147456
2.291986129147456
2.291986129147456
2.291986129147456
2.291986129147456
2.291986129147456
2.291986129147456
2.291986129147456
2.291986129147456
2.291986129147456
2.291986129147456
2.291986129147456
2.291986129147456
2.291986129147456
2.291986129147456
2.291986129147456
2.291986129147456
2.291986129147456
2.291986129147456
2.291986129147456
2.291986129147456
2.291986129147456
2.297610942929717
2.297610942929717
2.297610942929717
2.297610942929717
2.297610942929717
2.297610942929717
2.297610942929717
2.297610942929717
2.297610942929717
2.297610942929717
2.297610942929717
2.297610942929717
2.297610942929717
2.297610942929717
2.297610942929717
2.297610942929717
2.297610942929717
2.297610942929717
2.297610942929717
2.297610942929717
2.3032398660455455
2.3032398660455455
2.3032398660455455
2.3032398660455455
2.3032398660455455
2.3032398660455455
2.3032398660455455
2.3032398660455455
2.3032398660455455
2.3032398660455455
2.3032398660455455
2.3032398660455455
2.3032398660455455
2.3032398660455455
2.3032398660455455
2.3032398660455455
2.3032398660455455
2.3032398660455455
2.3032398660455455
2.3032398660455455
2.3088805539279966
2.3088805539279966
2.3088805539279966
2.3088805539279966
2.3088805539279966
2.3088805539279966
2.3088805539279966
2.3088805539279966
2.3088805539279966
2.3088805539279966
2.3088805539279966
2.3088805539279966
2.3088805539279966
2.3088805539279966
2.3088805539279966
2.3088805539279966
2.3088805539279966
2.3088805539279966
2.3088805539279966
2.3088805539279966
2.3144743014647085
2.3144743014647085
2.3144743014647085
2.3144743014647085
2.3144743014647085
2.3144743014647085
2.3144743014647085
2.3144743014647085
2.3144743014647085
2.3144743014647085
2.3144743014647085
2.3144743014647085
2.3144743014647085
2.3144743014647085
2.3144743014647085
2.3144743014647085
2.3144743014647085
2.3144743014647085
2.3144743014647085
2.3200930440175274
2.3200930440175274
2.3200930440175274
2.3200930440175274
2.3200930440175274
2.3200930440175274
2.3200930440175274
2.3200930440175274
2.3200930440175274
2.3200930440175274
2.3200930440175274
2.3200930440175274
2.3200930440175274
2.3200930440175274
2.3200930440175274
2.3200930440175274
2.3200930440175274
2.3200930440175274
2.3200930440175274
2.3200930440175274
2.32686489214533
2.32686489214533
2.32686489214533
2.32686489214533
2.32686489214533
2.32686489214533
2.32686489214533
2.32686489214533
2.32686489214533
2.32686489214533
2.32686489214533
2.32686489214533
2.32686489214533
2.32686489214533
2.32686489214533
2.32686489214533
2.32686489214533
2.32686489214533
2.32686489214533
2.32686489214533
2.32686489214533
2.32686489214533
2.32686489214533
2.32686489214533
2.331734969734724
2.331734969734724
2.331734969734724
2.331734969734724
2.331734969734724
2.331734969734724
2.331734969734724
2.331734969734724
2.331734969734724
2.331734969734724
2.331734969734724
2.331734969734724
2.331734969734724
2.331734969734724
2.331734969734724
2.331734969734724
2.331734969734724
2.334164609393339
2.334164609393339
2.334164609393339
2.334164609393339
2.334164609393339
2.334164609393339
2.334164609393339
2.334164609393339
2.334164609393339
2.3366067717838597
2.3366067717838597
2.3366067717838597
2.3366067717838597
2.3366067717838597
2.3366067717838597
2.3366067717838597
2.3366067717838597
2.3391359358345305
2.3391359358345305
2.3391359358345305
2.3391359358345305
2.3391359358345305
2.3391359358345305
2.3391359358345305
2.3391359358345305
2.3391359358345305
2.341511785218476
2.341511785218476
2.341511785218476
2.341511785218476
2.341511785218476
2.341511785218476
2.341511785218476
2.341511785218476
2.3439143074102726
2.3439143074102726
2.3439143074102726
2.3439143074102726
2.3439143074102726
2.3439143074102726
2.3439143074102726
2.3439143074102726
2.3439143074102726
2.346833024746486
2.346833024746486
2.346833024746486
2.346833024746486
2.346833024746486
2.346833024746486
2.346833024746486
2.346833024746486
2.346833024746486
2.346833024746486
2.3503394543658205
2.3503394543658205
2.3503394543658205
2.3503394543658205
2.3503394543658205
2.3503394543658205
2.3503394543658205
2.3503394543658205
2.3503394543658205
2.3503394543658205
2.3503394543658205
2.3503394543658205
2.3503394543658205
2.3545449507594842
2.3545449507594842
2.3545449507594842
2.3545449507594842
2.3545449507594842
2.3545449507594842
2.3545449507594842
2.3545449507594842
2.3545449507594842
2.3545449507594842
2.3545449507594842
2.3545449507594842
2.3545449507594842
2.3545449507594842
2.3595894515207263
2.3595894515207263
2.3595894515207263
2.3595894515207263
2.3595894515207263
2.3595894515207263
2.3595894515207263
2.3595894515207263
2.3595894515207263
2.3595894515207263
2.3595894515207263
2.3595894515207263
2.3595894515207263
2.3595894515207263
2.3595894515207263
2.3595894515207263
2.3595894515207263
2.3595894515207263
2.363219453506883
2.363219453506883
2.363219453506883
2.363219453506883
2.363219453506883
2.363219453506883
2.363219453506883
2.363219453506883
2.363219453506883
2.363219453506883
2.363219453506883
2.363219453506883
2.363219453506883
2.3650304516660556
2.3650304516660556
2.3650304516660556
2.3650304516660556
2.3650304516660556
2.3650304516660556
2.3640575299168187
2.3640575299168187
2.3640575299168187
2.3640575299168187
2.3640575299168187
