0.01643532664809636
0.016151684771551773
0.01615167473008518
0.016151662457190043
0.016151647580966013
0.016151639027143404
0.01615162898570524
0.016151618200463805
0.016151606299516102
0.016151606299516102
0.016151593282864578
0.016151593282864578
0.01615158026622355
0.01615158026622355
0.0161515676214966
0.0161515676214966
0.0161515676214966
0.01615155609248948
0.01615155609248948
0.01615155609248948
0.01615154567919979
0.01615154567919979
0.01615154567919979
0.01615154567919979
0.016151539356848613
0.016151539356848613
0.016151539356848613
0.016151539356848613
0.016151539356848613
0.01615154084446043
0.01615154084446043
0.01615154084446043
0.01615154084446043
0.01615154084446043
0.01615154084446043
0.016151549770134225
0.016151549770134225
0.016151549770134225
0.016151549770134225
0.016151549770134225
0.016151549770134225
0.016151549770134225
0.0161515676214966
0.0161515676214966
0.0161515676214966
0.0161515676214966
0.0161515676214966
0.0161515676214966
0.0161515676214966
0.0161515676214966
0.016151599605236867
0.016151599605236867
0.016151599605236867
0.016151599605236867
0.016151599605236867
0.016151599605236867
0.016151599605236867
0.016151599605236867
0.016151599605236867
0.016151599605236867
0.016151646093344366
0.016151646093344366
0.016151646093344366
0.016151646093344366
0.016151646093344366
0.016151646093344366
0.016151646093344366
0.016151646093344366
0.016151646093344366
0.016151646093344366
0.016151646093344366
0.016151646093344366
0.016151708573571608
0.016151708573571608
0.016151708573571608
0.016151708573571608
0.016151708573571608
0.016151708573571608
0.016151708573571608
0.016151708573571608
0.016151708573571608
0.016151708573571608
0.016151708573571608
0.016151708573571608
0.016151708573571608
0.016151708573571608
0.01615179745954948
0.01615179745954948
0.01615179745954948
0.01615179745954948
0.01615179745954948
0.01615179745954948
0.01615179745954948
0.01615179745954948
0.01615179745954948
0.01615179745954948
0.01615179745954948
0.01615179745954948
0.01615179745954948
0.01615179745954948
0.01615179745954948
0.01615179745954948
0.01615179745954948
0.016151915355094887
0.016151915355094887
0.016151915355094887
0.016151915355094887
0.016151915355094887
0.016151915355094887
0.016151915355094887
0.016151915355094887
0.016151915355094887
0.016151915355094887
0.016151915355094887
0.016151915355094887
0.016151915355094887
0.016151915355094887
0.016151915355094887
0.016151915355094887
0.016151915355094887
0.016151915355094887
0.016151915355094887
0.016151915355094887
0.016152053706800836
0.016152053706800836
0.016152053706800836
0.016152053706800836
0.016152053706800836
0.016152053706800836
0.016152053706800836
0.016152053706800836
0.016152053706800836
0.016152053706800836
0.016152053706800836
0.016152053706800836
0.016152053706800836
0.016152053706800836
0.016152053706800836
0.016152053706800836
0.016152053706800836
0.016152053706800836
0.016152053706800836
0.016152053706800836
0.016152053706800836
0.016152053706800836
0.016152053706800836
0.016152053706800836
0.016152053706800836
0.016152219953563432
0.016152219953563432
0.016152219953563432
0.016152219953563432
0.016152219953563432
0.016152219953563432
0.016152219953563432
0.016152219953563432
0.016152219953563432
0.016152219953563432
0.016152219953563432
0.016152219953563432
0.016152219953563432
0.016152219953563432
0.016152219953563432
0.016152219953563432
0.016152219953563432
0.016152219953563432
0.016152219953563432
0.016152219953563432
0.016152219953563432
0.016152219953563432
0.016152219953563432
0.016152219953563432
0.016152219953563432
0.016152219953563432
0.016152219953563432
0.016152219953563432
0.016152219953563432
0.016152219953563432
0.016152425625863564
0.016152425625863564
0.016152425625863564
0.016152425625863564
0.016152425625863564
0.016152425625863564
0.016152425625863564
0.016152425625863564
0.016152425625863564
0.016152425625863564
0.016152425625863564
0.016152425625863564
0.016152425625863564
0.016152425625863564
0.016152425625863564
0.016152425625863564
0.016152425625863564
0.016152425625863564
0.016152425625863564
0.016152425625863564
0.016152425625863564
0.016152425625863564
0.016152425625863564
0.016152425625863564
0.016152425625863564
0.016152425625863564
0.016152425625863564
0.016152425625863564
0.016152425625863564
0.016152425625863564
0.016152425625863564
0.016152425625863564
0.016152425625863564
0.016152425625863564
0.016152425625863564
0.01615267146906522
0.01615267146906522
0.01615267146906522
0.01615267146906522
0.01615267146906522
0.01615267146906522
0.01615267146906522
0.01615267146906522
0.01615267146906522
0.01615267146906522
0.01615267146906522
0.01615267146906522
0.01615267146906522
0.01615267146906522
0.01615267146906522
0.01615267146906522
0.01615267146906522
0.01615267146906522
0.01615267146906522
0.01615267146906522
0.01615267146906522
0.01615267146906522
0.01615267146906522
0.01615267146906522
0.01615267146906522
0.01615267146906522
0.01615267146906522
0.01615267146906522
0.01615267146906522
0.01615267146906522
0.01615267146906522
0.01615267146906522
0.01615267146906522
0.01615267146906522
0.01615267146906522
0.01615267146906522
0.01615267146906522
0.01615267146906522
0.01615267146906522
0.01615267146906522
0.01615267146906522
0.01615267146906522
0.016152974594048818
0.016152974594048818
0.016152974594048818
0.016152974594048818
0.016152974594048818
0.016152974594048818
0.016152974594048818
0.016152974594048818
0.016152974594048818
0.016152974594048818
0.016152974594048818
0.016152974594048818
0.016152974594048818
0.016152974594048818
0.016152974594048818
0.016152974594048818
0.016152974594048818
0.016152974594048818
0.016152974594048818
0.016152974594048818
0.016152974594048818
0.016152974594048818
0.016152974594048818
0.016152974594048818
0.016152974594048818
0.016152974594048818
0.016152974594048818
0.016152974594048818
0.016152974594048818
0.016152974594048818
0.016152974594048818
0.016152974594048818
0.016152974594048818
0.016152974594048818
0.016152974594048818
0.016152974594048818
0.016152974594048818
0.016152974594048818
0.016152974594048818
0.016152974594048818
0.016152974594048818
0.016152974594048818
0.016152974594048818
0.016152974594048818
0.016152974594048818
0.016152974594048818
0.016152974594048818
0.016152974594048818
0.016152974594048818
0.016152974594048818
0.016152974594048818
0.016152974594048818
0.0161533398393155
0.0161533398393155
0.0161533398393155
0.0161533398393155
0.0161533398393155
0.0161533398393155
0.0161533398393155
0.0161533398393155
0.0161533398393155
0.0161533398393155
0.0161533398393155
0.0161533398393155
0.0161533398393155
0.0161533398393155
0.0161533398393155
0.0161533398393155
0.0161533398393155
0.0161533398393155
0.0161533398393155
0.0161533398393155
0.0161533398393155
0.0161533398393155
0.0161533398393155
0.0161533398393155
0.0161533398393155
0.0161533398393155
0.0161533398393155
0.0161533398393155
0.0161533398393155
0.0161533398393155
0.0161533398393155
0.0161533398393155
0.0161533398393155
0.0161533398393155
0.0161533398393155
0.0161533398393155
0.0161533398393155
0.0161533398393155
0.0161533398393155
0.0161533398393155
0.0161533398393155
0.0161533398393155
0.0161533398393155
0.0161533398393155
0.0161533398393155
0.0161533398393155
0.0161533398393155
0.0161533398393155
0.0161533398393155
0.0161533398393155
0.0161533398393155
0.0161533398393155
0.0161533398393155
0.0161533398393155
0.0161533398393155
0.0161533398393155
0.0161533398393155
0.0161533398393155
0.0161533398393155
0.0161533398393155
0.0161533398393155
0.016153772788393417
0.016153772788393417
0.016153772788393417
0.016153772788393417
0.016153772788393417
0.016153772788393417
0.016153772788393417
0.016153772788393417
0.016153772788393417
0.016153772788393417
0.016153772788393417
0.016153772788393417
0.016153772788393417
0.016153772788393417
0.016153772788393417
0.016153772788393417
0.016153772788393417
0.016153772788393417
0.016153772788393417
0.016153772788393417
0.016153772788393417
0.016153772788393417
0.016153772788393417
0.016153772788393417
0.016153772788393417
0.016153772788393417
0.016153772788393417
0.016153772788393417
0.016153772788393417
0.016153772788393417
0.016153772788393417
0.016153772788393417
0.016153772788393417
0.016153772788393417
0.016153772788393417
0.016153772788393417
0.016153772788393417
0.016153772788393417
0.016153772788393417
0.016153772788393417
0.016153772788393417
0.016153772788393417
0.016153772788393417
0.016153772788393417
0.016153772788393417
0.016153772788393417
0.016153772788393417
0.016153772788393417
0.016153772788393417
0.016153772788393417
0.016153772788393417
0.016153772788393417
0.016153772788393417
0.016153772788393417
0.016153772788393417
0.016153772788393417
0.016153772788393417
0.016153772788393417
0.016153772788393417
0.016153772788393417
0.016153772788393417
0.016153772788393417
0.016153772788393417
0.016153772788393417
0.016153772788393417
0.016153772788393417
0.016153772788393417
0.016153772788393417
0.016153772788393417
0.016153772788393417
0.016153772788393417
0.016153772788393417
0.016153772788393417
0.016154292788963947
0.016154292788963947
0.016154292788963947
0.016154292788963947
0.016154292788963947
0.016154292788963947
0.016154292788963947
0.016154292788963947
0.016154292788963947
0.016154292788963947
0.016154292788963947
0.016154292788963947
0.016154292788963947
0.016154292788963947
0.016154292788963947
0.016154292788963947
0.016154292788963947
0.016154292788963947
0.016154292788963947
0.016154292788963947
0.016154292788963947
0.016154292788963947
0.016154292788963947
0.016154292788963947
0.016154292788963947
0.016154292788963947
0.016154292788963947
0.016154292788963947
0.016154292788963947
0.016154292788963947
0.016154292788963947
0.016154292788963947
0.016154292788963947
0.016154292788963947
0.016154292788963947
0.016154292788963947
0.016154292788963947
0.016154292788963947
0.016154292788963947
0.016154292788963947
0.016154292788963947
0.016154292788963947
0.016154292788963947
0.016154292788963947
0.016154292788963947
0.016154292788963947
0.016154292788963947
0.016154292788963947
0.016154292788963947
0.016154292788963947
0.016154292788963947
0.016154292788963947
0.016154292788963947
0.016154292788963947
0.016154292788963947
0.016154292788963947
0.016154292788963947
0.016154292788963947
0.016154292788963947
0.016154292788963947
0.016154292788963947
0.016154292788963947
0.016154292788963947
0.016154292788963947
0.016154292788963947
0.016154292788963947
0.016154292788963947
0.016154292788963947
0.016154292788963947
0.016154292788963947
0.016154292788963947
0.016154292788963947
0.016154292788963947
0.016154292788963947
0.016154292788963947
0.016154292788963947
0.016154292788963947
0.016154292788963947
0.016154292788963947
0.016154292788963947
0.016154292788963947
0.016154292788963947
0.016154292788963947
0.016154292788963947
0.016154292788963947
0.016154292788963947
0.016154292788963947
0.016154292788963947
0.016154915844594508
0.016154915844594508
0.016154915844594508
0.016154915844594508
0.016154915844594508
0.016154915844594508
0.016154915844594508
0.016154915844594508
0.016154915844594508
0.016154915844594508
0.016154915844594508
0.016154915844594508
0.016154915844594508
0.016154915844594508
0.016154915844594508
0.016154915844594508
0.016154915844594508
0.016154915844594508
0.016154915844594508
0.016154915844594508
0.016154915844594508
0.016154915844594508
0.016154915844594508
0.016154915844594508
0.016154915844594508
0.016154915844594508
0.016154915844594508
0.016154915844594508
0.016154915844594508
0.016154915844594508
0.016154915844594508
0.016154915844594508
0.016154915844594508
0.016154915844594508
0.016154915844594508
0.016154915844594508
0.016154915844594508
0.016154915844594508
0.016154915844594508
0.016154915844594508
0.016154915844594508
0.016154915844594508
0.016154915844594508
0.016154915844594508
0.016154915844594508
0.016154915844594508
0.016154915844594508
0.016154915844594508
0.016154915844594508
0.016154915844594508
0.016154915844594508
0.016154915844594508
0.016154915844594508
0.016154915844594508
0.016154915844594508
0.016154915844594508
0.016154915844594508
0.016154915844594508
0.016154915844594508
0.016154915844594508
0.016154915844594508
0.016154915844594508
0.016154915844594508
0.016154915844594508
0.016154915844594508
0.016154915844594508
0.016154915844594508
0.016154915844594508
0.016154915844594508
0.016154915844594508
0.016154915844594508
0.016154915844594508
0.016154915844594508
0.016154915844594508
0.016154915844594508
0.016154915844594508
0.016154915844594508
0.016154915844594508
0.016154915844594508
0.016154915844594508
0.016154915844594508
0.016154915844594508
0.016154915844594508
0.016154915844594508
0.016154915844594508
0.016154915844594508
0.016154915844594508
0.016154915844594508
0.016154915844594508
0.016154915844594508
0.016154915844594508
0.016154915844594508
0.016154915844594508
0.016154915844594508
0.016154915844594508
0.016154915844594508
0.016154915844594508
0.016154915844594508
0.016154915844594508
0.016154915844594508
0.016154915844594508
0.016154915844594508
0.016154915844594508
0.016154915844594508
0.016154915844594508
0.016154915844594508
0.01615566726305117
0.01615566726305117
0.01615566726305117
0.01615566726305117
0.01615566726305117
0.01615566726305117
0.01615566726305117
0.01615566726305117
0.01615566726305117
0.01615566726305117
0.01615566726305117
0.01615566726305117
0.01615566726305117
0.01615566726305117
0.01615566726305117
0.01615566726305117
0.01615566726305117
0.01615566726305117
0.01615566726305117
0.01615566726305117
0.01615566726305117
0.01615566726305117
0.01615566726305117
0.01615566726305117
0.01615566726305117
0.01615566726305117
0.01615566726305117
0.01615566726305117
0.01615566726305117
0.01615566726305117
0.01615566726305117
0.01615566726305117
0.01615566726305117
0.01615566726305117
0.01615566726305117
0.01615566726305117
0.01615566726305117
0.01615566726305117
0.01615566726305117
0.01615566726305117
0.01615566726305117
0.01615566726305117
0.01615566726305117
0.01615566726305117
0.01615566726305117
0.01615566726305117
0.01615566726305117
0.01615566726305117
0.01615566726305117
0.01615566726305117
0.01615566726305117
0.01615566726305117
0.01615566726305117
0.01615566726305117
0.01615566726305117
0.01615566726305117
0.01615566726305117
0.01615566726305117
0.01615566726305117
0.01615566726305117
0.01615566726305117
0.01615566726305117
0.01615566726305117
0.01615566726305117
0.01615566726305117
0.01615566726305117
0.01615566726305117
0.01615566726305117
0.01615566726305117
0.01615566726305117
0.01615566726305117
0.01615566726305117
0.01615566726305117
0.01615566726305117
0.01615566726305117
0.01615566726305117
0.01615566726305117
0.01615566726305117
0.01615566726305117
0.01615566726305117
0.01615566726305117
0.01615566726305117
0.01615566726305117
0.01615566726305117
0.01615566726305117
0.01615566726305117
0.01615566726305117
0.01615566726305117
0.01615566726305117
0.01615566726305117
0.01615566726305117
0.01615566726305117
0.01615566726305117
0.01615566726305117
0.01615566726305117
0.01615566726305117
0.01615566726305117
0.01615566726305117
0.01615566726305117
0.01615566726305117
0.01615566726305117
0.01615566726305117
0.01615566726305117
0.01615566726305117
0.01615566726305117
0.01615566726305117
0.01615566726305117
0.01615566726305117
0.01615566726305117
0.01615566726305117
0.01615566726305117
0.01615566726305117
0.01615566726305117
0.01615566726305117
0.01615566726305117
0.01615566726305117
0.01615566726305117
0.01615566726305117
0.01615566726305117
0.01615566726305117
0.01615566726305117
0.01615566726305117
0.01615566726305117
0.01615566726305117
0.01615566726305117
0.01615566726305117
0.01615566726305117
0.016156564547110185
0.016156564547110185
0.016156564547110185
0.016156564547110185
0.016156564547110185
0.016156564547110185
0.016156564547110185
0.016156564547110185
0.016156564547110185
0.016156564547110185
0.016156564547110185
0.016156564547110185
0.016156564547110185
0.016156564547110185
0.016156564547110185
0.016156564547110185
0.016156564547110185
0.016156564547110185
0.016156564547110185
0.016156564547110185
0.016156564547110185
0.016156564547110185
0.016156564547110185
0.016156564547110185
0.016156564547110185
0.016156564547110185
0.016156564547110185
0.016156564547110185
0.016156564547110185
0.016156564547110185
0.016156564547110185
0.016156564547110185
0.016156564547110185
0.016156564547110185
0.016156564547110185
0.016156564547110185
0.016156564547110185
0.016156564547110185
0.016156564547110185
0.016156564547110185
0.016156564547110185
0.016156564547110185
0.016156564547110185
0.016156564547110185
0.016156564547110185
0.016156564547110185
0.016156564547110185
0.016156564547110185
0.016156564547110185
0.016156564547110185
0.016156564547110185
0.016156564547110185
0.016156564547110185
0.016156564547110185
0.016156564547110185
0.016156564547110185
0.016156564547110185
0.016156564547110185
0.016156564547110185
0.016156564547110185
0.016156564547110185
0.016156564547110185
0.016156564547110185
0.016156564547110185
0.016156564547110185
0.016156564547110185
0.016156564547110185
0.016156564547110185
0.016156564547110185
0.016156564547110185
0.016156564547110185
0.016156564547110185
0.016156564547110185
0.016156564547110185
0.016156564547110185
0.016156564547110185
0.016156564547110185
0.016156564547110185
0.016156564547110185
0.016156564547110185
0.016156564547110185
0.016156564547110185
0.016156564547110185
0.016156564547110185
0.016156564547110185
0.016156564547110185
0.016156564547110185
0.016156564547110185
0.016156564547110185
0.016156564547110185
0.016156564547110185
0.016156564547110185
0.016156564547110185
0.016156564547110185
0.016156564547110185
0.016156564547110185
0.016156564547110185
0.016156564547110185
0.016156564547110185
0.016156564547110185
0.016156564547110185
0.016156564547110185
0.016156564547110185
0.016156564547110185
0.016156564547110185
0.016156564547110185
0.016156564547110185
0.016156564547110185
0.016156564547110185
0.016156564547110185
0.016156564547110185
0.016156564547110185
0.016156564547110185
0.016156564547110185
0.016156564547110185
0.016156564547110185
0.016156564547110185
0.016156564547110185
0.016156564547110185
0.016156564547110185
0.016156564547110185
0.016156564547110185
0.016156564547110185
0.016156564547110185
0.016156564547110185
0.016156564547110185
0.016156564547110185
0.016156564547110185
0.016156564547110185
0.016156564547110185
0.016156564547110185
0.016156564547110185
0.016156564547110185
0.016156564547110185
0.016156564547110185
0.016156564547110185
0.016156564547110185
0.016156564547110185
0.016156564547110185
0.016156564547110185
0.016156564547110185
0.016156564547110185
0.016156564547110185
0.016156564547110185
0.016156564547110185
0.016156564547110185
0.016156564547110185
0.016156564547110185
0.016156564547110185
0.016156564547110185
0.016156564547110185
0.016156564547110185
0.016156564547110185
0.01615764269311997
0.01615764269311997
0.01615764269311997
0.01615764269311997
0.01615764269311997
0.01615764269311997
0.01615764269311997
0.01615764269311997
0.01615764269311997
0.01615764269311997
0.01615764269311997
0.01615764269311997
0.01615764269311997
0.01615764269311997
0.01615764269311997
0.01615764269311997
0.01615764269311997
0.01615764269311997
0.01615764269311997
0.01615764269311997
0.01615764269311997
0.01615764269311997
0.01615764269311997
0.01615764269311997
0.01615764269311997
0.01615764269311997
0.01615764269311997
0.01615764269311997
0.01615764269311997
0.01615764269311997
0.01615764269311997
0.01615764269311997
0.01615764269311997
0.01615764269311997
0.01615764269311997
0.01615764269311997
0.01615764269311997
0.01615764269311997
0.01615764269311997
0.01615764269311997
0.01615764269311997
0.01615764269311997
0.01615764269311997
0.01615764269311997
0.01615764269311997
0.01615764269311997
0.01615764269311997
0.01615764269311997
0.01615764269311997
0.01615764269311997
0.01615764269311997
0.01615764269311997
0.01615764269311997
0.01615764269311997
0.01615764269311997
0.01615764269311997
0.01615764269311997
0.01615764269311997
0.01615764269311997
0.01615764269311997
0.01615764269311997
0.01615764269311997
0.01615764269311997
0.01615764269311997
0.01615764269311997
0.01615764269311997
0.01615764269311997
0.01615764269311997
0.01615764269311997
0.01615764269311997
0.01615764269311997
0.01615764269311997
0.01615764269311997
0.01615764269311997
0.01615764269311997
0.01615764269311997
0.01615764269311997
0.01615764269311997
0.01615764269311997
0.01615764269311997
0.01615764269311997
0.01615764269311997
0.01615764269311997
0.01615764269311997
0.01615764269311997
0.01615764269311997
0.01615764269311997
0.01615764269311997
0.01615764269311997
0.01615764269311997
0.01615764269311997
0.01615764269311997
0.01615764269311997
0.01615764269311997
0.01615764269311997
0.01615764269311997
0.01615764269311997
0.01615764269311997
0.01615764269311997
0.01615764269311997
0.01615764269311997
0.01615764269311997
0.01615764269311997
0.01615764269311997
0.01615764269311997
0.01615764269311997
0.01615764269311997
0.01615764269311997
0.01615764269311997
0.01615764269311997
0.01615764269311997
0.01615764269311997
0.01615764269311997
0.01615764269311997
0.01615764269311997
0.01615764269311997
0.01615764269311997
0.01615764269311997
0.01615764269311997
0.01615764269311997
0.01615764269311997
0.01615764269311997
0.01615764269311997
0.01615764269311997
0.01615764269311997
0.01615764269311997
0.01615764269311997
0.01615764269311997
0.01615764269311997
0.01615764269311997
0.01615764269311997
0.01615764269311997
0.01615764269311997
0.01615764269311997
0.01615764269311997
0.01615764269311997
0.01615764269311997
0.01615764269311997
0.01615764269311997
0.01615764269311997
0.01615764269311997
0.01615764269311997
0.01615764269311997
0.01615764269311997
0.01615764269311997
0.01615764269311997
0.01615764269311997
0.01615764269311997
0.01615764269311997
0.01615764269311997
0.01615764269311997
0.01615764269311997
0.01615764269311997
0.01615764269311997
0.01615764269311997
0.01615764269311997
0.01615764269311997
0.01615764269311997
0.01615764269311997
0.01615764269311997
0.01615764269311997
0.01615764269311997
0.01615764269311997
0.01615764269311997
0.01615764269311997
0.01615764269311997
0.01615764269311997
0.01615764269311997
0.01615764269311997
0.01615764269311997
0.01615764269311997
0.01615764269311997
0.01615764269311997
0.01615764269311997
0.01615764269311997
0.01615764269311997
0.01615764269311997
0.01615764269311997
0.01615764269311997
0.01615764269311997
0.01615764269311997
0.01615764269311997
0.01615893931664314
0.01615893931664314
0.01615893931664314
0.01615893931664314
0.01615893931664314
0.01615893931664314
0.01615893931664314
0.01615893931664314
0.01615893931664314
0.01615893931664314
0.01615893931664314
0.01615893931664314
0.01615893931664314
0.01615893931664314
0.01615893931664314
0.01615893931664314
0.01615893931664314
0.01615893931664314
0.01615893931664314
0.01615893931664314
0.01615893931664314
0.01615893931664314
0.01615893931664314
0.01615893931664314
0.01615893931664314
0.01615893931664314
0.01615893931664314
0.01615893931664314
0.01615893931664314
0.01615893931664314
0.01615893931664314
0.01615893931664314
0.01615893931664314
0.01615893931664314
0.01615893931664314
0.01615893931664314
0.01615893931664314
0.01615893931664314
0.01615893931664314
0.01615893931664314
0.01615893931664314
0.01615893931664314
0.01615893931664314
0.01615893931664314
0.01615893931664314
0.01615893931664314
0.01615893931664314
0.01615893931664314
0.01615893931664314
0.01615893931664314
0.01615893931664314
0.01615893931664314
0.01615893931664314
0.01615893931664314
0.01615893931664314
0.01615893931664314
0.01615893931664314
0.01615893931664314
0.01615893931664314
0.01615893931664314
0.01615893931664314
0.01615893931664314
0.01615893931664314
0.01615893931664314
0.01615893931664314
0.01615893931664314
0.01615893931664314
0.01615893931664314
0.01615893931664314
0.01615893931664314
0.01615893931664314
0.01615893931664314
0.01615893931664314
0.01615893931664314
0.01615893931664314
0.01615893931664314
0.01615893931664314
0.01615893931664314
0.01615893931664314
0.01615893931664314
0.01615893931664314
0.01615893931664314
0.01615893931664314
0.01615893931664314
0.01615893931664314
0.01615893931664314
0.01615893931664314
0.01615893931664314
0.01615893931664314
0.01615893931664314
0.01615893931664314
0.01615893931664314
0.01615893931664314
0.01615893931664314
0.01615893931664314
0.01615893931664314
0.01615893931664314
0.01615893931664314
0.01615893931664314
0.01615893931664314
0.01615893931664314
0.01615893931664314
0.01615893931664314
0.01615893931664314
0.01615893931664314
0.01615893931664314
0.01615893931664314
0.01615893931664314
0.01615893931664314
0.01615893931664314
0.01615893931664314
0.01615893931664314
0.01615893931664314
0.01615893931664314
0.01615893931664314
0.01615893931664314
0.01615893931664314
0.01615893931664314
0.01615893931664314
0.01615893931664314
0.01615893931664314
0.01615893931664314
0.01615893931664314
0.01615893931664314
0.01615893931664314
0.01615893931664314
0.01615893931664314
0.01615893931664314
0.01615893931664314
0.01615893931664314
0.01615893931664314
0.01615893931664314
0.01615893931664314
0.01615893931664314
0.01615893931664314
0.01615893931664314
0.01615893931664314
0.01615893931664314
0.01615893931664314
0.01615893931664314
0.01615893931664314
0.01615893931664314
0.01615893931664314
0.01615893931664314
0.01615893931664314
0.01615893931664314
0.01615893931664314
0.01615893931664314
0.01615893931664314
0.01615893931664314
0.01615893931664314
0.01615893931664314
0.01615893931664314
0.01615893931664314
0.01615893931664314
0.01615893931664314
0.01615893931664314
0.01615893931664314
0.01615893931664314
0.01615893931664314
0.01615893931664314
0.01615893931664314
0.01615893931664314
0.01615893931664314
0.01615893931664314
0.01615893931664314
0.01615893931664314
0.01615893931664314
0.01615893931664314
0.01615893931664314
0.01615893931664314
0.01615893931664314
0.01615893931664314
0.01615893931664314
0.01615893931664314
0.01615893931664314
0.01615893931664314
0.01615893931664314
0.01615893931664314
0.01615893931664314
0.01615893931664314
0.01615893931664314
0.01615893931664314
0.01615893931664314
0.01615893931664314
0.01615893931664314
0.01615893931664314
0.01615893931664314
0.01615893931664314
0.01615893931664314
0.01615893931664314
0.01615893931664314
0.01615893931664314
0.01615893931664314
0.01615893931664314
0.01615893931664314
0.01615893931664314
0.01615893931664314
0.01615893931664314
0.01615893931664314
0.01615893931664314
0.01615893931664314
0.01615893931664314
0.01615893931664314
0.01615893931664314
0.01615893931664314
0.01615893931664314
0.01615893931664314
0.01615893931664314
0.01615893931664314
0.01615893931664314
0.01615893931664314
0.01615893931664314
0.01615893931664314
0.01615893931664314
0.01615893931664314
0.01615893931664314
0.01615893931664314
0.01615893931664314
0.01615893931664314
0.016160490192692743
0.016160490192692743
0.016160490192692743
0.016160490192692743
0.016160490192692743
0.016160490192692743
0.016160490192692743
0.016160490192692743
0.016160490192692743
0.016160490192692743
0.016160490192692743
0.016160490192692743
0.016160490192692743
0.016160490192692743
0.016160490192692743
0.016160490192692743
0.016160490192692743
0.016160490192692743
0.016160490192692743
0.016160490192692743
0.016160490192692743
0.016160490192692743
0.016160490192692743
0.016160490192692743
0.016160490192692743
0.016160490192692743
0.016160490192692743
0.016160490192692743
0.016160490192692743
0.016160490192692743
0.016160490192692743
0.016160490192692743
0.016160490192692743
0.016160490192692743
0.016160490192692743
0.016160490192692743
0.016160490192692743
0.016160490192692743
0.016160490192692743
0.016160490192692743
0.016160490192692743
0.016160490192692743
0.016160490192692743
0.016160490192692743
0.016160490192692743
0.016160490192692743
0.016160490192692743
0.016160490192692743
0.016160490192692743
0.016160490192692743
0.016160490192692743
0.016160490192692743
0.016160490192692743
0.016160490192692743
0.016160490192692743
0.016160490192692743
0.016160490192692743
0.016160490192692743
0.016160490192692743
0.016160490192692743
0.016160490192692743
0.016160490192692743
0.016160490192692743
0.016160490192692743
0.016160490192692743
0.016160490192692743
0.016160490192692743
0.016160490192692743
0.016160490192692743
0.016160490192692743
0.016160490192692743
0.016160490192692743
0.016160490192692743
0.016160490192692743
0.016160490192692743
0.016160490192692743
0.016160490192692743
0.016160490192692743
0.016160490192692743
0.016160490192692743
0.016160490192692743
0.016160490192692743
0.016160490192692743
0.016160490192692743
0.016160490192692743
0.016160490192692743
0.016160490192692743
0.016160490192692743
0.016160490192692743
0.016160490192692743
0.016160490192692743
0.016160490192692743
0.016160490192692743
0.016160490192692743
0.016160490192692743
0.016160490192692743
0.016160490192692743
0.016160490192692743
0.016160490192692743
0.016160490192692743
0.016160490192692743
0.016160490192692743
0.016160490192692743
0.016160490192692743
0.016160490192692743
0.016160490192692743
0.016160490192692743
0.016160490192692743
0.016160490192692743
0.016160490192692743
0.016160490192692743
0.016160490192692743
0.016160490192692743
0.016160490192692743
0.016160490192692743
0.016160490192692743
0.016160490192692743
0.016160490192692743
0.016160490192692743
0.016160490192692743
0.016160490192692743
0.016160490192692743
0.016160490192692743
0.016160490192692743
0.016160490192692743
0.016160490192692743
0.016160490192692743
0.016160490192692743
0.016160490192692743
0.016160490192692743
0.016160490192692743
0.016160490192692743
0.016160490192692743
0.016160490192692743
0.016160490192692743
0.016160490192692743
0.016160490192692743
0.016160490192692743
0.016160490192692743
0.016160490192692743
0.016160490192692743
0.016160490192692743
0.016160490192692743
0.016160490192692743
0.016160490192692743
0.016160490192692743
0.016160490192692743
0.016160490192692743
0.016160490192692743
0.016160490192692743
0.016160490192692743
0.016160490192692743
0.016160490192692743
0.016160490192692743
0.016160490192692743
0.016160490192692743
0.016160490192692743
0.016160490192692743
0.016160490192692743
0.016160490192692743
0.016160490192692743
0.016160490192692743
0.016160490192692743
0.016160490192692743
0.016160490192692743
0.016160490192692743
0.016160490192692743
0.016160490192692743
0.016160490192692743
0.016160490192692743
0.016160490192692743
0.016160490192692743
0.016160490192692743
0.016160490192692743
0.016160490192692743
0.016160490192692743
0.016160490192692743
0.016160490192692743
0.016160490192692743
0.016160490192692743
0.016160490192692743
0.016160490192692743
0.016160490192692743
0.016160490192692743
0.016160490192692743
0.016160490192692743
0.016160490192692743
0.016160490192692743
0.016160490192692743
0.016160490192692743
0.016160490192692743
0.016160490192692743
0.016160490192692743
0.016160490192692743
0.016160490192692743
0.016160490192692743
0.016160490192692743
0.016160490192692743
0.016160490192692743
0.016160490192692743
0.016160490192692743
0.016160490192692743
0.016160490192692743
0.016160490192692743
0.016160490192692743
0.016160490192692743
0.016160490192692743
0.016160490192692743
0.016160490192692743
0.016160490192692743
0.016160490192692743
0.016160490192692743
0.016160490192692743
0.016160490192692743
0.016160490192692743
0.016160490192692743
0.016160490192692743
0.016160490192692743
0.016160490192692743
0.016160490192692743
0.016160490192692743
0.016160490192692743
0.016160490192692743
0.016160490192692743
0.016160490192692743
0.016160490192692743
0.016160490192692743
0.016160490192692743
0.016160490192692743
0.016160490192692743
0.016160490192692743
0.016160490192692743
0.016160490192692743
0.016160490192692743
0.016160490192692743
0.016160490192692743
0.016160490192692743
0.016160490192692743
0.016160490192692743
0.016160490192692743
0.016160490192692743
0.016160490192692743
0.016160490192692743
0.016160490192692743
0.016160490192692743
0.016160490192692743
0.016160490192692743
0.016160490192692743
0.016160490192692743
0.016160490192692743
0.016160490192692743
0.016160490192692743
0.016160490192692743
0.016160490192692743
0.016160490192692743
0.016160490192692743
0.016160490192692743
0.016160490192692743
0.016160490192692743
0.016160490192692743
0.016160490192692743
0.016160490192692743
0.016160490192692743
0.01616235307790054
0.01616235307790054
0.01616235307790054
0.01616235307790054
0.01616235307790054
0.01616235307790054
0.01616235307790054
0.01616235307790054
0.01616235307790054
0.01616235307790054
0.01616235307790054
0.01616235307790054
0.01616235307790054
0.01616235307790054
0.01616235307790054
0.01616235307790054
0.01616235307790054
0.01616235307790054
0.01616235307790054
0.01616235307790054
0.01616235307790054
0.01616235307790054
0.01616235307790054
0.01616235307790054
0.01616235307790054
0.01616235307790054
0.01616235307790054
0.01616235307790054
0.01616235307790054
0.01616235307790054
0.01616235307790054
0.01616235307790054
0.01616235307790054
0.01616235307790054
0.01616235307790054
0.01616235307790054
0.01616235307790054
0.01616235307790054
0.01616235307790054
0.01616235307790054
0.01616235307790054
0.01616235307790054
0.01616235307790054
0.01616235307790054
0.01616235307790054
0.01616235307790054
0.01616235307790054
0.01616235307790054
0.01616235307790054
0.01616235307790054
0.01616235307790054
0.01616235307790054
0.01616235307790054
0.01616235307790054
0.01616235307790054
0.01616235307790054
0.01616235307790054
0.01616235307790054
0.01616235307790054
0.01616235307790054
0.01616235307790054
0.01616235307790054
0.01616235307790054
0.01616235307790054
0.01616235307790054
0.01616235307790054
0.01616235307790054
0.01616235307790054
0.01616235307790054
0.01616235307790054
0.01616235307790054
0.01616235307790054
0.01616235307790054
0.01616235307790054
0.01616235307790054
0.01616235307790054
0.01616235307790054
0.01616235307790054
0.01616235307790054
0.01616235307790054
0.01616235307790054
0.01616235307790054
0.01616235307790054
0.01616235307790054
0.01616235307790054
0.01616235307790054
0.01616235307790054
0.01616235307790054
0.01616235307790054
0.01616235307790054
0.01616235307790054
0.01616235307790054
0.01616235307790054
0.01616235307790054
0.01616235307790054
0.01616235307790054
0.01616235307790054
0.01616235307790054
0.01616235307790054
0.01616235307790054
0.01616235307790054
0.01616235307790054
0.01616235307790054
0.01616235307790054
0.01616235307790054
0.01616235307790054
0.01616235307790054
0.01616235307790054
0.01616235307790054
0.01616235307790054
0.01616235307790054
0.01616235307790054
0.01616235307790054
0.01616235307790054
0.01616235307790054
0.01616235307790054
0.01616235307790054
0.01616235307790054
0.01616235307790054
0.01616235307790054
0.01616235307790054
0.01616235307790054
0.01616235307790054
0.01616235307790054
0.01616235307790054
0.01616235307790054
0.01616235307790054
0.01616235307790054
0.01616235307790054
0.01616235307790054
0.01616235307790054
0.01616235307790054
0.01616235307790054
0.01616235307790054
0.01616235307790054
0.01616235307790054
0.01616235307790054
0.01616235307790054
0.01616235307790054
0.01616235307790054
0.01616235307790054
0.01616235307790054
0.01616235307790054
0.01616235307790054
0.01616235307790054
0.01616235307790054
0.01616235307790054
0.01616235307790054
0.01616235307790054
0.01616235307790054
0.01616235307790054
0.01616235307790054
0.01616235307790054
0.01616235307790054
0.01616235307790054
0.01616235307790054
0.01616235307790054
0.01616235307790054
0.01616235307790054
0.01616235307790054
0.01616235307790054
0.01616235307790054
0.01616235307790054
0.01616235307790054
0.01616235307790054
0.01616235307790054
0.01616235307790054
0.01616235307790054
0.01616235307790054
0.01616235307790054
0.01616235307790054
0.01616235307790054
0.01616235307790054
0.01616235307790054
0.01616235307790054
0.01616235307790054
0.01616235307790054
0.01616235307790054
0.01616235307790054
0.01616235307790054
0.01616235307790054
0.01616235307790054
0.01616235307790054
0.01616235307790054
0.01616235307790054
0.01616235307790054
0.01616235307790054
0.01616235307790054
0.01616235307790054
0.01616235307790054
0.01616235307790054
0.01616235307790054
0.01616235307790054
0.01616235307790054
0.01616235307790054
0.01616235307790054
0.01616235307790054
0.01616235307790054
0.01616235307790054
0.01616235307790054
0.01616235307790054
0.01616235307790054
0.01616235307790054
0.01616235307790054
0.01616235307790054
0.01616235307790054
0.01616235307790054
0.01616235307790054
0.01616235307790054
0.01616235307790054
0.01616235307790054
0.01616235307790054
0.01616235307790054
0.01616235307790054
0.01616235307790054
0.01616235307790054
0.01616235307790054
0.01616235307790054
0.01616235307790054
0.01616235307790054
0.01616235307790054
0.01616235307790054
0.01616235307790054
0.01616235307790054
0.01616235307790054
0.01616235307790054
0.01616235307790054
0.01616235307790054
0.01616235307790054
0.01616235307790054
0.01616235307790054
0.01616235307790054
0.01616235307790054
0.01616235307790054
0.01616235307790054
0.01616235307790054
0.01616235307790054
0.01616235307790054
0.01616235307790054
0.01616235307790054
0.01616235307790054
0.01616235307790054
0.01616235307790054
0.01616235307790054
0.01616235307790054
0.01616235307790054
0.01616235307790054
0.01616235307790054
0.01616235307790054
0.01616235307790054
0.01616235307790054
0.01616235307790054
0.01616235307790054
0.01616235307790054
0.01616235307790054
0.01616235307790054
0.01616235307790054
0.01616235307790054
0.01616235307790054
0.01616235307790054
0.01616235307790054
0.01616235307790054
0.01616235307790054
0.01616235307790054
0.01616235307790054
0.01616235307790054
0.01616235307790054
0.01616235307790054
0.01616235307790054
0.01616235307790054
0.01616235307790054
0.01616235307790054
0.01616235307790054
0.01616235307790054
0.01616235307790054
0.01616235307790054
0.01616235307790054
0.01616235307790054
0.01616235307790054
0.01616235307790054
0.01616235307790054
0.01616235307790054
0.01616235307790054
0.01616235307790054
0.01616235307790054
0.01616235307790054
0.01616235307790054
0.01616235307790054
0.01616235307790054
0.01616235307790054
0.01616235307790054
0.01616235307790054
0.01616235307790054
0.01616235307790054
0.01616235307790054
0.01616235307790054
0.01616235307790054
0.01616235307790054
0.01616235307790054
0.01616235307790054
0.01616235307790054
0.01616235307790054
0.01616235307790054
0.01616235307790054
0.01616235307790054
0.01616235307790054
0.01616235307790054
0.01616235307790054
0.01616235307790054
0.01616235307790054
0.01616235307790054
0.01616235307790054
0.01616235307790054
0.01616235307790054
0.01616235307790054
0.01616235307790054
0.016164605870537245
0.016164605870537245
0.016164605870537245
0.016164605870537245
0.016164605870537245
0.016164605870537245
0.016164605870537245
0.016164605870537245
0.016164605870537245
0.016164605870537245
0.016164605870537245
0.016164605870537245
0.016164605870537245
0.016164605870537245
0.016164605870537245
0.016164605870537245
0.016164605870537245
0.016164605870537245
0.016164605870537245
0.016164605870537245
0.016164605870537245
0.016164605870537245
0.016164605870537245
0.016164605870537245
0.016164605870537245
0.016164605870537245
0.016164605870537245
0.016164605870537245
0.016164605870537245
0.016164605870537245
0.016164605870537245
0.016164605870537245
0.016164605870537245
0.016164605870537245
0.016164605870537245
0.016164605870537245
0.016164605870537245
0.016164605870537245
0.016164605870537245
0.016164605870537245
0.016164605870537245
0.016164605870537245
0.016164605870537245
0.016164605870537245
0.016164605870537245
0.016164605870537245
0.016164605870537245
0.016164605870537245
0.016164605870537245
0.016164605870537245
0.016164605870537245
0.016164605870537245
0.016164605870537245
0.016164605870537245
0.016164605870537245
0.016164605870537245
0.016164605870537245
0.016164605870537245
0.016164605870537245
0.016164605870537245
0.016164605870537245
0.016164605870537245
0.016164605870537245
0.016164605870537245
0.016164605870537245
0.016164605870537245
0.016164605870537245
0.016164605870537245
0.016164605870537245
0.016164605870537245
0.016164605870537245
0.016164605870537245
0.016164605870537245
0.016164605870537245
0.016164605870537245
0.016164605870537245
0.016164605870537245
0.016164605870537245
0.016164605870537245
0.016164605870537245
0.016164605870537245
0.016164605870537245
0.016164605870537245
0.016164605870537245
0.016164605870537245
0.016164605870537245
0.016164605870537245
0.016164605870537245
0.016164605870537245
0.016164605870537245
0.016164605870537245
0.016164605870537245
0.016164605870537245
0.016164605870537245
0.016164605870537245
0.016164605870537245
0.016164605870537245
0.016164605870537245
0.016164605870537245
0.016164605870537245
0.016164605870537245
0.016164605870537245
0.016164605870537245
0.016164605870537245
