0.0008691956216361133
0.0009063735638587938
0.0009063733134185572
0.0009063731047184136
0.0009063728125382926
0.000906372645578266
0.0009063724368782752
0.000906372186438351
0.0009063718942585261
0.0009063718942585261
0.0009063715603388417
0.0009063715603388417
0.0009063711846793432
0.0009063711846793432
0.0009063707464101256
0.0009063707464101256
0.0009063707464101256
0.0009063702664012259
0.0009063702664012259
0.0009063702664012259
0.0009063697237827762
0.0009063697237827762
0.0009063697237827762
0.0009063697237827762
0.0009063691602947291
0.0009063691602947291
0.0009063691602947291
0.0009063691602947291
0.0009063691602947291
0.0009063685550672171
0.0009063685550672171
0.0009063685550672171
0.0009063685550672171
0.0009063685550672171
0.0009063685550672171
0.0009063679498401093
0.0009063679498401093
0.0009063679498401093
0.0009063679498401093
0.0009063679498401093
0.0009063679498401093
0.0009063679498401093
0.000906367386353165
0.000906367386353165
0.000906367386353165
0.000906367386353165
0.000906367386353165
0.000906367386353165
0.000906367386353165
0.000906367386353165
0.0009063669480857841
0.0009063669480857841
0.0009063669480857841
0.0009063669480857841
0.0009063669480857841
0.0009063669480857841
0.0009063669480857841
0.0009063669480857841
0.0009063669480857841
0.0009063669480857841
0.0009063666976473764
0.0009063666976473764
0.0009063666976473764
0.0009063666976473764
0.0009063666976473764
0.0009063666976473764
0.0009063666976473764
0.0009063666976473764
0.0009063666976473764
0.0009063666976473764
0.0009063666976473764
0.0009063666976473764
0.000906366739387106
0.000906366739387106
0.000906366739387106
0.000906366739387106
0.000906366739387106
0.000906366739387106
0.000906366739387106
0.000906366739387106
0.000906366739387106
0.000906366739387106
0.000906366739387106
0.000906366739387106
0.000906366739387106
0.000906366739387106
0.00090636728200377
0.00090636728200377
0.00090636728200377
0.00090636728200377
0.00090636728200377
0.00090636728200377
0.00090636728200377
0.00090636728200377
0.00090636728200377
0.00090636728200377
0.00090636728200377
0.00090636728200377
0.00090636728200377
0.00090636728200377
0.00090636728200377
0.00090636728200377
0.00090636728200377
0.0009063684715875915
0.0009063684715875915
0.0009063684715875915
0.0009063684715875915
0.0009063684715875915
0.0009063684715875915
0.0009063684715875915
0.0009063684715875915
0.0009063684715875915
0.0009063684715875915
0.0009063684715875915
0.0009063684715875915
0.0009063684715875915
0.0009063684715875915
0.0009063684715875915
0.0009063684715875915
0.0009063684715875915
0.0009063684715875915
0.0009063684715875915
0.0009063684715875915
0.000906370558580526
0.000906370558580526
0.000906370558580526
0.000906370558580526
0.000906370558580526
0.000906370558580526
0.000906370558580526
0.000906370558580526
0.000906370558580526
0.000906370558580526
0.000906370558580526
0.000906370558580526
0.000906370558580526
0.000906370558580526
0.000906370558580526
0.000906370558580526
0.000906370558580526
0.000906370558580526
0.000906370558580526
0.000906370558580526
0.000906370558580526
0.000906370558580526
0.000906370558580526
0.000906370558580526
0.000906370558580526
0.000906373835169128
0.000906373835169128
0.000906373835169128
0.000906373835169128
0.000906373835169128
0.000906373835169128
0.000906373835169128
0.000906373835169128
0.000906373835169128
0.000906373835169128
0.000906373835169128
0.000906373835169128
0.000906373835169128
0.000906373835169128
0.000906373835169128
0.000906373835169128
0.000906373835169128
0.000906373835169128
0.000906373835169128
0.000906373835169128
0.000906373835169128
0.000906373835169128
0.000906373835169128
0.000906373835169128
0.000906373835169128
0.000906373835169128
0.000906373835169128
0.000906373835169128
0.000906373835169128
0.000906373835169128
0.0009063786144183267
0.0009063786144183267
0.0009063786144183267
0.0009063786144183267
0.0009063786144183267
0.0009063786144183267
0.0009063786144183267
0.0009063786144183267
0.0009063786144183267
0.0009063786144183267
0.0009063786144183267
0.0009063786144183267
0.0009063786144183267
0.0009063786144183267
0.0009063786144183267
0.0009063786144183267
0.0009063786144183267
0.0009063786144183267
0.0009063786144183267
0.0009063786144183267
0.0009063786144183267
0.0009063786144183267
0.0009063786144183267
0.0009063786144183267
0.0009063786144183267
0.0009063786144183267
0.0009063786144183267
0.0009063786144183267
0.0009063786144183267
0.0009063786144183267
0.0009063786144183267
0.0009063786144183267
0.0009063786144183267
0.0009063786144183267
0.0009063786144183267
0.0009063852094061998
0.0009063852094061998
0.0009063852094061998
0.0009063852094061998
0.0009063852094061998
0.0009063852094061998
0.0009063852094061998
0.0009063852094061998
0.0009063852094061998
0.0009063852094061998
0.0009063852094061998
0.0009063852094061998
0.0009063852094061998
0.0009063852094061998
0.0009063852094061998
0.0009063852094061998
0.0009063852094061998
0.0009063852094061998
0.0009063852094061998
0.0009063852094061998
0.0009063852094061998
0.0009063852094061998
0.0009063852094061998
0.0009063852094061998
0.0009063852094061998
0.0009063852094061998
0.0009063852094061998
0.0009063852094061998
0.0009063852094061998
0.0009063852094061998
0.0009063852094061998
0.0009063852094061998
0.0009063852094061998
0.0009063852094061998
0.0009063852094061998
0.0009063852094061998
0.0009063852094061998
0.0009063852094061998
0.0009063852094061998
0.0009063852094061998
0.0009063852094061998
0.0009063852094061998
0.0009063942254166313
0.0009063942254166313
0.0009063942254166313
0.0009063942254166313
0.0009063942254166313
0.0009063942254166313
0.0009063942254166313
0.0009063942254166313
0.0009063942254166313
0.0009063942254166313
0.0009063942254166313
0.0009063942254166313
0.0009063942254166313
0.0009063942254166313
0.0009063942254166313
0.0009063942254166313
0.0009063942254166313
0.0009063942254166313
0.0009063942254166313
0.0009063942254166313
0.0009063942254166313
0.0009063942254166313
0.0009063942254166313
0.0009063942254166313
0.0009063942254166313
0.0009063942254166313
0.0009063942254166313
0.0009063942254166313
0.0009063942254166313
0.0009063942254166313
0.0009063942254166313
0.0009063942254166313
0.0009063942254166313
0.0009063942254166313
0.0009063942254166313
0.0009063942254166313
0.0009063942254166313
0.0009063942254166313
0.0009063942254166313
0.0009063942254166313
0.0009063942254166313
0.0009063942254166313
0.0009063942254166313
0.0009063942254166313
0.0009063942254166313
0.0009063942254166313
0.0009063942254166313
0.0009063942254166313
0.0009063942254166313
0.0009063942254166313
0.0009063942254166313
0.0009063942254166313
0.0009064054955557892
0.0009064054955557892
0.0009064054955557892
0.0009064054955557892
0.0009064054955557892
0.0009064054955557892
0.0009064054955557892
0.0009064054955557892
0.0009064054955557892
0.0009064054955557892
0.0009064054955557892
0.0009064054955557892
0.0009064054955557892
0.0009064054955557892
0.0009064054955557892
0.0009064054955557892
0.0009064054955557892
0.0009064054955557892
0.0009064054955557892
0.0009064054955557892
0.0009064054955557892
0.0009064054955557892
0.0009064054955557892
0.0009064054955557892
0.0009064054955557892
0.0009064054955557892
0.0009064054955557892
0.0009064054955557892
0.0009064054955557892
0.0009064054955557892
0.0009064054955557892
0.0009064054955557892
0.0009064054955557892
0.0009064054955557892
0.0009064054955557892
0.0009064054955557892
0.0009064054955557892
0.0009064054955557892
0.0009064054955557892
0.0009064054955557892
0.0009064054955557892
0.0009064054955557892
0.0009064054955557892
0.0009064054955557892
0.0009064054955557892
0.0009064054955557892
0.0009064054955557892
0.0009064054955557892
0.0009064054955557892
0.0009064054955557892
0.0009064054955557892
0.0009064054955557892
0.0009064054955557892
0.0009064054955557892
0.0009064054955557892
0.0009064054955557892
0.0009064054955557892
0.0009064054955557892
0.0009064054955557892
0.0009064054955557892
0.0009064054955557892
0.0009064197921376457
0.0009064197921376457
0.0009064197921376457
0.0009064197921376457
0.0009064197921376457
0.0009064197921376457
0.0009064197921376457
0.0009064197921376457
0.0009064197921376457
0.0009064197921376457
0.0009064197921376457
0.0009064197921376457
0.0009064197921376457
0.0009064197921376457
0.0009064197921376457
0.0009064197921376457
0.0009064197921376457
0.0009064197921376457
0.0009064197921376457
0.0009064197921376457
0.0009064197921376457
0.0009064197921376457
0.0009064197921376457
0.0009064197921376457
0.0009064197921376457
0.0009064197921376457
0.0009064197921376457
0.0009064197921376457
0.0009064197921376457
0.0009064197921376457
0.0009064197921376457
0.0009064197921376457
0.0009064197921376457
0.0009064197921376457
0.0009064197921376457
0.0009064197921376457
0.0009064197921376457
0.0009064197921376457
0.0009064197921376457
0.0009064197921376457
0.0009064197921376457
0.0009064197921376457
0.0009064197921376457
0.0009064197921376457
0.0009064197921376457
0.0009064197921376457
0.0009064197921376457
0.0009064197921376457
0.0009064197921376457
0.0009064197921376457
0.0009064197921376457
0.0009064197921376457
0.0009064197921376457
0.0009064197921376457
0.0009064197921376457
0.0009064197921376457
0.0009064197921376457
0.0009064197921376457
0.0009064197921376457
0.0009064197921376457
0.0009064197921376457
0.0009064197921376457
0.0009064197921376457
0.0009064197921376457
0.0009064197921376457
0.0009064197921376457
0.0009064197921376457
0.0009064197921376457
0.0009064197921376457
0.0009064197921376457
0.0009064197921376457
0.0009064197921376457
0.0009064197921376457
0.0009064377623216958
0.0009064377623216958
0.0009064377623216958
0.0009064377623216958
0.0009064377623216958
0.0009064377623216958
0.0009064377623216958
0.0009064377623216958
0.0009064377623216958
0.0009064377623216958
0.0009064377623216958
0.0009064377623216958
0.0009064377623216958
0.0009064377623216958
0.0009064377623216958
0.0009064377623216958
0.0009064377623216958
0.0009064377623216958
0.0009064377623216958
0.0009064377623216958
0.0009064377623216958
0.0009064377623216958
0.0009064377623216958
0.0009064377623216958
0.0009064377623216958
0.0009064377623216958
0.0009064377623216958
0.0009064377623216958
0.0009064377623216958
0.0009064377623216958
0.0009064377623216958
0.0009064377623216958
0.0009064377623216958
0.0009064377623216958
0.0009064377623216958
0.0009064377623216958
0.0009064377623216958
0.0009064377623216958
0.0009064377623216958
0.0009064377623216958
0.0009064377623216958
0.0009064377623216958
0.0009064377623216958
0.0009064377623216958
0.0009064377623216958
0.0009064377623216958
0.0009064377623216958
0.0009064377623216958
0.0009064377623216958
0.0009064377623216958
0.0009064377623216958
0.0009064377623216958
0.0009064377623216958
0.0009064377623216958
0.0009064377623216958
0.0009064377623216958
0.0009064377623216958
0.0009064377623216958
0.0009064377623216958
0.0009064377623216958
0.0009064377623216958
0.0009064377623216958
0.0009064377623216958
0.0009064377623216958
0.0009064377623216958
0.0009064377623216958
0.0009064377623216958
0.0009064377623216958
0.0009064377623216958
0.0009064377623216958
0.0009064377623216958
0.0009064377623216958
0.0009064377623216958
0.0009064377623216958
0.0009064377623216958
0.0009064377623216958
0.0009064377623216958
0.0009064377623216958
0.0009064377623216958
0.0009064377623216958
0.0009064377623216958
0.0009064377623216958
0.0009064377623216958
0.0009064377623216958
0.0009064377623216958
0.0009064377623216958
0.0009064377623216958
0.0009064377623216958
0.0009064594898144224
0.0009064594898144224
0.0009064594898144224
0.0009064594898144224
0.0009064594898144224
0.0009064594898144224
0.0009064594898144224
0.0009064594898144224
0.0009064594898144224
0.0009064594898144224
0.0009064594898144224
0.0009064594898144224
0.0009064594898144224
0.0009064594898144224
0.0009064594898144224
0.0009064594898144224
0.0009064594898144224
0.0009064594898144224
0.0009064594898144224
0.0009064594898144224
0.0009064594898144224
0.0009064594898144224
0.0009064594898144224
0.0009064594898144224
0.0009064594898144224
0.0009064594898144224
0.0009064594898144224
0.0009064594898144224
0.0009064594898144224
0.0009064594898144224
0.0009064594898144224
0.0009064594898144224
0.0009064594898144224
0.0009064594898144224
0.0009064594898144224
0.0009064594898144224
0.0009064594898144224
0.0009064594898144224
0.0009064594898144224
0.0009064594898144224
0.0009064594898144224
0.0009064594898144224
0.0009064594898144224
0.0009064594898144224
0.0009064594898144224
0.0009064594898144224
0.0009064594898144224
0.0009064594898144224
0.0009064594898144224
0.0009064594898144224
0.0009064594898144224
0.0009064594898144224
0.0009064594898144224
0.0009064594898144224
0.0009064594898144224
0.0009064594898144224
0.0009064594898144224
0.0009064594898144224
0.0009064594898144224
0.0009064594898144224
0.0009064594898144224
0.0009064594898144224
0.0009064594898144224
0.0009064594898144224
0.0009064594898144224
0.0009064594898144224
0.0009064594898144224
0.0009064594898144224
0.0009064594898144224
0.0009064594898144224
0.0009064594898144224
0.0009064594898144224
0.0009064594898144224
0.0009064594898144224
0.0009064594898144224
0.0009064594898144224
0.0009064594898144224
0.0009064594898144224
0.0009064594898144224
0.0009064594898144224
0.0009064594898144224
0.0009064594898144224
0.0009064594898144224
0.0009064594898144224
0.0009064594898144224
0.0009064594898144224
0.0009064594898144224
0.0009064594898144224
0.0009064594898144224
0.0009064594898144224
0.0009064594898144224
0.0009064594898144224
0.0009064594898144224
0.0009064594898144224
0.0009064594898144224
0.0009064594898144224
0.0009064594898144224
0.0009064594898144224
0.0009064594898144224
0.0009064594898144224
0.0009064594898144224
0.0009064594898144224
0.0009064594898144224
0.0009064594898144224
0.0009064594898144224
0.0009064594898144224
0.0009064863733504669
0.0009064863733504669
0.0009064863733504669
0.0009064863733504669
0.0009064863733504669
0.0009064863733504669
0.0009064863733504669
0.0009064863733504669
0.0009064863733504669
0.0009064863733504669
0.0009064863733504669
0.0009064863733504669
0.0009064863733504669
0.0009064863733504669
0.0009064863733504669
0.0009064863733504669
0.0009064863733504669
0.0009064863733504669
0.0009064863733504669
0.0009064863733504669
0.0009064863733504669
0.0009064863733504669
0.0009064863733504669
0.0009064863733504669
0.0009064863733504669
0.0009064863733504669
0.0009064863733504669
0.0009064863733504669
0.0009064863733504669
0.0009064863733504669
0.0009064863733504669
0.0009064863733504669
0.0009064863733504669
0.0009064863733504669
0.0009064863733504669
0.0009064863733504669
0.0009064863733504669
0.0009064863733504669
0.0009064863733504669
0.0009064863733504669
0.0009064863733504669
0.0009064863733504669
0.0009064863733504669
0.0009064863733504669
0.0009064863733504669
0.0009064863733504669
0.0009064863733504669
0.0009064863733504669
0.0009064863733504669
0.0009064863733504669
0.0009064863733504669
0.0009064863733504669
0.0009064863733504669
0.0009064863733504669
0.0009064863733504669
0.0009064863733504669
0.0009064863733504669
0.0009064863733504669
0.0009064863733504669
0.0009064863733504669
0.0009064863733504669
0.0009064863733504669
0.0009064863733504669
0.0009064863733504669
0.0009064863733504669
0.0009064863733504669
0.0009064863733504669
0.0009064863733504669
0.0009064863733504669
0.0009064863733504669
0.0009064863733504669
0.0009064863733504669
0.0009064863733504669
0.0009064863733504669
0.0009064863733504669
0.0009064863733504669
0.0009064863733504669
0.0009064863733504669
0.0009064863733504669
0.0009064863733504669
0.0009064863733504669
0.0009064863733504669
0.0009064863733504669
0.0009064863733504669
0.0009064863733504669
0.0009064863733504669
0.0009064863733504669
0.0009064863733504669
0.0009064863733504669
0.0009064863733504669
0.0009064863733504669
0.0009064863733504669
0.0009064863733504669
0.0009064863733504669
0.0009064863733504669
0.0009064863733504669
0.0009064863733504669
0.0009064863733504669
0.0009064863733504669
0.0009064863733504669
0.0009064863733504669
0.0009064863733504669
0.0009064863733504669
0.0009064863733504669
0.0009064863733504669
0.0009064863733504669
0.0009064863733504669
0.0009064863733504669
0.0009064863733504669
0.0009064863733504669
0.0009064863733504669
0.0009064863733504669
0.0009064863733504669
0.0009064863733504669
0.0009064863733504669
0.0009064863733504669
0.0009064863733504669
0.0009064863733504669
0.0009064863733504669
0.0009064863733504669
0.0009064863733504669
0.0009064863733504669
0.0009064863733504669
0.0009064863733504669
0.0009064863733504669
0.0009064863733504669
0.0009064863733504669
0.0009065188099824291
0.0009065188099824291
0.0009065188099824291
0.0009065188099824291
0.0009065188099824291
0.0009065188099824291
0.0009065188099824291
0.0009065188099824291
0.0009065188099824291
0.0009065188099824291
0.0009065188099824291
0.0009065188099824291
0.0009065188099824291
0.0009065188099824291
0.0009065188099824291
0.0009065188099824291
0.0009065188099824291
0.0009065188099824291
0.0009065188099824291
0.0009065188099824291
0.0009065188099824291
0.0009065188099824291
0.0009065188099824291
0.0009065188099824291
0.0009065188099824291
0.0009065188099824291
0.0009065188099824291
0.0009065188099824291
0.0009065188099824291
0.0009065188099824291
0.0009065188099824291
0.0009065188099824291
0.0009065188099824291
0.0009065188099824291
0.0009065188099824291
0.0009065188099824291
0.0009065188099824291
0.0009065188099824291
0.0009065188099824291
0.0009065188099824291
0.0009065188099824291
0.0009065188099824291
0.0009065188099824291
0.0009065188099824291
0.0009065188099824291
0.0009065188099824291
0.0009065188099824291
0.0009065188099824291
0.0009065188099824291
0.0009065188099824291
0.0009065188099824291
0.0009065188099824291
0.0009065188099824291
0.0009065188099824291
0.0009065188099824291
0.0009065188099824291
0.0009065188099824291
0.0009065188099824291
0.0009065188099824291
0.0009065188099824291
0.0009065188099824291
0.0009065188099824291
0.0009065188099824291
0.0009065188099824291
0.0009065188099824291
0.0009065188099824291
0.0009065188099824291
0.0009065188099824291
0.0009065188099824291
0.0009065188099824291
0.0009065188099824291
0.0009065188099824291
0.0009065188099824291
0.0009065188099824291
0.0009065188099824291
0.0009065188099824291
0.0009065188099824291
0.0009065188099824291
0.0009065188099824291
0.0009065188099824291
0.0009065188099824291
0.0009065188099824291
0.0009065188099824291
0.0009065188099824291
0.0009065188099824291
0.0009065188099824291
0.0009065188099824291
0.0009065188099824291
0.0009065188099824291
0.0009065188099824291
0.0009065188099824291
0.0009065188099824291
0.0009065188099824291
0.0009065188099824291
0.0009065188099824291
0.0009065188099824291
0.0009065188099824291
0.0009065188099824291
0.0009065188099824291
0.0009065188099824291
0.0009065188099824291
0.0009065188099824291
0.0009065188099824291
0.0009065188099824291
0.0009065188099824291
0.0009065188099824291
0.0009065188099824291
0.0009065188099824291
0.0009065188099824291
0.0009065188099824291
0.0009065188099824291
0.0009065188099824291
0.0009065188099824291
0.0009065188099824291
0.0009065188099824291
0.0009065188099824291
0.0009065188099824291
0.0009065188099824291
0.0009065188099824291
0.0009065188099824291
0.0009065188099824291
0.0009065188099824291
0.0009065188099824291
0.0009065188099824291
0.0009065188099824291
0.0009065188099824291
0.0009065188099824291
0.0009065188099824291
0.0009065188099824291
0.0009065188099824291
0.0009065188099824291
0.0009065188099824291
0.0009065188099824291
0.0009065188099824291
0.0009065188099824291
0.0009065188099824291
0.0009065188099824291
0.0009065188099824291
0.0009065188099824291
0.0009065188099824291
0.0009065188099824291
0.0009065188099824291
0.0009065188099824291
0.0009065188099824291
0.0009065188099824291
0.0009065188099824291
0.0009065188099824291
0.0009065188099824291
0.0009065188099824291
0.0009065188099824291
0.0009065188099824291
0.0009065188099824291
0.0009065188099824291
0.0009065575100308627
0.0009065575100308627
0.0009065575100308627
0.0009065575100308627
0.0009065575100308627
0.0009065575100308627
0.0009065575100308627
0.0009065575100308627
0.0009065575100308627
0.0009065575100308627
0.0009065575100308627
0.0009065575100308627
0.0009065575100308627
0.0009065575100308627
0.0009065575100308627
0.0009065575100308627
0.0009065575100308627
0.0009065575100308627
0.0009065575100308627
0.0009065575100308627
0.0009065575100308627
0.0009065575100308627
0.0009065575100308627
0.0009065575100308627
0.0009065575100308627
0.0009065575100308627
0.0009065575100308627
0.0009065575100308627
0.0009065575100308627
0.0009065575100308627
0.0009065575100308627
0.0009065575100308627
0.0009065575100308627
0.0009065575100308627
0.0009065575100308627
0.0009065575100308627
0.0009065575100308627
0.0009065575100308627
0.0009065575100308627
0.0009065575100308627
0.0009065575100308627
0.0009065575100308627
0.0009065575100308627
0.0009065575100308627
0.0009065575100308627
0.0009065575100308627
0.0009065575100308627
0.0009065575100308627
0.0009065575100308627
0.0009065575100308627
0.0009065575100308627
0.0009065575100308627
0.0009065575100308627
0.0009065575100308627
0.0009065575100308627
0.0009065575100308627
0.0009065575100308627
0.0009065575100308627
0.0009065575100308627
0.0009065575100308627
0.0009065575100308627
0.0009065575100308627
0.0009065575100308627
0.0009065575100308627
0.0009065575100308627
0.0009065575100308627
0.0009065575100308627
0.0009065575100308627
0.0009065575100308627
0.0009065575100308627
0.0009065575100308627
0.0009065575100308627
0.0009065575100308627
0.0009065575100308627
0.0009065575100308627
0.0009065575100308627
0.0009065575100308627
0.0009065575100308627
0.0009065575100308627
0.0009065575100308627
0.0009065575100308627
0.0009065575100308627
0.0009065575100308627
0.0009065575100308627
0.0009065575100308627
0.0009065575100308627
0.0009065575100308627
0.0009065575100308627
0.0009065575100308627
0.0009065575100308627
0.0009065575100308627
0.0009065575100308627
0.0009065575100308627
0.0009065575100308627
0.0009065575100308627
0.0009065575100308627
0.0009065575100308627
0.0009065575100308627
0.0009065575100308627
0.0009065575100308627
0.0009065575100308627
0.0009065575100308627
0.0009065575100308627
0.0009065575100308627
0.0009065575100308627
0.0009065575100308627
0.0009065575100308627
0.0009065575100308627
0.0009065575100308627
0.0009065575100308627
0.0009065575100308627
0.0009065575100308627
0.0009065575100308627
0.0009065575100308627
0.0009065575100308627
0.0009065575100308627
0.0009065575100308627
0.0009065575100308627
0.0009065575100308627
0.0009065575100308627
0.0009065575100308627
0.0009065575100308627
0.0009065575100308627
0.0009065575100308627
0.0009065575100308627
0.0009065575100308627
0.0009065575100308627
0.0009065575100308627
0.0009065575100308627
0.0009065575100308627
0.0009065575100308627
0.0009065575100308627
0.0009065575100308627
0.0009065575100308627
0.0009065575100308627
0.0009065575100308627
0.0009065575100308627
0.0009065575100308627
0.0009065575100308627
0.0009065575100308627
0.0009065575100308627
0.0009065575100308627
0.0009065575100308627
0.0009065575100308627
0.0009065575100308627
0.0009065575100308627
0.0009065575100308627
0.0009065575100308627
0.0009065575100308627
0.0009065575100308627
0.0009065575100308627
0.0009065575100308627
0.0009065575100308627
0.0009065575100308627
0.0009065575100308627
0.0009065575100308627
0.0009065575100308627
0.0009065575100308627
0.0009065575100308627
0.0009065575100308627
0.0009065575100308627
0.0009065575100308627
0.0009065575100308627
0.0009065575100308627
0.0009065575100308627
0.0009065575100308627
0.0009065575100308627
0.0009065575100308627
0.0009065575100308627
0.0009065575100308627
0.0009065575100308627
0.0009065575100308627
0.0009065575100308627
0.0009065575100308627
0.0009065575100308627
0.0009065575100308627
0.0009065575100308627
0.0009065575100308627
0.0009065575100308627
0.0009065575100308627
0.0009065575100308627
0.0009065575100308627
0.0009066041234475122
0.0009066041234475122
0.0009066041234475122
0.0009066041234475122
0.0009066041234475122
0.0009066041234475122
0.0009066041234475122
0.0009066041234475122
0.0009066041234475122
0.0009066041234475122
0.0009066041234475122
0.0009066041234475122
0.0009066041234475122
0.0009066041234475122
0.0009066041234475122
0.0009066041234475122
0.0009066041234475122
0.0009066041234475122
0.0009066041234475122
0.0009066041234475122
0.0009066041234475122
0.0009066041234475122
0.0009066041234475122
0.0009066041234475122
0.0009066041234475122
0.0009066041234475122
0.0009066041234475122
0.0009066041234475122
0.0009066041234475122
0.0009066041234475122
0.0009066041234475122
0.0009066041234475122
0.0009066041234475122
0.0009066041234475122
0.0009066041234475122
0.0009066041234475122
0.0009066041234475122
0.0009066041234475122
0.0009066041234475122
0.0009066041234475122
0.0009066041234475122
0.0009066041234475122
0.0009066041234475122
0.0009066041234475122
0.0009066041234475122
0.0009066041234475122
0.0009066041234475122
0.0009066041234475122
0.0009066041234475122
0.0009066041234475122
0.0009066041234475122
0.0009066041234475122
0.0009066041234475122
0.0009066041234475122
0.0009066041234475122
0.0009066041234475122
0.0009066041234475122
0.0009066041234475122
0.0009066041234475122
0.0009066041234475122
0.0009066041234475122
0.0009066041234475122
0.0009066041234475122
0.0009066041234475122
0.0009066041234475122
0.0009066041234475122
0.0009066041234475122
0.0009066041234475122
0.0009066041234475122
0.0009066041234475122
0.0009066041234475122
0.0009066041234475122
0.0009066041234475122
0.0009066041234475122
0.0009066041234475122
0.0009066041234475122
0.0009066041234475122
0.0009066041234475122
0.0009066041234475122
0.0009066041234475122
0.0009066041234475122
0.0009066041234475122
0.0009066041234475122
0.0009066041234475122
0.0009066041234475122
0.0009066041234475122
0.0009066041234475122
0.0009066041234475122
0.0009066041234475122
0.0009066041234475122
0.0009066041234475122
0.0009066041234475122
0.0009066041234475122
0.0009066041234475122
0.0009066041234475122
0.0009066041234475122
0.0009066041234475122
0.0009066041234475122
0.0009066041234475122
0.0009066041234475122
0.0009066041234475122
0.0009066041234475122
0.0009066041234475122
0.0009066041234475122
0.0009066041234475122
0.0009066041234475122
0.0009066041234475122
0.0009066041234475122
0.0009066041234475122
0.0009066041234475122
0.0009066041234475122
0.0009066041234475122
0.0009066041234475122
0.0009066041234475122
0.0009066041234475122
0.0009066041234475122
0.0009066041234475122
0.0009066041234475122
0.0009066041234475122
0.0009066041234475122
0.0009066041234475122
0.0009066041234475122
0.0009066041234475122
0.0009066041234475122
0.0009066041234475122
0.0009066041234475122
0.0009066041234475122
0.0009066041234475122
0.0009066041234475122
0.0009066041234475122
0.0009066041234475122
0.0009066041234475122
0.0009066041234475122
0.0009066041234475122
0.0009066041234475122
0.0009066041234475122
0.0009066041234475122
0.0009066041234475122
0.0009066041234475122
0.0009066041234475122
0.0009066041234475122
0.0009066041234475122
0.0009066041234475122
0.0009066041234475122
0.0009066041234475122
0.0009066041234475122
0.0009066041234475122
0.0009066041234475122
0.0009066041234475122
0.0009066041234475122
0.0009066041234475122
0.0009066041234475122
0.0009066041234475122
0.0009066041234475122
0.0009066041234475122
0.0009066041234475122
0.0009066041234475122
0.0009066041234475122
0.0009066041234475122
0.0009066041234475122
0.0009066041234475122
0.0009066041234475122
0.0009066041234475122
0.0009066041234475122
0.0009066041234475122
0.0009066041234475122
0.0009066041234475122
0.0009066041234475122
0.0009066041234475122
0.0009066041234475122
0.0009066041234475122
0.0009066041234475122
0.0009066041234475122
0.0009066041234475122
0.0009066041234475122
0.0009066041234475122
0.0009066041234475122
0.0009066041234475122
0.0009066041234475122
0.0009066041234475122
0.0009066041234475122
0.0009066041234475122
0.0009066041234475122
0.0009066041234475122
0.0009066041234475122
0.0009066041234475122
0.0009066041234475122
0.0009066041234475122
0.0009066041234475122
0.0009066041234475122
0.0009066041234475122
0.0009066041234475122
0.0009066041234475122
0.0009066041234475122
0.0009066041234475122
0.0009066041234475122
0.0009066041234475122
0.0009066041234475122
0.0009066041234475122
0.0009066041234475122
0.0009066041234475122
0.0009066041234475122
0.0009066041234475122
0.0009066041234475122
0.0009066041234475122
0.0009066041234475122
0.0009066041234475122
0.0009066041234475122
0.0009066041234475122
0.0009066041234475122
0.0009066041234475122
0.0009066041234475122
0.0009066041234475122
0.0009066041234475122
0.0009066041234475122
0.0009066041234475122
0.0009066041234475122
0.0009066041234475122
0.0009066041234475122
0.0009066041234475122
0.0009066596744062006
0.0009066596744062006
0.0009066596744062006
0.0009066596744062006
0.0009066596744062006
0.0009066596744062006
0.0009066596744062006
0.0009066596744062006
0.0009066596744062006
0.0009066596744062006
0.0009066596744062006
0.0009066596744062006
0.0009066596744062006
0.0009066596744062006
0.0009066596744062006
0.0009066596744062006
0.0009066596744062006
0.0009066596744062006
0.0009066596744062006
0.0009066596744062006
0.0009066596744062006
0.0009066596744062006
0.0009066596744062006
0.0009066596744062006
0.0009066596744062006
0.0009066596744062006
0.0009066596744062006
0.0009066596744062006
0.0009066596744062006
0.0009066596744062006
0.0009066596744062006
0.0009066596744062006
0.0009066596744062006
0.0009066596744062006
0.0009066596744062006
0.0009066596744062006
0.0009066596744062006
0.0009066596744062006
0.0009066596744062006
0.0009066596744062006
0.0009066596744062006
0.0009066596744062006
0.0009066596744062006
0.0009066596744062006
0.0009066596744062006
0.0009066596744062006
0.0009066596744062006
0.0009066596744062006
0.0009066596744062006
0.0009066596744062006
0.0009066596744062006
0.0009066596744062006
0.0009066596744062006
0.0009066596744062006
0.0009066596744062006
0.0009066596744062006
0.0009066596744062006
0.0009066596744062006
0.0009066596744062006
0.0009066596744062006
0.0009066596744062006
0.0009066596744062006
0.0009066596744062006
0.0009066596744062006
0.0009066596744062006
0.0009066596744062006
0.0009066596744062006
0.0009066596744062006
0.0009066596744062006
0.0009066596744062006
0.0009066596744062006
0.0009066596744062006
0.0009066596744062006
0.0009066596744062006
0.0009066596744062006
0.0009066596744062006
0.0009066596744062006
0.0009066596744062006
0.0009066596744062006
0.0009066596744062006
0.0009066596744062006
0.0009066596744062006
0.0009066596744062006
0.0009066596744062006
0.0009066596744062006
0.0009066596744062006
0.0009066596744062006
0.0009066596744062006
0.0009066596744062006
0.0009066596744062006
0.0009066596744062006
0.0009066596744062006
0.0009066596744062006
0.0009066596744062006
0.0009066596744062006
0.0009066596744062006
0.0009066596744062006
0.0009066596744062006
0.0009066596744062006
0.0009066596744062006
0.0009066596744062006
0.0009066596744062006
0.0009066596744062006
0.0009066596744062006
0.0009066596744062006
0.0009066596744062006
0.0009066596744062006
0.0009066596744062006
0.0009066596744062006
0.0009066596744062006
0.0009066596744062006
0.0009066596744062006
0.0009066596744062006
0.0009066596744062006
0.0009066596744062006
0.0009066596744062006
0.0009066596744062006
0.0009066596744062006
0.0009066596744062006
0.0009066596744062006
0.0009066596744062006
0.0009066596744062006
0.0009066596744062006
0.0009066596744062006
0.0009066596744062006
0.0009066596744062006
0.0009066596744062006
0.0009066596744062006
0.0009066596744062006
0.0009066596744062006
0.0009066596744062006
0.0009066596744062006
0.0009066596744062006
0.0009066596744062006
0.0009066596744062006
0.0009066596744062006
0.0009066596744062006
0.0009066596744062006
0.0009066596744062006
0.0009066596744062006
0.0009066596744062006
0.0009066596744062006
0.0009066596744062006
0.0009066596744062006
0.0009066596744062006
0.0009066596744062006
0.0009066596744062006
0.0009066596744062006
0.0009066596744062006
0.0009066596744062006
0.0009066596744062006
0.0009066596744062006
0.0009066596744062006
0.0009066596744062006
0.0009066596744062006
0.0009066596744062006
0.0009066596744062006
0.0009066596744062006
0.0009066596744062006
0.0009066596744062006
0.0009066596744062006
0.0009066596744062006
0.0009066596744062006
0.0009066596744062006
0.0009066596744062006
0.0009066596744062006
0.0009066596744062006
0.0009066596744062006
0.0009066596744062006
0.0009066596744062006
0.0009066596744062006
0.0009066596744062006
0.0009066596744062006
0.0009066596744062006
0.0009066596744062006
0.0009066596744062006
0.0009066596744062006
0.0009066596744062006
0.0009066596744062006
0.0009066596744062006
0.0009066596744062006
0.0009066596744062006
0.0009066596744062006
0.0009066596744062006
0.0009066596744062006
0.0009066596744062006
0.0009066596744062006
0.0009066596744062006
0.0009066596744062006
0.0009066596744062006
0.0009066596744062006
0.0009066596744062006
0.0009066596744062006
0.0009066596744062006
0.0009066596744062006
0.0009066596744062006
0.0009066596744062006
0.0009066596744062006
0.0009066596744062006
0.0009066596744062006
0.0009066596744062006
0.0009066596744062006
0.0009066596744062006
0.0009066596744062006
0.0009066596744062006
0.0009066596744062006
0.0009066596744062006
0.0009066596744062006
0.0009066596744062006
0.0009066596744062006
0.0009066596744062006
0.0009066596744062006
0.0009066596744062006
0.0009066596744062006
0.0009066596744062006
0.0009066596744062006
0.0009066596744062006
0.0009066596744062006
0.0009066596744062006
0.0009066596744062006
0.0009066596744062006
0.0009066596744062006
0.0009066596744062006
0.0009066596744062006
0.0009066596744062006
0.0009066596744062006
0.0009066596744062006
0.0009066596744062006
0.0009066596744062006
0.0009066596744062006
0.0009066596744062006
0.0009066596744062006
0.0009066596744062006
0.0009066596744062006
0.0009066596744062006
0.0009066596744062006
0.0009066596744062006
0.0009066596744062006
0.0009066596744062006
0.0009066596744062006
0.0009066596744062006
0.0009066596744062006
0.0009066596744062006
0.0009066596744062006
0.0009066596744062006
0.0009066596744062006
0.0009066596744062006
0.0009066596744062006
0.0009066596744062006
0.0009066596744062006
0.0009066596744062006
0.0009066596744062006
0.0009066596744062006
0.0009066596744062006
0.0009066596744062006
0.0009066596744062006
0.0009066596744062006
0.0009066596744062006
0.0009066596744062006
0.0009066596744062006
0.0009066596744062006
0.0009066596744062006
0.0009066596744062006
0.000906726586411826
0.000906726586411826
0.000906726586411826
0.000906726586411826
0.000906726586411826
0.000906726586411826
0.000906726586411826
0.000906726586411826
0.000906726586411826
0.000906726586411826
0.000906726586411826
0.000906726586411826
0.000906726586411826
0.000906726586411826
0.000906726586411826
0.000906726586411826
0.000906726586411826
0.000906726586411826
0.000906726586411826
0.000906726586411826
0.000906726586411826
0.000906726586411826
0.000906726586411826
0.000906726586411826
0.000906726586411826
0.000906726586411826
0.000906726586411826
0.000906726586411826
0.000906726586411826
0.000906726586411826
0.000906726586411826
0.000906726586411826
0.000906726586411826
0.000906726586411826
0.000906726586411826
0.000906726586411826
0.000906726586411826
0.000906726586411826
0.000906726586411826
0.000906726586411826
0.000906726586411826
0.000906726586411826
0.000906726586411826
0.000906726586411826
0.000906726586411826
0.000906726586411826
0.000906726586411826
0.000906726586411826
0.000906726586411826
0.000906726586411826
0.000906726586411826
0.000906726586411826
0.000906726586411826
0.000906726586411826
0.000906726586411826
0.000906726586411826
0.000906726586411826
0.000906726586411826
0.000906726586411826
0.000906726586411826
0.000906726586411826
0.000906726586411826
0.000906726586411826
0.000906726586411826
0.000906726586411826
0.000906726586411826
0.000906726586411826
0.000906726586411826
0.000906726586411826
0.000906726586411826
0.000906726586411826
0.000906726586411826
0.000906726586411826
0.000906726586411826
0.000906726586411826
0.000906726586411826
0.000906726586411826
0.000906726586411826
0.000906726586411826
0.000906726586411826
0.000906726586411826
0.000906726586411826
0.000906726586411826
0.000906726586411826
0.000906726586411826
0.000906726586411826
0.000906726586411826
0.000906726586411826
0.000906726586411826
0.000906726586411826
0.000906726586411826
0.000906726586411826
0.000906726586411826
0.000906726586411826
0.000906726586411826
0.000906726586411826
0.000906726586411826
0.000906726586411826
0.000906726586411826
0.000906726586411826
0.000906726586411826
0.000906726586411826
0.000906726586411826
0.000906726586411826
0.000906726586411826
0.000906726586411826
0.000906726586411826
0.000906726586411826
0.000906726586411826
0.000906726586411826
0.000906726586411826
0.000906726586411826
0.000906726586411826
0.000906726586411826
0.000906726586411826
0.000906726586411826
0.000906726586411826
0.000906726586411826
0.000906726586411826
0.000906726586411826
0.000906726586411826
0.000906726586411826
0.000906726586411826
0.000906726586411826
0.000906726586411826
0.000906726586411826
0.000906726586411826
0.000906726586411826
0.000906726586411826
0.000906726586411826
0.000906726586411826
0.000906726586411826
0.000906726586411826
0.000906726586411826
0.000906726586411826
0.000906726586411826
0.000906726586411826
0.000906726586411826
0.000906726586411826
0.000906726586411826
0.000906726586411826
0.000906726586411826
0.000906726586411826
0.000906726586411826
0.000906726586411826
0.000906726586411826
0.000906726586411826
0.000906726586411826
0.000906726586411826
0.000906726586411826
0.000906726586411826
0.000906726586411826
0.000906726586411826
0.000906726586411826
0.000906726586411826
0.000906726586411826
0.000906726586411826
0.000906726586411826
0.000906726586411826
0.000906726586411826
0.000906726586411826
0.000906726586411826
0.000906726586411826
0.000906726586411826
0.000906726586411826
0.000906726586411826
0.000906726586411826
0.000906726586411826
0.000906726586411826
0.000906726586411826
0.000906726586411826
0.000906726586411826
0.000906726586411826
0.000906726586411826
0.000906726586411826
0.000906726586411826
0.000906726586411826
0.000906726586411826
0.000906726586411826
0.000906726586411826
0.000906726586411826
0.000906726586411826
0.000906726586411826
0.000906726586411826
0.000906726586411826
0.000906726586411826
0.000906726586411826
0.000906726586411826
0.000906726586411826
0.000906726586411826
0.000906726586411826
0.000906726586411826
0.000906726586411826
0.000906726586411826
0.000906726586411826
0.000906726586411826
0.000906726586411826
0.000906726586411826
0.000906726586411826
0.000906726586411826
0.000906726586411826
0.000906726586411826
0.000906726586411826
0.000906726586411826
0.000906726586411826
0.000906726586411826
0.000906726586411826
0.000906726586411826
0.000906726586411826
0.000906726586411826
0.000906726586411826
0.000906726586411826
0.000906726586411826
0.000906726586411826
0.000906726586411826
0.000906726586411826
0.000906726586411826
0.000906726586411826
0.000906726586411826
0.000906726586411826
0.000906726586411826
0.000906726586411826
0.000906726586411826
0.000906726586411826
0.000906726586411826
0.000906726586411826
0.000906726586411826
0.000906726586411826
0.000906726586411826
0.000906726586411826
0.000906726586411826
0.000906726586411826
0.000906726586411826
0.000906726586411826
0.000906726586411826
0.000906726586411826
0.000906726586411826
0.000906726586411826
0.000906726586411826
0.000906726586411826
0.000906726586411826
0.000906726586411826
0.000906726586411826
0.000906726586411826
0.000906726586411826
0.000906726586411826
0.000906726586411826
0.000906726586411826
0.000906726586411826
0.000906726586411826
0.000906726586411826
0.000906726586411826
0.000906726586411826
0.000906726586411826
0.000906726586411826
0.000906726586411826
0.000906726586411826
0.000906726586411826
0.000906726586411826
0.000906726586411826
0.000906726586411826
0.000906726586411826
0.000906726586411826
0.000906726586411826
0.000906726586411826
0.000906726586411826
0.000906726586411826
0.000906726586411826
0.000906726586411826
0.000906726586411826
0.000906726586411826
0.000906726586411826
0.000906726586411826
0.000906726586411826
0.000906726586411826
0.000906726586411826
0.000906726586411826
0.000906726586411826
0.000906726586411826
0.000906726586411826
0.000906726586411826
0.000906726586411826
0.000906726586411826
0.000906726586411826
0.000906726586411826
0.000906726586411826
0.000906726586411826
0.000906726586411826
0.000906726586411826
0.000906726586411826
0.000906726586411826
0.000906726586411826
0.000906726586411826
0.000906726586411826
0.000906726586411826
0.000906726586411826
0.000906726586411826
0.000906726586411826
0.000906726586411826
0.000906726586411826
0.000906726586411826
0.000906726586411826
0.000906726586411826
0.000906726586411826
0.000906726586411826
0.000906726586411826
0.000906726586411826
0.000906726586411826
0.000906726586411826
0.000906726586411826
0.000906726586411826
0.000906726586411826
0.000906726586411826
0.000906726586411826
0.000906726586411826
0.000906726586411826
0.0009068070543769775
0.0009068070543769775
0.0009068070543769775
0.0009068070543769775
0.0009068070543769775
0.0009068070543769775
0.0009068070543769775
0.0009068070543769775
0.0009068070543769775
0.0009068070543769775
0.0009068070543769775
0.0009068070543769775
0.0009068070543769775
0.0009068070543769775
0.0009068070543769775
0.0009068070543769775
0.0009068070543769775
0.0009068070543769775
0.0009068070543769775
0.0009068070543769775
0.0009068070543769775
0.0009068070543769775
0.0009068070543769775
0.0009068070543769775
0.0009068070543769775
0.0009068070543769775
0.0009068070543769775
0.0009068070543769775
0.0009068070543769775
0.0009068070543769775
0.0009068070543769775
0.0009068070543769775
0.0009068070543769775
0.0009068070543769775
0.0009068070543769775
0.0009068070543769775
0.0009068070543769775
0.0009068070543769775
0.0009068070543769775
0.0009068070543769775
0.0009068070543769775
0.0009068070543769775
0.0009068070543769775
0.0009068070543769775
0.0009068070543769775
0.0009068070543769775
0.0009068070543769775
0.0009068070543769775
0.0009068070543769775
0.0009068070543769775
0.0009068070543769775
0.0009068070543769775
0.0009068070543769775
0.0009068070543769775
0.0009068070543769775
0.0009068070543769775
0.0009068070543769775
0.0009068070543769775
0.0009068070543769775
0.0009068070543769775
0.0009068070543769775
0.0009068070543769775
0.0009068070543769775
0.0009068070543769775
0.0009068070543769775
0.0009068070543769775
0.0009068070543769775
0.0009068070543769775
0.0009068070543769775
0.0009068070543769775
0.0009068070543769775
0.0009068070543769775
0.0009068070543769775
0.0009068070543769775
0.0009068070543769775
0.0009068070543769775
0.0009068070543769775
0.0009068070543769775
0.0009068070543769775
0.0009068070543769775
0.0009068070543769775
0.0009068070543769775
0.0009068070543769775
0.0009068070543769775
0.0009068070543769775
0.0009068070543769775
0.0009068070543769775
0.0009068070543769775
0.0009068070543769775
0.0009068070543769775
0.0009068070543769775
0.0009068070543769775
0.0009068070543769775
0.0009068070543769775
0.0009068070543769775
0.0009068070543769775
0.0009068070543769775
0.0009068070543769775
0.0009068070543769775
0.0009068070543769775
0.0009068070543769775
0.0009068070543769775
0.0009068070543769775
0.0009068070543769775
