0.0021810407505020793
0.002135640115617873
0.002135639377994036
0.002135638787895152
0.002135638001096889
0.002135637509348124
0.0021356369192497534
0.0021356362308018635
0.002135635444004543
0.002135635444004543
0.0021356345588579065
0.0021356345588579065
0.002135633526187293
0.002135633526187293
0.0021356324443424246
0.0021356324443424246
0.0021356324443424246
0.0021356312149739217
0.0021356312149739217
0.0021356312149739217
0.0021356299364314276
0.0021356299364314276
0.0021356299364314276
0.0021356299364314276
0.0021356287070643685
0.0021356287070643685
0.0021356287070643685
0.0021356287070643685
0.0021356287070643685
0.0021356274776980146
0.0021356274776980146
0.0021356274776980146
0.0021356274776980146
0.0021356274776980146
0.0021356274776980146
0.0021356264450308254
0.0021356264450308254
0.0021356264450308254
0.0021356264450308254
0.0021356264450308254
0.0021356264450308254
0.0021356264450308254
0.0021356257074117103
0.0021356257074117103
0.0021356257074117103
0.0021356257074117103
0.0021356257074117103
0.0021356257074117103
0.0021356257074117103
0.0021356257074117103
0.0021356255598879185
0.0021356255598879185
0.0021356255598879185
0.0021356255598879185
0.0021356255598879185
0.0021356255598879185
0.0021356255598879185
0.0021356255598879185
0.0021356255598879185
0.0021356255598879185
0.0021356261008085397
0.0021356261008085397
0.0021356261008085397
0.0021356261008085397
0.0021356261008085397
0.0021356261008085397
0.0021356261008085397
0.0021356261008085397
0.0021356261008085397
0.0021356261008085397
0.0021356261008085397
0.0021356261008085397
0.00213562787109517
0.00213562787109517
0.00213562787109517
0.00213562787109517
0.00213562787109517
0.00213562787109517
0.00213562787109517
0.00213562787109517
0.00213562787109517
0.00213562787109517
0.00213562787109517
0.00213562787109517
0.00213562787109517
0.00213562787109517
0.002135630870750867
0.002135630870750867
0.002135630870750867
0.002135630870750867
0.002135630870750867
0.002135630870750867
0.002135630870750867
0.002135630870750867
0.002135630870750867
0.002135630870750867
0.002135630870750867
0.002135630870750867
0.002135630870750867
0.002135630870750867
0.002135630870750867
0.002135630870750867
0.002135630870750867
0.002135635935752835
0.002135635935752835
0.002135635935752835
0.002135635935752835
0.002135635935752835
0.002135635935752835
0.002135635935752835
0.002135635935752835
0.002135635935752835
0.002135635935752835
0.002135635935752835
0.002135635935752835
0.002135635935752835
0.002135635935752835
0.002135635935752835
0.002135635935752835
0.002135635935752835
0.002135635935752835
0.002135635935752835
0.002135635935752835
0.0021356431644657687
0.0021356431644657687
0.0021356431644657687
0.0021356431644657687
0.0021356431644657687
0.0021356431644657687
0.0021356431644657687
0.0021356431644657687
0.0021356431644657687
0.0021356431644657687
0.0021356431644657687
0.0021356431644657687
0.0021356431644657687
0.0021356431644657687
0.0021356431644657687
0.0021356431644657687
0.0021356431644657687
0.0021356431644657687
0.0021356431644657687
0.0021356431644657687
0.0021356431644657687
0.0021356431644657687
0.0021356431644657687
0.0021356431644657687
0.0021356431644657687
0.0021356530978390996
0.0021356530978390996
0.0021356530978390996
0.0021356530978390996
0.0021356530978390996
0.0021356530978390996
0.0021356530978390996
0.0021356530978390996
0.0021356530978390996
0.0021356530978390996
0.0021356530978390996
0.0021356530978390996
0.0021356530978390996
0.0021356530978390996
0.0021356530978390996
0.0021356530978390996
0.0021356530978390996
0.0021356530978390996
0.0021356530978390996
0.0021356530978390996
0.0021356530978390996
0.0021356530978390996
0.0021356530978390996
0.0021356530978390996
0.0021356530978390996
0.0021356530978390996
0.0021356530978390996
0.0021356530978390996
0.0021356530978390996
0.0021356530978390996
0.0021356662768413684
0.0021356662768413684
0.0021356662768413684
0.0021356662768413684
0.0021356662768413684
0.0021356662768413684
0.0021356662768413684
0.0021356662768413684
0.0021356662768413684
0.0021356662768413684
0.0021356662768413684
0.0021356662768413684
0.0021356662768413684
0.0021356662768413684
0.0021356662768413684
0.0021356662768413684
0.0021356662768413684
0.0021356662768413684
0.0021356662768413684
0.0021356662768413684
0.0021356662768413684
0.0021356662768413684
0.0021356662768413684
0.0021356662768413684
0.0021356662768413684
0.0021356662768413684
0.0021356662768413684
0.0021356662768413684
0.0021356662768413684
0.0021356662768413684
0.0021356662768413684
0.0021356662768413684
0.0021356662768413684
0.0021356662768413684
0.0021356662768413684
0.0021356834391714585
0.0021356834391714585
0.0021356834391714585
0.0021356834391714585
0.0021356834391714585
0.0021356834391714585
0.0021356834391714585
0.0021356834391714585
0.0021356834391714585
0.0021356834391714585
0.0021356834391714585
0.0021356834391714585
0.0021356834391714585
0.0021356834391714585
0.0021356834391714585
0.0021356834391714585
0.0021356834391714585
0.0021356834391714585
0.0021356834391714585
0.0021356834391714585
0.0021356834391714585
0.0021356834391714585
0.0021356834391714585
0.0021356834391714585
0.0021356834391714585
0.0021356834391714585
0.0021356834391714585
0.0021356834391714585
0.0021356834391714585
0.0021356834391714585
0.0021356834391714585
0.0021356834391714585
0.0021356834391714585
0.0021356834391714585
0.0021356834391714585
0.0021356834391714585
0.0021356834391714585
0.0021356834391714585
0.0021356834391714585
0.0021356834391714585
0.0021356834391714585
0.0021356834391714585
0.0021357046832782313
0.0021357046832782313
0.0021357046832782313
0.0021357046832782313
0.0021357046832782313
0.0021357046832782313
0.0021357046832782313
0.0021357046832782313
0.0021357046832782313
0.0021357046832782313
0.0021357046832782313
0.0021357046832782313
0.0021357046832782313
0.0021357046832782313
0.0021357046832782313
0.0021357046832782313
0.0021357046832782313
0.0021357046832782313
0.0021357046832782313
0.0021357046832782313
0.0021357046832782313
0.0021357046832782313
0.0021357046832782313
0.0021357046832782313
0.0021357046832782313
0.0021357046832782313
0.0021357046832782313
0.0021357046832782313
0.0021357046832782313
0.0021357046832782313
0.0021357046832782313
0.0021357046832782313
0.0021357046832782313
0.0021357046832782313
0.0021357046832782313
0.0021357046832782313
0.0021357046832782313
0.0021357046832782313
0.0021357046832782313
0.0021357046832782313
0.0021357046832782313
0.0021357046832782313
0.0021357046832782313
0.0021357046832782313
0.0021357046832782313
0.0021357046832782313
0.0021357046832782313
0.0021357046832782313
0.0021357046832782313
0.0021357046832782313
0.0021357046832782313
0.0021357046832782313
0.00213573079611565
0.00213573079611565
0.00213573079611565
0.00213573079611565
0.00213573079611565
0.00213573079611565
0.00213573079611565
0.00213573079611565
0.00213573079611565
0.00213573079611565
0.00213573079611565
0.00213573079611565
0.00213573079611565
0.00213573079611565
0.00213573079611565
0.00213573079611565
0.00213573079611565
0.00213573079611565
0.00213573079611565
0.00213573079611565
0.00213573079611565
0.00213573079611565
0.00213573079611565
0.00213573079611565
0.00213573079611565
0.00213573079611565
0.00213573079611565
0.00213573079611565
0.00213573079611565
0.00213573079611565
0.00213573079611565
0.00213573079611565
0.00213573079611565
0.00213573079611565
0.00213573079611565
0.00213573079611565
0.00213573079611565
0.00213573079611565
0.00213573079611565
0.00213573079611565
0.00213573079611565
0.00213573079611565
0.00213573079611565
0.00213573079611565
0.00213573079611565
0.00213573079611565
0.00213573079611565
0.00213573079611565
0.00213573079611565
0.00213573079611565
0.00213573079611565
0.00213573079611565
0.00213573079611565
0.00213573079611565
0.00213573079611565
0.00213573079611565
0.00213573079611565
0.00213573079611565
0.00213573079611565
0.00213573079611565
0.00213573079611565
0.0021357617286845636
0.0021357617286845636
0.0021357617286845636
0.0021357617286845636
0.0021357617286845636
0.0021357617286845636
0.0021357617286845636
0.0021357617286845636
0.0021357617286845636
0.0021357617286845636
0.0021357617286845636
0.0021357617286845636
0.0021357617286845636
0.0021357617286845636
0.0021357617286845636
0.0021357617286845636
0.0021357617286845636
0.0021357617286845636
0.0021357617286845636
0.0021357617286845636
0.0021357617286845636
0.0021357617286845636
0.0021357617286845636
0.0021357617286845636
0.0021357617286845636
0.0021357617286845636
0.0021357617286845636
0.0021357617286845636
0.0021357617286845636
0.0021357617286845636
0.0021357617286845636
0.0021357617286845636
0.0021357617286845636
0.0021357617286845636
0.0021357617286845636
0.0021357617286845636
0.0021357617286845636
0.0021357617286845636
0.0021357617286845636
0.0021357617286845636
0.0021357617286845636
0.0021357617286845636
0.0021357617286845636
0.0021357617286845636
0.0021357617286845636
0.0021357617286845636
0.0021357617286845636
0.0021357617286845636
0.0021357617286845636
0.0021357617286845636
0.0021357617286845636
0.0021357617286845636
0.0021357617286845636
0.0021357617286845636
0.0021357617286845636
0.0021357617286845636
0.0021357617286845636
0.0021357617286845636
0.0021357617286845636
0.0021357617286845636
0.0021357617286845636
0.0021357617286845636
0.0021357617286845636
0.0021357617286845636
0.0021357617286845636
0.0021357617286845636
0.0021357617286845636
0.0021357617286845636
0.0021357617286845636
0.0021357617286845636
0.0021357617286845636
0.0021357617286845636
0.0021357617286845636
0.002135800677802809
0.002135800677802809
0.002135800677802809
0.002135800677802809
0.002135800677802809
0.002135800677802809
0.002135800677802809
0.002135800677802809
0.002135800677802809
0.002135800677802809
0.002135800677802809
0.002135800677802809
0.002135800677802809
0.002135800677802809
0.002135800677802809
0.002135800677802809
0.002135800677802809
0.002135800677802809
0.002135800677802809
0.002135800677802809
0.002135800677802809
0.002135800677802809
0.002135800677802809
0.002135800677802809
0.002135800677802809
0.002135800677802809
0.002135800677802809
0.002135800677802809
0.002135800677802809
0.002135800677802809
0.002135800677802809
0.002135800677802809
0.002135800677802809
0.002135800677802809
0.002135800677802809
0.002135800677802809
0.002135800677802809
0.002135800677802809
0.002135800677802809
0.002135800677802809
0.002135800677802809
0.002135800677802809
0.002135800677802809
0.002135800677802809
0.002135800677802809
0.002135800677802809
0.002135800677802809
0.002135800677802809
0.002135800677802809
0.002135800677802809
0.002135800677802809
0.002135800677802809
0.002135800677802809
0.002135800677802809
0.002135800677802809
0.002135800677802809
0.002135800677802809
0.002135800677802809
0.002135800677802809
0.002135800677802809
0.002135800677802809
0.002135800677802809
0.002135800677802809
0.002135800677802809
0.002135800677802809
0.002135800677802809
0.002135800677802809
0.002135800677802809
0.002135800677802809
0.002135800677802809
0.002135800677802809
0.002135800677802809
0.002135800677802809
0.002135800677802809
0.002135800677802809
0.002135800677802809
0.002135800677802809
0.002135800677802809
0.002135800677802809
0.002135800677802809
0.002135800677802809
0.002135800677802809
0.002135800677802809
0.002135800677802809
0.002135800677802809
0.002135800677802809
0.002135800677802809
0.002135800677802809
0.0021358463160572115
0.0021358463160572115
0.0021358463160572115
0.0021358463160572115
0.0021358463160572115
0.0021358463160572115
0.0021358463160572115
0.0021358463160572115
0.0021358463160572115
0.0021358463160572115
0.0021358463160572115
0.0021358463160572115
0.0021358463160572115
0.0021358463160572115
0.0021358463160572115
0.0021358463160572115
0.0021358463160572115
0.0021358463160572115
0.0021358463160572115
0.0021358463160572115
0.0021358463160572115
0.0021358463160572115
0.0021358463160572115
0.0021358463160572115
0.0021358463160572115
0.0021358463160572115
0.0021358463160572115
0.0021358463160572115
0.0021358463160572115
0.0021358463160572115
0.0021358463160572115
0.0021358463160572115
0.0021358463160572115
0.0021358463160572115
0.0021358463160572115
0.0021358463160572115
0.0021358463160572115
0.0021358463160572115
0.0021358463160572115
0.0021358463160572115
0.0021358463160572115
0.0021358463160572115
0.0021358463160572115
0.0021358463160572115
0.0021358463160572115
0.0021358463160572115
0.0021358463160572115
0.0021358463160572115
0.0021358463160572115
0.0021358463160572115
0.0021358463160572115
0.0021358463160572115
0.0021358463160572115
0.0021358463160572115
0.0021358463160572115
0.0021358463160572115
0.0021358463160572115
0.0021358463160572115
0.0021358463160572115
0.0021358463160572115
0.0021358463160572115
0.0021358463160572115
0.0021358463160572115
0.0021358463160572115
0.0021358463160572115
0.0021358463160572115
0.0021358463160572115
0.0021358463160572115
0.0021358463160572115
0.0021358463160572115
0.0021358463160572115
0.0021358463160572115
0.0021358463160572115
0.0021358463160572115
0.0021358463160572115
0.0021358463160572115
0.0021358463160572115
0.0021358463160572115
0.0021358463160572115
0.0021358463160572115
0.0021358463160572115
0.0021358463160572115
0.0021358463160572115
0.0021358463160572115
0.0021358463160572115
0.0021358463160572115
0.0021358463160572115
0.0021358463160572115
0.0021358463160572115
0.0021358463160572115
0.0021358463160572115
0.0021358463160572115
0.0021358463160572115
0.0021358463160572115
0.0021358463160572115
0.0021358463160572115
0.0021358463160572115
0.0021358463160572115
0.0021358463160572115
0.0021358463160572115
0.0021358463160572115
0.0021358463160572115
0.0021358463160572115
0.0021358463160572115
0.0021358463160572115
0.0021358463160572115
0.0021359022340840766
0.0021359022340840766
0.0021359022340840766
0.0021359022340840766
0.0021359022340840766
0.0021359022340840766
0.0021359022340840766
0.0021359022340840766
0.0021359022340840766
0.0021359022340840766
0.0021359022340840766
0.0021359022340840766
0.0021359022340840766
0.0021359022340840766
0.0021359022340840766
0.0021359022340840766
0.0021359022340840766
0.0021359022340840766
0.0021359022340840766
0.0021359022340840766
0.0021359022340840766
0.0021359022340840766
0.0021359022340840766
0.0021359022340840766
0.0021359022340840766
0.0021359022340840766
0.0021359022340840766
0.0021359022340840766
0.0021359022340840766
0.0021359022340840766
0.0021359022340840766
0.0021359022340840766
0.0021359022340840766
0.0021359022340840766
0.0021359022340840766
0.0021359022340840766
0.0021359022340840766
0.0021359022340840766
0.0021359022340840766
0.0021359022340840766
0.0021359022340840766
0.0021359022340840766
0.0021359022340840766
0.0021359022340840766
0.0021359022340840766
0.0021359022340840766
0.0021359022340840766
0.0021359022340840766
0.0021359022340840766
0.0021359022340840766
0.0021359022340840766
0.0021359022340840766
0.0021359022340840766
0.0021359022340840766
0.0021359022340840766
0.0021359022340840766
0.0021359022340840766
0.0021359022340840766
0.0021359022340840766
0.0021359022340840766
0.0021359022340840766
0.0021359022340840766
0.0021359022340840766
0.0021359022340840766
0.0021359022340840766
0.0021359022340840766
0.0021359022340840766
0.0021359022340840766
0.0021359022340840766
0.0021359022340840766
0.0021359022340840766
0.0021359022340840766
0.0021359022340840766
0.0021359022340840766
0.0021359022340840766
0.0021359022340840766
0.0021359022340840766
0.0021359022340840766
0.0021359022340840766
0.0021359022340840766
0.0021359022340840766
0.0021359022340840766
0.0021359022340840766
0.0021359022340840766
0.0021359022340840766
0.0021359022340840766
0.0021359022340840766
0.0021359022340840766
0.0021359022340840766
0.0021359022340840766
0.0021359022340840766
0.0021359022340840766
0.0021359022340840766
0.0021359022340840766
0.0021359022340840766
0.0021359022340840766
0.0021359022340840766
0.0021359022340840766
0.0021359022340840766
0.0021359022340840766
0.0021359022340840766
0.0021359022340840766
0.0021359022340840766
0.0021359022340840766
0.0021359022340840766
0.0021359022340840766
0.0021359022340840766
0.0021359022340840766
0.0021359022340840766
0.0021359022340840766
0.0021359022340840766
0.0021359022340840766
0.0021359022340840766
0.0021359022340840766
0.0021359022340840766
0.0021359022340840766
0.0021359022340840766
0.0021359022340840766
0.0021359022340840766
0.0021359022340840766
0.0021359022340840766
0.0021359022340840766
0.0021359022340840766
0.0021359022340840766
0.0021359022340840766
0.0021359022340840766
0.0021359022340840766
0.002135968186778303
0.002135968186778303
0.002135968186778303
0.002135968186778303
0.002135968186778303
0.002135968186778303
0.002135968186778303
0.002135968186778303
0.002135968186778303
0.002135968186778303
0.002135968186778303
0.002135968186778303
0.002135968186778303
0.002135968186778303
0.002135968186778303
0.002135968186778303
0.002135968186778303
0.002135968186778303
0.002135968186778303
0.002135968186778303
0.002135968186778303
0.002135968186778303
0.002135968186778303
0.002135968186778303
0.002135968186778303
0.002135968186778303
0.002135968186778303
0.002135968186778303
0.002135968186778303
0.002135968186778303
0.002135968186778303
0.002135968186778303
0.002135968186778303
0.002135968186778303
0.002135968186778303
0.002135968186778303
0.002135968186778303
0.002135968186778303
0.002135968186778303
0.002135968186778303
0.002135968186778303
0.002135968186778303
0.002135968186778303
0.002135968186778303
0.002135968186778303
0.002135968186778303
0.002135968186778303
0.002135968186778303
0.002135968186778303
0.002135968186778303
0.002135968186778303
0.002135968186778303
0.002135968186778303
0.002135968186778303
0.002135968186778303
0.002135968186778303
0.002135968186778303
0.002135968186778303
0.002135968186778303
0.002135968186778303
0.002135968186778303
0.002135968186778303
0.002135968186778303
0.002135968186778303
0.002135968186778303
0.002135968186778303
0.002135968186778303
0.002135968186778303
0.002135968186778303
0.002135968186778303
0.002135968186778303
0.002135968186778303
0.002135968186778303
0.002135968186778303
0.002135968186778303
0.002135968186778303
0.002135968186778303
0.002135968186778303
0.002135968186778303
0.002135968186778303
0.002135968186778303
0.002135968186778303
0.002135968186778303
0.002135968186778303
0.002135968186778303
0.002135968186778303
0.002135968186778303
0.002135968186778303
0.002135968186778303
0.002135968186778303
0.002135968186778303
0.002135968186778303
0.002135968186778303
0.002135968186778303
0.002135968186778303
0.002135968186778303
0.002135968186778303
0.002135968186778303
0.002135968186778303
0.002135968186778303
0.002135968186778303
0.002135968186778303
0.002135968186778303
0.002135968186778303
0.002135968186778303
0.002135968186778303
0.002135968186778303
0.002135968186778303
0.002135968186778303
0.002135968186778303
0.002135968186778303
0.002135968186778303
0.002135968186778303
0.002135968186778303
0.002135968186778303
0.002135968186778303
0.002135968186778303
0.002135968186778303
0.002135968186778303
0.002135968186778303
0.002135968186778303
0.002135968186778303
0.002135968186778303
0.002135968186778303
0.002135968186778303
0.002135968186778303
0.002135968186778303
0.002135968186778303
0.002135968186778303
0.002135968186778303
0.002135968186778303
0.002135968186778303
0.002135968186778303
0.002135968186778303
0.002135968186778303
0.002135968186778303
0.002135968186778303
0.002135968186778303
0.002135968186778303
0.002135968186778303
0.002135968186778303
0.002135968186778303
0.002135968186778303
0.002135968186778303
0.002135968186778303
0.002135968186778303
0.002135968186778303
0.002135968186778303
0.002135968186778303
0.002135968186778303
0.002135968186778303
0.002135968186778303
0.002135968186778303
0.0021360477163371912
0.0021360477163371912
0.0021360477163371912
0.0021360477163371912
0.0021360477163371912
0.0021360477163371912
0.0021360477163371912
0.0021360477163371912
0.0021360477163371912
0.0021360477163371912
0.0021360477163371912
0.0021360477163371912
0.0021360477163371912
0.0021360477163371912
0.0021360477163371912
0.0021360477163371912
0.0021360477163371912
0.0021360477163371912
0.0021360477163371912
0.0021360477163371912
0.0021360477163371912
0.0021360477163371912
0.0021360477163371912
0.0021360477163371912
0.0021360477163371912
0.0021360477163371912
0.0021360477163371912
0.0021360477163371912
0.0021360477163371912
0.0021360477163371912
0.0021360477163371912
0.0021360477163371912
0.0021360477163371912
0.0021360477163371912
0.0021360477163371912
0.0021360477163371912
0.0021360477163371912
0.0021360477163371912
0.0021360477163371912
0.0021360477163371912
0.0021360477163371912
0.0021360477163371912
0.0021360477163371912
0.0021360477163371912
0.0021360477163371912
0.0021360477163371912
0.0021360477163371912
0.0021360477163371912
0.0021360477163371912
0.0021360477163371912
0.0021360477163371912
0.0021360477163371912
0.0021360477163371912
0.0021360477163371912
0.0021360477163371912
0.0021360477163371912
0.0021360477163371912
0.0021360477163371912
0.0021360477163371912
0.0021360477163371912
0.0021360477163371912
0.0021360477163371912
0.0021360477163371912
0.0021360477163371912
0.0021360477163371912
0.0021360477163371912
0.0021360477163371912
0.0021360477163371912
0.0021360477163371912
0.0021360477163371912
0.0021360477163371912
0.0021360477163371912
0.0021360477163371912
0.0021360477163371912
0.0021360477163371912
0.0021360477163371912
0.0021360477163371912
0.0021360477163371912
0.0021360477163371912
0.0021360477163371912
0.0021360477163371912
0.0021360477163371912
0.0021360477163371912
0.0021360477163371912
0.0021360477163371912
0.0021360477163371912
0.0021360477163371912
0.0021360477163371912
0.0021360477163371912
0.0021360477163371912
0.0021360477163371912
0.0021360477163371912
0.0021360477163371912
0.0021360477163371912
0.0021360477163371912
0.0021360477163371912
0.0021360477163371912
0.0021360477163371912
0.0021360477163371912
0.0021360477163371912
0.0021360477163371912
0.0021360477163371912
0.0021360477163371912
0.0021360477163371912
0.0021360477163371912
0.0021360477163371912
0.0021360477163371912
0.0021360477163371912
0.0021360477163371912
0.0021360477163371912
0.0021360477163371912
0.0021360477163371912
0.0021360477163371912
0.0021360477163371912
0.0021360477163371912
0.0021360477163371912
0.0021360477163371912
0.0021360477163371912
0.0021360477163371912
0.0021360477163371912
0.0021360477163371912
0.0021360477163371912
0.0021360477163371912
0.0021360477163371912
0.0021360477163371912
0.0021360477163371912
0.0021360477163371912
0.0021360477163371912
0.0021360477163371912
0.0021360477163371912
0.0021360477163371912
0.0021360477163371912
0.0021360477163371912
0.0021360477163371912
0.0021360477163371912
0.0021360477163371912
0.0021360477163371912
0.0021360477163371912
0.0021360477163371912
0.0021360477163371912
0.0021360477163371912
0.0021360477163371912
0.0021360477163371912
0.0021360477163371912
0.0021360477163371912
0.0021360477163371912
0.0021360477163371912
0.0021360477163371912
0.0021360477163371912
0.0021360477163371912
0.0021360477163371912
0.0021360477163371912
0.0021360477163371912
0.0021360477163371912
0.0021360477163371912
0.0021360477163371912
0.0021360477163371912
0.0021360477163371912
0.0021360477163371912
0.0021360477163371912
0.0021360477163371912
0.0021360477163371912
0.0021360477163371912
0.0021360477163371912
0.0021360477163371912
0.0021360477163371912
0.0021360477163371912
0.0021360477163371912
0.0021360477163371912
0.0021360477163371912
0.0021360477163371912
0.0021360477163371912
0.0021360477163371912
0.0021360477163371912
0.0021360477163371912
0.0021360477163371912
0.0021360477163371912
0.0021360477163371912
0.0021360477163371912
0.0021360477163371912
0.0021360477163371912
0.0021360477163371912
0.002136143431161095
0.002136143431161095
0.002136143431161095
0.002136143431161095
0.002136143431161095
0.002136143431161095
0.002136143431161095
0.002136143431161095
0.002136143431161095
0.002136143431161095
0.002136143431161095
0.002136143431161095
0.002136143431161095
0.002136143431161095
0.002136143431161095
0.002136143431161095
0.002136143431161095
0.002136143431161095
0.002136143431161095
0.002136143431161095
0.002136143431161095
0.002136143431161095
0.002136143431161095
0.002136143431161095
0.002136143431161095
0.002136143431161095
0.002136143431161095
0.002136143431161095
0.002136143431161095
0.002136143431161095
0.002136143431161095
0.002136143431161095
0.002136143431161095
0.002136143431161095
0.002136143431161095
0.002136143431161095
0.002136143431161095
0.002136143431161095
0.002136143431161095
0.002136143431161095
0.002136143431161095
0.002136143431161095
0.002136143431161095
0.002136143431161095
0.002136143431161095
0.002136143431161095
0.002136143431161095
0.002136143431161095
0.002136143431161095
0.002136143431161095
0.002136143431161095
0.002136143431161095
0.002136143431161095
0.002136143431161095
0.002136143431161095
0.002136143431161095
0.002136143431161095
0.002136143431161095
0.002136143431161095
0.002136143431161095
0.002136143431161095
0.002136143431161095
0.002136143431161095
0.002136143431161095
0.002136143431161095
0.002136143431161095
0.002136143431161095
0.002136143431161095
0.002136143431161095
0.002136143431161095
0.002136143431161095
0.002136143431161095
0.002136143431161095
0.002136143431161095
0.002136143431161095
0.002136143431161095
0.002136143431161095
0.002136143431161095
0.002136143431161095
0.002136143431161095
0.002136143431161095
0.002136143431161095
0.002136143431161095
0.002136143431161095
0.002136143431161095
0.002136143431161095
0.002136143431161095
0.002136143431161095
0.002136143431161095
0.002136143431161095
0.002136143431161095
0.002136143431161095
0.002136143431161095
0.002136143431161095
0.002136143431161095
0.002136143431161095
0.002136143431161095
0.002136143431161095
0.002136143431161095
0.002136143431161095
0.002136143431161095
0.002136143431161095
0.002136143431161095
0.002136143431161095
0.002136143431161095
0.002136143431161095
0.002136143431161095
0.002136143431161095
0.002136143431161095
0.002136143431161095
0.002136143431161095
0.002136143431161095
0.002136143431161095
0.002136143431161095
0.002136143431161095
0.002136143431161095
0.002136143431161095
0.002136143431161095
0.002136143431161095
0.002136143431161095
0.002136143431161095
0.002136143431161095
0.002136143431161095
0.002136143431161095
0.002136143431161095
0.002136143431161095
0.002136143431161095
0.002136143431161095
0.002136143431161095
0.002136143431161095
0.002136143431161095
0.002136143431161095
0.002136143431161095
0.002136143431161095
0.002136143431161095
0.002136143431161095
0.002136143431161095
0.002136143431161095
0.002136143431161095
0.002136143431161095
0.002136143431161095
0.002136143431161095
0.002136143431161095
0.002136143431161095
0.002136143431161095
0.002136143431161095
0.002136143431161095
0.002136143431161095
0.002136143431161095
0.002136143431161095
0.002136143431161095
0.002136143431161095
0.002136143431161095
0.002136143431161095
0.002136143431161095
0.002136143431161095
0.002136143431161095
0.002136143431161095
0.002136143431161095
0.002136143431161095
0.002136143431161095
0.002136143431161095
0.002136143431161095
0.002136143431161095
0.002136143431161095
0.002136143431161095
0.002136143431161095
0.002136143431161095
0.002136143431161095
0.002136143431161095
0.002136143431161095
0.002136143431161095
0.002136143431161095
0.002136143431161095
0.002136143431161095
0.002136143431161095
0.002136143431161095
0.002136143431161095
0.002136143431161095
0.002136143431161095
0.002136143431161095
0.002136143431161095
0.002136143431161095
0.002136143431161095
0.002136143431161095
0.002136143431161095
0.002136143431161095
0.002136143431161095
0.002136143431161095
0.002136143431161095
0.002136143431161095
0.002136143431161095
0.002136143431161095
0.002136143431161095
0.002136143431161095
0.002136143431161095
0.002136143431161095
0.002136143431161095
0.002136143431161095
0.002136143431161095
0.002136143431161095
0.002136143431161095
0.002136143431161095
0.002136143431161095
0.002136143431161095
0.002136143431161095
0.002136143431161095
0.002136143431161095
0.002136143431161095
0.002136143431161095
0.002136143431161095
0.002136143431161095
0.002136143431161095
0.002136143431161095
0.002136143431161095
0.002136143431161095
0.002136143431161095
0.002136143431161095
0.002136143431161095
0.002136143431161095
0.0021362585799083417
0.0021362585799083417
0.0021362585799083417
0.0021362585799083417
0.0021362585799083417
0.0021362585799083417
0.0021362585799083417
0.0021362585799083417
0.0021362585799083417
0.0021362585799083417
0.0021362585799083417
0.0021362585799083417
0.0021362585799083417
0.0021362585799083417
0.0021362585799083417
0.0021362585799083417
0.0021362585799083417
0.0021362585799083417
0.0021362585799083417
0.0021362585799083417
0.0021362585799083417
0.0021362585799083417
0.0021362585799083417
0.0021362585799083417
0.0021362585799083417
0.0021362585799083417
0.0021362585799083417
0.0021362585799083417
0.0021362585799083417
0.0021362585799083417
0.0021362585799083417
0.0021362585799083417
0.0021362585799083417
0.0021362585799083417
0.0021362585799083417
0.0021362585799083417
0.0021362585799083417
0.0021362585799083417
0.0021362585799083417
0.0021362585799083417
0.0021362585799083417
0.0021362585799083417
0.0021362585799083417
0.0021362585799083417
0.0021362585799083417
0.0021362585799083417
0.0021362585799083417
0.0021362585799083417
0.0021362585799083417
0.0021362585799083417
0.0021362585799083417
0.0021362585799083417
0.0021362585799083417
0.0021362585799083417
0.0021362585799083417
0.0021362585799083417
0.0021362585799083417
0.0021362585799083417
0.0021362585799083417
0.0021362585799083417
0.0021362585799083417
0.0021362585799083417
0.0021362585799083417
0.0021362585799083417
0.0021362585799083417
0.0021362585799083417
0.0021362585799083417
0.0021362585799083417
0.0021362585799083417
0.0021362585799083417
0.0021362585799083417
0.0021362585799083417
0.0021362585799083417
0.0021362585799083417
0.0021362585799083417
0.0021362585799083417
0.0021362585799083417
0.0021362585799083417
0.0021362585799083417
0.0021362585799083417
0.0021362585799083417
0.0021362585799083417
0.0021362585799083417
0.0021362585799083417
0.0021362585799083417
0.0021362585799083417
0.0021362585799083417
0.0021362585799083417
0.0021362585799083417
0.0021362585799083417
0.0021362585799083417
0.0021362585799083417
0.0021362585799083417
0.0021362585799083417
0.0021362585799083417
0.0021362585799083417
0.0021362585799083417
0.0021362585799083417
0.0021362585799083417
0.0021362585799083417
0.0021362585799083417
0.0021362585799083417
0.0021362585799083417
0.0021362585799083417
0.0021362585799083417
0.0021362585799083417
0.0021362585799083417
0.0021362585799083417
0.0021362585799083417
0.0021362585799083417
0.0021362585799083417
0.0021362585799083417
0.0021362585799083417
0.0021362585799083417
0.0021362585799083417
0.0021362585799083417
0.0021362585799083417
0.0021362585799083417
0.0021362585799083417
0.0021362585799083417
0.0021362585799083417
0.0021362585799083417
0.0021362585799083417
0.0021362585799083417
0.0021362585799083417
0.0021362585799083417
0.0021362585799083417
0.0021362585799083417
0.0021362585799083417
0.0021362585799083417
0.0021362585799083417
0.0021362585799083417
0.0021362585799083417
0.0021362585799083417
0.0021362585799083417
0.0021362585799083417
0.0021362585799083417
0.0021362585799083417
0.0021362585799083417
0.0021362585799083417
0.0021362585799083417
0.0021362585799083417
0.0021362585799083417
0.0021362585799083417
0.0021362585799083417
0.0021362585799083417
0.0021362585799083417
0.0021362585799083417
0.0021362585799083417
0.0021362585799083417
0.0021362585799083417
0.0021362585799083417
0.0021362585799083417
0.0021362585799083417
0.0021362585799083417
0.0021362585799083417
0.0021362585799083417
0.0021362585799083417
0.0021362585799083417
0.0021362585799083417
0.0021362585799083417
0.0021362585799083417
0.0021362585799083417
0.0021362585799083417
0.0021362585799083417
0.0021362585799083417
0.0021362585799083417
0.0021362585799083417
0.0021362585799083417
0.0021362585799083417
0.0021362585799083417
0.0021362585799083417
0.0021362585799083417
0.0021362585799083417
0.0021362585799083417
0.0021362585799083417
0.0021362585799083417
0.0021362585799083417
0.0021362585799083417
0.0021362585799083417
0.0021362585799083417
0.0021362585799083417
0.0021362585799083417
0.0021362585799083417
0.0021362585799083417
0.0021362585799083417
0.0021362585799083417
0.0021362585799083417
0.0021362585799083417
0.0021362585799083417
0.0021362585799083417
0.0021362585799083417
0.0021362585799083417
0.0021362585799083417
0.0021362585799083417
0.0021362585799083417
0.0021362585799083417
0.0021362585799083417
0.0021362585799083417
0.0021362585799083417
0.0021362585799083417
0.0021362585799083417
0.0021362585799083417
0.0021362585799083417
0.0021362585799083417
0.0021362585799083417
0.0021362585799083417
0.0021362585799083417
0.0021362585799083417
0.0021362585799083417
0.0021362585799083417
0.0021362585799083417
0.0021362585799083417
0.0021362585799083417
0.0021362585799083417
0.0021362585799083417
0.0021362585799083417
0.0021362585799083417
0.0021362585799083417
0.0021362585799083417
0.0021362585799083417
0.0021362585799083417
0.0021362585799083417
0.0021362585799083417
0.0021362585799083417
0.0021362585799083417
0.0021362585799083417
0.0021362585799083417
0.0021362585799083417
0.0021362585799083417
0.0021362585799083417
0.0021362585799083417
0.0021362585799083417
0.0021362585799083417
0.0021362585799083417
0.0021362585799083417
0.0021362585799083417
0.0021362585799083417
0.0021362585799083417
0.0021362585799083417
0.0021362585799083417
0.0021362585799083417
0.0021362585799083417
0.0021362585799083417
0.0021362585799083417
0.0021362585799083417
0.0021362585799083417
0.0021362585799083417
0.0021362585799083417
0.0021362585799083417
0.0021362585799083417
0.0021362585799083417
0.0021362585799083417
0.0021362585799083417
0.0021362585799083417
0.0021362585799083417
0.0021362585799083417
0.0021362585799083417
0.0021362585799083417
0.0021362585799083417
0.0021362585799083417
0.0021362585799083417
0.0021362585799083417
0.002136396363221167
0.002136396363221167
0.002136396363221167
0.002136396363221167
0.002136396363221167
0.002136396363221167
0.002136396363221167
0.002136396363221167
0.002136396363221167
0.002136396363221167
0.002136396363221167
0.002136396363221167
0.002136396363221167
0.002136396363221167
0.002136396363221167
0.002136396363221167
0.002136396363221167
0.002136396363221167
0.002136396363221167
0.002136396363221167
0.002136396363221167
0.002136396363221167
0.002136396363221167
0.002136396363221167
0.002136396363221167
0.002136396363221167
0.002136396363221167
0.002136396363221167
0.002136396363221167
0.002136396363221167
0.002136396363221167
0.002136396363221167
0.002136396363221167
0.002136396363221167
0.002136396363221167
0.002136396363221167
0.002136396363221167
0.002136396363221167
0.002136396363221167
0.002136396363221167
0.002136396363221167
0.002136396363221167
0.002136396363221167
0.002136396363221167
0.002136396363221167
0.002136396363221167
0.002136396363221167
0.002136396363221167
0.002136396363221167
0.002136396363221167
0.002136396363221167
0.002136396363221167
0.002136396363221167
0.002136396363221167
0.002136396363221167
0.002136396363221167
0.002136396363221167
0.002136396363221167
0.002136396363221167
0.002136396363221167
0.002136396363221167
0.002136396363221167
0.002136396363221167
0.002136396363221167
0.002136396363221167
0.002136396363221167
0.002136396363221167
0.002136396363221167
0.002136396363221167
0.002136396363221167
0.002136396363221167
0.002136396363221167
0.002136396363221167
0.002136396363221167
0.002136396363221167
0.002136396363221167
0.002136396363221167
0.002136396363221167
0.002136396363221167
0.002136396363221167
0.002136396363221167
0.002136396363221167
0.002136396363221167
0.002136396363221167
0.002136396363221167
0.002136396363221167
0.002136396363221167
0.002136396363221167
0.002136396363221167
0.002136396363221167
0.002136396363221167
0.002136396363221167
0.002136396363221167
0.002136396363221167
0.002136396363221167
0.002136396363221167
0.002136396363221167
0.002136396363221167
0.002136396363221167
0.002136396363221167
0.002136396363221167
0.002136396363221167
0.002136396363221167
0.002136396363221167
0.002136396363221167
0.002136396363221167
0.002136396363221167
0.002136396363221167
0.002136396363221167
0.002136396363221167
0.002136396363221167
0.002136396363221167
0.002136396363221167
0.002136396363221167
0.002136396363221167
0.002136396363221167
0.002136396363221167
0.002136396363221167
0.002136396363221167
0.002136396363221167
0.002136396363221167
0.002136396363221167
0.002136396363221167
0.002136396363221167
0.002136396363221167
0.002136396363221167
0.002136396363221167
0.002136396363221167
0.002136396363221167
0.002136396363221167
0.002136396363221167
0.002136396363221167
0.002136396363221167
0.002136396363221167
0.002136396363221167
0.002136396363221167
0.002136396363221167
0.002136396363221167
0.002136396363221167
0.002136396363221167
0.002136396363221167
0.002136396363221167
0.002136396363221167
0.002136396363221167
0.002136396363221167
0.002136396363221167
0.002136396363221167
0.002136396363221167
0.002136396363221167
0.002136396363221167
0.002136396363221167
0.002136396363221167
0.002136396363221167
0.002136396363221167
0.002136396363221167
0.002136396363221167
0.002136396363221167
0.002136396363221167
0.002136396363221167
0.002136396363221167
0.002136396363221167
0.002136396363221167
0.002136396363221167
0.002136396363221167
0.002136396363221167
0.002136396363221167
0.002136396363221167
0.002136396363221167
0.002136396363221167
0.002136396363221167
0.002136396363221167
0.002136396363221167
0.002136396363221167
0.002136396363221167
0.002136396363221167
0.002136396363221167
0.002136396363221167
0.002136396363221167
0.002136396363221167
0.002136396363221167
0.002136396363221167
0.002136396363221167
0.002136396363221167
0.002136396363221167
0.002136396363221167
0.002136396363221167
0.002136396363221167
0.002136396363221167
0.002136396363221167
0.002136396363221167
0.002136396363221167
0.002136396363221167
0.002136396363221167
0.002136396363221167
0.002136396363221167
0.002136396363221167
0.002136396363221167
0.002136396363221167
0.002136396363221167
0.002136396363221167
0.002136396363221167
0.002136396363221167
0.002136396363221167
0.002136396363221167
0.002136396363221167
0.002136396363221167
0.002136396363221167
0.002136396363221167
0.002136396363221167
0.002136396363221167
0.002136396363221167
0.002136396363221167
0.002136396363221167
0.002136396363221167
0.002136396363221167
0.002136396363221167
0.002136396363221167
0.002136396363221167
0.002136396363221167
0.002136396363221167
0.002136396363221167
0.002136396363221167
0.002136396363221167
0.002136396363221167
0.002136396363221167
0.002136396363221167
0.002136396363221167
0.002136396363221167
0.002136396363221167
0.002136396363221167
0.002136396363221167
0.002136396363221167
0.002136396363221167
0.002136396363221167
0.002136396363221167
0.002136396363221167
0.002136396363221167
0.002136396363221167
0.002136396363221167
0.002136396363221167
0.002136396363221167
0.002136396363221167
0.002136396363221167
0.002136396363221167
0.002136396363221167
0.002136396363221167
0.002136396363221167
0.002136396363221167
0.002136396363221167
0.002136396363221167
0.002136396363221167
0.002136396363221167
0.002136396363221167
0.002136396363221167
0.002136396363221167
0.002136396363221167
0.002136396363221167
0.002136396363221167
0.002136396363221167
0.002136396363221167
0.002136396363221167
0.002136396363221167
0.002136396363221167
0.002136396363221167
0.002136396363221167
0.002136396363221167
0.002136396363221167
0.002136396363221167
0.002136396363221167
0.002136396363221167
0.002136396363221167
0.002136396363221167
0.002136396363221167
0.002136396363221167
0.002136396363221167
0.002136396363221167
0.002136396363221167
0.002136396363221167
0.002136396363221167
0.002136396363221167
0.002136396363221167
0.002136396363221167
0.002136396363221167
0.002136396363221167
0.002136396363221167
0.002136396363221167
0.002136396363221167
0.002136396363221167
0.002136396363221167
0.002136396363221167
0.002136396363221167
0.002136396363221167
0.002136396363221167
0.002136396363221167
0.002136396363221167
0.002136396363221167
0.002136396363221167
0.002136396363221167
0.002136396363221167
0.002136396363221167
0.002136396363221167
0.002136396363221167
0.002136396363221167
0.002136396363221167
0.002136396363221167
0.002136396363221167
0.002136396363221167
0.002136396363221167
0.002136396363221167
0.002136396363221167
0.002136396363221167
0.002136396363221167
0.002136396363221167
0.002136396363221167
0.002136396363221167
0.002136396363221167
0.0021365618526762485
0.0021365618526762485
0.0021365618526762485
0.0021365618526762485
0.0021365618526762485
0.0021365618526762485
0.0021365618526762485
0.0021365618526762485
0.0021365618526762485
0.0021365618526762485
0.0021365618526762485
0.0021365618526762485
0.0021365618526762485
0.0021365618526762485
0.0021365618526762485
0.0021365618526762485
0.0021365618526762485
0.0021365618526762485
0.0021365618526762485
0.0021365618526762485
0.0021365618526762485
0.0021365618526762485
0.0021365618526762485
0.0021365618526762485
0.0021365618526762485
0.0021365618526762485
0.0021365618526762485
0.0021365618526762485
0.0021365618526762485
0.0021365618526762485
0.0021365618526762485
0.0021365618526762485
0.0021365618526762485
0.0021365618526762485
0.0021365618526762485
0.0021365618526762485
0.0021365618526762485
0.0021365618526762485
0.0021365618526762485
0.0021365618526762485
0.0021365618526762485
0.0021365618526762485
0.0021365618526762485
0.0021365618526762485
0.0021365618526762485
0.0021365618526762485
0.0021365618526762485
0.0021365618526762485
0.0021365618526762485
0.0021365618526762485
0.0021365618526762485
0.0021365618526762485
0.0021365618526762485
0.0021365618526762485
0.0021365618526762485
0.0021365618526762485
0.0021365618526762485
0.0021365618526762485
0.0021365618526762485
0.0021365618526762485
0.0021365618526762485
0.0021365618526762485
0.0021365618526762485
0.0021365618526762485
0.0021365618526762485
0.0021365618526762485
0.0021365618526762485
0.0021365618526762485
0.0021365618526762485
0.0021365618526762485
0.0021365618526762485
0.0021365618526762485
0.0021365618526762485
0.0021365618526762485
0.0021365618526762485
0.0021365618526762485
0.0021365618526762485
0.0021365618526762485
0.0021365618526762485
0.0021365618526762485
0.0021365618526762485
0.0021365618526762485
0.0021365618526762485
0.0021365618526762485
0.0021365618526762485
0.0021365618526762485
0.0021365618526762485
0.0021365618526762485
0.0021365618526762485
0.0021365618526762485
0.0021365618526762485
0.0021365618526762485
0.0021365618526762485
0.0021365618526762485
0.0021365618526762485
0.0021365618526762485
0.0021365618526762485
0.0021365618526762485
0.0021365618526762485
0.0021365618526762485
0.0021365618526762485
0.0021365618526762485
0.0021365618526762485
0.0021365618526762485
