16086.478394218979
18739.336506700358
19966.57758260207
20847.10673754395
22201.143809127414
23594.61036951851
25014.609640858274
26943.38643414739
28893.50910921574
31351.15245931748
34276.118846327234
38061.320357027325
42632.09843555482
58994.896018496605
