00000 0.00000000E+00 7.64600000E-01 -7.37864692E-01 -1.63656553E-01 3.65905160E+00 7.03236624E+00 4.88423415E+00 1.60483594E+01 -1.40009102E+00 6.98482628E-01 2.81392784E-01 3.48960892E-03 1.12422947E-03 1.00996549E-02 1.46071384E+03 3.68273984E+07 4.35086490E+10 1.85845582E-01 7.99628046E-04 0.00000000E+00 0.00000000E+00 9.74961189E-10 0.00000000E+00 0.00000000E+00 0.00000000E+00 0.00000000E+00 0.00000000E+00 0.00000000E+00
00001 5.00000000E+04 7.64600000E-01 -6.95789372E-01 -1.52036767E-01 3.66376054E+00 7.03907355E+00 4.88611337E+00 1.60568534E+01 -1.42049466E+00 6.98481690E-01 2.81394075E-01 3.49172602E-03 1.12175947E-03 1.00996550E-02 1.52052941E+03 3.25443748E+07 3.94911952E+10 2.00009343E-01 1.09018901E-03 0.00000000E+00 0.00000000E+00 1.33783871E-09 0.00000000E+00 0.00000000E+00 0.00000000E+00 0.00000000E+00 0.00000000E+00 0.00000000E+00
00002 1.00000000E+05 7.64599999E-01 -6.96253206E-01 -1.52102498E-01 3.66367744E+00 7.03905899E+00 4.88609169E+00 1.60568166E+01 -1.42049498E+00 6.98480372E-01 2.81395363E-01 3.49155317E-03 1.12196113E-03 1.00996550E-02 1.52018425E+03 3.25840826E+07 3.95333950E+10 1.99984365E-01 1.08948591E-03 0.00000000E+00 0.00000000E+00 1.35087665E-09 0.00000000E+00 0.00000000E+00 0.00000000E+00 0.00000000E+00 0.00000000E+00 0.00000000E+00
00003 1.60000000E+05 7.64599997E-01 -6.96442286E-01 -1.52119763E-01 3.66363881E+00 7.03905891E+00 4.88609218E+00 1.60568165E+01 -1.42049443E+00 6.98478779E-01 2.81396911E-01 3.49127624E-03 1.12228423E-03 1.00996550E-02 1.52009360E+03 3.25995677E+07 3.95506104E+10 1.99983405E-01 1.08944364E-03 0.00000000E+00 0.00000000E+00 1.35086765E-09 0.00000000E+00 0.00000000E+00 0.00000000E+00 0.00000000E+00 0.00000000E+00 0.00000000E+00
00004 2.32000000E+05 7.64599995E-01 -6.96462363E-01 -1.52119705E-01 3.66363376E+00 7.03905891E+00 4.88609296E+00 1.60568166E+01 -1.42049371E+00 6.98476866E-01 2.81398768E-01 3.49094394E-03 1.12267191E-03 1.00996549E-02 1.52009390E+03 3.26010703E+07 3.95524387E+10 1.99982629E-01 1.08939898E-03 0.00000000E+00 0.00000000E+00 1.35087053E-09 0.00000000E+00 0.00000000E+00 0.00000000E+00 0.00000000E+00 0.00000000E+00 0.00000000E+00
00005 3.18400000E+05 7.64599993E-01 -6.96453875E-01 -1.52116956E-01 3.66363451E+00 7.03905892E+00 4.88609393E+00 1.60568168E+01 -1.42049281E+00 6.98474571E-01 2.81400997E-01 3.49054524E-03 1.12313708E-03 1.00996549E-02 1.52010834E+03 3.26002266E+07 3.95516656E+10 1.99981780E-01 1.08934657E-03 0.00000000E+00 0.00000000E+00 1.35087305E-09 0.00000000E+00 0.00000000E+00 0.00000000E+00 0.00000000E+00 0.00000000E+00 0.00000000E+00
00006 4.22080000E+05 7.64599990E-01 -6.96432593E-01 -1.52112595E-01 3.66363765E+00 7.03905897E+00 4.88609515E+00 1.60568172E+01 -1.42049168E+00 6.98471817E-01 2.81403671E-01 3.49006685E-03 1.12369521E-03 1.00996549E-02 1.52013124E+03 3.25983015E+07 3.95497273E+10 1.99980862E-01 1.08928513E-03 0.00000000E+00 0.00000000E+00 1.35087610E-09 0.00000000E+00 0.00000000E+00 0.00000000E+00 0.00000000E+00 0.00000000E+00 0.00000000E+00
00007 5.46496000E+05 7.64599987E-01 -6.96401906E-01 -1.52107071E-01 3.66364256E+00 7.03905906E+00 4.88609669E+00 1.60568177E+01 -1.42049028E+00 6.98468512E-01 2.81406880E-01 3.48949288E-03 1.12436485E-03 1.00996549E-02 1.52016025E+03 3.25955833E+07 3.95469327E+10 1.99979897E-01 1.08921339E-03 0.00000000E+00 0.00000000E+00 1.35088014E-09 0.00000000E+00 0.00000000E+00 0.00000000E+00 0.00000000E+00 0.00000000E+00 0.00000000E+00
00008 6.95795200E+05 7.64599983E-01 -6.96366333E-01 -1.52100619E-01 3.66364822E+00 7.03905922E+00 4.88609863E+00 1.60568185E+01 -1.42048852E+00 6.98464546E-01 2.81410731E-01 3.48880425E-03 1.12516827E-03 1.00996549E-02 1.52019412E+03 3.25924290E+07 3.95436933E+10 1.99978914E-01 1.08912989E-03 0.00000000E+00 0.00000000E+00 1.35088583E-09 0.00000000E+00 0.00000000E+00 0.00000000E+00 0.00000000E+00 0.00000000E+00 0.00000000E+00
00009 8.74954240E+05 7.64599978E-01 -6.96323575E-01 -1.52093473E-01 3.66365534E+00 7.03905947E+00 4.88610109E+00 1.60568196E+01 -1.42048632E+00 6.98459788E-01 2.81415352E-01 3.48797808E-03 1.12613216E-03 1.00996549E-02 1.52023165E+03 3.25886837E+07 3.95398000E+10 1.99977979E-01 1.08903328E-03 0.00000000E+00 0.00000000E+00 1.35089361E-09 0.00000000E+00 0.00000000E+00 0.00000000E+00 0.00000000E+00 0.00000000E+00 0.00000000E+00
00010 1.08994509E+06 7.64599973E-01 -6.96279598E-01 -1.52085758E-01 3.66366248E+00 7.03905985E+00 4.88610421E+00 1.60568212E+01 -1.42048356E+00 6.98454077E-01 2.81420898E-01 3.48698694E-03 1.12728850E-03 1.00996549E-02 1.52027217E+03 3.25848045E+07 3.95357961E+10 1.99977154E-01 1.08892172E-03 0.00000000E+00 0.00000000E+00 1.35090457E-09 0.00000000E+00 0.00000000E+00 0.00000000E+00 0.00000000E+00 0.00000000E+00 0.00000000E+00
00011 1.34793411E+06 7.64599966E-01 -6.96233776E-01 -1.52077628E-01 3.66366987E+00 7.03906039E+00 4.88610816E+00 1.60568234E+01 -1.42048008E+00 6.98447225E-01 2.81427552E-01 3.48579795E-03 1.12867569E-03 1.00996548E-02 1.52031487E+03 3.25807562E+07 3.95316246E+10 1.99976528E-01 1.08879321E-03 0.00000000E+00 0.00000000E+00 1.35091956E-09 0.00000000E+00 0.00000000E+00 0.00000000E+00 0.00000000E+00 0.00000000E+00 0.00000000E+00
00012 1.65752093E+06 7.64599958E-01 -6.96184278E-01 -1.52069329E-01 3.66367809E+00 7.03906116E+00 4.88611314E+00 1.60568265E+01 -1.42047573E+00 6.98439002E-01 2.81435537E-01 3.48437169E-03 1.13033970E-03 1.00996548E-02 1.52035845E+03 3.25764199E+07 3.95271189E+10 1.99976246E-01 1.08864592E-03 0.00000000E+00 0.00000000E+00 1.35093968E-09 0.00000000E+00 0.00000000E+00 0.00000000E+00 0.00000000E+00 0.00000000E+00 0.00000000E+00
00013 2.02902511E+06 7.64599948E-01 -6.96136924E-01 -1.52060951E-01 3.66368574E+00 7.03906221E+00 4.88611940E+00 1.60568305E+01 -1.42047030E+00 6.98429135E-01 2.81445119E-01 3.48266094E-03 1.13233563E-03 1.00996547E-02 1.52040246E+03 3.25722389E+07 3.95228087E+10 1.99976434E-01 1.08847695E-03 0.00000000E+00 0.00000000E+00 1.35096665E-09 0.00000000E+00 0.00000000E+00 0.00000000E+00 0.00000000E+00 0.00000000E+00 0.00000000E+00
00014 2.47483013E+06 7.64599936E-01 -6.96090086E-01 -1.52052674E-01 3.66369331E+00 7.03906361E+00 4.88612722E+00 1.60568358E+01 -1.42046356E+00 6.98417294E-01 2.81456618E-01 3.48060911E-03 1.13472946E-03 1.00996547E-02 1.52044593E+03 3.25681045E+07 3.95185459E+10 1.99977269E-01 1.08828319E-03 0.00000000E+00 0.00000000E+00 1.35100203E-09 0.00000000E+00 0.00000000E+00 0.00000000E+00 0.00000000E+00 0.00000000E+00 0.00000000E+00
00015 3.00979616E+06 7.64599922E-01 -6.96044027E-01 -1.52044698E-01 3.66370084E+00 7.03906547E+00 4.88613693E+00 1.60568427E+01 -1.42045528E+00 6.98403086E-01 2.81470416E-01 3.47814844E-03 1.13760029E-03 1.00996546E-02 1.52048783E+03 3.25640514E+07 3.95143543E+10 1.99978959E-01 1.08806094E-03 0.00000000E+00 0.00000000E+00 1.35104788E-09 0.00000000E+00 0.00000000E+00 0.00000000E+00 0.00000000E+00 0.00000000E+00 0.00000000E+00
00016 3.65175539E+06 7.64599905E-01 -6.96003313E-01 -1.52036981E-01 3.66370716E+00 7.03906786E+00 4.88614890E+00 1.60568514E+01 -1.42044518E+00 6.98386036E-01 2.81486974E-01 3.47519781E-03 1.14104274E-03 1.00996546E-02 1.52052838E+03 3.25604188E+07 3.95106492E+10 1.99981662E-01 1.08780423E-03 0.00000000E+00 0.00000000E+00 1.35110659E-09 0.00000000E+00 0.00000000E+00 0.00000000E+00 0.00000000E+00 0.00000000E+00 0.00000000E+00
00017 4.42210647E+06 7.64599885E-01 -6.95960300E-01 -1.52029985E-01 3.66371441E+00 7.03907093E+00 4.88616357E+00 1.60568624E+01 -1.42043303E+00 6.98365576E-01 2.81506844E-01 3.47166014E-03 1.14517009E-03 1.00996545E-02 1.52056514E+03 3.25566679E+07 3.95067351E+10 1.99985700E-01 1.08750825E-03 0.00000000E+00 0.00000000E+00 1.35118068E-09 0.00000000E+00 0.00000000E+00 0.00000000E+00 0.00000000E+00 0.00000000E+00 0.00000000E+00
00018 5.34652777E+06 7.64599861E-01 -6.95923886E-01 -1.52023510E-01 3.66372028E+00 7.03907477E+00 4.88618139E+00 1.60568759E+01 -1.42041853E+00 6.98341025E-01 2.81530688E-01 3.46741935E-03 1.15011781E-03 1.00996543E-02 1.52059917E+03 3.25534509E+07 3.95034215E+10 1.99991208E-01 1.08716305E-03 0.00000000E+00 0.00000000E+00 1.35127338E-09 0.00000000E+00 0.00000000E+00 0.00000000E+00 0.00000000E+00 0.00000000E+00 0.00000000E+00
00019 6.45583332E+06 7.64599832E-01 -6.95888761E-01 -1.52017763E-01 3.66372619E+00 7.03907952E+00 4.88620288E+00 1.60568924E+01 -1.42040137E+00 6.98311565E-01 2.81559302E-01 3.46233670E-03 1.15604779E-03 1.00996541E-02 1.52062938E+03 3.25503849E+07 3.95002251E+10 1.99998425E-01 1.08675802E-03 0.00000000E+00 0.00000000E+00 1.35138769E-09 0.00000000E+00 0.00000000E+00 0.00000000E+00 0.00000000E+00 0.00000000E+00 0.00000000E+00
00020 7.78699998E+06 7.64599796E-01 -6.95857233E-01 -1.52012640E-01 3.66373151E+00 7.03908531E+00 4.88622863E+00 1.60569123E+01 -1.42038120E+00 6.98276213E-01 2.81593639E-01 3.45624657E-03 1.16315282E-03 1.00996542E-02 1.52065632E+03 3.25476350E+07 3.94973559E+10 2.00007478E-01 1.08627772E-03 0.00000000E+00 0.00000000E+00 1.35152704E-09 0.00000000E+00 0.00000000E+00 0.00000000E+00 0.00000000E+00 0.00000000E+00 0.00000000E+00
00021 9.38439998E+06 7.64599754E-01 -6.95827741E-01 -1.52008077E-01 3.66373660E+00 7.03909225E+00 4.88625931E+00 1.60569359E+01 -1.42035752E+00 6.98233792E-01 2.81634844E-01 3.44895144E-03 1.17166368E-03 1.00996542E-02 1.52068033E+03 3.25450793E+07 3.94946717E+10 2.00018476E-01 1.08570275E-03 0.00000000E+00 0.00000000E+00 1.35169487E-09 0.00000000E+00 0.00000000E+00 0.00000000E+00 0.00000000E+00 0.00000000E+00 0.00000000E+00
00022 1.13012800E+07 7.64599704E-01 -6.95800566E-01 -1.52003775E-01 3.66374124E+00 7.03910044E+00 4.88629572E+00 1.60569636E+01 -1.42032963E+00 6.98182888E-01 2.81684292E-01 3.44021603E-03 1.18185498E-03 1.00996542E-02 1.52070298E+03 3.25427163E+07 3.94921979E+10 2.00031421E-01 1.08500744E-03 0.00000000E+00 0.00000000E+00 1.35189464E-09 0.00000000E+00 0.00000000E+00 0.00000000E+00 0.00000000E+00 0.00000000E+00 0.00000000E+00
00023 1.36015360E+07 7.64599643E-01 -6.95772711E-01 -1.51999634E-01 3.66374614E+00 7.03911002E+00 4.88633886E+00 1.60569961E+01 -1.42029657E+00 6.98121806E-01 2.81743631E-01 3.42976066E-03 1.19405314E-03 1.00996540E-02 1.52072479E+03 3.25403137E+07 3.94896618E+10 2.00046390E-01 1.08416211E-03 0.00000000E+00 0.00000000E+00 1.35213042E-09 0.00000000E+00 0.00000000E+00 0.00000000E+00 0.00000000E+00 0.00000000E+00 0.00000000E+00
00024 1.63618432E+07 7.64599571E-01 -6.95744075E-01 -1.51995225E-01 3.66375109E+00 7.03912113E+00 4.88638999E+00 1.60570341E+01 -1.42025703E+00 6.98048513E-01 2.81814840E-01 3.41725339E-03 1.20864523E-03 1.00996536E-02 1.52074801E+03 3.25378316E+07 3.94870543E+10 2.00063399E-01 1.08312984E-03 0.00000000E+00 0.00000000E+00 1.35240694E-09 0.00000000E+00 0.00000000E+00 0.00000000E+00 0.00000000E+00 0.00000000E+00 0.00000000E+00
00025 1.96742118E+07 7.64599484E-01 -6.95712372E-01 -1.51990149E-01 3.66375648E+00 7.03913396E+00 4.88645071E+00 1.60570785E+01 -1.42020934E+00 6.97960567E-01 2.81900293E-01 3.40230126E-03 1.22608971E-03 1.00996533E-02 1.52077476E+03 3.25350688E+07 3.94841674E+10 2.00082599E-01 1.08186880E-03 0.00000000E+00 0.00000000E+00 1.35273032E-09 0.00000000E+00 0.00000000E+00 0.00000000E+00 0.00000000E+00 0.00000000E+00 0.00000000E+00
00026 2.36490542E+07 7.64599379E-01 -6.95675442E-01 -1.51983984E-01 3.66376263E+00 7.03914884E+00 4.88652304E+00 1.60571308E+01 -1.42015148E+00 6.97855044E-01 2.82002840E-01 3.38444033E-03 1.24692785E-03 1.00996528E-02 1.52080725E+03 3.25318316E+07 3.94808046E+10 2.00104344E-01 1.08033239E-03 0.00000000E+00 0.00000000E+00 1.35310907E-09 0.00000000E+00 0.00000000E+00 0.00000000E+00 0.00000000E+00 0.00000000E+00 0.00000000E+00
00027 2.84188650E+07 7.64599253E-01 -6.95631032E-01 -1.51976309E-01 3.66376989E+00 7.03916622E+00 4.88660947E+00 1.60571927E+01 -1.42008115E+00 6.97728432E-01 2.82125900E-01 3.36312471E-03 1.27179657E-03 1.00996523E-02 1.52084769E+03 3.25279196E+07 3.94767611E+10 2.00129254E-01 1.07846918E-03 0.00000000E+00 0.00000000E+00 1.35355489E-09 0.00000000E+00 0.00000000E+00 0.00000000E+00 0.00000000E+00 0.00000000E+00 0.00000000E+00
00028 3.41426380E+07 7.64599103E-01 -6.95577216E-01 -1.51966624E-01 3.66377850E+00 7.03918669E+00 4.88671300E+00 1.60572664E+01 -1.41999579E+00 6.97576521E-01 2.82273576E-01 3.33771464E-03 1.30144220E-03 1.00996516E-02 1.52089871E+03 3.25231511E+07 3.94718619E+10 2.00158196E-01 1.07622075E-03 0.00000000E+00 0.00000000E+00 1.35408298E-09 0.00000000E+00 0.00000000E+00 0.00000000E+00 0.00000000E+00 0.00000000E+00 0.00000000E+00
00029 4.10111656E+07 7.64598922E-01 -6.95510835E-01 -1.51954811E-01 3.66378919E+00 7.03921105E+00 4.88683721E+00 1.60573546E+01 -1.41989264E+00 6.97394262E-01 2.82450793E-01 3.30746410E-03 1.33673520E-03 1.00996508E-02 1.52096095E+03 3.25172804E+07 3.94658198E+10 2.00192430E-01 1.07352228E-03 0.00000000E+00 0.00000000E+00 1.35471308E-09 0.00000000E+00 0.00000000E+00 0.00000000E+00 0.00000000E+00 0.00000000E+00 0.00000000E+00
00030 4.92533987E+07 7.64598705E-01 -6.95430873E-01 -1.51940228E-01 3.66380189E+00 7.03924018E+00 4.88698628E+00 1.60574604E+01 -1.41976844E+00 6.97175601E-01 2.82663461E-01 3.27150861E-03 1.37868422E-03 1.00996497E-02 1.52103777E+03 3.25101838E+07 3.94585428E+10 2.00233199E-01 1.07029262E-03 0.00000000E+00 0.00000000E+00 1.35546797E-09 0.00000000E+00 0.00000000E+00 0.00000000E+00 0.00000000E+00 0.00000000E+00 0.00000000E+00
00031 5.91440784E+07 7.64598444E-01 -6.95334082E-01 -1.51922563E-01 3.66381726E+00 7.03927515E+00 4.88716519E+00 1.60575874E+01 -1.41961934E+00 6.96913278E-01 2.82918675E-01 3.22885415E-03 1.42844850E-03 1.00996489E-02 1.52113084E+03 3.25015949E+07 3.94497363E+10 2.00282050E-01 1.06643709E-03 0.00000000E+00 0.00000000E+00 1.35637508E-09 0.00000000E+00 0.00000000E+00 0.00000000E+00 0.00000000E+00 0.00000000E+00 0.00000000E+00
00032 7.10128941E+07 7.64598132E-01 -6.95217065E-01 -1.51901568E-01 3.66383601E+00 7.03931721E+00 4.88737987E+00 1.60577400E+01 -1.41944079E+00 6.96598591E-01 2.83224949E-01 3.17836899E-03 1.48734905E-03 1.00996475E-02 1.52124146E+03 3.24912414E+07 3.94390922E+10 2.00340796E-01 1.06184382E-03 0.00000000E+00 0.00000000E+00 1.35746726E-09 0.00000000E+00 0.00000000E+00 0.00000000E+00 0.00000000E+00 0.00000000E+00 0.00000000E+00
00033 8.52554730E+07 7.64597756E-01 -6.95077378E-01 -1.51876077E-01 3.66385819E+00 7.03936773E+00 4.88763735E+00 1.60579229E+01 -1.41922701E+00 6.96221106E-01 2.83592502E-01 3.11878076E-03 1.55686983E-03 1.00996461E-02 1.52137577E+03 3.24788544E+07 3.94263897E+10 2.00411183E-01 1.05637480E-03 0.00000000E+00 0.00000000E+00 1.35878207E-09 0.00000000E+00 0.00000000E+00 0.00000000E+00 0.00000000E+00 0.00000000E+00 0.00000000E+00
00034 1.02346568E+08 7.64597306E-01 -6.94896756E-01 -1.51847042E-01 3.66388883E+00 7.03942965E+00 4.88794680E+00 1.60581443E+01 -1.41897404E+00 6.95768317E-01 2.84033607E-01 3.04867796E-03 1.63865806E-03 1.00996443E-02 1.52152880E+03 3.24631406E+07 3.94099725E+10 2.00498952E-01 1.04993500E-03 0.00000000E+00 0.00000000E+00 1.36038618E-09 0.00000000E+00 0.00000000E+00 0.00000000E+00 0.00000000E+00 0.00000000E+00 0.00000000E+00
00035 1.22855881E+08 7.64596765E-01 -6.94674023E-01 -1.51814691E-01 3.66392834E+00 7.03950533E+00 4.88831826E+00 1.60584114E+01 -1.41867533E+00 6.95225232E-01 2.84563002E-01 2.96652930E-03 1.73450019E-03 1.00996419E-02 1.52169935E+03 3.24440330E+07 3.93897380E+10 2.00607726E-01 1.04235835E-03 0.00000000E+00 0.00000000E+00 1.36234407E-09 0.00000000E+00 0.00000000E+00 0.00000000E+00 0.00000000E+00 0.00000000E+00 0.00000000E+00
00036 1.47467057E+08 7.64596116E-01 -6.94412209E-01 -1.51776667E-01 3.66397478E+00 7.03959642E+00 4.88876332E+00 1.60587316E+01 -1.41831946E+00 6.94573894E-01 2.85198373E-01 2.87072545E-03 1.84627367E-03 1.00996392E-02 1.52189986E+03 3.24215862E+07 3.93659656E+10 2.00738274E-01 1.03339158E-03 0.00000000E+00 0.00000000E+00 1.36471028E-09 0.00000000E+00 0.00000000E+00 0.00000000E+00 0.00000000E+00 0.00000000E+00 0.00000000E+00
00037 1.77000469E+08 7.64595336E-01 -6.94099058E-01 -1.51730818E-01 3.66403014E+00 7.03970596E+00 4.88929681E+00 1.60591155E+01 -1.41789464E+00 6.93792794E-01 2.85960959E-01 2.75964040E-03 1.97587450E-03 1.00996370E-02 1.52214166E+03 3.23947306E+07 3.93375506E+10 2.00894598E-01 1.02280125E-03 0.00000000E+00 0.00000000E+00 1.36756774E-09 0.00000000E+00 0.00000000E+00 0.00000000E+00 0.00000000E+00 0.00000000E+00 0.00000000E+00
00038 2.12440562E+08 7.64594400E-01 -6.93722871E-01 -1.51676043E-01 3.66409680E+00 7.03983788E+00 4.88993646E+00 1.60595763E+01 -1.41738781E+00 6.92856168E-01 2.86876267E-01 2.63172977E-03 2.12510710E-03 1.00996329E-02 1.52243059E+03 3.23625211E+07 3.93034429E+10 2.01082130E-01 1.01033720E-03 0.00000000E+00 0.00000000E+00 1.43540132E-09 0.00000000E+00 0.00000000E+00 0.00000000E+00 0.00000000E+00 0.00000000E+00 0.00000000E+00
00039 2.54968675E+08 7.64593275E-01 -6.93271691E-01 -1.51610105E-01 3.66417663E+00 7.03999682E+00 4.89070325E+00 1.60601291E+01 -1.41678378E+00 6.91733160E-01 2.87974933E-01 2.48567603E-03 2.29550830E-03 1.00996272E-02 1.52277846E+03 3.23239147E+07 3.92625748E+10 2.01306976E-01 9.95725182E-04 0.00000000E+00 0.00000000E+00 1.43977410E-09 0.00000000E+00 0.00000000E+00 0.00000000E+00 0.00000000E+00 0.00000000E+00 0.00000000E+00
00040 3.06002410E+08 7.64591924E-01 -6.92731508E-01 -1.51529558E-01 3.66427140E+00 7.04018830E+00 4.89162228E+00 1.60607923E+01 -1.41606428E+00 6.90386818E-01 2.89293763E-01 2.32058841E-03 2.48812386E-03 1.00996123E-02 1.52320350E+03 3.22776336E+07 3.92137004E+10 2.01576146E-01 9.78668631E-04 0.00000000E+00 0.00000000E+00 1.44507546E-09 0.00000000E+00 0.00000000E+00 0.00000000E+00 0.00000000E+00 0.00000000E+00 0.00000000E+00
00041 3.67242892E+08 7.64590301E-01 -6.92082450E-01 -1.51433373E-01 3.66438557E+00 7.04041936E+00 4.89272374E+00 1.60615880E+01 -1.41520896E+00 6.88772879E-01 2.90876981E-01 2.13625734E-03 2.70318101E-03 1.00996073E-02 1.52371123E+03 3.22221563E+07 3.91550558E+10 2.01899101E-01 9.58879719E-04 0.00000000E+00 0.00000000E+00 1.45151770E-09 0.00000000E+00 0.00000000E+00 0.00000000E+00 0.00000000E+00 0.00000000E+00 0.00000000E+00
00042 4.40731470E+08 7.64588351E-01 -6.91304720E-01 -1.51316666E-01 3.66452165E+00 7.04069814E+00 4.89404366E+00 1.60625426E+01 -1.41419261E+00 6.86838319E-01 2.92777744E-01 1.93347063E-03 2.93977036E-03 1.00996015E-02 1.52432750E+03 3.21556985E+07 3.90849004E+10 2.02285950E-01 9.36057336E-04 0.00000000E+00 0.00000000E+00 1.45935854E-09 0.00000000E+00 0.00000000E+00 0.00000000E+00 0.00000000E+00 0.00000000E+00 0.00000000E+00
00043 5.28917764E+08 7.64586006E-01 -6.90371982E-01 -1.51175385E-01 3.66468419E+00 7.04103486E+00 4.89562545E+00 1.60636881E+01 -1.41298645E+00 6.84519583E-01 2.95059962E-01 1.71435634E-03 3.19541318E-03 1.00995907E-02 1.52507384E+03 3.20760784E+07 3.90009279E+10 2.02749485E-01 9.09944557E-04 0.00000000E+00 0.00000000E+00 1.46892441E-09 0.00000000E+00 0.00000000E+00 0.00000000E+00 0.00000000E+00 0.00000000E+00 0.00000000E+00
00044 6.34741317E+08 7.64583187E-01 -6.89253204E-01 -1.51004184E-01 3.66487829E+00 7.04144208E+00 4.89752153E+00 1.60650634E+01 -1.41155643E+00 6.81740431E-01 2.97800508E-01 1.48271405E-03 3.46567481E-03 1.00995769E-02 1.52597870E+03 3.19807087E+07 3.89004442E+10 2.03304991E-01 8.80345764E-04 0.00000000E+00 0.00000000E+00 1.54892226E-09 0.00000000E+00 0.00000000E+00 0.00000000E+00 0.00000000E+00 0.00000000E+00 0.00000000E+00
00045 7.61729581E+08 7.64579795E-01 -6.87911677E-01 -1.50795889E-01 3.66510952E+00 7.04193476E+00 4.89979481E+00 1.60667148E+01 -1.40986171E+00 6.78409327E-01 3.01091871E-01 1.24425254E-03 3.74389461E-03 1.00995602E-02 1.52708032E+03 3.18665030E+07 3.87802948E+10 2.03970688E-01 8.47151943E-04 0.00000000E+00 0.00000000E+00 1.56387488E-09 0.00000000E+00 0.00000000E+00 0.00000000E+00 0.00000000E+00 0.00000000E+00 0.00000000E+00
00046 9.14115497E+08 7.64575712E-01 -6.86302312E-01 -1.50542501E-01 3.66538517E+00 7.04253170E+00 4.90252185E+00 1.60686993E+01 -1.40785438E+00 6.74416198E-01 3.05045391E-01 1.00660215E-03 4.02118930E-03 1.00995248E-02 1.52842144E+03 3.17297767E+07 3.86366463E+10 2.04768805E-01 8.10414973E-04 0.00000000E+00 0.00000000E+00 1.58227234E-09 0.00000000E+00 0.00000000E+00 0.00000000E+00 0.00000000E+00 0.00000000E+00 0.00000000E+00
00047 1.09697860E+09 7.64570794E-01 -6.84371419E-01 -1.50233057E-01 3.66571317E+00 7.04325531E+00 4.90579568E+00 1.60710859E+01 -1.40547452E+00 6.69628513E-01 3.09795140E-01 7.78968582E-04 4.28678391E-03 1.00994994E-02 1.53006078E+03 3.15661120E+07 3.84649999E+10 2.05726266E-01 7.70356816E-04 0.00000000E+00 0.00000000E+00 1.67755787E-09 0.00000000E+00 0.00000000E+00 0.00000000E+00 0.00000000E+00 0.00000000E+00 0.00000000E+00
00048 1.31641432E+09 7.64564867E-01 -6.82054442E-01 -1.49854427E-01 3.66610310E+00 7.04413356E+00 4.90973030E+00 1.60739594E+01 -1.40265005E+00 6.63886418E-01 3.15502622E-01 5.71269292E-04 4.52912775E-03 1.00994676E-02 1.53206895E+03 3.13703058E+07 3.82600376E+10 2.06875453E-01 7.27463885E-04 0.00000000E+00 0.00000000E+00 1.70680845E-09 0.00000000E+00 0.00000000E+00 0.00000000E+00 0.00000000E+00 0.00000000E+00 0.00000000E+00
00049 1.57973718E+09 7.64557716E-01 -6.79272117E-01 -1.49389648E-01 3.66656629E+00 7.04520129E+00 4.91446800E+00 1.60774270E+01 -1.39928806E+00 6.56996582E-01 3.22362704E-01 3.92704971E-04 4.73748015E-03 1.00994348E-02 1.53453752E+03 3.11360506E+07 3.80153510E+10 2.08256871E-01 6.82473952E-04 0.00000000E+00 0.00000000E+00 1.82037541E-09 0.00000000E+00 0.00000000E+00 0.00000000E+00 0.00000000E+00 0.00000000E+00 0.00000000E+00
00050 1.89572461E+09 7.64549078E-01 -6.75929298E-01 -1.48816895E-01 3.66711562E+00 7.04649982E+00 4.92018398E+00 1.60816185E+01 -1.39526794E+00 6.48724952E-01 3.30610556E-01 2.50017001E-04 4.90399923E-03 1.00993806E-02 1.53758486E+03 3.08558944E+07 3.77234391E+10 2.09920307E-01 6.36376274E-04 0.00000000E+00 0.00000000E+00 1.94860983E-09 0.00000000E+00 0.00000000E+00 0.00000000E+00 0.00000000E+00 0.00000000E+00 0.00000000E+00
00051 2.27490954E+09 7.64538632E-01 -6.71909154E-01 -1.48107837E-01 3.66776613E+00 7.04808095E+00 4.92709999E+00 1.60867004E+01 -1.39042969E+00 6.38787985E-01 3.40530166E-01 1.45828465E-04 5.02561302E-03 1.00993120E-02 1.54136555E+03 3.05208812E+07 3.73753442E+10 2.11928255E-01 5.90383266E-04 0.00000000E+00 0.00000000E+00 2.09544343E-09 0.00000000E+00 0.00000000E+00 0.00000000E+00 0.00000000E+00 0.00000000E+00 0.00000000E+00
00052 2.72993145E+09 7.64525976E-01 -6.67069237E-01 -1.47225922E-01 3.66853515E+00 7.05000973E+00 4.93549760E+00 1.60928855E+01 -1.38456101E+00 6.26842122E-01 3.52464693E-01 7.77671519E-05 5.10506051E-03 1.00992626E-02 1.54608054E+03 3.01204086E+07 3.69605219E+10 2.14359499E-01 5.45858037E-04 0.00000000E+00 0.00000000E+00 2.26623891E-09 0.00000000E+00 0.00000000E+00 0.00000000E+00 0.00000000E+00 0.00000000E+00 0.00000000E+00
00053 3.27595773E+09 7.64510611E-01 -6.61235195E-01 -1.46122499E-01 3.66944195E+00 7.05236709E+00 4.94573674E+00 1.61004474E+01 -1.37737310E+00 6.12471501E-01 3.66828873E-01 3.90298391E-05 5.15035389E-03 1.00991474E-02 1.55199963E+03 2.96418931E+07 3.64666043E+10 2.17314352E-01 5.04169549E-04 0.00000000E+00 0.00000000E+00 2.46839816E-09 0.00000000E+00 0.00000000E+00 0.00000000E+00 0.00000000E+00 0.00000000E+00 0.00000000E+00
00054 3.90710225E+09 7.64492604E-01 -6.54336211E-01 -1.44820810E-01 3.67051585E+00 7.05516613E+00 4.95782421E+00 1.61094218E+01 -1.36885259E+00 5.95807778E-01 3.83489565E-01 2.07329930E-05 5.17186215E-03 1.00989663E-02 1.55901129E+03 2.90860540E+07 3.58910457E+10 2.20845980E-01 4.67867281E-04 0.00000000E+00 0.00000000E+00 2.70664491E-09 0.00000000E+00 0.00000000E+00 0.00000000E+00 0.00000000E+00 0.00000000E+00 0.00000000E+00
00055 4.51936925E+09 7.64474887E-01 -6.47170013E-01 -1.43626143E-01 3.67171007E+00 7.05800754E+00 4.96985113E+00 1.61184539E+01 -1.36045937E+00 5.79580483E-01 3.99715757E-01 1.39900095E-05 5.17990296E-03 1.00987727E-02 1.56547557E+03 2.85301339E+07 3.53028566E+10 2.24558243E-01 4.41643172E-04 0.00000000E+00 0.00000000E+00 3.07145959E-09 0.00000000E+00 0.00000000E+00 0.00000000E+00 0.00000000E+00 0.00000000E+00 0.00000000E+00
00056 5.07748489E+09 7.64458525E-01 -6.40630686E-01 -1.42468128E-01 3.67276589E+00 7.06064191E+00 4.98105987E+00 1.61268902E+01 -1.35249051E+00 5.64739788E-01 4.14556108E-01 1.17830131E-05 5.18265192E-03 1.00985737E-02 1.57176627E+03 2.80277270E+07 3.47745266E+10 2.27999253E-01 4.22370296E-04 4.45304992E-42 0.00000000E+00 3.33713151E-09 0.00000000E+00 0.00000000E+00 0.00000000E+00 0.00000000E+00 0.00000000E+00 0.00000000E+00
00057 5.61592656E+09 7.64442535E-01 -6.34317241E-01 -1.41285274E-01 3.67375282E+00 7.06322058E+00 4.99210760E+00 1.61352223E+01 -1.34447227E+00 5.50384106E-01 4.28911709E-01 1.11277086E-05 5.18360822E-03 1.00983541E-02 1.57821725E+03 2.75469431E+07 3.42719407E+10 2.31368030E-01 4.07545525E-04 2.84819887E-40 0.00000000E+00 3.61908621E-09 0.00000000E+00 0.00000000E+00 0.00000000E+00 0.00000000E+00 0.00000000E+00 0.00000000E+00
00058 6.15682695E+09 7.64426262E-01 -6.27960447E-01 -1.40033705E-01 3.67471624E+00 7.06585193E+00 5.00344795E+00 1.61437991E+01 -1.33607601E+00 5.35933051E-01 4.43362779E-01 1.10159199E-05 5.18386332E-03 1.00981965E-02 1.58507116E+03 2.70674010E+07 3.37732347E+10 2.34807036E-01 3.96013017E-04 9.04038400E-40 0.00000000E+00 3.92447908E-09 0.00000000E+00 0.00000000E+00 0.00000000E+00 0.00000000E+00 0.00000000E+00 0.00000000E+00
00059 6.69652619E+09 7.64409809E-01 -6.21603042E-01 -1.38719904E-01 3.67564869E+00 7.06852004E+00 5.01501397E+00 1.61525738E+01 -1.32734061E+00 5.21488183E-01 4.57807696E-01 1.10910038E-05 5.18403503E-03 1.00978998E-02 1.59229723E+03 2.65923462E+07 3.32817310E+10 2.38294932E-01 3.87322224E-04 1.90862619E-39 0.00000000E+00 4.39213834E-09 0.00000000E+00 0.00000000E+00 0.00000000E+00 0.00000000E+00 0.00000000E+00 0.00000000E+00
00060 7.22618720E+09 7.64393441E-01 -6.14952759E-01 -1.37495627E-01 3.67669912E+00 7.07124417E+00 5.02664318E+00 1.61614896E+01 -1.31858124E+00 5.07280692E-01 4.72015253E-01 1.12266731E-05 5.18417327E-03 1.00975593E-02 1.59906164E+03 2.61134046E+07 3.27752734E+10 2.41989676E-01 3.82293684E-04 3.64595617E-39 0.00000000E+00 4.75131491E-09 0.00000000E+00 0.00000000E+00 0.00000000E+00 0.00000000E+00 0.00000000E+00 0.00000000E+00
00061 7.73607080E+09 7.64377469E-01 -6.08371491E-01 -1.36301905E-01 3.67774758E+00 7.07393719E+00 5.03809879E+00 1.61703274E+01 -1.30987007E+00 4.93573705E-01 4.85722315E-01 1.13784430E-05 5.18433430E-03 1.00971724E-02 1.60568491E+03 2.56489953E+07 3.22816690E+10 2.45703008E-01 3.79762970E-04 5.98460456E-39 0.00000000E+00 5.12956464E-09 0.00000000E+00 0.00000000E+00 0.00000000E+00 0.00000000E+00 0.00000000E+00 0.00000000E+00
00062 8.23190417E+09 7.64361728E-01 -6.01958481E-01 -1.35071677E-01 3.67873572E+00 7.07659960E+00 5.04948386E+00 1.61791384E+01 -1.30105038E+00 4.80218962E-01 4.99077137E-01 1.15346243E-05 5.18448753E-03 1.00967838E-02 1.61253867E+03 2.52005044E+07 3.18078289E+10 2.49377453E-01 3.78882138E-04 9.48912699E-39 0.00000000E+00 5.52837557E-09 0.00000000E+00 0.00000000E+00 0.00000000E+00 0.00000000E+00 0.00000000E+00 0.00000000E+00
00063 8.72215683E+09 7.64345955E-01 -5.95600770E-01 -1.33787914E-01 3.67968326E+00 7.07927698E+00 5.06098705E+00 1.61880708E+01 -1.29197998E+00 4.66992329E-01 5.12303869E-01 1.16946661E-05 5.18470550E-03 1.00963066E-02 1.61972119E+03 2.47599541E+07 3.13449336E+10 2.53073640E-01 3.79550348E-04 1.43468408E-38 0.00000000E+00 5.95263901E-09 0.00000000E+00 0.00000000E+00 0.00000000E+00 0.00000000E+00 0.00000000E+00 0.00000000E+00
00064 9.20736704E+09 7.64330133E-01 -5.89292318E-01 -1.32450275E-01 3.68059155E+00 7.08197085E+00 5.07262138E+00 1.61971355E+01 -1.28263805E+00 4.53883706E-01 5.25412590E-01 1.18578028E-05 5.18500912E-03 1.00957421E-02 1.62723853E+03 2.43268436E+07 3.08922764E+10 2.56794700E-01 3.81708699E-04 2.14279683E-38 0.00000000E+00 6.40319373E-09 0.00000000E+00 0.00000000E+00 0.00000000E+00 0.00000000E+00 0.00000000E+00 0.00000000E+00
00065 9.68505022E+09 7.64314345E-01 -5.83070137E-01 -1.31066819E-01 3.68145537E+00 7.08466509E+00 5.08432618E+00 1.62062874E+01 -1.27305758E+00 4.40969143E-01 5.38327269E-01 1.20232810E-05 5.18546655E-03 1.00950026E-02 1.63504943E+03 2.39035380E+07 3.04522061E+10 2.60517815E-01 3.85309373E-04 3.15794560E-38 0.00000000E+00 6.87927950E-09 0.00000000E+00 0.00000000E+00 0.00000000E+00 0.00000000E+00 0.00000000E+00 0.00000000E+00
00066 1.01542912E+10 7.64298618E-01 -5.76425565E-01 -1.29815611E-01 3.68249091E+00 7.08743488E+00 5.09610471E+00 1.62156124E+01 -1.26349775E+00 4.28266922E-01 5.51029607E-01 1.21943805E-05 5.18577670E-03 1.00944043E-02 1.64214751E+03 2.34719154E+07 2.99892256E+10 2.64542982E-01 3.91960637E-04 4.63614666E-38 0.00000000E+00 7.20125240E-09 0.00000000E+00 0.00000000E+00 0.00000000E+00 0.00000000E+00 0.00000000E+00 0.00000000E+00
00067 1.06058246E+10 7.64283274E-01 -5.69972614E-01 -1.28556264E-01 3.68347448E+00 7.09015304E+00 5.10768986E+00 1.62248252E+01 -1.25395316E+00 4.16030285E-01 5.63266374E-01 1.23653303E-05 5.18629612E-03 1.00935838E-02 1.64932236E+03 2.30578493E+07 2.95463325E+10 2.68517702E-01 3.99961643E-04 6.63385616E-38 0.00000000E+00 7.72635390E-09 0.00000000E+00 0.00000000E+00 0.00000000E+00 0.00000000E+00 0.00000000E+00 0.00000000E+00
00068 1.10477950E+10 7.64268048E-01 -5.63640404E-01 -1.27252481E-01 3.68440564E+00 7.09285881E+00 5.11927408E+00 1.62340708E+01 -1.24424793E+00 4.04041513E-01 5.75255290E-01 1.25379915E-05 5.18690782E-03 1.00926553E-02 1.65678268E+03 2.26550748E+07 2.91180790E+10 2.72476661E-01 4.09330701E-04 9.43323390E-38 0.00000000E+00 8.27894224E-09 0.00000000E+00 0.00000000E+00 0.00000000E+00 0.00000000E+00 0.00000000E+00 0.00000000E+00
00069 1.14856849E+10 7.64252755E-01 -5.57348968E-01 -1.25890292E-01 3.68529740E+00 7.09558551E+00 5.13099685E+00 1.62434617E+01 -1.23426697E+00 3.92154128E-01 5.87142825E-01 1.27148521E-05 5.18782530E-03 1.00914116E-02 1.66461260E+03 2.22584282E+07 2.86987243E+10 2.76467719E-01 4.20325797E-04 1.33924037E-37 0.00000000E+00 8.86400626E-09 0.00000000E+00 0.00000000E+00 0.00000000E+00 0.00000000E+00 0.00000000E+00 0.00000000E+00
00070 1.19186869E+10 7.64237422E-01 -5.51111403E-01 -1.24474739E-01 3.68614902E+00 7.09832953E+00 5.14283686E+00 1.62529835E+01 -1.22403041E+00 3.80391841E-01 5.98905295E-01 1.28950416E-05 5.18868140E-03 1.00901935E-02 1.67278784E+03 2.18687494E+07 2.82889166E+10 2.80481785E-01 4.33098647E-04 1.89833787E-37 0.00000000E+00 9.48164440E-09 0.00000000E+00 0.00000000E+00 0.00000000E+00 0.00000000E+00 0.00000000E+00 0.00000000E+00
00071 1.23448181E+10 7.64222122E-01 -5.44961387E-01 -1.23013596E-01 3.68695595E+00 7.10107667E+00 5.15473650E+00 1.62625895E+01 -1.21358351E+00 3.68810552E-01 6.10486786E-01 1.30779820E-05 5.18968820E-03 1.00888004E-02 1.68126791E+03 2.14879706E+07 2.78905838E+10 2.84496118E-01 4.47760485E-04 2.68334496E-37 0.00000000E+00 1.01306245E-08 0.00000000E+00 0.00000000E+00 0.00000000E+00 0.00000000E+00 0.00000000E+00 0.00000000E+00
00072 1.27638917E+10 7.64206859E-01 -5.38398757E-01 -1.21681779E-01 3.68793070E+00 7.10389996E+00 5.16671339E+00 1.62723702E+01 -1.20315660E+00 3.57409693E-01 6.21887875E-01 1.32660415E-05 5.19085903E-03 1.00872112E-02 1.68903631E+03 2.11000560E+07 2.74717485E+10 2.88832139E-01 4.66387808E-04 3.81354094E-37 0.00000000E+00 1.05963745E-08 0.00000000E+00 0.00000000E+00 0.00000000E+00 0.00000000E+00 0.00000000E+00 0.00000000E+00
00073 1.30000000E+10 7.64198189E-01 -5.34634299E-01 -1.20921161E-01 3.68849150E+00 7.10551948E+00 5.17357298E+00 1.62779944E+01 -1.19714317E+00 3.50982222E-01 6.28315485E-01 1.33748077E-05 5.19158194E-03 1.00862406E-02 1.69348899E+03 2.08808742E+07 2.72343438E+10 2.91346866E-01 4.78197171E-04 4.65633872E-37 0.00000000E+00 1.10865251E-08 0.00000000E+00 0.00000000E+00 0.00000000E+00 0.00000000E+00 0.00000000E+00 0.00000000E+00
