00000 0.00000000E+00 5.80200000E-01 -1.17161920E+00 -2.55746615E-01 3.59665800E+00 6.96496498E+00 4.86321132E+00 1.59609599E+01 -1.19884562E+00 6.98490502E-01 2.81392784E-01 3.53685548E-03 1.06910767E-03 1.00996558E-02 1.21999580E+03 7.11709021E+07 8.96341563E+10 6.56155456E-02 2.43960138E-05 0.00000000E+00 0.00000000E+00 0.00000000E+00 0.00000000E+00 0.00000000E+00 0.00000000E+00 0.00000000E+00 0.00000000E+00 0.00000000E+00
00001 5.00000000E+04 5.80200000E-01 -1.21249672E+00 -2.65908607E-01 3.59151962E+00 6.95877599E+00 4.86125031E+00 1.59529156E+01 -1.18029502E+00 6.98490006E-01 2.81393303E-01 3.53699752E-03 1.06894197E-03 1.00996558E-02 1.17791879E+03 8.00464331E+07 9.84806843E+10 6.11616616E-02 1.80311274E-05 0.00000000E+00 0.00000000E+00 0.00000000E+00 0.00000000E+00 0.00000000E+00 0.00000000E+00 0.00000000E+00 0.00000000E+00 0.00000000E+00
00002 1.00000000E+05 5.80199999E-01 -1.21257899E+00 -2.65936550E-01 3.59151302E+00 6.95877231E+00 4.86124501E+00 1.59529064E+01 -1.18029476E+00 6.98489486E-01 2.81393823E-01 3.53699241E-03 1.06894792E-03 1.00996558E-02 1.17780511E+03 8.00667494E+07 9.84993416E+10 6.11590713E-02 1.80277669E-05 0.00000000E+00 0.00000000E+00 0.00000000E+00 0.00000000E+00 0.00000000E+00 0.00000000E+00 0.00000000E+00 0.00000000E+00 0.00000000E+00
00003 1.60000000E+05 5.80199999E-01 -1.21258990E+00 -2.65939286E-01 3.59151166E+00 6.95877238E+00 4.86124528E+00 1.59529065E+01 -1.18029477E+00 6.98488861E-01 2.81394447E-01 3.53698627E-03 1.06895509E-03 1.00996558E-02 1.17779398E+03 8.00692655E+07 9.85018165E+10 6.11590471E-02 1.80278033E-05 0.00000000E+00 0.00000000E+00 0.00000000E+00 0.00000000E+00 0.00000000E+00 0.00000000E+00 0.00000000E+00 0.00000000E+00 0.00000000E+00
00004 2.32000000E+05 5.80199998E-01 -1.21259728E+00 -2.65941121E-01 3.59151074E+00 6.95877250E+00 4.86124565E+00 1.59529068E+01 -1.18029475E+00 6.98488112E-01 2.81395195E-01 3.53697889E-03 1.06896370E-03 1.00996558E-02 1.17778652E+03 8.00709629E+07 9.85034886E+10 6.11590471E-02 1.80278749E-05 0.00000000E+00 0.00000000E+00 0.00000000E+00 0.00000000E+00 0.00000000E+00 0.00000000E+00 0.00000000E+00 0.00000000E+00 0.00000000E+00
00005 3.18400000E+05 5.80199997E-01 -1.21260285E+00 -2.65942498E-01 3.59151003E+00 6.95877265E+00 4.86124612E+00 1.59529071E+01 -1.18029472E+00 6.98487212E-01 2.81396093E-01 3.53697003E-03 1.06897403E-03 1.00996558E-02 1.17778091E+03 8.00722434E+07 9.85047516E+10 6.11590624E-02 1.80279749E-05 0.00000000E+00 0.00000000E+00 0.00000000E+00 0.00000000E+00 0.00000000E+00 0.00000000E+00 0.00000000E+00 0.00000000E+00 0.00000000E+00
00006 4.22080000E+05 5.80199996E-01 -1.21260737E+00 -2.65943565E-01 3.59150944E+00 6.95877285E+00 4.86124669E+00 1.59529075E+01 -1.18029468E+00 6.98486133E-01 2.81397170E-01 3.53695941E-03 1.06898643E-03 1.00996558E-02 1.17777658E+03 8.00732745E+07 9.85057784E+10 6.11590909E-02 1.80281039E-05 0.00000000E+00 0.00000000E+00 0.00000000E+00 0.00000000E+00 0.00000000E+00 0.00000000E+00 0.00000000E+00 0.00000000E+00 0.00000000E+00
00007 5.46496000E+05 5.80199994E-01 -1.21261063E+00 -2.65944377E-01 3.59150903E+00 6.95877309E+00 4.86124740E+00 1.59529080E+01 -1.18029463E+00 6.98484838E-01 2.81398464E-01 3.53694665E-03 1.06900130E-03 1.00996558E-02 1.17777327E+03 8.00740238E+07 9.85065162E+10 6.11591330E-02 1.80282651E-05 0.00000000E+00 0.00000000E+00 0.00000000E+00 0.00000000E+00 0.00000000E+00 0.00000000E+00 0.00000000E+00 0.00000000E+00 0.00000000E+00
00008 6.95795200E+05 5.80199993E-01 -1.21261323E+00 -2.65944962E-01 3.59150867E+00 6.95877338E+00 4.86124826E+00 1.59529087E+01 -1.18029457E+00 6.98483283E-01 2.81400015E-01 3.53693135E-03 1.06901915E-03 1.00996558E-02 1.17777090E+03 8.00746119E+07 9.85071072E+10 6.11591895E-02 1.80284629E-05 0.00000000E+00 0.00000000E+00 0.00000000E+00 0.00000000E+00 0.00000000E+00 0.00000000E+00 0.00000000E+00 0.00000000E+00 0.00000000E+00
00009 8.74954240E+05 5.80199990E-01 -1.21261509E+00 -2.65945324E-01 3.59150839E+00 6.95877374E+00 4.86124930E+00 1.59529094E+01 -1.18029449E+00 6.98481418E-01 2.81401877E-01 3.53691299E-03 1.06904058E-03 1.00996558E-02 1.17776942E+03 8.00750204E+07 9.85075279E+10 6.11592625E-02 1.80287030E-05 0.00000000E+00 0.00000000E+00 0.00000000E+00 0.00000000E+00 0.00000000E+00 0.00000000E+00 0.00000000E+00 0.00000000E+00 0.00000000E+00
00010 1.08994509E+06 5.80199988E-01 -1.21261611E+00 -2.65945459E-01 3.59150820E+00 6.95877416E+00 4.86125055E+00 1.59529104E+01 -1.18029437E+00 6.98479180E-01 2.81404112E-01 3.53689096E-03 1.06906628E-03 1.00996558E-02 1.17776888E+03 8.00752317E+07 9.85077577E+10 6.11593545E-02 1.80289924E-05 0.00000000E+00 0.00000000E+00 0.00000000E+00 0.00000000E+00 0.00000000E+00 0.00000000E+00 0.00000000E+00 0.00000000E+00 0.00000000E+00
00011 1.34793411E+06 5.80199985E-01 -1.21261627E+00 -2.65945355E-01 3.59150811E+00 6.95877468E+00 4.86125207E+00 1.59529115E+01 -1.18029421E+00 6.98476495E-01 2.81406793E-01 3.53686451E-03 1.06909714E-03 1.00996558E-02 1.17776930E+03 8.00752415E+07 9.85077939E+10 6.11594689E-02 1.80293393E-05 0.00000000E+00 0.00000000E+00 0.00000000E+00 0.00000000E+00 0.00000000E+00 0.00000000E+00 0.00000000E+00 0.00000000E+00 0.00000000E+00
00012 1.65752093E+06 5.80199981E-01 -1.21261560E+00 -2.65944997E-01 3.59150810E+00 6.95877530E+00 4.86125391E+00 1.59529129E+01 -1.18029397E+00 6.98473272E-01 2.81410010E-01 3.53683278E-03 1.06913416E-03 1.00996558E-02 1.17777077E+03 8.00750506E+07 9.85076410E+10 6.11596102E-02 1.80297536E-05 0.00000000E+00 0.00000000E+00 0.00000000E+00 0.00000000E+00 0.00000000E+00 0.00000000E+00 0.00000000E+00 0.00000000E+00 0.00000000E+00
00013 2.02902511E+06 5.80199977E-01 -1.21261412E+00 -2.65944364E-01 3.59150815E+00 6.95877603E+00 4.86125613E+00 1.59529146E+01 -1.18029361E+00 6.98469404E-01 2.81413872E-01 3.53679470E-03 1.06917858E-03 1.00996558E-02 1.17777334E+03 8.00746601E+07 9.85073048E+10 6.11597834E-02 1.80302465E-05 0.00000000E+00 0.00000000E+00 0.00000000E+00 0.00000000E+00 0.00000000E+00 0.00000000E+00 0.00000000E+00 0.00000000E+00 0.00000000E+00
00014 2.47483013E+06 5.80199972E-01 -1.21261143E+00 -2.65943437E-01 3.59150836E+00 6.95877690E+00 4.86125882E+00 1.59529166E+01 -1.18029309E+00 6.98464763E-01 2.81418505E-01 3.53674901E-03 1.06923189E-03 1.00996558E-02 1.17777712E+03 8.00739931E+07 9.85066955E+10 6.11599961E-02 1.80308319E-05 0.00000000E+00 0.00000000E+00 0.00000000E+00 0.00000000E+00 0.00000000E+00 0.00000000E+00 0.00000000E+00 0.00000000E+00 0.00000000E+00
00015 3.00979616E+06 5.80199966E-01 -1.21260809E+00 -2.65942197E-01 3.59150857E+00 6.95877794E+00 4.86126208E+00 1.59529191E+01 -1.18029232E+00 6.98459194E-01 2.81424065E-01 3.53669417E-03 1.06929587E-03 1.00996558E-02 1.17778217E+03 8.00731466E+07 9.85059364E+10 6.11602556E-02 1.80315245E-05 0.00000000E+00 0.00000000E+00 0.00000000E+00 0.00000000E+00 0.00000000E+00 0.00000000E+00 0.00000000E+00 0.00000000E+00 0.00000000E+00
00016 3.65175539E+06 5.80199958E-01 -1.21260336E+00 -2.65940627E-01 3.59150897E+00 6.95877915E+00 4.86126604E+00 1.59529220E+01 -1.18029121E+00 6.98452511E-01 2.81430737E-01 3.53662836E-03 1.06937264E-03 1.00996558E-02 1.17778857E+03 8.00719818E+07 9.85048608E+10 6.11605735E-02 1.80323434E-05 0.00000000E+00 0.00000000E+00 0.00000000E+00 0.00000000E+00 0.00000000E+00 0.00000000E+00 0.00000000E+00 0.00000000E+00 0.00000000E+00
00017 4.42210647E+06 5.80199949E-01 -1.21259761E+00 -2.65938718E-01 3.59150945E+00 6.95878058E+00 4.86127084E+00 1.59529256E+01 -1.18028963E+00 6.98444492E-01 2.81438743E-01 3.53654939E-03 1.06946477E-03 1.00996559E-02 1.17779634E+03 8.00705675E+07 9.85035555E+10 6.11609622E-02 1.80333096E-05 0.00000000E+00 0.00000000E+00 0.00000000E+00 0.00000000E+00 0.00000000E+00 0.00000000E+00 0.00000000E+00 0.00000000E+00 0.00000000E+00
00018 5.34652777E+06 5.80199939E-01 -1.21259091E+00 -2.65936466E-01 3.59151000E+00 6.95878226E+00 4.86127666E+00 1.59529299E+01 -1.18028742E+00 6.98434868E-01 2.81448351E-01 3.53645462E-03 1.06957540E-03 1.00996558E-02 1.17780551E+03 8.00689137E+07 9.85020336E+10 6.11614367E-02 1.80344472E-05 0.00000000E+00 0.00000000E+00 0.00000000E+00 0.00000000E+00 0.00000000E+00 0.00000000E+00 0.00000000E+00 0.00000000E+00 0.00000000E+00
00019 6.45583332E+06 5.80199926E-01 -1.21258297E+00 -2.65933879E-01 3.59151069E+00 6.95878422E+00 4.86128372E+00 1.59529351E+01 -1.18028439E+00 6.98423320E-01 2.81459880E-01 3.53634088E-03 1.06970805E-03 1.00996558E-02 1.17781605E+03 8.00669701E+07 9.85002313E+10 6.11620156E-02 1.80357858E-05 0.00000000E+00 0.00000000E+00 0.00000000E+00 0.00000000E+00 0.00000000E+00 0.00000000E+00 0.00000000E+00 0.00000000E+00 0.00000000E+00
00020 7.78699998E+06 5.80199911E-01 -1.21257399E+00 -2.65930977E-01 3.59151149E+00 6.95878651E+00 4.86129229E+00 1.59529414E+01 -1.18028029E+00 6.98409462E-01 2.81473716E-01 3.53620439E-03 1.06986721E-03 1.00996559E-02 1.17782787E+03 8.00647759E+07 9.84981928E+10 6.11627200E-02 1.80373589E-05 0.00000000E+00 0.00000000E+00 0.00000000E+00 0.00000000E+00 0.00000000E+00 0.00000000E+00 0.00000000E+00 0.00000000E+00 0.00000000E+00
00021 9.38439998E+06 5.80199892E-01 -1.21256408E+00 -2.65927790E-01 3.59151237E+00 6.95878918E+00 4.86130265E+00 1.59529490E+01 -1.18027488E+00 6.98392832E-01 2.81490318E-01 3.53604059E-03 1.07005839E-03 1.00996558E-02 1.17784085E+03 8.00623559E+07 9.84959415E+10 6.11635736E-02 1.80392059E-05 0.00000000E+00 0.00000000E+00 0.00000000E+00 0.00000000E+00 0.00000000E+00 0.00000000E+00 0.00000000E+00 0.00000000E+00 0.00000000E+00
00022 1.13012800E+07 5.80199870E-01 -1.21255344E+00 -2.65924347E-01 3.59151331E+00 6.95879231E+00 4.86131518E+00 1.59529580E+01 -1.18026783E+00 6.98372876E-01 2.81510241E-01 3.53584401E-03 1.07028774E-03 1.00996558E-02 1.17785488E+03 8.00597542E+07 9.84935254E+10 6.11646007E-02 1.80413710E-05 0.00000000E+00 0.00000000E+00 0.00000000E+00 0.00000000E+00 0.00000000E+00 0.00000000E+00 0.00000000E+00 0.00000000E+00 0.00000000E+00
00023 1.36015360E+07 5.80199843E-01 -1.21254191E+00 -2.65920679E-01 3.59151436E+00 6.95879596E+00 4.86133027E+00 1.59529689E+01 -1.18025882E+00 6.98348929E-01 2.81534149E-01 3.53560808E-03 1.07056291E-03 1.00996559E-02 1.17786983E+03 8.00569451E+07 9.84909058E+10 6.11658292E-02 1.80439072E-05 0.00000000E+00 0.00000000E+00 0.00000000E+00 0.00000000E+00 0.00000000E+00 0.00000000E+00 0.00000000E+00 0.00000000E+00 0.00000000E+00
00024 1.63618432E+07 5.80199811E-01 -1.21252979E+00 -2.65916792E-01 3.59151545E+00 6.95880022E+00 4.86134843E+00 1.59529819E+01 -1.18024746E+00 6.98320192E-01 2.81562839E-01 3.53532493E-03 1.07089314E-03 1.00996559E-02 1.17788568E+03 8.00539846E+07 9.84881507E+10 6.11672847E-02 1.80468727E-05 0.00000000E+00 0.00000000E+00 0.00000000E+00 0.00000000E+00 0.00000000E+00 0.00000000E+00 0.00000000E+00 0.00000000E+00 0.00000000E+00
00025 1.96742118E+07 5.80199773E-01 -1.21251701E+00 -2.65912651E-01 3.59151657E+00 6.95880519E+00 4.86137022E+00 1.59529973E+01 -1.18023330E+00 6.98285707E-01 2.81597267E-01 3.53498510E-03 1.07128961E-03 1.00996559E-02 1.17790256E+03 8.00508562E+07 9.84852475E+10 6.11689913E-02 1.80503332E-05 0.00000000E+00 0.00000000E+00 0.00000000E+00 0.00000000E+00 0.00000000E+00 0.00000000E+00 0.00000000E+00 0.00000000E+00 0.00000000E+00
00026 2.36490542E+07 5.80199727E-01 -1.21250301E+00 -2.65908185E-01 3.59151784E+00 6.95881101E+00 4.86139634E+00 1.59530156E+01 -1.18021581E+00 6.98244326E-01 2.81638581E-01 3.53457723E-03 1.07176508E-03 1.00996563E-02 1.17792078E+03 8.00474400E+07 9.84820650E+10 6.11709806E-02 1.80543716E-05 0.00000000E+00 0.00000000E+00 0.00000000E+00 0.00000000E+00 0.00000000E+00 0.00000000E+00 0.00000000E+00 0.00000000E+00 0.00000000E+00
00027 2.84188650E+07 5.80199672E-01 -1.21248772E+00 -2.65903256E-01 3.59151919E+00 6.95881782E+00 4.86142760E+00 1.59530374E+01 -1.18019437E+00 6.98194667E-01 2.81688158E-01 3.53408770E-03 1.07233541E-03 1.00996570E-02 1.17794089E+03 8.00436976E+07 9.84785879E+10 6.11732828E-02 1.80590822E-05 0.00000000E+00 0.00000000E+00 0.00000000E+00 0.00000000E+00 0.00000000E+00 0.00000000E+00 0.00000000E+00 0.00000000E+00 0.00000000E+00
00028 3.41426380E+07 5.80199606E-01 -1.21247069E+00 -2.65897644E-01 3.59152065E+00 6.95882580E+00 4.86146500E+00 1.59530631E+01 -1.18016820E+00 6.98135077E-01 2.81747650E-01 3.53350013E-03 1.07302056E-03 1.00996574E-02 1.17796379E+03 8.00395066E+07 9.84747154E+10 6.11759342E-02 1.80645786E-05 0.00000000E+00 0.00000000E+00 0.00000000E+00 0.00000000E+00 0.00000000E+00 0.00000000E+00 0.00000000E+00 0.00000000E+00 0.00000000E+00
00029 4.10111656E+07 5.80199526E-01 -1.21245060E+00 -2.65891118E-01 3.59152240E+00 6.95883520E+00 4.86150979E+00 1.59530938E+01 -1.18013634E+00 6.98063568E-01 2.81819041E-01 3.53279484E-03 1.07384340E-03 1.00996574E-02 1.17799042E+03 8.00345798E+07 9.84701469E+10 6.11790019E-02 1.80710221E-05 0.00000000E+00 0.00000000E+00 0.00000000E+00 0.00000000E+00 0.00000000E+00 0.00000000E+00 0.00000000E+00 0.00000000E+00 0.00000000E+00
00030 4.92533987E+07 5.80199431E-01 -1.21242704E+00 -2.65883358E-01 3.59152442E+00 6.95884629E+00 4.86156344E+00 1.59531303E+01 -1.18009768E+00 6.97977757E-01 2.81904711E-01 3.53194824E-03 1.07483111E-03 1.00996574E-02 1.17802209E+03 8.00287810E+07 9.84647877E+10 6.11825636E-02 1.80786038E-05 0.00000000E+00 0.00000000E+00 0.00000000E+00 0.00000000E+00 0.00000000E+00 0.00000000E+00 0.00000000E+00 0.00000000E+00 0.00000000E+00
00031 5.91440784E+07 5.80199317E-01 -1.21239884E+00 -2.65874022E-01 3.59152680E+00 6.95885946E+00 4.86162777E+00 1.59531740E+01 -1.18005085E+00 6.97874784E-01 2.82007515E-01 3.53093194E-03 1.07601680E-03 1.00996574E-02 1.17806019E+03 8.00218328E+07 9.84583750E+10 6.11867313E-02 1.80875728E-05 0.00000000E+00 0.00000000E+00 0.00000000E+00 0.00000000E+00 0.00000000E+00 0.00000000E+00 0.00000000E+00 0.00000000E+00 0.00000000E+00
00032 7.10128941E+07 5.80199180E-01 -1.21236482E+00 -2.65862745E-01 3.59152966E+00 6.95887515E+00 4.86170495E+00 1.59532262E+01 -1.17999428E+00 6.97751216E-01 2.82130880E-01 3.52971185E-03 1.07744024E-03 1.00996574E-02 1.17810622E+03 8.00134492E+07 9.84506395E+10 6.11916531E-02 1.80982421E-05 0.00000000E+00 0.00000000E+00 0.00000000E+00 0.00000000E+00 0.00000000E+00 0.00000000E+00 0.00000000E+00 0.00000000E+00 0.00000000E+00
00033 8.52554730E+07 5.80199015E-01 -1.21232385E+00 -2.65849114E-01 3.59153309E+00 6.95889390E+00 4.86179759E+00 1.59532888E+01 -1.17992608E+00 6.97602934E-01 2.82278917E-01 3.52824698E-03 1.07914923E-03 1.00996574E-02 1.17816185E+03 8.00033447E+07 9.84413242E+10 6.11975057E-02 1.81109863E-05 0.00000000E+00 0.00000000E+00 0.00000000E+00 0.00000000E+00 0.00000000E+00 0.00000000E+00 0.00000000E+00 0.00000000E+00 0.00000000E+00
00034 1.02346568E+08 5.80198817E-01 -1.21227442E+00 -2.65832682E-01 3.59153723E+00 6.95891638E+00 4.86190880E+00 1.59533640E+01 -1.17984400E+00 6.97424996E-01 2.82456562E-01 3.52648805E-03 1.08120133E-03 1.00996574E-02 1.17822892E+03 7.99911593E+07 9.84300882E+10 6.12045044E-02 1.81262583E-05 0.00000000E+00 0.00000000E+00 0.00000000E+00 0.00000000E+00 0.00000000E+00 0.00000000E+00 0.00000000E+00 0.00000000E+00 0.00000000E+00
00035 1.22855881E+08 5.80198580E-01 -1.21221501E+00 -2.65812907E-01 3.59154220E+00 6.95894334E+00 4.86204231E+00 1.59534542E+01 -1.17974534E+00 6.97211471E-01 2.82669735E-01 3.52437577E-03 1.08366561E-03 1.00996575E-02 1.17830964E+03 7.99765091E+07 9.84165824E+10 6.12128932E-02 1.81445834E-05 0.00000000E+00 0.00000000E+00 0.00000000E+00 0.00000000E+00 0.00000000E+00 0.00000000E+00 0.00000000E+00 0.00000000E+00 0.00000000E+00
00036 1.47467057E+08 5.80198295E-01 -1.21214357E+00 -2.65789155E-01 3.59154818E+00 6.95897570E+00 4.86220260E+00 1.59535626E+01 -1.17962681E+00 6.96955240E-01 2.82925543E-01 3.52183878E-03 1.08662556E-03 1.00996574E-02 1.17840659E+03 7.99589035E+07 9.84003472E+10 6.12229637E-02 1.81665939E-05 0.00000000E+00 0.00000000E+00 0.00000000E+00 0.00000000E+00 0.00000000E+00 0.00000000E+00 0.00000000E+00 0.00000000E+00 0.00000000E+00
00037 1.77000469E+08 5.80197954E-01 -1.21205784E+00 -2.65760634E-01 3.59155535E+00 6.95901454E+00 4.86239503E+00 1.59536927E+01 -1.17948446E+00 6.96647763E-01 2.83232512E-01 3.51879114E-03 1.09018112E-03 1.00996574E-02 1.17852303E+03 7.99377777E+07 9.83808676E+10 6.12350529E-02 1.81930404E-05 0.00000000E+00 0.00000000E+00 0.00000000E+00 0.00000000E+00 0.00000000E+00 0.00000000E+00 0.00000000E+00 0.00000000E+00 0.00000000E+00
00038 2.12440562E+08 5.80197543E-01 -1.21195480E+00 -2.65726441E-01 3.59156402E+00 6.95906119E+00 4.86262605E+00 1.59538489E+01 -1.17931354E+00 6.96278791E-01 2.83600874E-01 3.51512929E-03 1.09445392E-03 1.00996568E-02 1.17866264E+03 7.99124088E+07 9.83574589E+10 6.12495782E-02 1.82248374E-05 0.00000000E+00 0.00000000E+00 0.00000000E+00 0.00000000E+00 0.00000000E+00 0.00000000E+00 0.00000000E+00 0.00000000E+00 0.00000000E+00
00039 2.54968675E+08 5.80197051E-01 -1.21183146E+00 -2.65685325E-01 3.59157429E+00 6.95911716E+00 4.86290338E+00 1.59540364E+01 -1.17910821E+00 6.95836025E-01 2.84042906E-01 3.51072833E-03 1.09958812E-03 1.00996571E-02 1.17883053E+03 7.98820177E+07 9.83294450E+10 6.12669931E-02 1.82630389E-05 0.00000000E+00 0.00000000E+00 0.00000000E+00 0.00000000E+00 0.00000000E+00 0.00000000E+00 0.00000000E+00 0.00000000E+00 0.00000000E+00
00040 3.06002410E+08 5.80196460E-01 -1.21168331E+00 -2.65635975E-01 3.59158666E+00 6.95918436E+00 4.86323638E+00 1.59542616E+01 -1.17886153E+00 6.95304706E-01 2.84573344E-01 3.50543749E-03 1.10576063E-03 1.00996572E-02 1.17903208E+03 7.98455369E+07 9.82958087E+10 6.12879012E-02 1.83089785E-05 0.00000000E+00 0.00000000E+00 0.00000000E+00 0.00000000E+00 0.00000000E+00 0.00000000E+00 0.00000000E+00 0.00000000E+00 0.00000000E+00
00041 3.67242892E+08 5.80195751E-01 -1.21150583E+00 -2.65576617E-01 3.59160135E+00 6.95926504E+00 4.86363629E+00 1.59545321E+01 -1.17856503E+00 6.94667124E-01 2.85209865E-01 3.49907453E-03 1.11318518E-03 1.00996561E-02 1.17927454E+03 7.98018099E+07 9.82555258E+10 6.13129657E-02 1.83642258E-05 0.00000000E+00 0.00000000E+00 0.00000000E+00 0.00000000E+00 0.00000000E+00 0.00000000E+00 0.00000000E+00 0.00000000E+00 0.00000000E+00
00042 4.40731470E+08 5.80194900E-01 -1.21129200E+00 -2.65505635E-01 3.59161931E+00 6.95936202E+00 4.86411664E+00 1.59548572E+01 -1.17820888E+00 6.93902027E-01 2.85973686E-01 3.49141884E-03 1.12211651E-03 1.00996563E-02 1.17956456E+03 7.97492593E+07 9.82070171E+10 6.13431410E-02 1.84308160E-05 0.00000000E+00 0.00000000E+00 0.00000000E+00 0.00000000E+00 0.00000000E+00 0.00000000E+00 0.00000000E+00 0.00000000E+00 0.00000000E+00
00043 5.28917764E+08 5.80193878E-01 -1.21103585E+00 -2.65420324E-01 3.59164070E+00 6.95947847E+00 4.86469362E+00 1.59552477E+01 -1.17778064E+00 6.92983912E-01 2.86890265E-01 3.48220306E-03 1.13286679E-03 1.00996577E-02 1.17991321E+03 7.96863012E+07 9.81489385E+10 6.13793483E-02 1.85109777E-05 0.00000000E+00 0.00000000E+00 0.00000000E+00 0.00000000E+00 0.00000000E+00 0.00000000E+00 0.00000000E+00 0.00000000E+00 0.00000000E+00
00044 6.34741317E+08 5.80192651E-01 -1.21072830E+00 -2.65317914E-01 3.59166638E+00 6.95961836E+00 4.86538684E+00 1.59557170E+01 -1.17726559E+00 6.91882179E-01 2.87990148E-01 3.47110239E-03 1.14581699E-03 1.00996583E-02 1.18033188E+03 7.96107777E+07 9.80792494E+10 6.14228396E-02 1.86075794E-05 0.00000000E+00 0.00000000E+00 0.00000000E+00 0.00000000E+00 0.00000000E+00 0.00000000E+00 0.00000000E+00 0.00000000E+00 0.00000000E+00
00045 7.61729581E+08 5.80191178E-01 -1.21035949E+00 -2.65194796E-01 3.59169702E+00 6.95978638E+00 4.86621987E+00 1.59562812E+01 -1.17664573E+00 6.90560108E-01 2.89309990E-01 3.45772160E-03 1.16142759E-03 1.00996587E-02 1.18083540E+03 7.95202503E+07 9.79957465E+10 6.14750433E-02 1.87240592E-05 0.00000000E+00 0.00000000E+00 0.00000000E+00 0.00000000E+00 0.00000000E+00 0.00000000E+00 0.00000000E+00 0.00000000E+00 0.00000000E+00
00046 9.14115497E+08 5.80189410E-01 -1.20991651E+00 -2.65047040E-01 3.59173389E+00 6.95998831E+00 4.86722132E+00 1.59569597E+01 -1.17589934E+00 6.88973637E-01 2.90893770E-01 3.44157834E-03 1.18025996E-03 1.00996602E-02 1.18143998E+03 7.94116744E+07 9.78955432E+10 6.15377905E-02 1.88646916E-05 0.00000000E+00 0.00000000E+00 0.00000000E+00 0.00000000E+00 0.00000000E+00 0.00000000E+00 0.00000000E+00 0.00000000E+00 0.00000000E+00
00047 1.09697860E+09 5.80187285E-01 -1.20938504E+00 -2.64869457E-01 3.59177797E+00 6.96023099E+00 4.86842552E+00 1.59577760E+01 -1.17500000E+00 6.87069903E-01 2.92794254E-01 3.42208241E-03 1.20300449E-03 1.00996608E-02 1.18216700E+03 7.92815473E+07 9.77754577E+10 6.16131670E-02 1.90346713E-05 0.00000000E+00 0.00000000E+00 0.00000000E+00 0.00000000E+00 0.00000000E+00 0.00000000E+00 0.00000000E+00 0.00000000E+00 0.00000000E+00
00048 1.31641432E+09 5.80184734E-01 -1.20874690E+00 -2.64656102E-01 3.59183082E+00 6.96052242E+00 4.86987375E+00 1.59587577E+01 -1.17391530E+00 6.84785489E-01 2.95074738E-01 3.39850959E-03 1.23050971E-03 1.00996580E-02 1.18304106E+03 7.91255608E+07 9.76314649E+10 6.17038238E-02 1.92401477E-05 0.00000000E+00 0.00000000E+00 0.00000000E+00 0.00000000E+00 0.00000000E+00 0.00000000E+00 0.00000000E+00 0.00000000E+00 0.00000000E+00
00049 1.57973718E+09 5.80181668E-01 -1.20798085E+00 -2.64399797E-01 3.59189418E+00 6.96087341E+00 4.87161736E+00 1.59599410E+01 -1.17260642E+00 6.82044300E-01 2.97811170E-01 3.36996700E-03 1.26380991E-03 1.00996575E-02 1.18409194E+03 7.89386806E+07 9.74588916E+10 6.18127613E-02 1.94896677E-05 0.00000000E+00 0.00000000E+00 0.00000000E+00 0.00000000E+00 0.00000000E+00 0.00000000E+00 0.00000000E+00 0.00000000E+00 0.00000000E+00
00050 1.89572461E+09 5.80177984E-01 -1.20706117E+00 -2.64091821E-01 3.59197012E+00 6.96129601E+00 4.87371751E+00 1.59613678E+01 -1.17102497E+00 6.78755063E-01 3.01094638E-01 3.33535021E-03 1.30419455E-03 1.00996592E-02 1.18535590E+03 7.87148526E+07 9.72521082E+10 6.19438189E-02 1.97929228E-05 0.00000000E+00 0.00000000E+00 0.00000000E+00 0.00000000E+00 0.00000000E+00 0.00000000E+00 0.00000000E+00 0.00000000E+00 0.00000000E+00
00051 2.27490954E+09 5.80173555E-01 -1.20588694E+00 -2.63709780E-01 3.59207265E+00 6.96181579E+00 4.87625359E+00 1.59631046E+01 -1.16914050E+00 6.74807819E-01 3.05034869E-01 3.29326633E-03 1.35330571E-03 1.00996450E-02 1.18692557E+03 7.84320893E+07 9.69887762E+10 6.21110542E-02 2.01734912E-05 0.00000000E+00 0.00000000E+00 0.00000000E+00 0.00000000E+00 0.00000000E+00 0.00000000E+00 0.00000000E+00 0.00000000E+00 0.00000000E+00
00052 2.72993145E+09 5.80168229E-01 -1.20445618E+00 -2.63247504E-01 3.59219920E+00 6.96244597E+00 4.87931444E+00 1.59652074E+01 -1.16686713E+00 6.70070844E-01 3.09763296E-01 3.24198236E-03 1.41313886E-03 1.00996437E-02 1.18882764E+03 7.80895242E+07 9.66688906E+10 6.23158943E-02 2.06426190E-05 0.00000000E+00 0.00000000E+00 0.00000000E+00 0.00000000E+00 0.00000000E+00 0.00000000E+00 0.00000000E+00 0.00000000E+00 0.00000000E+00
00053 3.27595773E+09 5.80161821E-01 -1.20273843E+00 -2.62690964E-01 3.59235037E+00 6.96320623E+00 4.88301155E+00 1.59677512E+01 -1.16410472E+00 6.64386339E-01 3.15437360E-01 3.17933339E-03 1.48623250E-03 1.00996407E-02 1.19112160E+03 7.76799413E+07 9.62862302E+10 6.25628889E-02 2.12177742E-05 0.00000000E+00 0.00000000E+00 0.00000000E+00 0.00000000E+00 0.00000000E+00 0.00000000E+00 0.00000000E+00 0.00000000E+00 0.00000000E+00
00054 3.93118928E+09 5.80154106E-01 -1.20067399E+00 -2.62020303E-01 3.59253115E+00 6.96412410E+00 4.88748265E+00 1.59708328E+01 -1.16073933E+00 6.57565258E-01 3.22245651E-01 3.10260047E-03 1.57575646E-03 1.00996390E-02 1.19389183E+03 7.71902139E+07 9.58283421E+10 6.28610499E-02 2.19255282E-05 0.00000000E+00 0.00000000E+00 0.00000000E+00 0.00000000E+00 0.00000000E+00 0.00000000E+00 0.00000000E+00 0.00000000E+00 0.00000000E+00
00055 4.71746714E+09 5.80144813E-01 -1.19819277E+00 -2.61211464E-01 3.59274704E+00 6.96523492E+00 4.89289975E+00 1.59745762E+01 -1.15662816E+00 6.49380957E-01 3.30414236E-01 3.00834311E-03 1.68572886E-03 1.00996401E-02 1.19724138E+03 7.66052031E+07 9.52808877E+10 6.32212428E-02 2.28011561E-05 0.00000000E+00 0.00000000E+00 0.00000000E+00 0.00000000E+00 0.00000000E+00 0.00000000E+00 0.00000000E+00 0.00000000E+00 0.00000000E+00
00056 5.66100056E+09 5.80133609E-01 -1.19520947E+00 -2.60235249E-01 3.59300475E+00 6.96658103E+00 4.89947488E+00 1.59791331E+01 -1.15158818E+00 6.39562096E-01 3.40213761E-01 2.89221870E-03 1.82113112E-03 1.00996977E-02 1.20129656E+03 7.59070267E+07 9.46267903E+10 6.36570609E-02 2.38896522E-05 0.00000000E+00 0.00000000E+00 0.00000000E+00 0.00000000E+00 0.00000000E+00 0.00000000E+00 0.00000000E+00 0.00000000E+00 0.00000000E+00
00057 6.79324068E+09 5.80120089E-01 -1.19162044E+00 -2.59055072E-01 3.59331192E+00 6.96821517E+00 4.90747405E+00 1.59846967E+01 -1.14538168E+00 6.27784350E-01 3.51967604E-01 2.74879800E-03 1.98846094E-03 1.00996924E-02 1.20621732E+03 7.50745141E+07 9.38458252E+10 6.41853635E-02 2.52491877E-05 0.00000000E+00 0.00000000E+00 0.00000000E+00 0.00000000E+00 0.00000000E+00 0.00000000E+00 0.00000000E+00 0.00000000E+00 0.00000000E+00
00058 8.15192881E+09 5.80103750E-01 -1.18716931E+00 -2.57606170E-01 3.59370025E+00 6.97022549E+00 4.91724352E+00 1.59915443E+01 -1.13775736E+00 6.13657446E-01 3.66064913E-01 2.57124995E-03 2.19563915E-03 1.00996572E-02 1.21228583E+03 7.40573281E+07 9.28862864E+10 6.48463374E-02 2.69859845E-05 0.00000000E+00 0.00000000E+00 0.00000000E+00 0.00000000E+00 0.00000000E+00 0.00000000E+00 0.00000000E+00 0.00000000E+00 0.00000000E+00
00059 9.69104208E+09 5.80085086E-01 -1.18187170E+00 -2.55912409E-01 3.59417778E+00 6.97257973E+00 4.92854776E+00 1.59995492E+01 -1.12890428E+00 5.97659919E-01 3.82027880E-01 2.36389488E-03 2.43755757E-03 1.00996530E-02 1.21941816E+03 7.28699912E+07 9.17571704E+10 6.56416669E-02 2.91126050E-05 0.00000000E+00 0.00000000E+00 0.00000000E+00 0.00000000E+00 0.00000000E+00 0.00000000E+00 0.00000000E+00 0.00000000E+00 0.00000000E+00
00060 1.11721586E+10 5.80066979E-01 -1.17677057E+00 -2.54264885E-01 3.59462930E+00 6.97488303E+00 4.93965423E+00 1.60074524E+01 -1.12004120E+00 5.82274517E-01 3.97379295E-01 2.15993243E-03 2.67544151E-03 1.00997196E-02 1.22639599E+03 7.17419131E+07 9.06828852E+10 6.64168864E-02 3.12646859E-05 0.00000000E+00 0.00000000E+00 0.00000000E+00 0.00000000E+00 0.00000000E+00 0.00000000E+00 0.00000000E+00 0.00000000E+00 0.00000000E+00
00061 1.25633941E+10 5.80049839E-01 -1.17199279E+00 -2.52705537E-01 3.59504407E+00 6.97707669E+00 4.95029251E+00 1.60150536E+01 -1.11138760E+00 5.67836359E-01 4.11785119E-01 1.96592492E-03 2.90177992E-03 1.00997224E-02 1.23303715E+03 7.06984926E+07 8.96880768E+10 6.71511990E-02 3.33689601E-05 0.00000000E+00 0.00000000E+00 0.00000000E+00 0.00000000E+00 0.00000000E+00 0.00000000E+00 0.00000000E+00 0.00000000E+00 0.00000000E+00
00062 1.30000000E+10 5.80044446E-01 -1.17039403E+00 -2.52200823E-01 3.59519140E+00 6.97778592E+00 4.95367850E+00 1.60174941E+01 -1.10864889E+00 5.63305087E-01 4.16306206E-01 1.90481260E-03 2.97307020E-03 1.00997291E-02 1.23519422E+03 7.03555889E+07 8.93576855E+10 6.73966328E-02 3.40740327E-05 0.00000000E+00 0.00000000E+00 0.00000000E+00 0.00000000E+00 0.00000000E+00 0.00000000E+00 0.00000000E+00 0.00000000E+00 0.00000000E+00
