13564.026512906088
14220.215894506107
14775.247007505879
15731.102832397453
16418.75906841884
17120.921656964038
18196.72324824257
19294.48095433862
20410.091420304805
21916.786650428963
23432.07075164254
25318.356456906375
27546.79201495425
30071.7449982384
33613.84785421314
41933.76625087728
