0.02254145420366335
0.022741090159258254
0.022741072355744848
0.022741056123141843
0.02274103622512816
0.0227410252288649
0.022741014232606962
0.022741005330878236
0.022740996952783806
0.022740996952783806
0.02274099328736846
0.02274099328736846
0.02274099538189144
0.02274099538189144
0.02274100794903339
0.02274100794903339
0.02274100794903339
0.02274103308333811
0.02274103308333811
0.02274103308333811
0.022741082304765334
0.022741082304765334
0.022741082304765334
0.022741082304765334
0.022741171322510644
0.022741171322510644
0.022741171322510644
0.022741171322510644
0.022741171322510644
0.022741284951550655
0.022741284951550655
0.022741284951550655
0.022741284951550655
0.022741284951550655
0.022741284951550655
0.022741442043324404
0.022741442043324404
0.022741442043324404
0.022741442043324404
0.022741442043324404
0.022741442043324404
0.022741442043324404
0.022741670875616467
0.022741670875616467
0.022741670875616467
0.022741670875616467
0.022741670875616467
0.022741670875616467
0.022741670875616467
0.022741670875616467
0.02274196621406063
0.02274196621406063
0.02274196621406063
0.02274196621406063
0.02274196621406063
0.02274196621406063
0.02274196621406063
0.02274196621406063
0.02274196621406063
0.02274196621406063
0.02274233958180283
0.02274233958180283
0.02274233958180283
0.02274233958180283
0.02274233958180283
0.02274233958180283
0.02274233958180283
0.02274233958180283
0.02274233958180283
0.02274233958180283
0.02274233958180283
0.02274233958180283
0.022742798314096882
0.022742798314096882
0.022742798314096882
0.022742798314096882
0.022742798314096882
0.022742798314096882
0.022742798314096882
0.022742798314096882
0.022742798314096882
0.022742798314096882
0.022742798314096882
0.022742798314096882
0.022742798314096882
0.022742798314096882
0.022743399497824293
0.022743399497824293
0.022743399497824293
0.022743399497824293
0.022743399497824293
0.022743399497824293
0.022743399497824293
0.022743399497824293
0.022743399497824293
0.022743399497824293
0.022743399497824293
0.022743399497824293
0.022743399497824293
0.022743399497824293
0.022743399497824293
0.022743399497824293
0.022743399497824293
0.02274411853024181
0.02274411853024181
0.02274411853024181
0.02274411853024181
0.02274411853024181
0.02274411853024181
0.02274411853024181
0.02274411853024181
0.02274411853024181
0.02274411853024181
0.02274411853024181
0.02274411853024181
0.02274411853024181
0.02274411853024181
0.02274411853024181
0.02274411853024181
0.02274411853024181
0.02274411853024181
0.02274411853024181
0.02274411853024181
0.022744983703528742
0.022744983703528742
0.022744983703528742
0.022744983703528742
0.022744983703528742
0.022744983703528742
0.022744983703528742
0.022744983703528742
0.022744983703528742
0.022744983703528742
0.022744983703528742
0.022744983703528742
0.022744983703528742
0.022744983703528742
0.022744983703528742
0.022744983703528742
0.022744983703528742
0.022744983703528742
0.022744983703528742
0.022744983703528742
0.022744983703528742
0.022744983703528742
0.022744983703528742
0.022744983703528742
0.022744983703528742
0.02274602122167019
0.02274602122167019
0.02274602122167019
0.02274602122167019
0.02274602122167019
0.02274602122167019
0.02274602122167019
0.02274602122167019
0.02274602122167019
0.02274602122167019
0.02274602122167019
0.02274602122167019
0.02274602122167019
0.02274602122167019
0.02274602122167019
0.02274602122167019
0.02274602122167019
0.02274602122167019
0.02274602122167019
0.02274602122167019
0.02274602122167019
0.02274602122167019
0.02274602122167019
0.02274602122167019
0.02274602122167019
0.02274602122167019
0.02274602122167019
0.02274602122167019
0.02274602122167019
0.02274602122167019
0.022747272486459063
0.022747272486459063
0.022747272486459063
0.022747272486459063
0.022747272486459063
0.022747272486459063
0.022747272486459063
0.022747272486459063
0.022747272486459063
0.022747272486459063
0.022747272486459063
0.022747272486459063
0.022747272486459063
0.022747272486459063
0.022747272486459063
0.022747272486459063
0.022747272486459063
0.022747272486459063
0.022747272486459063
0.022747272486459063
0.022747272486459063
0.022747272486459063
0.022747272486459063
0.022747272486459063
0.022747272486459063
0.022747272486459063
0.022747272486459063
0.022747272486459063
0.022747272486459063
0.022747272486459063
0.022747272486459063
0.022747272486459063
0.022747272486459063
0.022747272486459063
0.022747272486459063
0.022748775247446593
0.022748775247446593
0.022748775247446593
0.022748775247446593
0.022748775247446593
0.022748775247446593
0.022748775247446593
0.022748775247446593
0.022748775247446593
0.022748775247446593
0.022748775247446593
0.022748775247446593
0.022748775247446593
0.022748775247446593
0.022748775247446593
0.022748775247446593
0.022748775247446593
0.022748775247446593
0.022748775247446593
0.022748775247446593
0.022748775247446593
0.022748775247446593
0.022748775247446593
0.022748775247446593
0.022748775247446593
0.022748775247446593
0.022748775247446593
0.022748775247446593
0.022748775247446593
0.022748775247446593
0.022748775247446593
0.022748775247446593
0.022748775247446593
0.022748775247446593
0.022748775247446593
0.022748775247446593
0.022748775247446593
0.022748775247446593
0.022748775247446593
0.022748775247446593
0.022748775247446593
0.022748775247446593
0.02275057774874585
0.02275057774874585
0.02275057774874585
0.02275057774874585
0.02275057774874585
0.02275057774874585
0.02275057774874585
0.02275057774874585
0.02275057774874585
0.02275057774874585
0.02275057774874585
0.02275057774874585
0.02275057774874585
0.02275057774874585
0.02275057774874585
0.02275057774874585
0.02275057774874585
0.02275057774874585
0.02275057774874585
0.02275057774874585
0.02275057774874585
0.02275057774874585
0.02275057774874585
0.02275057774874585
0.02275057774874585
0.02275057774874585
0.02275057774874585
0.02275057774874585
0.02275057774874585
0.02275057774874585
0.02275057774874585
0.02275057774874585
0.02275057774874585
0.02275057774874585
0.02275057774874585
0.02275057774874585
0.02275057774874585
0.02275057774874585
0.02275057774874585
0.02275057774874585
0.02275057774874585
0.02275057774874585
0.02275057774874585
0.02275057774874585
0.02275057774874585
0.02275057774874585
0.02275057774874585
0.02275057774874585
0.02275057774874585
0.02275057774874585
0.02275057774874585
0.02275057774874585
0.02275273821454396
0.02275273821454396
0.02275273821454396
0.02275273821454396
0.02275273821454396
0.02275273821454396
0.02275273821454396
0.02275273821454396
0.02275273821454396
0.02275273821454396
0.02275273821454396
0.02275273821454396
0.02275273821454396
0.02275273821454396
0.02275273821454396
0.02275273821454396
0.02275273821454396
0.02275273821454396
0.02275273821454396
0.02275273821454396
0.02275273821454396
0.02275273821454396
0.02275273821454396
0.02275273821454396
0.02275273821454396
0.02275273821454396
0.02275273821454396
0.02275273821454396
0.02275273821454396
0.02275273821454396
0.02275273821454396
0.02275273821454396
0.02275273821454396
0.02275273821454396
0.02275273821454396
0.02275273821454396
0.02275273821454396
0.02275273821454396
0.02275273821454396
0.02275273821454396
0.02275273821454396
0.02275273821454396
0.02275273821454396
0.02275273821454396
0.02275273821454396
0.02275273821454396
0.02275273821454396
0.02275273821454396
0.02275273821454396
0.02275273821454396
0.02275273821454396
0.02275273821454396
0.02275273821454396
0.02275273821454396
0.02275273821454396
0.02275273821454396
0.02275273821454396
0.02275273821454396
0.02275273821454396
0.02275273821454396
0.02275273821454396
0.02275533376891727
0.02275533376891727
0.02275533376891727
0.02275533376891727
0.02275533376891727
0.02275533376891727
0.02275533376891727
0.02275533376891727
0.02275533376891727
0.02275533376891727
0.02275533376891727
0.02275533376891727
0.02275533376891727
0.02275533376891727
0.02275533376891727
0.02275533376891727
0.02275533376891727
0.02275533376891727
0.02275533376891727
0.02275533376891727
0.02275533376891727
0.02275533376891727
0.02275533376891727
0.02275533376891727
0.02275533376891727
0.02275533376891727
0.02275533376891727
0.02275533376891727
0.02275533376891727
0.02275533376891727
0.02275533376891727
0.02275533376891727
0.02275533376891727
0.02275533376891727
0.02275533376891727
0.02275533376891727
0.02275533376891727
0.02275533376891727
0.02275533376891727
0.02275533376891727
0.02275533376891727
0.02275533376891727
0.02275533376891727
0.02275533376891727
0.02275533376891727
0.02275533376891727
0.02275533376891727
0.02275533376891727
0.02275533376891727
0.02275533376891727
0.02275533376891727
0.02275533376891727
0.02275533376891727
0.02275533376891727
0.02275533376891727
0.02275533376891727
0.02275533376891727
0.02275533376891727
0.02275533376891727
0.02275533376891727
0.02275533376891727
0.02275533376891727
0.02275533376891727
0.02275533376891727
0.02275533376891727
0.02275533376891727
0.02275533376891727
0.02275533376891727
0.02275533376891727
0.02275533376891727
0.02275533376891727
0.02275533376891727
0.02275533376891727
0.022758454694176016
0.022758454694176016
0.022758454694176016
0.022758454694176016
0.022758454694176016
0.022758454694176016
0.022758454694176016
0.022758454694176016
0.022758454694176016
0.022758454694176016
0.022758454694176016
0.022758454694176016
0.022758454694176016
0.022758454694176016
0.022758454694176016
0.022758454694176016
0.022758454694176016
0.022758454694176016
0.022758454694176016
0.022758454694176016
0.022758454694176016
0.022758454694176016
0.022758454694176016
0.022758454694176016
0.022758454694176016
0.022758454694176016
0.022758454694176016
0.022758454694176016
0.022758454694176016
0.022758454694176016
0.022758454694176016
0.022758454694176016
0.022758454694176016
0.022758454694176016
0.022758454694176016
0.022758454694176016
0.022758454694176016
0.022758454694176016
0.022758454694176016
0.022758454694176016
0.022758454694176016
0.022758454694176016
0.022758454694176016
0.022758454694176016
0.022758454694176016
0.022758454694176016
0.022758454694176016
0.022758454694176016
0.022758454694176016
0.022758454694176016
0.022758454694176016
0.022758454694176016
0.022758454694176016
0.022758454694176016
0.022758454694176016
0.022758454694176016
0.022758454694176016
0.022758454694176016
0.022758454694176016
0.022758454694176016
0.022758454694176016
0.022758454694176016
0.022758454694176016
0.022758454694176016
0.022758454694176016
0.022758454694176016
0.022758454694176016
0.022758454694176016
0.022758454694176016
0.022758454694176016
0.022758454694176016
0.022758454694176016
0.022758454694176016
0.022758454694176016
0.022758454694176016
0.022758454694176016
0.022758454694176016
0.022758454694176016
0.022758454694176016
0.022758454694176016
0.022758454694176016
0.022758454694176016
0.022758454694176016
0.022758454694176016
0.022758454694176016
0.022758454694176016
0.022758454694176016
0.022758454694176016
0.022762189258182616
0.022762189258182616
0.022762189258182616
0.022762189258182616
0.022762189258182616
0.022762189258182616
0.022762189258182616
0.022762189258182616
0.022762189258182616
0.022762189258182616
0.022762189258182616
0.022762189258182616
0.022762189258182616
0.022762189258182616
0.022762189258182616
0.022762189258182616
0.022762189258182616
0.022762189258182616
0.022762189258182616
0.022762189258182616
0.022762189258182616
0.022762189258182616
0.022762189258182616
0.022762189258182616
0.022762189258182616
0.022762189258182616
0.022762189258182616
0.022762189258182616
0.022762189258182616
0.022762189258182616
0.022762189258182616
0.022762189258182616
0.022762189258182616
0.022762189258182616
0.022762189258182616
0.022762189258182616
0.022762189258182616
0.022762189258182616
0.022762189258182616
0.022762189258182616
0.022762189258182616
0.022762189258182616
0.022762189258182616
0.022762189258182616
0.022762189258182616
0.022762189258182616
0.022762189258182616
0.022762189258182616
0.022762189258182616
0.022762189258182616
0.022762189258182616
0.022762189258182616
0.022762189258182616
0.022762189258182616
0.022762189258182616
0.022762189258182616
0.022762189258182616
0.022762189258182616
0.022762189258182616
0.022762189258182616
0.022762189258182616
0.022762189258182616
0.022762189258182616
0.022762189258182616
0.022762189258182616
0.022762189258182616
0.022762189258182616
0.022762189258182616
0.022762189258182616
0.022762189258182616
0.022762189258182616
0.022762189258182616
0.022762189258182616
0.022762189258182616
0.022762189258182616
0.022762189258182616
0.022762189258182616
0.022762189258182616
0.022762189258182616
0.022762189258182616
0.022762189258182616
0.022762189258182616
0.022762189258182616
0.022762189258182616
0.022762189258182616
0.022762189258182616
0.022762189258182616
0.022762189258182616
0.022762189258182616
0.022762189258182616
0.022762189258182616
0.022762189258182616
0.022762189258182616
0.022762189258182616
0.022762189258182616
0.022762189258182616
0.022762189258182616
0.022762189258182616
0.022762189258182616
0.022762189258182616
0.022762189258182616
0.022762189258182616
0.022762189258182616
0.022762189258182616
0.022762189258182616
0.022762189258182616
0.02276667458441717
0.02276667458441717
0.02276667458441717
0.02276667458441717
0.02276667458441717
0.02276667458441717
0.02276667458441717
0.02276667458441717
0.02276667458441717
0.02276667458441717
0.02276667458441717
0.02276667458441717
0.02276667458441717
0.02276667458441717
0.02276667458441717
0.02276667458441717
0.02276667458441717
0.02276667458441717
0.02276667458441717
0.02276667458441717
0.02276667458441717
0.02276667458441717
0.02276667458441717
0.02276667458441717
0.02276667458441717
0.02276667458441717
0.02276667458441717
0.02276667458441717
0.02276667458441717
0.02276667458441717
0.02276667458441717
0.02276667458441717
0.02276667458441717
0.02276667458441717
0.02276667458441717
0.02276667458441717
0.02276667458441717
0.02276667458441717
0.02276667458441717
0.02276667458441717
0.02276667458441717
0.02276667458441717
0.02276667458441717
0.02276667458441717
0.02276667458441717
0.02276667458441717
0.02276667458441717
0.02276667458441717
0.02276667458441717
0.02276667458441717
0.02276667458441717
0.02276667458441717
0.02276667458441717
0.02276667458441717
0.02276667458441717
0.02276667458441717
0.02276667458441717
0.02276667458441717
0.02276667458441717
0.02276667458441717
0.02276667458441717
0.02276667458441717
0.02276667458441717
0.02276667458441717
0.02276667458441717
0.02276667458441717
0.02276667458441717
0.02276667458441717
0.02276667458441717
0.02276667458441717
0.02276667458441717
0.02276667458441717
0.02276667458441717
0.02276667458441717
0.02276667458441717
0.02276667458441717
0.02276667458441717
0.02276667458441717
0.02276667458441717
0.02276667458441717
0.02276667458441717
0.02276667458441717
0.02276667458441717
0.02276667458441717
0.02276667458441717
0.02276667458441717
0.02276667458441717
0.02276667458441717
0.02276667458441717
0.02276667458441717
0.02276667458441717
0.02276667458441717
0.02276667458441717
0.02276667458441717
0.02276667458441717
0.02276667458441717
0.02276667458441717
0.02276667458441717
0.02276667458441717
0.02276667458441717
0.02276667458441717
0.02276667458441717
0.02276667458441717
0.02276667458441717
0.02276667458441717
0.02276667458441717
0.02276667458441717
0.02276667458441717
0.02276667458441717
0.02276667458441717
0.02276667458441717
0.02276667458441717
0.02276667458441717
0.02276667458441717
0.02276667458441717
0.02276667458441717
0.02276667458441717
0.02276667458441717
0.02276667458441717
0.02276667458441717
0.02276667458441717
0.02276667458441717
0.02276667458441717
0.02276667458441717
0.02276667458441717
0.02276667458441717
0.02276667458441717
0.02277206527369076
0.02277206527369076
0.02277206527369076
0.02277206527369076
0.02277206527369076
0.02277206527369076
0.02277206527369076
0.02277206527369076
0.02277206527369076
0.02277206527369076
0.02277206527369076
0.02277206527369076
0.02277206527369076
0.02277206527369076
0.02277206527369076
0.02277206527369076
0.02277206527369076
0.02277206527369076
0.02277206527369076
0.02277206527369076
0.02277206527369076
0.02277206527369076
0.02277206527369076
0.02277206527369076
0.02277206527369076
0.02277206527369076
0.02277206527369076
0.02277206527369076
0.02277206527369076
0.02277206527369076
0.02277206527369076
0.02277206527369076
0.02277206527369076
0.02277206527369076
0.02277206527369076
0.02277206527369076
0.02277206527369076
0.02277206527369076
0.02277206527369076
0.02277206527369076
0.02277206527369076
0.02277206527369076
0.02277206527369076
0.02277206527369076
0.02277206527369076
0.02277206527369076
0.02277206527369076
0.02277206527369076
0.02277206527369076
0.02277206527369076
0.02277206527369076
0.02277206527369076
0.02277206527369076
0.02277206527369076
0.02277206527369076
0.02277206527369076
0.02277206527369076
0.02277206527369076
0.02277206527369076
0.02277206527369076
0.02277206527369076
0.02277206527369076
0.02277206527369076
0.02277206527369076
0.02277206527369076
0.02277206527369076
0.02277206527369076
0.02277206527369076
0.02277206527369076
0.02277206527369076
0.02277206527369076
0.02277206527369076
0.02277206527369076
0.02277206527369076
0.02277206527369076
0.02277206527369076
0.02277206527369076
0.02277206527369076
0.02277206527369076
0.02277206527369076
0.02277206527369076
0.02277206527369076
0.02277206527369076
0.02277206527369076
0.02277206527369076
0.02277206527369076
0.02277206527369076
0.02277206527369076
0.02277206527369076
0.02277206527369076
0.02277206527369076
0.02277206527369076
0.02277206527369076
0.02277206527369076
0.02277206527369076
0.02277206527369076
0.02277206527369076
0.02277206527369076
0.02277206527369076
0.02277206527369076
0.02277206527369076
0.02277206527369076
0.02277206527369076
0.02277206527369076
0.02277206527369076
0.02277206527369076
0.02277206527369076
0.02277206527369076
0.02277206527369076
0.02277206527369076
0.02277206527369076
0.02277206527369076
0.02277206527369076
0.02277206527369076
0.02277206527369076
0.02277206527369076
0.02277206527369076
0.02277206527369076
0.02277206527369076
0.02277206527369076
0.02277206527369076
0.02277206527369076
0.02277206527369076
0.02277206527369076
0.02277206527369076
0.02277206527369076
0.02277206527369076
0.02277206527369076
0.02277206527369076
0.02277206527369076
0.02277206527369076
0.02277206527369076
0.02277206527369076
0.02277206527369076
0.02277206527369076
0.02277206527369076
0.02277206527369076
0.02277206527369076
0.02277206527369076
0.02277206527369076
0.02277206527369076
0.02277206527369076
0.02277206527369076
0.02277206527369076
0.02277206527369076
0.02277206527369076
0.02277206527369076
0.02277206527369076
0.02277206527369076
0.02277206527369076
0.02277206527369076
0.02277206527369076
0.02277206527369076
0.02277855812920736
0.02277855812920736
0.02277855812920736
0.02277855812920736
0.02277855812920736
0.02277855812920736
0.02277855812920736
0.02277855812920736
0.02277855812920736
0.02277855812920736
0.02277855812920736
0.02277855812920736
0.02277855812920736
0.02277855812920736
0.02277855812920736
0.02277855812920736
0.02277855812920736
0.02277855812920736
0.02277855812920736
0.02277855812920736
0.02277855812920736
0.02277855812920736
0.02277855812920736
0.02277855812920736
0.02277855812920736
0.02277855812920736
0.02277855812920736
0.02277855812920736
0.02277855812920736
0.02277855812920736
0.02277855812920736
0.02277855812920736
0.02277855812920736
0.02277855812920736
0.02277855812920736
0.02277855812920736
0.02277855812920736
0.02277855812920736
0.02277855812920736
0.02277855812920736
0.02277855812920736
0.02277855812920736
0.02277855812920736
0.02277855812920736
0.02277855812920736
0.02277855812920736
0.02277855812920736
0.02277855812920736
0.02277855812920736
0.02277855812920736
0.02277855812920736
0.02277855812920736
0.02277855812920736
0.02277855812920736
0.02277855812920736
0.02277855812920736
0.02277855812920736
0.02277855812920736
0.02277855812920736
0.02277855812920736
0.02277855812920736
0.02277855812920736
0.02277855812920736
0.02277855812920736
0.02277855812920736
0.02277855812920736
0.02277855812920736
0.02277855812920736
0.02277855812920736
0.02277855812920736
0.02277855812920736
0.02277855812920736
0.02277855812920736
0.02277855812920736
0.02277855812920736
0.02277855812920736
0.02277855812920736
0.02277855812920736
0.02277855812920736
0.02277855812920736
0.02277855812920736
0.02277855812920736
0.02277855812920736
0.02277855812920736
0.02277855812920736
0.02277855812920736
0.02277855812920736
0.02277855812920736
0.02277855812920736
0.02277855812920736
0.02277855812920736
0.02277855812920736
0.02277855812920736
0.02277855812920736
0.02277855812920736
0.02277855812920736
0.02277855812920736
0.02277855812920736
0.02277855812920736
0.02277855812920736
0.02277855812920736
0.02277855812920736
0.02277855812920736
0.02277855812920736
0.02277855812920736
0.02277855812920736
0.02277855812920736
0.02277855812920736
0.02277855812920736
0.02277855812920736
0.02277855812920736
0.02277855812920736
0.02277855812920736
0.02277855812920736
0.02277855812920736
0.02277855812920736
0.02277855812920736
0.02277855812920736
0.02277855812920736
0.02277855812920736
0.02277855812920736
0.02277855812920736
0.02277855812920736
0.02277855812920736
0.02277855812920736
0.02277855812920736
0.02277855812920736
0.02277855812920736
0.02277855812920736
0.02277855812920736
0.02277855812920736
0.02277855812920736
0.02277855812920736
0.02277855812920736
0.02277855812920736
0.02277855812920736
0.02277855812920736
0.02277855812920736
0.02277855812920736
0.02277855812920736
0.02277855812920736
0.02277855812920736
0.02277855812920736
0.02277855812920736
0.02277855812920736
0.02277855812920736
0.02277855812920736
0.02277855812920736
0.02277855812920736
0.02277855812920736
0.02277855812920736
0.02277855812920736
0.02277855812920736
0.02277855812920736
0.02277855812920736
0.02277855812920736
0.02277855812920736
0.02277855812920736
0.02277855812920736
0.02277855812920736
0.02277855812920736
0.02277855812920736
0.02277855812920736
0.02277855812920736
0.02277855812920736
0.02277855812920736
0.02277855812920736
0.02277855812920736
0.02277855812920736
0.02277855812920736
0.02277855812920736
0.02277855812920736
0.02277855812920736
0.02277855812920736
0.02277855812920736
0.02277855812920736
0.02277855812920736
0.02277855812920736
0.02277855812920736
0.02277855812920736
0.02277855812920736
0.02277855812920736
0.02278632828424198
0.02278632828424198
0.02278632828424198
0.02278632828424198
0.02278632828424198
0.02278632828424198
0.02278632828424198
0.02278632828424198
0.02278632828424198
0.02278632828424198
0.02278632828424198
0.02278632828424198
0.02278632828424198
0.02278632828424198
0.02278632828424198
0.02278632828424198
0.02278632828424198
0.02278632828424198
0.02278632828424198
0.02278632828424198
0.02278632828424198
0.02278632828424198
0.02278632828424198
0.02278632828424198
0.02278632828424198
0.02278632828424198
0.02278632828424198
0.02278632828424198
0.02278632828424198
0.02278632828424198
0.02278632828424198
0.02278632828424198
0.02278632828424198
0.02278632828424198
0.02278632828424198
0.02278632828424198
0.02278632828424198
0.02278632828424198
0.02278632828424198
0.02278632828424198
0.02278632828424198
0.02278632828424198
0.02278632828424198
0.02278632828424198
0.02278632828424198
0.02278632828424198
0.02278632828424198
0.02278632828424198
0.02278632828424198
0.02278632828424198
0.02278632828424198
0.02278632828424198
0.02278632828424198
0.02278632828424198
0.02278632828424198
0.02278632828424198
0.02278632828424198
0.02278632828424198
0.02278632828424198
0.02278632828424198
0.02278632828424198
0.02278632828424198
0.02278632828424198
0.02278632828424198
0.02278632828424198
0.02278632828424198
0.02278632828424198
0.02278632828424198
0.02278632828424198
0.02278632828424198
0.02278632828424198
0.02278632828424198
0.02278632828424198
0.02278632828424198
0.02278632828424198
0.02278632828424198
0.02278632828424198
0.02278632828424198
0.02278632828424198
0.02278632828424198
0.02278632828424198
0.02278632828424198
0.02278632828424198
0.02278632828424198
0.02278632828424198
0.02278632828424198
0.02278632828424198
0.02278632828424198
0.02278632828424198
0.02278632828424198
0.02278632828424198
0.02278632828424198
0.02278632828424198
0.02278632828424198
0.02278632828424198
0.02278632828424198
0.02278632828424198
0.02278632828424198
0.02278632828424198
0.02278632828424198
0.02278632828424198
0.02278632828424198
0.02278632828424198
0.02278632828424198
0.02278632828424198
0.02278632828424198
0.02278632828424198
0.02278632828424198
0.02278632828424198
0.02278632828424198
0.02278632828424198
0.02278632828424198
0.02278632828424198
0.02278632828424198
0.02278632828424198
0.02278632828424198
0.02278632828424198
0.02278632828424198
0.02278632828424198
0.02278632828424198
0.02278632828424198
0.02278632828424198
0.02278632828424198
0.02278632828424198
0.02278632828424198
0.02278632828424198
0.02278632828424198
0.02278632828424198
0.02278632828424198
0.02278632828424198
0.02278632828424198
0.02278632828424198
0.02278632828424198
0.02278632828424198
0.02278632828424198
0.02278632828424198
0.02278632828424198
0.02278632828424198
0.02278632828424198
0.02278632828424198
0.02278632828424198
0.02278632828424198
0.02278632828424198
0.02278632828424198
0.02278632828424198
0.02278632828424198
0.02278632828424198
0.02278632828424198
0.02278632828424198
0.02278632828424198
0.02278632828424198
0.02278632828424198
0.02278632828424198
0.02278632828424198
0.02278632828424198
0.02278632828424198
0.02278632828424198
0.02278632828424198
0.02278632828424198
0.02278632828424198
0.02278632828424198
0.02278632828424198
0.02278632828424198
0.02278632828424198
0.02278632828424198
0.02278632828424198
0.02278632828424198
0.02278632828424198
0.02278632828424198
0.02278632828424198
0.02278632828424198
0.02278632828424198
0.02278632828424198
0.02278632828424198
0.02278632828424198
0.02278632828424198
0.02278632828424198
0.02278632828424198
0.02278632828424198
0.02278632828424198
0.02278632828424198
0.02278632828424198
0.02278632828424198
0.02278632828424198
0.02278632828424198
0.02278632828424198
0.02278632828424198
0.02278632828424198
0.02278632828424198
0.02278632828424198
0.02278632828424198
0.02278632828424198
0.02278632828424198
0.02278632828424198
0.02278632828424198
0.02278632828424198
0.02278632828424198
0.02278632828424198
0.02278632828424198
0.02278632828424198
0.02278632828424198
0.02278632828424198
0.02278632828424198
0.02278632828424198
0.02278632828424198
0.02278632828424198
0.02278632828424198
0.02278632828424198
0.02278632828424198
0.02278632828424198
0.02278632828424198
0.02278632828424198
0.02278632828424198
0.02278632828424198
0.02278632828424198
0.02278632828424198
0.02278632828424198
0.02278632828424198
0.02278632828424198
0.02278632828424198
0.02279594235050857
0.02279594235050857
0.02279594235050857
0.02279594235050857
0.02279594235050857
0.02279594235050857
0.02279594235050857
0.02279594235050857
0.02279594235050857
0.02279594235050857
0.02279594235050857
0.02279594235050857
0.02279594235050857
0.02279594235050857
0.02279594235050857
0.02279594235050857
0.02279594235050857
0.02279594235050857
0.02279594235050857
0.02279594235050857
0.02279594235050857
0.02279594235050857
0.02279594235050857
0.02279594235050857
0.02279594235050857
0.02279594235050857
0.02279594235050857
0.02279594235050857
0.02279594235050857
0.02279594235050857
0.02279594235050857
0.02279594235050857
0.02279594235050857
0.02279594235050857
0.02279594235050857
0.02279594235050857
0.02279594235050857
0.02279594235050857
0.02279594235050857
0.02279594235050857
0.02279594235050857
0.02279594235050857
0.02279594235050857
0.02279594235050857
0.02279594235050857
0.02279594235050857
0.02279594235050857
0.02279594235050857
0.02279594235050857
0.02279594235050857
0.02279594235050857
0.02279594235050857
0.02279594235050857
0.02279594235050857
0.02279594235050857
0.02279594235050857
0.02279594235050857
0.02279594235050857
0.02279594235050857
0.02279594235050857
0.02279594235050857
0.02279594235050857
0.02279594235050857
0.02279594235050857
0.02279594235050857
0.02279594235050857
0.02279594235050857
0.02279594235050857
0.02279594235050857
0.02279594235050857
0.02279594235050857
0.02279594235050857
0.02279594235050857
0.02279594235050857
0.02279594235050857
0.02279594235050857
0.02279594235050857
0.02279594235050857
0.02279594235050857
0.02279594235050857
0.02279594235050857
0.02279594235050857
0.02279594235050857
0.02279594235050857
0.02279594235050857
0.02279594235050857
0.02279594235050857
0.02279594235050857
0.02279594235050857
0.02279594235050857
0.02279594235050857
0.02279594235050857
0.02279594235050857
0.02279594235050857
0.02279594235050857
0.02279594235050857
0.02279594235050857
0.02279594235050857
0.02279594235050857
0.02279594235050857
0.02279594235050857
0.02279594235050857
0.02279594235050857
0.02279594235050857
0.02279594235050857
0.02279594235050857
0.02279594235050857
0.02279594235050857
0.02279594235050857
0.02279594235050857
0.02279594235050857
0.02279594235050857
0.02279594235050857
0.02279594235050857
0.02279594235050857
0.02279594235050857
0.02279594235050857
0.02279594235050857
0.02279594235050857
0.02279594235050857
0.02279594235050857
0.02279594235050857
0.02279594235050857
0.02279594235050857
0.02279594235050857
0.02279594235050857
0.02279594235050857
0.02279594235050857
0.02279594235050857
0.02279594235050857
0.02279594235050857
0.02279594235050857
0.02279594235050857
0.02279594235050857
0.02279594235050857
0.02279594235050857
0.02279594235050857
0.02279594235050857
0.02279594235050857
0.02279594235050857
0.02279594235050857
0.02279594235050857
0.02279594235050857
0.02279594235050857
0.02279594235050857
0.02279594235050857
0.02279594235050857
0.02279594235050857
0.02279594235050857
0.02279594235050857
0.02279594235050857
0.02279594235050857
0.02279594235050857
0.02279594235050857
0.02279594235050857
0.02279594235050857
0.02279594235050857
0.02279594235050857
0.02279594235050857
0.02279594235050857
0.02279594235050857
0.02279594235050857
0.02279594235050857
0.02279594235050857
0.02279594235050857
0.02279594235050857
0.02279594235050857
0.02279594235050857
0.02279594235050857
0.02279594235050857
0.02279594235050857
0.02279594235050857
0.02279594235050857
0.02279594235050857
0.02279594235050857
0.02279594235050857
0.02279594235050857
0.02279594235050857
0.02279594235050857
0.02279594235050857
0.02279594235050857
0.02279594235050857
0.02279594235050857
0.02279594235050857
0.02279594235050857
0.02279594235050857
0.02279594235050857
0.02279594235050857
0.02279594235050857
0.02279594235050857
0.02279594235050857
0.02279594235050857
0.02279594235050857
0.02279594235050857
0.02279594235050857
0.02279594235050857
0.02279594235050857
0.02279594235050857
0.02279594235050857
0.02279594235050857
0.02279594235050857
0.02279594235050857
0.02279594235050857
0.02279594235050857
0.02279594235050857
0.02279594235050857
0.02279594235050857
0.02279594235050857
0.02279594235050857
0.02279594235050857
0.02279594235050857
0.02279594235050857
0.02279594235050857
0.02279594235050857
0.02279594235050857
0.02279594235050857
0.02279594235050857
0.02279594235050857
0.02279594235050857
0.02279594235050857
0.02279594235050857
0.02279594235050857
0.02279594235050857
0.02279594235050857
0.02279594235050857
0.02279594235050857
0.02279594235050857
0.02279594235050857
0.02279594235050857
0.02279594235050857
0.02279594235050857
0.02279594235050857
0.02279594235050857
0.02279594235050857
0.02279594235050857
0.02279594235050857
0.02279594235050857
0.02279594235050857
0.02279594235050857
0.02279594235050857
0.02279594235050857
0.02279594235050857
0.02279594235050857
0.02279594235050857
0.02279594235050857
0.02279594235050857
0.02279594235050857
0.02279594235050857
0.02279594235050857
0.02279594235050857
0.02279594235050857
0.02279594235050857
0.02279594235050857
0.02279594235050857
0.02279594235050857
0.02279594235050857
0.02279594235050857
0.02279594235050857
0.02279594235050857
0.02279594235050857
0.02279594235050857
0.02279594235050857
0.02279594235050857
0.022807586991385177
0.022807586991385177
0.022807586991385177
0.022807586991385177
0.022807586991385177
0.022807586991385177
0.022807586991385177
0.022807586991385177
0.022807586991385177
0.022807586991385177
0.022807586991385177
0.022807586991385177
0.022807586991385177
0.022807586991385177
0.022807586991385177
0.022807586991385177
0.022807586991385177
0.022807586991385177
0.022807586991385177
0.022807586991385177
0.022807586991385177
0.022807586991385177
0.022807586991385177
0.022807586991385177
0.022807586991385177
0.022807586991385177
0.022807586991385177
0.022807586991385177
0.022807586991385177
0.022807586991385177
0.022807586991385177
0.022807586991385177
0.022807586991385177
0.022807586991385177
0.022807586991385177
0.022807586991385177
0.022807586991385177
0.022807586991385177
0.022807586991385177
0.022807586991385177
0.022807586991385177
0.022807586991385177
0.022807586991385177
0.022807586991385177
0.022807586991385177
0.022807586991385177
0.022807586991385177
0.022807586991385177
0.022807586991385177
0.022807586991385177
0.022807586991385177
0.022807586991385177
0.022807586991385177
0.022807586991385177
0.022807586991385177
0.022807586991385177
0.022807586991385177
0.022807586991385177
0.022807586991385177
0.022807586991385177
0.022807586991385177
0.022807586991385177
0.022807586991385177
0.022807586991385177
0.022807586991385177
0.022807586991385177
0.022807586991385177
0.022807586991385177
0.022807586991385177
0.022807586991385177
0.022807586991385177
0.022807586991385177
0.022807586991385177
0.022807586991385177
0.022807586991385177
0.022807586991385177
0.022807586991385177
0.022807586991385177
0.022807586991385177
0.022807586991385177
0.022807586991385177
0.022807586991385177
0.022807586991385177
0.022807586991385177
0.022807586991385177
0.022807586991385177
0.022807586991385177
0.022807586991385177
0.022807586991385177
0.022807586991385177
0.022807586991385177
0.022807586991385177
0.022807586991385177
0.022807586991385177
0.022807586991385177
0.022807586991385177
0.022807586991385177
0.022807586991385177
0.022807586991385177
0.022807586991385177
0.022807586991385177
0.022807586991385177
0.022807586991385177
0.022807586991385177
0.022807586991385177
0.022807586991385177
0.022807586991385177
0.022807586991385177
0.022807586991385177
0.022807586991385177
0.022807586991385177
0.022807586991385177
0.022807586991385177
0.022807586991385177
0.022807586991385177
0.022807586991385177
0.022807586991385177
0.022807586991385177
0.022807586991385177
0.022807586991385177
0.022807586991385177
0.022807586991385177
0.022807586991385177
0.022807586991385177
0.022807586991385177
0.022807586991385177
0.022807586991385177
0.022807586991385177
0.022807586991385177
0.022807586991385177
0.022807586991385177
0.022807586991385177
0.022807586991385177
0.022807586991385177
0.022807586991385177
0.022807586991385177
0.022807586991385177
0.022807586991385177
0.022807586991385177
0.022807586991385177
0.022807586991385177
0.022807586991385177
0.022807586991385177
0.022807586991385177
0.022807586991385177
0.022807586991385177
0.022807586991385177
0.022807586991385177
0.022807586991385177
0.022807586991385177
0.022807586991385177
0.022807586991385177
0.022807586991385177
0.022807586991385177
0.022807586991385177
0.022807586991385177
0.022807586991385177
0.022807586991385177
0.022807586991385177
0.022807586991385177
0.022807586991385177
0.022807586991385177
0.022807586991385177
0.022807586991385177
0.022807586991385177
0.022807586991385177
0.022807586991385177
0.022807586991385177
0.022807586991385177
0.022807586991385177
0.022807586991385177
0.022807586991385177
0.022807586991385177
0.022807586991385177
0.022807586991385177
0.022807586991385177
0.022807586991385177
0.022807586991385177
0.022807586991385177
0.022807586991385177
0.022807586991385177
0.022807586991385177
0.022807586991385177
0.022807586991385177
0.022807586991385177
0.022807586991385177
0.022807586991385177
0.022807586991385177
0.022807586991385177
0.022807586991385177
0.022807586991385177
0.022807586991385177
0.022807586991385177
0.022807586991385177
0.022807586991385177
0.022807586991385177
0.022807586991385177
0.022807586991385177
0.022807586991385177
0.022807586991385177
0.022807586991385177
0.022807586991385177
0.022807586991385177
0.022807586991385177
0.022807586991385177
0.022807586991385177
0.022807586991385177
0.022807586991385177
0.022807586991385177
0.022807586991385177
0.022807586991385177
0.022807586991385177
0.022807586991385177
0.022807586991385177
0.022807586991385177
0.022807586991385177
0.022807586991385177
0.022807586991385177
0.022807586991385177
0.022807586991385177
0.022807586991385177
0.022807586991385177
0.022807586991385177
0.022807586991385177
0.022807586991385177
0.022807586991385177
0.022807586991385177
0.022807586991385177
0.022807586991385177
0.022807586991385177
0.022807586991385177
0.022807586991385177
0.022807586991385177
0.022807586991385177
0.022807586991385177
0.022807586991385177
0.022807586991385177
0.022807586991385177
0.022807586991385177
0.022807586991385177
0.022807586991385177
0.022807586991385177
0.022807586991385177
0.022807586991385177
0.022807586991385177
0.022807586991385177
0.022807586991385177
0.022807586991385177
0.022807586991385177
0.022807586991385177
0.022807586991385177
0.022807586991385177
0.022807586991385177
0.022807586991385177
0.022807586991385177
0.022807586991385177
0.022807586991385177
0.022807586991385177
0.022807586991385177
0.022807586991385177
0.022807586991385177
0.022807586991385177
0.022807586991385177
0.022807586991385177
0.022807586991385177
0.022807586991385177
0.022807586991385177
0.022807586991385177
0.022807586991385177
0.022807586991385177
0.022807586991385177
0.022807586991385177
0.022807586991385177
0.022807586991385177
0.022807586991385177
0.022807586991385177
0.022807586991385177
0.022807586991385177
0.022807586991385177
0.022807586991385177
0.022807586991385177
0.022807586991385177
0.022807586991385177
0.022807586991385177
0.022807586991385177
0.022807586991385177
0.022807586991385177
0.022807586991385177
0.022807586991385177
0.022807586991385177
0.022807586991385177
0.022807586991385177
0.022807586991385177
0.022807586991385177
0.022807586991385177
0.022807586991385177
0.022807586991385177
0.022807586991385177
0.022807586991385177
0.022807586991385177
0.022807586991385177
0.022807586991385177
0.022807586991385177
0.022807586991385177
0.022807586991385177
0.022807586991385177
0.022807586991385177
0.022807586991385177
0.022807586991385177
0.022807586991385177
0.022807586991385177
0.022807586991385177
0.022807586991385177
0.022807586991385177
0.022807586991385177
0.022807586991385177
0.022821551176557396
0.022821551176557396
0.022821551176557396
0.022821551176557396
0.022821551176557396
0.022821551176557396
0.022821551176557396
0.022821551176557396
0.022821551176557396
0.022821551176557396
0.022821551176557396
0.022821551176557396
0.022821551176557396
0.022821551176557396
0.022821551176557396
0.022821551176557396
0.022821551176557396
0.022821551176557396
0.022821551176557396
0.022821551176557396
0.022821551176557396
0.022821551176557396
0.022821551176557396
0.022821551176557396
0.022821551176557396
0.022821551176557396
0.022821551176557396
0.022821551176557396
0.022821551176557396
0.022821551176557396
0.022821551176557396
0.022821551176557396
0.022821551176557396
0.022821551176557396
0.022821551176557396
0.022821551176557396
0.022821551176557396
0.022821551176557396
0.022821551176557396
0.022821551176557396
0.022821551176557396
0.022821551176557396
0.022821551176557396
0.022821551176557396
0.022821551176557396
0.022821551176557396
0.022821551176557396
0.022821551176557396
0.022821551176557396
0.022821551176557396
0.022821551176557396
0.022821551176557396
0.022821551176557396
0.022821551176557396
0.022821551176557396
0.022821551176557396
0.022821551176557396
0.022821551176557396
0.022821551176557396
0.022821551176557396
0.022821551176557396
0.022821551176557396
0.022821551176557396
0.022821551176557396
0.022821551176557396
0.022821551176557396
0.022821551176557396
0.022821551176557396
0.022821551176557396
0.022821551176557396
0.022821551176557396
0.022821551176557396
0.022821551176557396
0.022821551176557396
0.022821551176557396
0.022821551176557396
0.022821551176557396
0.022821551176557396
0.022821551176557396
0.022821551176557396
0.022821551176557396
0.022821551176557396
0.022821551176557396
0.022821551176557396
0.022821551176557396
0.022821551176557396
0.022821551176557396
0.022821551176557396
0.022821551176557396
0.022821551176557396
0.022821551176557396
0.022821551176557396
0.022821551176557396
0.022821551176557396
0.022821551176557396
0.022821551176557396
0.022821551176557396
0.022821551176557396
0.022821551176557396
0.022821551176557396
0.022821551176557396
0.022821551176557396
0.022821551176557396
0.022821551176557396
