0.028918182221087975
0.0277944509864239
0.02779437802755876
0.027794338348256363
0.027794310188785802
0.027794301868947692
0.027794299308998006
0.02779430570887266
0.02779431914861425
0.02779431914861425
0.02779434602811693
0.02779434602811693
0.027794390827345816
0.027794390827345816
0.02779445290639662
0.02779445290639662
0.02779445290639662
0.027794548265208673
0.027794548265208673
0.027794548265208673
0.02779467946410895
0.02779467946410895
0.02779467946410895
0.02779467946410895
0.027794860583608385
0.027794860583608385
0.027794860583608385
0.027794860583608385
0.027794860583608385
0.027795110184852496
0.027795110184852496
0.027795110184852496
0.027795110184852496
0.027795110184852496
0.027795110184852496
0.027795434029807303
0.027795434029807303
0.027795434029807303
0.027795434029807303
0.027795434029807303
0.027795434029807303
0.027795434029807303
0.027795864122220564
0.027795864122220564
0.027795864122220564
0.027795864122220564
0.027795864122220564
0.027795864122220564
0.027795864122220564
0.027795864122220564
0.027796406867382682
0.027796406867382682
0.027796406867382682
0.027796406867382682
0.027796406867382682
0.027796406867382682
0.027796406867382682
0.027796406867382682
0.027796406867382682
0.027796406867382682
0.027797096834668533
0.027797096834668533
0.027797096834668533
0.027797096834668533
0.027797096834668533
0.027797096834668533
0.027797096834668533
0.027797096834668533
0.027797096834668533
0.027797096834668533
0.027797096834668533
0.027797096834668533
0.027797928274401477
0.027797928274401477
0.027797928274401477
0.027797928274401477
0.027797928274401477
0.027797928274401477
0.027797928274401477
0.027797928274401477
0.027797928274401477
0.027797928274401477
0.027797928274401477
0.027797928274401477
0.027797928274401477
0.027797928274401477
0.027798961368115674
0.027798961368115674
0.027798961368115674
0.027798961368115674
0.027798961368115674
0.027798961368115674
0.027798961368115674
0.027798961368115674
0.027798961368115674
0.027798961368115674
0.027798961368115674
0.027798961368115674
0.027798961368115674
0.027798961368115674
0.027798961368115674
0.027798961368115674
0.027798961368115674
0.02780021470187034
0.02780021470187034
0.02780021470187034
0.02780021470187034
0.02780021470187034
0.02780021470187034
0.02780021470187034
0.02780021470187034
0.02780021470187034
0.02780021470187034
0.02780021470187034
0.02780021470187034
0.02780021470187034
0.02780021470187034
0.02780021470187034
0.02780021470187034
0.02780021470187034
0.02780021470187034
0.02780021470187034
0.02780021470187034
0.027801726714929073
0.027801726714929073
0.027801726714929073
0.027801726714929073
0.027801726714929073
0.027801726714929073
0.027801726714929073
0.027801726714929073
0.027801726714929073
0.027801726714929073
0.027801726714929073
0.027801726714929073
0.027801726714929073
0.027801726714929073
0.027801726714929073
0.027801726714929073
0.027801726714929073
0.027801726714929073
0.027801726714929073
0.027801726714929073
0.027801726714929073
0.027801726714929073
0.027801726714929073
0.027801726714929073
0.027801726714929073
0.027803543543872485
0.027803543543872485
0.027803543543872485
0.027803543543872485
0.027803543543872485
0.027803543543872485
0.027803543543872485
0.027803543543872485
0.027803543543872485
0.027803543543872485
0.027803543543872485
0.027803543543872485
0.027803543543872485
0.027803543543872485
0.027803543543872485
0.027803543543872485
0.027803543543872485
0.027803543543872485
0.027803543543872485
0.027803543543872485
0.027803543543872485
0.027803543543872485
0.027803543543872485
0.027803543543872485
0.027803543543872485
0.027803543543872485
0.027803543543872485
0.027803543543872485
0.027803543543872485
0.027803543543872485
0.027805726712429524
0.027805726712429524
0.027805726712429524
0.027805726712429524
0.027805726712429524
0.027805726712429524
0.027805726712429524
0.027805726712429524
0.027805726712429524
0.027805726712429524
0.027805726712429524
0.027805726712429524
0.027805726712429524
0.027805726712429524
0.027805726712429524
0.027805726712429524
0.027805726712429524
0.027805726712429524
0.027805726712429524
0.027805726712429524
0.027805726712429524
0.027805726712429524
0.027805726712429524
0.027805726712429524
0.027805726712429524
0.027805726712429524
0.027805726712429524
0.027805726712429524
0.027805726712429524
0.027805726712429524
0.027805726712429524
0.027805726712429524
0.027805726712429524
0.027805726712429524
0.027805726712429524
0.027808345460358593
0.027808345460358593
0.027808345460358593
0.027808345460358593
0.027808345460358593
0.027808345460358593
0.027808345460358593
0.027808345460358593
0.027808345460358593
0.027808345460358593
0.027808345460358593
0.027808345460358593
0.027808345460358593
0.027808345460358593
0.027808345460358593
0.027808345460358593
0.027808345460358593
0.027808345460358593
0.027808345460358593
0.027808345460358593
0.027808345460358593
0.027808345460358593
0.027808345460358593
0.027808345460358593
0.027808345460358593
0.027808345460358593
0.027808345460358593
0.027808345460358593
0.027808345460358593
0.027808345460358593
0.027808345460358593
0.027808345460358593
0.027808345460358593
0.027808345460358593
0.027808345460358593
0.027808345460358593
0.027808345460358593
0.027808345460358593
0.027808345460358593
0.027808345460358593
0.027808345460358593
0.027808345460358593
0.027811485081516825
0.027811485081516825
0.027811485081516825
0.027811485081516825
0.027811485081516825
0.027811485081516825
0.027811485081516825
0.027811485081516825
0.027811485081516825
0.027811485081516825
0.027811485081516825
0.027811485081516825
0.027811485081516825
0.027811485081516825
0.027811485081516825
0.027811485081516825
0.027811485081516825
0.027811485081516825
0.027811485081516825
0.027811485081516825
0.027811485081516825
0.027811485081516825
0.027811485081516825
0.027811485081516825
0.027811485081516825
0.027811485081516825
0.027811485081516825
0.027811485081516825
0.027811485081516825
0.027811485081516825
0.027811485081516825
0.027811485081516825
0.027811485081516825
0.027811485081516825
0.027811485081516825
0.027811485081516825
0.027811485081516825
0.027811485081516825
0.027811485081516825
0.027811485081516825
0.027811485081516825
0.027811485081516825
0.027811485081516825
0.027811485081516825
0.027811485081516825
0.027811485081516825
0.027811485081516825
0.027811485081516825
0.027811485081516825
0.027811485081516825
0.027811485081516825
0.027811485081516825
0.027815262958048242
0.027815262958048242
0.027815262958048242
0.027815262958048242
0.027815262958048242
0.027815262958048242
0.027815262958048242
0.027815262958048242
0.027815262958048242
0.027815262958048242
0.027815262958048242
0.027815262958048242
0.027815262958048242
0.027815262958048242
0.027815262958048242
0.027815262958048242
0.027815262958048242
0.027815262958048242
0.027815262958048242
0.027815262958048242
0.027815262958048242
0.027815262958048242
0.027815262958048242
0.027815262958048242
0.027815262958048242
0.027815262958048242
0.027815262958048242
0.027815262958048242
0.027815262958048242
0.027815262958048242
0.027815262958048242
0.027815262958048242
0.027815262958048242
0.027815262958048242
0.027815262958048242
0.027815262958048242
0.027815262958048242
0.027815262958048242
0.027815262958048242
0.027815262958048242
0.027815262958048242
0.027815262958048242
0.027815262958048242
0.027815262958048242
0.027815262958048242
0.027815262958048242
0.027815262958048242
0.027815262958048242
0.027815262958048242
0.027815262958048242
0.027815262958048242
0.027815262958048242
0.027815262958048242
0.027815262958048242
0.027815262958048242
0.027815262958048242
0.027815262958048242
0.027815262958048242
0.027815262958048242
0.027815262958048242
0.027815262958048242
0.027819801699428978
0.027819801699428978
0.027819801699428978
0.027819801699428978
0.027819801699428978
0.027819801699428978
0.027819801699428978
0.027819801699428978
0.027819801699428978
0.027819801699428978
0.027819801699428978
0.027819801699428978
0.027819801699428978
0.027819801699428978
0.027819801699428978
0.027819801699428978
0.027819801699428978
0.027819801699428978
0.027819801699428978
0.027819801699428978
0.027819801699428978
0.027819801699428978
0.027819801699428978
0.027819801699428978
0.027819801699428978
0.027819801699428978
0.027819801699428978
0.027819801699428978
0.027819801699428978
0.027819801699428978
0.027819801699428978
0.027819801699428978
0.027819801699428978
0.027819801699428978
0.027819801699428978
0.027819801699428978
0.027819801699428978
0.027819801699428978
0.027819801699428978
0.027819801699428978
0.027819801699428978
0.027819801699428978
0.027819801699428978
0.027819801699428978
0.027819801699428978
0.027819801699428978
0.027819801699428978
0.027819801699428978
0.027819801699428978
0.027819801699428978
0.027819801699428978
0.027819801699428978
0.027819801699428978
0.027819801699428978
0.027819801699428978
0.027819801699428978
0.027819801699428978
0.027819801699428978
0.027819801699428978
0.027819801699428978
0.027819801699428978
0.027819801699428978
0.027819801699428978
0.027819801699428978
0.027819801699428978
0.027819801699428978
0.027819801699428978
0.027819801699428978
0.027819801699428978
0.027819801699428978
0.027819801699428978
0.027819801699428978
0.027819801699428978
0.027825345143728933
0.027825345143728933
0.027825345143728933
0.027825345143728933
0.027825345143728933
0.027825345143728933
0.027825345143728933
0.027825345143728933
0.027825345143728933
0.027825345143728933
0.027825345143728933
0.027825345143728933
0.027825345143728933
0.027825345143728933
0.027825345143728933
0.027825345143728933
0.027825345143728933
0.027825345143728933
0.027825345143728933
0.027825345143728933
0.027825345143728933
0.027825345143728933
0.027825345143728933
0.027825345143728933
0.027825345143728933
0.027825345143728933
0.027825345143728933
0.027825345143728933
0.027825345143728933
0.027825345143728933
0.027825345143728933
0.027825345143728933
0.027825345143728933
0.027825345143728933
0.027825345143728933
0.027825345143728933
0.027825345143728933
0.027825345143728933
0.027825345143728933
0.027825345143728933
0.027825345143728933
0.027825345143728933
0.027825345143728933
0.027825345143728933
0.027825345143728933
0.027825345143728933
0.027825345143728933
0.027825345143728933
0.027825345143728933
0.027825345143728933
0.027825345143728933
0.027825345143728933
0.027825345143728933
0.027825345143728933
0.027825345143728933
0.027825345143728933
0.027825345143728933
0.027825345143728933
0.027825345143728933
0.027825345143728933
0.027825345143728933
0.027825345143728933
0.027825345143728933
0.027825345143728933
0.027825345143728933
0.027825345143728933
0.027825345143728933
0.027825345143728933
0.027825345143728933
0.027825345143728933
0.027825345143728933
0.027825345143728933
0.027825345143728933
0.027825345143728933
0.027825345143728933
0.027825345143728933
0.027825345143728933
0.027825345143728933
0.027825345143728933
0.027825345143728933
0.027825345143728933
0.027825345143728933
0.027825345143728933
0.027825345143728933
0.027825345143728933
0.027825345143728933
0.027825345143728933
0.027825345143728933
0.027832232904549253
0.027832232904549253
0.027832232904549253
0.027832232904549253
0.027832232904549253
0.027832232904549253
0.027832232904549253
0.027832232904549253
0.027832232904549253
0.027832232904549253
0.027832232904549253
0.027832232904549253
0.027832232904549253
0.027832232904549253
0.027832232904549253
0.027832232904549253
0.027832232904549253
0.027832232904549253
0.027832232904549253
0.027832232904549253
0.027832232904549253
0.027832232904549253
0.027832232904549253
0.027832232904549253
0.027832232904549253
0.027832232904549253
0.027832232904549253
0.027832232904549253
0.027832232904549253
0.027832232904549253
0.027832232904549253
0.027832232904549253
0.027832232904549253
0.027832232904549253
0.027832232904549253
0.027832232904549253
0.027832232904549253
0.027832232904549253
0.027832232904549253
0.027832232904549253
0.027832232904549253
0.027832232904549253
0.027832232904549253
0.027832232904549253
0.027832232904549253
0.027832232904549253
0.027832232904549253
0.027832232904549253
0.027832232904549253
0.027832232904549253
0.027832232904549253
0.027832232904549253
0.027832232904549253
0.027832232904549253
0.027832232904549253
0.027832232904549253
0.027832232904549253
0.027832232904549253
0.027832232904549253
0.027832232904549253
0.027832232904549253
0.027832232904549253
0.027832232904549253
0.027832232904549253
0.027832232904549253
0.027832232904549253
0.027832232904549253
0.027832232904549253
0.027832232904549253
0.027832232904549253
0.027832232904549253
0.027832232904549253
0.027832232904549253
0.027832232904549253
0.027832232904549253
0.027832232904549253
0.027832232904549253
0.027832232904549253
0.027832232904549253
0.027832232904549253
0.027832232904549253
0.027832232904549253
0.027832232904549253
0.027832232904549253
0.027832232904549253
0.027832232904549253
0.027832232904549253
0.027832232904549253
0.027832232904549253
0.027832232904549253
0.027832232904549253
0.027832232904549253
0.027832232904549253
0.027832232904549253
0.027832232904549253
0.027832232904549253
0.027832232904549253
0.027832232904549253
0.027832232904549253
0.027832232904549253
0.027832232904549253
0.027832232904549253
0.027832232904549253
0.027832232904549253
0.027832232904549253
0.027832232904549253
0.027840469825893874
0.027840469825893874
0.027840469825893874
0.027840469825893874
0.027840469825893874
0.027840469825893874
0.027840469825893874
0.027840469825893874
0.027840469825893874
0.027840469825893874
0.027840469825893874
0.027840469825893874
0.027840469825893874
0.027840469825893874
0.027840469825893874
0.027840469825893874
0.027840469825893874
0.027840469825893874
0.027840469825893874
0.027840469825893874
0.027840469825893874
0.027840469825893874
0.027840469825893874
0.027840469825893874
0.027840469825893874
0.027840469825893874
0.027840469825893874
0.027840469825893874
0.027840469825893874
0.027840469825893874
0.027840469825893874
0.027840469825893874
0.027840469825893874
0.027840469825893874
0.027840469825893874
0.027840469825893874
0.027840469825893874
0.027840469825893874
0.027840469825893874
0.027840469825893874
0.027840469825893874
0.027840469825893874
0.027840469825893874
0.027840469825893874
0.027840469825893874
0.027840469825893874
0.027840469825893874
0.027840469825893874
0.027840469825893874
0.027840469825893874
0.027840469825893874
0.027840469825893874
0.027840469825893874
0.027840469825893874
0.027840469825893874
0.027840469825893874
0.027840469825893874
0.027840469825893874
0.027840469825893874
0.027840469825893874
0.027840469825893874
0.027840469825893874
0.027840469825893874
0.027840469825893874
0.027840469825893874
0.027840469825893874
0.027840469825893874
0.027840469825893874
0.027840469825893874
0.027840469825893874
0.027840469825893874
0.027840469825893874
0.027840469825893874
0.027840469825893874
0.027840469825893874
0.027840469825893874
0.027840469825893874
0.027840469825893874
0.027840469825893874
0.027840469825893874
0.027840469825893874
0.027840469825893874
0.027840469825893874
0.027840469825893874
0.027840469825893874
0.027840469825893874
0.027840469825893874
0.027840469825893874
0.027840469825893874
0.027840469825893874
0.027840469825893874
0.027840469825893874
0.027840469825893874
0.027840469825893874
0.027840469825893874
0.027840469825893874
0.027840469825893874
0.027840469825893874
0.027840469825893874
0.027840469825893874
0.027840469825893874
0.027840469825893874
0.027840469825893874
0.027840469825893874
0.027840469825893874
0.027840469825893874
0.027840469825893874
0.027840469825893874
0.027840469825893874
0.027840469825893874
0.027840469825893874
0.027840469825893874
0.027840469825893874
0.027840469825893874
0.027840469825893874
0.027840469825893874
0.027840469825893874
0.027840469825893874
0.027840469825893874
0.027840469825893874
0.027840469825893874
0.027840469825893874
0.027840469825893874
0.027840469825893874
0.027840469825893874
0.027840469825893874
0.027840469825893874
0.027850366198986495
0.027850366198986495
0.027850366198986495
0.027850366198986495
0.027850366198986495
0.027850366198986495
0.027850366198986495
0.027850366198986495
0.027850366198986495
0.027850366198986495
0.027850366198986495
0.027850366198986495
0.027850366198986495
0.027850366198986495
0.027850366198986495
0.027850366198986495
0.027850366198986495
0.027850366198986495
0.027850366198986495
0.027850366198986495
0.027850366198986495
0.027850366198986495
0.027850366198986495
0.027850366198986495
0.027850366198986495
0.027850366198986495
0.027850366198986495
0.027850366198986495
0.027850366198986495
0.027850366198986495
0.027850366198986495
0.027850366198986495
0.027850366198986495
0.027850366198986495
0.027850366198986495
0.027850366198986495
0.027850366198986495
0.027850366198986495
0.027850366198986495
0.027850366198986495
0.027850366198986495
0.027850366198986495
0.027850366198986495
0.027850366198986495
0.027850366198986495
0.027850366198986495
0.027850366198986495
0.027850366198986495
0.027850366198986495
0.027850366198986495
0.027850366198986495
0.027850366198986495
0.027850366198986495
0.027850366198986495
0.027850366198986495
0.027850366198986495
0.027850366198986495
0.027850366198986495
0.027850366198986495
0.027850366198986495
0.027850366198986495
0.027850366198986495
0.027850366198986495
0.027850366198986495
0.027850366198986495
0.027850366198986495
0.027850366198986495
0.027850366198986495
0.027850366198986495
0.027850366198986495
0.027850366198986495
0.027850366198986495
0.027850366198986495
0.027850366198986495
0.027850366198986495
0.027850366198986495
0.027850366198986495
0.027850366198986495
0.027850366198986495
0.027850366198986495
0.027850366198986495
0.027850366198986495
0.027850366198986495
0.027850366198986495
0.027850366198986495
0.027850366198986495
0.027850366198986495
0.027850366198986495
0.027850366198986495
0.027850366198986495
0.027850366198986495
0.027850366198986495
0.027850366198986495
0.027850366198986495
0.027850366198986495
0.027850366198986495
0.027850366198986495
0.027850366198986495
0.027850366198986495
0.027850366198986495
0.027850366198986495
0.027850366198986495
0.027850366198986495
0.027850366198986495
0.027850366198986495
0.027850366198986495
0.027850366198986495
0.027850366198986495
0.027850366198986495
0.027850366198986495
0.027850366198986495
0.027850366198986495
0.027850366198986495
0.027850366198986495
0.027850366198986495
0.027850366198986495
0.027850366198986495
0.027850366198986495
0.027850366198986495
0.027850366198986495
0.027850366198986495
0.027850366198986495
0.027850366198986495
0.027850366198986495
0.027850366198986495
0.027850366198986495
0.027850366198986495
0.027850366198986495
0.027850366198986495
0.027850366198986495
0.027850366198986495
0.027850366198986495
0.027850366198986495
0.027850366198986495
0.027850366198986495
0.027850366198986495
0.027850366198986495
0.027850366198986495
0.027850366198986495
0.027850366198986495
0.027850366198986495
0.027850366198986495
0.027850366198986495
0.027850366198986495
0.027850366198986495
0.027850366198986495
0.027850366198986495
0.027850366198986495
0.027850366198986495
0.027850366198986495
0.027850366198986495
0.027850366198986495
0.027850366198986495
0.027862251622766815
0.027862251622766815
0.027862251622766815
0.027862251622766815
0.027862251622766815
0.027862251622766815
0.027862251622766815
0.027862251622766815
0.027862251622766815
0.027862251622766815
0.027862251622766815
0.027862251622766815
0.027862251622766815
0.027862251622766815
0.027862251622766815
0.027862251622766815
0.027862251622766815
0.027862251622766815
0.027862251622766815
0.027862251622766815
0.027862251622766815
0.027862251622766815
0.027862251622766815
0.027862251622766815
0.027862251622766815
0.027862251622766815
0.027862251622766815
0.027862251622766815
0.027862251622766815
0.027862251622766815
0.027862251622766815
0.027862251622766815
0.027862251622766815
0.027862251622766815
0.027862251622766815
0.027862251622766815
0.027862251622766815
0.027862251622766815
0.027862251622766815
0.027862251622766815
0.027862251622766815
0.027862251622766815
0.027862251622766815
0.027862251622766815
0.027862251622766815
0.027862251622766815
0.027862251622766815
0.027862251622766815
0.027862251622766815
0.027862251622766815
0.027862251622766815
0.027862251622766815
0.027862251622766815
0.027862251622766815
0.027862251622766815
0.027862251622766815
0.027862251622766815
0.027862251622766815
0.027862251622766815
0.027862251622766815
0.027862251622766815
0.027862251622766815
0.027862251622766815
0.027862251622766815
0.027862251622766815
0.027862251622766815
0.027862251622766815
0.027862251622766815
0.027862251622766815
0.027862251622766815
0.027862251622766815
0.027862251622766815
0.027862251622766815
0.027862251622766815
0.027862251622766815
0.027862251622766815
0.027862251622766815
0.027862251622766815
0.027862251622766815
0.027862251622766815
0.027862251622766815
0.027862251622766815
0.027862251622766815
0.027862251622766815
0.027862251622766815
0.027862251622766815
0.027862251622766815
0.027862251622766815
0.027862251622766815
0.027862251622766815
0.027862251622766815
0.027862251622766815
0.027862251622766815
0.027862251622766815
0.027862251622766815
0.027862251622766815
0.027862251622766815
0.027862251622766815
0.027862251622766815
0.027862251622766815
0.027862251622766815
0.027862251622766815
0.027862251622766815
0.027862251622766815
0.027862251622766815
0.027862251622766815
0.027862251622766815
0.027862251622766815
0.027862251622766815
0.027862251622766815
0.027862251622766815
0.027862251622766815
0.027862251622766815
0.027862251622766815
0.027862251622766815
0.027862251622766815
0.027862251622766815
0.027862251622766815
0.027862251622766815
0.027862251622766815
0.027862251622766815
0.027862251622766815
0.027862251622766815
0.027862251622766815
0.027862251622766815
0.027862251622766815
0.027862251622766815
0.027862251622766815
0.027862251622766815
0.027862251622766815
0.027862251622766815
0.027862251622766815
0.027862251622766815
0.027862251622766815
0.027862251622766815
0.027862251622766815
0.027862251622766815
0.027862251622766815
0.027862251622766815
0.027862251622766815
0.027862251622766815
0.027862251622766815
0.027862251622766815
0.027862251622766815
0.027862251622766815
0.027862251622766815
0.027862251622766815
0.027862251622766815
0.027862251622766815
0.027862251622766815
0.027862251622766815
0.027862251622766815
0.027862251622766815
0.027862251622766815
0.027862251622766815
0.027862251622766815
0.027862251622766815
0.027862251622766815
0.027862251622766815
0.027862251622766815
0.027862251622766815
0.027862251622766815
0.027862251622766815
0.027862251622766815
0.027862251622766815
0.027862251622766815
0.027862251622766815
0.027862251622766815
0.027862251622766815
0.027862251622766815
0.027862251622766815
0.027862251622766815
0.027862251622766815
0.027862251622766815
0.027862251622766815
0.027862251622766815
0.027862251622766815
0.027862251622766815
0.027862251622766815
0.027862251622766815
0.027862251622766815
0.027862251622766815
0.02787650092853759
0.02787650092853759
0.02787650092853759
0.02787650092853759
0.02787650092853759
0.02787650092853759
0.02787650092853759
0.02787650092853759
0.02787650092853759
0.02787650092853759
0.02787650092853759
0.02787650092853759
0.02787650092853759
0.02787650092853759
0.02787650092853759
0.02787650092853759
0.02787650092853759
0.02787650092853759
0.02787650092853759
0.02787650092853759
0.02787650092853759
0.02787650092853759
0.02787650092853759
0.02787650092853759
0.02787650092853759
0.02787650092853759
0.02787650092853759
0.02787650092853759
0.02787650092853759
0.02787650092853759
0.02787650092853759
0.02787650092853759
0.02787650092853759
0.02787650092853759
0.02787650092853759
0.02787650092853759
0.02787650092853759
0.02787650092853759
0.02787650092853759
0.02787650092853759
0.02787650092853759
0.02787650092853759
0.02787650092853759
0.02787650092853759
0.02787650092853759
0.02787650092853759
0.02787650092853759
0.02787650092853759
0.02787650092853759
0.02787650092853759
0.02787650092853759
0.02787650092853759
0.02787650092853759
0.02787650092853759
0.02787650092853759
0.02787650092853759
0.02787650092853759
0.02787650092853759
0.02787650092853759
0.02787650092853759
0.02787650092853759
0.02787650092853759
0.02787650092853759
0.02787650092853759
0.02787650092853759
0.02787650092853759
0.02787650092853759
0.02787650092853759
0.02787650092853759
0.02787650092853759
0.02787650092853759
0.02787650092853759
0.02787650092853759
0.02787650092853759
0.02787650092853759
0.02787650092853759
0.02787650092853759
0.02787650092853759
0.02787650092853759
0.02787650092853759
0.02787650092853759
0.02787650092853759
0.02787650092853759
0.02787650092853759
0.02787650092853759
0.02787650092853759
0.02787650092853759
0.02787650092853759
0.02787650092853759
0.02787650092853759
0.02787650092853759
0.02787650092853759
0.02787650092853759
0.02787650092853759
0.02787650092853759
0.02787650092853759
0.02787650092853759
0.02787650092853759
0.02787650092853759
0.02787650092853759
0.02787650092853759
0.02787650092853759
0.02787650092853759
0.02787650092853759
0.02787650092853759
0.02787650092853759
0.02787650092853759
0.02787650092853759
0.02787650092853759
0.02787650092853759
0.02787650092853759
0.02787650092853759
0.02787650092853759
0.02787650092853759
0.02787650092853759
0.02787650092853759
0.02787650092853759
0.02787650092853759
0.02787650092853759
0.02787650092853759
0.02787650092853759
0.02787650092853759
0.02787650092853759
0.02787650092853759
0.02787650092853759
0.02787650092853759
0.02787650092853759
0.02787650092853759
0.02787650092853759
0.02787650092853759
0.02787650092853759
0.02787650092853759
0.02787650092853759
0.02787650092853759
0.02787650092853759
0.02787650092853759
0.02787650092853759
0.02787650092853759
0.02787650092853759
0.02787650092853759
0.02787650092853759
0.02787650092853759
0.02787650092853759
0.02787650092853759
0.02787650092853759
0.02787650092853759
0.02787650092853759
0.02787650092853759
0.02787650092853759
0.02787650092853759
0.02787650092853759
0.02787650092853759
0.02787650092853759
0.02787650092853759
0.02787650092853759
0.02787650092853759
0.02787650092853759
0.02787650092853759
0.02787650092853759
0.02787650092853759
0.02787650092853759
0.02787650092853759
0.02787650092853759
0.02787650092853759
0.02787650092853759
0.02787650092853759
0.02787650092853759
0.02787650092853759
0.02787650092853759
0.02787650092853759
0.02787650092853759
0.02787650092853759
0.02787650092853759
0.02787650092853759
0.02787650092853759
0.02787650092853759
0.02787650092853759
0.02787650092853759
0.02787650092853759
0.02787650092853759
0.02787650092853759
0.02787650092853759
0.02787650092853759
0.02787650092853759
0.02787650092853759
0.02787650092853759
0.02787650092853759
0.02787650092853759
0.02787650092853759
0.02787650092853759
0.02787650092853759
0.02787650092853759
0.02787650092853759
0.02787650092853759
0.02787650092853759
0.02787650092853759
0.02787650092853759
0.02787650092853759
0.02787650092853759
0.02787650092853759
0.02787650092853759
0.02787650092853759
0.02787650092853759
0.02787650092853759
0.02787650092853759
0.02787650092853759
0.02787650092853759
0.02787650092853759
0.02787650092853759
0.02787650092853759
0.02787650092853759
0.02787650092853759
0.02787650092853759
0.02787650092853759
0.02787650092853759
0.02787650092853759
0.02787650092853759
0.02787650092853759
0.02787650092853759
0.02787650092853759
0.027893614211046348
0.027893614211046348
0.027893614211046348
0.027893614211046348
0.027893614211046348
0.027893614211046348
0.027893614211046348
0.027893614211046348
0.027893614211046348
0.027893614211046348
0.027893614211046348
0.027893614211046348
0.027893614211046348
0.027893614211046348
0.027893614211046348
0.027893614211046348
0.027893614211046348
0.027893614211046348
0.027893614211046348
0.027893614211046348
0.027893614211046348
0.027893614211046348
0.027893614211046348
0.027893614211046348
0.027893614211046348
0.027893614211046348
0.027893614211046348
0.027893614211046348
0.027893614211046348
0.027893614211046348
0.027893614211046348
0.027893614211046348
0.027893614211046348
0.027893614211046348
0.027893614211046348
0.027893614211046348
0.027893614211046348
0.027893614211046348
0.027893614211046348
0.027893614211046348
0.027893614211046348
0.027893614211046348
0.027893614211046348
0.027893614211046348
0.027893614211046348
0.027893614211046348
0.027893614211046348
0.027893614211046348
0.027893614211046348
0.027893614211046348
0.027893614211046348
0.027893614211046348
0.027893614211046348
0.027893614211046348
0.027893614211046348
0.027893614211046348
0.027893614211046348
0.027893614211046348
0.027893614211046348
0.027893614211046348
0.027893614211046348
0.027893614211046348
0.027893614211046348
0.027893614211046348
0.027893614211046348
0.027893614211046348
0.027893614211046348
0.027893614211046348
0.027893614211046348
0.027893614211046348
0.027893614211046348
0.027893614211046348
0.027893614211046348
0.027893614211046348
0.027893614211046348
0.027893614211046348
0.027893614211046348
0.027893614211046348
0.027893614211046348
0.027893614211046348
0.027893614211046348
0.027893614211046348
0.027893614211046348
0.027893614211046348
0.027893614211046348
0.027893614211046348
0.027893614211046348
0.027893614211046348
0.027893614211046348
0.027893614211046348
0.027893614211046348
0.027893614211046348
0.027893614211046348
0.027893614211046348
0.027893614211046348
0.027893614211046348
0.027893614211046348
0.027893614211046348
0.027893614211046348
0.027893614211046348
0.027893614211046348
0.027893614211046348
0.027893614211046348
0.027893614211046348
0.027893614211046348
0.027893614211046348
0.027893614211046348
0.027893614211046348
0.027893614211046348
0.027893614211046348
0.027893614211046348
0.027893614211046348
0.027893614211046348
0.027893614211046348
0.027893614211046348
0.027893614211046348
0.027893614211046348
0.027893614211046348
0.027893614211046348
0.027893614211046348
0.027893614211046348
0.027893614211046348
0.027893614211046348
0.027893614211046348
0.027893614211046348
0.027893614211046348
0.027893614211046348
0.027893614211046348
0.027893614211046348
0.027893614211046348
0.027893614211046348
0.027893614211046348
0.027893614211046348
0.027893614211046348
0.027893614211046348
0.027893614211046348
0.027893614211046348
0.027893614211046348
0.027893614211046348
0.027893614211046348
0.027893614211046348
0.027893614211046348
0.027893614211046348
0.027893614211046348
0.027893614211046348
0.027893614211046348
0.027893614211046348
0.027893614211046348
0.027893614211046348
0.027893614211046348
0.027893614211046348
0.027893614211046348
0.027893614211046348
0.027893614211046348
0.027893614211046348
0.027893614211046348
0.027893614211046348
0.027893614211046348
0.027893614211046348
0.027893614211046348
0.027893614211046348
0.027893614211046348
0.027893614211046348
0.027893614211046348
0.027893614211046348
0.027893614211046348
0.027893614211046348
0.027893614211046348
0.027893614211046348
0.027893614211046348
0.027893614211046348
0.027893614211046348
0.027893614211046348
0.027893614211046348
0.027893614211046348
0.027893614211046348
0.027893614211046348
0.027893614211046348
0.027893614211046348
0.027893614211046348
0.027893614211046348
0.027893614211046348
0.027893614211046348
0.027893614211046348
0.027893614211046348
0.027893614211046348
0.027893614211046348
0.027893614211046348
0.027893614211046348
0.027893614211046348
0.027893614211046348
0.027893614211046348
0.027893614211046348
0.027893614211046348
0.027893614211046348
0.027893614211046348
0.027893614211046348
0.027893614211046348
0.027893614211046348
0.027893614211046348
0.027893614211046348
0.027893614211046348
0.027893614211046348
0.027893614211046348
0.027893614211046348
0.027893614211046348
0.027893614211046348
0.027893614211046348
0.027893614211046348
0.027893614211046348
0.027893614211046348
0.027893614211046348
0.027893614211046348
0.027893614211046348
0.027893614211046348
0.027893614211046348
0.027893614211046348
0.027893614211046348
0.027893614211046348
0.027893614211046348
0.027893614211046348
0.027893614211046348
0.027893614211046348
0.027893614211046348
0.027893614211046348
0.027893614211046348
0.027893614211046348
0.027893614211046348
0.027893614211046348
0.027893614211046348
0.027893614211046348
0.027893614211046348
0.027893614211046348
0.027893614211046348
0.027893614211046348
0.027893614211046348
0.027893614211046348
0.027893614211046348
0.027893614211046348
0.027893614211046348
0.027893614211046348
0.027893614211046348
0.027893614211046348
0.027893614211046348
0.027893614211046348
0.027893614211046348
0.027893614211046348
0.027893614211046348
0.027893614211046348
0.027893614211046348
0.027893614211046348
0.027893614211046348
0.027893614211046348
0.027893614211046348
0.027893614211046348
0.027893614211046348
0.027893614211046348
0.027893614211046348
0.027893614211046348
0.027893614211046348
0.027893614211046348
0.027893614211046348
0.027893614211046348
0.027914159133376762
0.027914159133376762
0.027914159133376762
0.027914159133376762
0.027914159133376762
0.027914159133376762
0.027914159133376762
0.027914159133376762
0.027914159133376762
0.027914159133376762
0.027914159133376762
0.027914159133376762
0.027914159133376762
0.027914159133376762
0.027914159133376762
0.027914159133376762
0.027914159133376762
0.027914159133376762
0.027914159133376762
0.027914159133376762
0.027914159133376762
0.027914159133376762
0.027914159133376762
0.027914159133376762
0.027914159133376762
0.027914159133376762
0.027914159133376762
0.027914159133376762
0.027914159133376762
0.027914159133376762
0.027914159133376762
0.027914159133376762
0.027914159133376762
0.027914159133376762
0.027914159133376762
0.027914159133376762
0.027914159133376762
0.027914159133376762
0.027914159133376762
0.027914159133376762
0.027914159133376762
0.027914159133376762
0.027914159133376762
0.027914159133376762
0.027914159133376762
0.027914159133376762
0.027914159133376762
0.027914159133376762
0.027914159133376762
0.027914159133376762
0.027914159133376762
0.027914159133376762
0.027914159133376762
0.027914159133376762
0.027914159133376762
0.027914159133376762
0.027914159133376762
0.027914159133376762
0.027914159133376762
0.027914159133376762
0.027914159133376762
0.027914159133376762
0.027914159133376762
0.027914159133376762
0.027914159133376762
0.027914159133376762
0.027914159133376762
0.027914159133376762
0.027914159133376762
0.027914159133376762
0.027914159133376762
0.027914159133376762
0.027914159133376762
0.027914159133376762
0.027914159133376762
0.027914159133376762
0.027914159133376762
0.027914159133376762
0.027914159133376762
0.027914159133376762
0.027914159133376762
0.027914159133376762
0.027914159133376762
0.027914159133376762
0.027914159133376762
0.027914159133376762
0.027914159133376762
0.027914159133376762
0.027914159133376762
0.027914159133376762
0.027914159133376762
0.027914159133376762
0.027914159133376762
0.027914159133376762
0.027914159133376762
0.027914159133376762
0.027914159133376762
0.027914159133376762
0.027914159133376762
0.027914159133376762
0.027914159133376762
0.027914159133376762
0.027914159133376762
0.027914159133376762
0.027914159133376762
0.027914159133376762
0.027914159133376762
0.027914159133376762
0.027914159133376762
0.027914159133376762
0.027914159133376762
0.027914159133376762
0.027914159133376762
0.027914159133376762
0.027914159133376762
0.027914159133376762
0.027914159133376762
0.027914159133376762
0.027914159133376762
0.027914159133376762
0.027914159133376762
0.027914159133376762
0.027914159133376762
0.027914159133376762
0.027914159133376762
0.027914159133376762
0.027914159133376762
0.027914159133376762
0.027914159133376762
0.027914159133376762
0.027914159133376762
0.027914159133376762
0.027914159133376762
0.027914159133376762
0.027914159133376762
0.027914159133376762
0.027914159133376762
0.027914159133376762
0.027914159133376762
0.027914159133376762
0.027914159133376762
0.027914159133376762
0.027914159133376762
0.027914159133376762
0.027914159133376762
0.027914159133376762
0.027914159133376762
0.027914159133376762
0.027914159133376762
0.027914159133376762
0.027914159133376762
0.027914159133376762
0.027914159133376762
0.027914159133376762
0.027914159133376762
0.027914159133376762
0.027914159133376762
0.027914159133376762
0.027914159133376762
0.027914159133376762
0.027914159133376762
0.027914159133376762
0.027914159133376762
0.027914159133376762
0.027914159133376762
0.027914159133376762
0.027914159133376762
0.027914159133376762
0.027914159133376762
0.027914159133376762
0.027914159133376762
0.027914159133376762
0.027914159133376762
0.027914159133376762
0.027914159133376762
0.027914159133376762
0.027914159133376762
0.027914159133376762
0.027914159133376762
0.027914159133376762
0.027914159133376762
0.027914159133376762
0.027914159133376762
0.027914159133376762
0.027914159133376762
0.027914159133376762
0.027914159133376762
0.027914159133376762
0.027914159133376762
0.027914159133376762
0.027914159133376762
0.027914159133376762
0.027914159133376762
0.027914159133376762
0.027914159133376762
0.027914159133376762
0.027914159133376762
0.027914159133376762
0.027914159133376762
0.027914159133376762
0.027914159133376762
0.027914159133376762
0.027914159133376762
0.027914159133376762
0.027914159133376762
0.027914159133376762
0.027914159133376762
0.027914159133376762
0.027914159133376762
0.027914159133376762
0.027914159133376762
0.027914159133376762
0.027914159133376762
0.027914159133376762
0.027914159133376762
0.027914159133376762
0.027914159133376762
0.027914159133376762
0.027914159133376762
0.027914159133376762
0.027914159133376762
0.027914159133376762
0.027914159133376762
0.027914159133376762
0.027914159133376762
0.027914159133376762
0.027914159133376762
0.027914159133376762
0.027914159133376762
0.027914159133376762
0.027914159133376762
0.027914159133376762
0.027914159133376762
0.027914159133376762
0.027914159133376762
0.027914159133376762
0.027914159133376762
0.027914159133376762
0.027914159133376762
0.027914159133376762
0.027914159133376762
0.027914159133376762
0.027914159133376762
0.027914159133376762
0.027914159133376762
0.027914159133376762
0.027914159133376762
0.027914159133376762
0.027914159133376762
0.027914159133376762
0.027914159133376762
0.027914159133376762
0.027914159133376762
0.027914159133376762
0.027914159133376762
0.027914159133376762
0.027914159133376762
0.027914159133376762
0.027914159133376762
0.027914159133376762
0.027914159133376762
0.027914159133376762
0.027914159133376762
0.027914159133376762
0.027914159133376762
0.027914159133376762
0.027914159133376762
0.027914159133376762
0.027914159133376762
0.027914159133376762
0.027914159133376762
0.027914159133376762
0.027914159133376762
0.027914159133376762
0.027914159133376762
0.027914159133376762
0.027914159133376762
0.027914159133376762
0.027914159133376762
0.027914159133376762
0.027914159133376762
0.027914159133376762
0.027914159133376762
0.027914159133376762
0.027914159133376762
0.027914159133376762
0.027914159133376762
0.027914159133376762
0.027914159133376762
0.027914159133376762
0.027914159133376762
0.027914159133376762
0.027914159133376762
0.027914159133376762
0.027914159133376762
0.027914159133376762
0.027914159133376762
0.027914159133376762
0.027914159133376762
0.027914159133376762
0.027914159133376762
0.027914159133376762
0.027914159133376762
0.027914159133376762
0.027914159133376762
0.027914159133376762
0.027914159133376762
0.027914159133376762
0.027914159133376762
0.027914159133376762
0.027914159133376762
0.027914159133376762
0.027914159133376762
0.027914159133376762
0.027914159133376762
0.027914159133376762
0.027938814874268074
0.027938814874268074
0.027938814874268074
0.027938814874268074
0.027938814874268074
0.027938814874268074
0.027938814874268074
0.027938814874268074
0.027938814874268074
0.027938814874268074
0.027938814874268074
0.027938814874268074
0.027938814874268074
0.027938814874268074
0.027938814874268074
0.027938814874268074
0.027938814874268074
0.027938814874268074
0.027938814874268074
0.027938814874268074
0.027938814874268074
0.027938814874268074
0.027938814874268074
0.027938814874268074
0.027938814874268074
0.027938814874268074
0.027938814874268074
0.027938814874268074
0.027938814874268074
0.027938814874268074
0.027938814874268074
0.027938814874268074
0.027938814874268074
0.027938814874268074
0.027938814874268074
0.027938814874268074
0.027938814874268074
0.027938814874268074
0.027938814874268074
0.027938814874268074
0.027938814874268074
0.027938814874268074
0.027938814874268074
0.027938814874268074
0.027938814874268074
0.027938814874268074
0.027938814874268074
0.027938814874268074
0.027938814874268074
0.027938814874268074
0.027938814874268074
0.027938814874268074
0.027938814874268074
0.027938814874268074
0.027938814874268074
0.027938814874268074
0.027938814874268074
0.027938814874268074
0.027938814874268074
0.027938814874268074
0.027938814874268074
0.027938814874268074
0.027938814874268074
0.027938814874268074
0.027938814874268074
0.027938814874268074
0.027938814874268074
0.027938814874268074
0.027938814874268074
0.027938814874268074
0.027938814874268074
0.027938814874268074
0.027938814874268074
0.027938814874268074
0.027938814874268074
0.027938814874268074
0.027938814874268074
0.027938814874268074
0.027938814874268074
0.027938814874268074
0.027938814874268074
0.027938814874268074
0.027938814874268074
0.027938814874268074
0.027938814874268074
0.027938814874268074
0.027938814874268074
0.027938814874268074
0.027938814874268074
0.027938814874268074
0.027938814874268074
0.027938814874268074
0.027938814874268074
0.027938814874268074
0.027938814874268074
0.027938814874268074
0.027938814874268074
0.027938814874268074
0.027938814874268074
0.027938814874268074
0.027938814874268074
0.027938814874268074
0.027938814874268074
0.027938814874268074
