0.0033260118331381915
0.003330855634763412
0.0033308538707608176
0.003330852413541986
0.0033308504194540945
0.0033308491156280387
0.0033308476584112904
0.003330845894412917
0.0033308439003289286
0.0033308439003289286
0.003330841752855197
0.003330841752855197
0.003330839298601201
0.003330839298601201
0.0033308366142629615
0.0033308366142629615
0.0033308366142629615
0.0033308336998410376
0.0033308336998410376
0.0033308336998410376
0.003330830708726449
0.003330830708726449
0.003330830708726449
0.003330830708726449
0.0033308277176145496
0.0033308277176145496
0.0033308277176145496
0.0033308277176145496
0.0033308277176145496
0.003330824879895486
0.003330824879895486
0.003330824879895486
0.003330824879895486
0.003330824879895486
0.003330824879895486
0.0033308225023489435
0.0033308225023489435
0.0033308225023489435
0.0033308225023489435
0.0033308225023489435
0.0033308225023489435
0.0033308225023489435
0.003330820815058878
0.003330820815058878
0.003330820815058878
0.003330820815058878
0.003330820815058878
0.003330820815058878
0.003330820815058878
0.003330820815058878
0.003330820201499066
0.003330820201499066
0.003330820201499066
0.003330820201499066
0.003330820201499066
0.003330820201499066
0.003330820201499066
0.003330820201499066
0.003330820201499066
0.003330820201499066
0.0033308217353988055
0.0033308217353988055
0.0033308217353988055
0.0033308217353988055
0.0033308217353988055
0.0033308217353988055
0.0033308217353988055
0.0033308217353988055
0.0033308217353988055
0.0033308217353988055
0.0033308217353988055
0.0033308217353988055
0.003330825033285643
0.003330825033285643
0.003330825033285643
0.003330825033285643
0.003330825033285643
0.003330825033285643
0.003330825033285643
0.003330825033285643
0.003330825033285643
0.003330825033285643
0.003330825033285643
0.003330825033285643
0.003330825033285643
0.003330825033285643
0.0033308316290691134
0.0033308316290691134
0.0033308316290691134
0.0033308316290691134
0.0033308316290691134
0.0033308316290691134
0.0033308316290691134
0.0033308316290691134
0.0033308316290691134
0.0033308316290691134
0.0033308316290691134
0.0033308316290691134
0.0033308316290691134
0.0033308316290691134
0.0033308316290691134
0.0033308316290691134
0.0033308316290691134
0.0033308413693778896
0.0033308413693778896
0.0033308413693778896
0.0033308413693778896
0.0033308413693778896
0.0033308413693778896
0.0033308413693778896
0.0033308413693778896
0.0033308413693778896
0.0033308413693778896
0.0033308413693778896
0.0033308413693778896
0.0033308413693778896
0.0033308413693778896
0.0033308413693778896
0.0033308413693778896
0.0033308413693778896
0.0033308413693778896
0.0033308413693778896
0.0033308413693778896
0.0033308552512845064
0.0033308552512845064
0.0033308552512845064
0.0033308552512845064
0.0033308552512845064
0.0033308552512845064
0.0033308552512845064
0.0033308552512845064
0.0033308552512845064
0.0033308552512845064
0.0033308552512845064
0.0033308552512845064
0.0033308552512845064
0.0033308552512845064
0.0033308552512845064
0.0033308552512845064
0.0033308552512845064
0.0033308552512845064
0.0033308552512845064
0.0033308552512845064
0.0033308552512845064
0.0033308552512845064
0.0033308552512845064
0.0033308552512845064
0.0033308552512845064
0.0033308745019800363
0.0033308745019800363
0.0033308745019800363
0.0033308745019800363
0.0033308745019800363
0.0033308745019800363
0.0033308745019800363
0.0033308745019800363
0.0033308745019800363
0.0033308745019800363
0.0033308745019800363
0.0033308745019800363
0.0033308745019800363
0.0033308745019800363
0.0033308745019800363
0.0033308745019800363
0.0033308745019800363
0.0033308745019800363
0.0033308745019800363
0.0033308745019800363
0.0033308745019800363
0.0033308745019800363
0.0033308745019800363
0.0033308745019800363
0.0033308745019800363
0.0033308745019800363
0.0033308745019800363
0.0033308745019800363
0.0033308745019800363
0.0033308745019800363
0.003330899274951137
0.003330899274951137
0.003330899274951137
0.003330899274951137
0.003330899274951137
0.003330899274951137
0.003330899274951137
0.003330899274951137
0.003330899274951137
0.003330899274951137
0.003330899274951137
0.003330899274951137
0.003330899274951137
0.003330899274951137
0.003330899274951137
0.003330899274951137
0.003330899274951137
0.003330899274951137
0.003330899274951137
0.003330899274951137
0.003330899274951137
0.003330899274951137
0.003330899274951137
0.003330899274951137
0.003330899274951137
0.003330899274951137
0.003330899274951137
0.003330899274951137
0.003330899274951137
0.003330899274951137
0.003330899274951137
0.003330899274951137
0.003330899274951137
0.003330899274951137
0.003330899274951137
0.003330930644086026
0.003330930644086026
0.003330930644086026
0.003330930644086026
0.003330930644086026
0.003330930644086026
0.003330930644086026
0.003330930644086026
0.003330930644086026
0.003330930644086026
0.003330930644086026
0.003330930644086026
0.003330930644086026
0.003330930644086026
0.003330930644086026
0.003330930644086026
0.003330930644086026
0.003330930644086026
0.003330930644086026
0.003330930644086026
0.003330930644086026
0.003330930644086026
0.003330930644086026
0.003330930644086026
0.003330930644086026
0.003330930644086026
0.003330930644086026
0.003330930644086026
0.003330930644086026
0.003330930644086026
0.003330930644086026
0.003330930644086026
0.003330930644086026
0.003330930644086026
0.003330930644086026
0.003330930644086026
0.003330930644086026
0.003330930644086026
0.003330930644086026
0.003330930644086026
0.003330930644086026
0.003330930644086026
0.0033309678425872792
0.0033309678425872792
0.0033309678425872792
0.0033309678425872792
0.0033309678425872792
0.0033309678425872792
0.0033309678425872792
0.0033309678425872792
0.0033309678425872792
0.0033309678425872792
0.0033309678425872792
0.0033309678425872792
0.0033309678425872792
0.0033309678425872792
0.0033309678425872792
0.0033309678425872792
0.0033309678425872792
0.0033309678425872792
0.0033309678425872792
0.0033309678425872792
0.0033309678425872792
0.0033309678425872792
0.0033309678425872792
0.0033309678425872792
0.0033309678425872792
0.0033309678425872792
0.0033309678425872792
0.0033309678425872792
0.0033309678425872792
0.0033309678425872792
0.0033309678425872792
0.0033309678425872792
0.0033309678425872792
0.0033309678425872792
0.0033309678425872792
0.0033309678425872792
0.0033309678425872792
0.0033309678425872792
0.0033309678425872792
0.0033309678425872792
0.0033309678425872792
0.0033309678425872792
0.0033309678425872792
0.0033309678425872792
0.0033309678425872792
0.0033309678425872792
0.0033309678425872792
0.0033309678425872792
0.0033309678425872792
0.0033309678425872792
0.0033309678425872792
0.0033309678425872792
0.0033310143221231703
0.0033310143221231703
0.0033310143221231703
0.0033310143221231703
0.0033310143221231703
0.0033310143221231703
0.0033310143221231703
0.0033310143221231703
0.0033310143221231703
0.0033310143221231703
0.0033310143221231703
0.0033310143221231703
0.0033310143221231703
0.0033310143221231703
0.0033310143221231703
0.0033310143221231703
0.0033310143221231703
0.0033310143221231703
0.0033310143221231703
0.0033310143221231703
0.0033310143221231703
0.0033310143221231703
0.0033310143221231703
0.0033310143221231703
0.0033310143221231703
0.0033310143221231703
0.0033310143221231703
0.0033310143221231703
0.0033310143221231703
0.0033310143221231703
0.0033310143221231703
0.0033310143221231703
0.0033310143221231703
0.0033310143221231703
0.0033310143221231703
0.0033310143221231703
0.0033310143221231703
0.0033310143221231703
0.0033310143221231703
0.0033310143221231703
0.0033310143221231703
0.0033310143221231703
0.0033310143221231703
0.0033310143221231703
0.0033310143221231703
0.0033310143221231703
0.0033310143221231703
0.0033310143221231703
0.0033310143221231703
0.0033310143221231703
0.0033310143221231703
0.0033310143221231703
0.0033310143221231703
0.0033310143221231703
0.0033310143221231703
0.0033310143221231703
0.0033310143221231703
0.0033310143221231703
0.0033310143221231703
0.0033310143221231703
0.0033310143221231703
0.003331071617097016
0.003331071617097016
0.003331071617097016
0.003331071617097016
0.003331071617097016
0.003331071617097016
0.003331071617097016
0.003331071617097016
0.003331071617097016
0.003331071617097016
0.003331071617097016
0.003331071617097016
0.003331071617097016
0.003331071617097016
0.003331071617097016
0.003331071617097016
0.003331071617097016
0.003331071617097016
0.003331071617097016
0.003331071617097016
0.003331071617097016
0.003331071617097016
0.003331071617097016
0.003331071617097016
0.003331071617097016
0.003331071617097016
0.003331071617097016
0.003331071617097016
0.003331071617097016
0.003331071617097016
0.003331071617097016
0.003331071617097016
0.003331071617097016
0.003331071617097016
0.003331071617097016
0.003331071617097016
0.003331071617097016
0.003331071617097016
0.003331071617097016
0.003331071617097016
0.003331071617097016
0.003331071617097016
0.003331071617097016
0.003331071617097016
0.003331071617097016
0.003331071617097016
0.003331071617097016
0.003331071617097016
0.003331071617097016
0.003331071617097016
0.003331071617097016
0.003331071617097016
0.003331071617097016
0.003331071617097016
0.003331071617097016
0.003331071617097016
0.003331071617097016
0.003331071617097016
0.003331071617097016
0.003331071617097016
0.003331071617097016
0.003331071617097016
0.003331071617097016
0.003331071617097016
0.003331071617097016
0.003331071617097016
0.003331071617097016
0.003331071617097016
0.003331071617097016
0.003331071617097016
0.003331071617097016
0.003331071617097016
0.003331071617097016
0.003331138654234485
0.003331138654234485
0.003331138654234485
0.003331138654234485
0.003331138654234485
0.003331138654234485
0.003331138654234485
0.003331138654234485
0.003331138654234485
0.003331138654234485
0.003331138654234485
0.003331138654234485
0.003331138654234485
0.003331138654234485
0.003331138654234485
0.003331138654234485
0.003331138654234485
0.003331138654234485
0.003331138654234485
0.003331138654234485
0.003331138654234485
0.003331138654234485
0.003331138654234485
0.003331138654234485
0.003331138654234485
0.003331138654234485
0.003331138654234485
0.003331138654234485
0.003331138654234485
0.003331138654234485
0.003331138654234485
0.003331138654234485
0.003331138654234485
0.003331138654234485
0.003331138654234485
0.003331138654234485
0.003331138654234485
0.003331138654234485
0.003331138654234485
0.003331138654234485
0.003331138654234485
0.003331138654234485
0.003331138654234485
0.003331138654234485
0.003331138654234485
0.003331138654234485
0.003331138654234485
0.003331138654234485
0.003331138654234485
0.003331138654234485
0.003331138654234485
0.003331138654234485
0.003331138654234485
0.003331138654234485
0.003331138654234485
0.003331138654234485
0.003331138654234485
0.003331138654234485
0.003331138654234485
0.003331138654234485
0.003331138654234485
0.003331138654234485
0.003331138654234485
0.003331138654234485
0.003331138654234485
0.003331138654234485
0.003331138654234485
0.003331138654234485
0.003331138654234485
0.003331138654234485
0.003331138654234485
0.003331138654234485
0.003331138654234485
0.003331138654234485
0.003331138654234485
0.003331138654234485
0.003331138654234485
0.003331138654234485
0.003331138654234485
0.003331138654234485
0.003331138654234485
0.003331138654234485
0.003331138654234485
0.003331138654234485
0.003331138654234485
0.003331138654234485
0.003331138654234485
0.003331138654234485
0.003331219576146062
0.003331219576146062
0.003331219576146062
0.003331219576146062
0.003331219576146062
0.003331219576146062
0.003331219576146062
0.003331219576146062
0.003331219576146062
0.003331219576146062
0.003331219576146062
0.003331219576146062
0.003331219576146062
0.003331219576146062
0.003331219576146062
0.003331219576146062
0.003331219576146062
0.003331219576146062
0.003331219576146062
0.003331219576146062
0.003331219576146062
0.003331219576146062
0.003331219576146062
0.003331219576146062
0.003331219576146062
0.003331219576146062
0.003331219576146062
0.003331219576146062
0.003331219576146062
0.003331219576146062
0.003331219576146062
0.003331219576146062
0.003331219576146062
0.003331219576146062
0.003331219576146062
0.003331219576146062
0.003331219576146062
0.003331219576146062
0.003331219576146062
0.003331219576146062
0.003331219576146062
0.003331219576146062
0.003331219576146062
0.003331219576146062
0.003331219576146062
0.003331219576146062
0.003331219576146062
0.003331219576146062
0.003331219576146062
0.003331219576146062
0.003331219576146062
0.003331219576146062
0.003331219576146062
0.003331219576146062
0.003331219576146062
0.003331219576146062
0.003331219576146062
0.003331219576146062
0.003331219576146062
0.003331219576146062
0.003331219576146062
0.003331219576146062
0.003331219576146062
0.003331219576146062
0.003331219576146062
0.003331219576146062
0.003331219576146062
0.003331219576146062
0.003331219576146062
0.003331219576146062
0.003331219576146062
0.003331219576146062
0.003331219576146062
0.003331219576146062
0.003331219576146062
0.003331219576146062
0.003331219576146062
0.003331219576146062
0.003331219576146062
0.003331219576146062
0.003331219576146062
0.003331219576146062
0.003331219576146062
0.003331219576146062
0.003331219576146062
0.003331219576146062
0.003331219576146062
0.003331219576146062
0.003331219576146062
0.003331219576146062
0.003331219576146062
0.003331219576146062
0.003331219576146062
0.003331219576146062
0.003331219576146062
0.003331219576146062
0.003331219576146062
0.003331219576146062
0.003331219576146062
0.003331219576146062
0.003331219576146062
0.003331219576146062
0.003331219576146062
0.003331219576146062
0.003331219576146062
0.003331219576146062
0.003331318372576075
0.003331318372576075
0.003331318372576075
0.003331318372576075
0.003331318372576075
0.003331318372576075
0.003331318372576075
0.003331318372576075
0.003331318372576075
0.003331318372576075
0.003331318372576075
0.003331318372576075
0.003331318372576075
0.003331318372576075
0.003331318372576075
0.003331318372576075
0.003331318372576075
0.003331318372576075
0.003331318372576075
0.003331318372576075
0.003331318372576075
0.003331318372576075
0.003331318372576075
0.003331318372576075
0.003331318372576075
0.003331318372576075
0.003331318372576075
0.003331318372576075
0.003331318372576075
0.003331318372576075
0.003331318372576075
0.003331318372576075
0.003331318372576075
0.003331318372576075
0.003331318372576075
0.003331318372576075
0.003331318372576075
0.003331318372576075
0.003331318372576075
0.003331318372576075
0.003331318372576075
0.003331318372576075
0.003331318372576075
0.003331318372576075
0.003331318372576075
0.003331318372576075
0.003331318372576075
0.003331318372576075
0.003331318372576075
0.003331318372576075
0.003331318372576075
0.003331318372576075
0.003331318372576075
0.003331318372576075
0.003331318372576075
0.003331318372576075
0.003331318372576075
0.003331318372576075
0.003331318372576075
0.003331318372576075
0.003331318372576075
0.003331318372576075
0.003331318372576075
0.003331318372576075
0.003331318372576075
0.003331318372576075
0.003331318372576075
0.003331318372576075
0.003331318372576075
0.003331318372576075
0.003331318372576075
0.003331318372576075
0.003331318372576075
0.003331318372576075
0.003331318372576075
0.003331318372576075
0.003331318372576075
0.003331318372576075
0.003331318372576075
0.003331318372576075
0.003331318372576075
0.003331318372576075
0.003331318372576075
0.003331318372576075
0.003331318372576075
0.003331318372576075
0.003331318372576075
0.003331318372576075
0.003331318372576075
0.003331318372576075
0.003331318372576075
0.003331318372576075
0.003331318372576075
0.003331318372576075
0.003331318372576075
0.003331318372576075
0.003331318372576075
0.003331318372576075
0.003331318372576075
0.003331318372576075
0.003331318372576075
0.003331318372576075
0.003331318372576075
0.003331318372576075
0.003331318372576075
0.003331318372576075
0.003331318372576075
0.003331318372576075
0.003331318372576075
0.003331318372576075
0.003331318372576075
0.003331318372576075
0.003331318372576075
0.003331318372576075
0.003331318372576075
0.003331318372576075
0.003331318372576075
0.003331318372576075
0.003331318372576075
0.003331318372576075
0.003331318372576075
0.003331318372576075
0.003331318372576075
0.003331318372576075
0.003331318372576075
0.003331318372576075
0.003331318372576075
0.003331435045114753
0.003331435045114753
0.003331435045114753
0.003331435045114753
0.003331435045114753
0.003331435045114753
0.003331435045114753
0.003331435045114753
0.003331435045114753
0.003331435045114753
0.003331435045114753
0.003331435045114753
0.003331435045114753
0.003331435045114753
0.003331435045114753
0.003331435045114753
0.003331435045114753
0.003331435045114753
0.003331435045114753
0.003331435045114753
0.003331435045114753
0.003331435045114753
0.003331435045114753
0.003331435045114753
0.003331435045114753
0.003331435045114753
0.003331435045114753
0.003331435045114753
0.003331435045114753
0.003331435045114753
0.003331435045114753
0.003331435045114753
0.003331435045114753
0.003331435045114753
0.003331435045114753
0.003331435045114753
0.003331435045114753
0.003331435045114753
0.003331435045114753
0.003331435045114753
0.003331435045114753
0.003331435045114753
0.003331435045114753
0.003331435045114753
0.003331435045114753
0.003331435045114753
0.003331435045114753
0.003331435045114753
0.003331435045114753
0.003331435045114753
0.003331435045114753
0.003331435045114753
0.003331435045114753
0.003331435045114753
0.003331435045114753
0.003331435045114753
0.003331435045114753
0.003331435045114753
0.003331435045114753
0.003331435045114753
0.003331435045114753
0.003331435045114753
0.003331435045114753
0.003331435045114753
0.003331435045114753
0.003331435045114753
0.003331435045114753
0.003331435045114753
0.003331435045114753
0.003331435045114753
0.003331435045114753
0.003331435045114753
0.003331435045114753
0.003331435045114753
0.003331435045114753
0.003331435045114753
0.003331435045114753
0.003331435045114753
0.003331435045114753
0.003331435045114753
0.003331435045114753
0.003331435045114753
0.003331435045114753
0.003331435045114753
0.003331435045114753
0.003331435045114753
0.003331435045114753
0.003331435045114753
0.003331435045114753
0.003331435045114753
0.003331435045114753
0.003331435045114753
0.003331435045114753
0.003331435045114753
0.003331435045114753
0.003331435045114753
0.003331435045114753
0.003331435045114753
0.003331435045114753
0.003331435045114753
0.003331435045114753
0.003331435045114753
0.003331435045114753
0.003331435045114753
0.003331435045114753
0.003331435045114753
0.003331435045114753
0.003331435045114753
0.003331435045114753
0.003331435045114753
0.003331435045114753
0.003331435045114753
0.003331435045114753
0.003331435045114753
0.003331435045114753
0.003331435045114753
0.003331435045114753
0.003331435045114753
0.003331435045114753
0.003331435045114753
0.003331435045114753
0.003331435045114753
0.003331435045114753
0.003331435045114753
0.003331435045114753
0.003331435045114753
0.003331435045114753
0.003331435045114753
0.003331435045114753
0.003331435045114753
0.003331435045114753
0.003331435045114753
0.003331435045114753
0.003331435045114753
0.003331435045114753
0.003331435045114753
0.003331435045114753
0.003331435045114753
0.003331435045114753
0.003331435045114753
0.003331435045114753
0.003331435045114753
0.003331435045114753
0.003331435045114753
0.003331435045114753
0.003331435045114753
0.003331435045114753
0.003331435045114753
0.003331435045114753
0.003331435045114753
0.003331435045114753
0.003331435045114753
0.003331435045114753
0.0033315758093360997
0.0033315758093360997
0.0033315758093360997
0.0033315758093360997
0.0033315758093360997
0.0033315758093360997
0.0033315758093360997
0.0033315758093360997
0.0033315758093360997
0.0033315758093360997
0.0033315758093360997
0.0033315758093360997
0.0033315758093360997
0.0033315758093360997
0.0033315758093360997
0.0033315758093360997
0.0033315758093360997
0.0033315758093360997
0.0033315758093360997
0.0033315758093360997
0.0033315758093360997
0.0033315758093360997
0.0033315758093360997
0.0033315758093360997
0.0033315758093360997
0.0033315758093360997
0.0033315758093360997
0.0033315758093360997
0.0033315758093360997
0.0033315758093360997
0.0033315758093360997
0.0033315758093360997
0.0033315758093360997
0.0033315758093360997
0.0033315758093360997
0.0033315758093360997
0.0033315758093360997
0.0033315758093360997
0.0033315758093360997
0.0033315758093360997
0.0033315758093360997
0.0033315758093360997
0.0033315758093360997
0.0033315758093360997
0.0033315758093360997
0.0033315758093360997
0.0033315758093360997
0.0033315758093360997
0.0033315758093360997
0.0033315758093360997
0.0033315758093360997
0.0033315758093360997
0.0033315758093360997
0.0033315758093360997
0.0033315758093360997
0.0033315758093360997
0.0033315758093360997
0.0033315758093360997
0.0033315758093360997
0.0033315758093360997
0.0033315758093360997
0.0033315758093360997
0.0033315758093360997
0.0033315758093360997
0.0033315758093360997
0.0033315758093360997
0.0033315758093360997
0.0033315758093360997
0.0033315758093360997
0.0033315758093360997
0.0033315758093360997
0.0033315758093360997
0.0033315758093360997
0.0033315758093360997
0.0033315758093360997
0.0033315758093360997
0.0033315758093360997
0.0033315758093360997
0.0033315758093360997
0.0033315758093360997
0.0033315758093360997
0.0033315758093360997
0.0033315758093360997
0.0033315758093360997
0.0033315758093360997
0.0033315758093360997
0.0033315758093360997
0.0033315758093360997
0.0033315758093360997
0.0033315758093360997
0.0033315758093360997
0.0033315758093360997
0.0033315758093360997
0.0033315758093360997
0.0033315758093360997
0.0033315758093360997
0.0033315758093360997
0.0033315758093360997
0.0033315758093360997
0.0033315758093360997
0.0033315758093360997
0.0033315758093360997
0.0033315758093360997
0.0033315758093360997
0.0033315758093360997
0.0033315758093360997
0.0033315758093360997
0.0033315758093360997
0.0033315758093360997
0.0033315758093360997
0.0033315758093360997
0.0033315758093360997
0.0033315758093360997
0.0033315758093360997
0.0033315758093360997
0.0033315758093360997
0.0033315758093360997
0.0033315758093360997
0.0033315758093360997
0.0033315758093360997
0.0033315758093360997
0.0033315758093360997
0.0033315758093360997
0.0033315758093360997
0.0033315758093360997
0.0033315758093360997
0.0033315758093360997
0.0033315758093360997
0.0033315758093360997
0.0033315758093360997
0.0033315758093360997
0.0033315758093360997
0.0033315758093360997
0.0033315758093360997
0.0033315758093360997
0.0033315758093360997
0.0033315758093360997
0.0033315758093360997
0.0033315758093360997
0.0033315758093360997
0.0033315758093360997
0.0033315758093360997
0.0033315758093360997
0.0033315758093360997
0.0033315758093360997
0.0033315758093360997
0.0033315758093360997
0.0033315758093360997
0.0033315758093360997
0.0033315758093360997
0.0033315758093360997
0.0033315758093360997
0.0033315758093360997
0.0033315758093360997
0.0033315758093360997
0.0033315758093360997
0.0033315758093360997
0.0033315758093360997
0.0033315758093360997
0.0033315758093360997
0.0033315758093360997
0.0033315758093360997
0.0033315758093360997
0.0033315758093360997
0.0033315758093360997
0.0033315758093360997
0.0033315758093360997
0.0033315758093360997
0.0033315758093360997
0.0033315758093360997
0.0033315758093360997
0.0033315758093360997
0.0033315758093360997
0.0033315758093360997
0.0033315758093360997
0.0033315758093360997
0.0033315758093360997
0.0033315758093360997
0.0033315758093360997
0.0033315758093360997
0.0033315758093360997
0.0033315758093360997
0.0033317446575365202
0.0033317446575365202
0.0033317446575365202
0.0033317446575365202
0.0033317446575365202
0.0033317446575365202
0.0033317446575365202
0.0033317446575365202
0.0033317446575365202
0.0033317446575365202
0.0033317446575365202
0.0033317446575365202
0.0033317446575365202
0.0033317446575365202
0.0033317446575365202
0.0033317446575365202
0.0033317446575365202
0.0033317446575365202
0.0033317446575365202
0.0033317446575365202
0.0033317446575365202
0.0033317446575365202
0.0033317446575365202
0.0033317446575365202
0.0033317446575365202
0.0033317446575365202
0.0033317446575365202
0.0033317446575365202
0.0033317446575365202
0.0033317446575365202
0.0033317446575365202
0.0033317446575365202
0.0033317446575365202
0.0033317446575365202
0.0033317446575365202
0.0033317446575365202
0.0033317446575365202
0.0033317446575365202
0.0033317446575365202
0.0033317446575365202
0.0033317446575365202
0.0033317446575365202
0.0033317446575365202
0.0033317446575365202
0.0033317446575365202
0.0033317446575365202
0.0033317446575365202
0.0033317446575365202
0.0033317446575365202
0.0033317446575365202
0.0033317446575365202
0.0033317446575365202
0.0033317446575365202
0.0033317446575365202
0.0033317446575365202
0.0033317446575365202
0.0033317446575365202
0.0033317446575365202
0.0033317446575365202
0.0033317446575365202
0.0033317446575365202
0.0033317446575365202
0.0033317446575365202
0.0033317446575365202
0.0033317446575365202
0.0033317446575365202
0.0033317446575365202
0.0033317446575365202
0.0033317446575365202
0.0033317446575365202
0.0033317446575365202
0.0033317446575365202
0.0033317446575365202
0.0033317446575365202
0.0033317446575365202
0.0033317446575365202
0.0033317446575365202
0.0033317446575365202
0.0033317446575365202
0.0033317446575365202
0.0033317446575365202
0.0033317446575365202
0.0033317446575365202
0.0033317446575365202
0.0033317446575365202
0.0033317446575365202
0.0033317446575365202
0.0033317446575365202
0.0033317446575365202
0.0033317446575365202
0.0033317446575365202
0.0033317446575365202
0.0033317446575365202
0.0033317446575365202
0.0033317446575365202
0.0033317446575365202
0.0033317446575365202
0.0033317446575365202
0.0033317446575365202
0.0033317446575365202
0.0033317446575365202
0.0033317446575365202
0.0033317446575365202
0.0033317446575365202
0.0033317446575365202
0.0033317446575365202
0.0033317446575365202
0.0033317446575365202
0.0033317446575365202
0.0033317446575365202
0.0033317446575365202
0.0033317446575365202
0.0033317446575365202
0.0033317446575365202
0.0033317446575365202
0.0033317446575365202
0.0033317446575365202
0.0033317446575365202
0.0033317446575365202
0.0033317446575365202
0.0033317446575365202
0.0033317446575365202
0.0033317446575365202
0.0033317446575365202
0.0033317446575365202
0.0033317446575365202
0.0033317446575365202
0.0033317446575365202
0.0033317446575365202
0.0033317446575365202
0.0033317446575365202
0.0033317446575365202
0.0033317446575365202
0.0033317446575365202
0.0033317446575365202
0.0033317446575365202
0.0033317446575365202
0.0033317446575365202
0.0033317446575365202
0.0033317446575365202
0.0033317446575365202
0.0033317446575365202
0.0033317446575365202
0.0033317446575365202
0.0033317446575365202
0.0033317446575365202
0.0033317446575365202
0.0033317446575365202
0.0033317446575365202
0.0033317446575365202
0.0033317446575365202
0.0033317446575365202
0.0033317446575365202
0.0033317446575365202
0.0033317446575365202
0.0033317446575365202
0.0033317446575365202
0.0033317446575365202
0.0033317446575365202
0.0033317446575365202
0.0033317446575365202
0.0033317446575365202
0.0033317446575365202
0.0033317446575365202
0.0033317446575365202
0.0033317446575365202
0.0033317446575365202
0.0033317446575365202
0.0033317446575365202
0.0033317446575365202
0.0033317446575365202
0.0033317446575365202
0.0033317446575365202
0.0033317446575365202
0.0033317446575365202
0.0033317446575365202
0.0033317446575365202
0.0033317446575365202
0.0033317446575365202
0.0033317446575365202
0.0033317446575365202
0.0033317446575365202
0.0033317446575365202
0.0033317446575365202
0.0033317446575365202
0.0033317446575365202
0.0033317446575365202
0.0033317446575365202
0.0033317446575365202
0.0033317446575365202
0.0033317446575365202
0.0033317446575365202
0.0033317446575365202
0.0033317446575365202
0.0033317446575365202
0.0033317446575365202
0.0033317446575365202
0.0033317446575365202
0.0033317446575365202
0.0033317446575365202
0.0033317446575365202
0.0033317446575365202
0.0033317446575365202
0.0033317446575365202
0.0033317446575365202
0.0033317446575365202
0.0033317446575365202
0.0033317446575365202
0.0033317446575365202
0.0033317446575365202
0.0033317446575365202
0.0033317446575365202
0.0033317446575365202
0.0033317446575365202
0.0033317446575365202
0.0033317446575365202
0.0033317446575365202
0.0033317446575365202
0.0033317446575365202
0.0033317446575365202
0.0033319475782123812
0.0033319475782123812
0.0033319475782123812
0.0033319475782123812
0.0033319475782123812
0.0033319475782123812
0.0033319475782123812
0.0033319475782123812
0.0033319475782123812
0.0033319475782123812
0.0033319475782123812
0.0033319475782123812
0.0033319475782123812
0.0033319475782123812
0.0033319475782123812
0.0033319475782123812
0.0033319475782123812
0.0033319475782123812
0.0033319475782123812
0.0033319475782123812
0.0033319475782123812
0.0033319475782123812
0.0033319475782123812
0.0033319475782123812
0.0033319475782123812
0.0033319475782123812
0.0033319475782123812
0.0033319475782123812
0.0033319475782123812
0.0033319475782123812
0.0033319475782123812
0.0033319475782123812
0.0033319475782123812
0.0033319475782123812
0.0033319475782123812
0.0033319475782123812
0.0033319475782123812
0.0033319475782123812
0.0033319475782123812
0.0033319475782123812
0.0033319475782123812
0.0033319475782123812
0.0033319475782123812
0.0033319475782123812
0.0033319475782123812
0.0033319475782123812
0.0033319475782123812
0.0033319475782123812
0.0033319475782123812
0.0033319475782123812
0.0033319475782123812
0.0033319475782123812
0.0033319475782123812
0.0033319475782123812
0.0033319475782123812
0.0033319475782123812
0.0033319475782123812
0.0033319475782123812
0.0033319475782123812
0.0033319475782123812
0.0033319475782123812
0.0033319475782123812
0.0033319475782123812
0.0033319475782123812
0.0033319475782123812
0.0033319475782123812
0.0033319475782123812
0.0033319475782123812
0.0033319475782123812
0.0033319475782123812
0.0033319475782123812
0.0033319475782123812
0.0033319475782123812
0.0033319475782123812
0.0033319475782123812
0.0033319475782123812
0.0033319475782123812
0.0033319475782123812
0.0033319475782123812
0.0033319475782123812
0.0033319475782123812
0.0033319475782123812
0.0033319475782123812
0.0033319475782123812
0.0033319475782123812
0.0033319475782123812
0.0033319475782123812
0.0033319475782123812
0.0033319475782123812
0.0033319475782123812
0.0033319475782123812
0.0033319475782123812
0.0033319475782123812
0.0033319475782123812
0.0033319475782123812
0.0033319475782123812
0.0033319475782123812
0.0033319475782123812
0.0033319475782123812
0.0033319475782123812
0.0033319475782123812
0.0033319475782123812
0.0033319475782123812
0.0033319475782123812
0.0033319475782123812
0.0033319475782123812
0.0033319475782123812
0.0033319475782123812
0.0033319475782123812
0.0033319475782123812
0.0033319475782123812
0.0033319475782123812
0.0033319475782123812
0.0033319475782123812
0.0033319475782123812
0.0033319475782123812
0.0033319475782123812
0.0033319475782123812
0.0033319475782123812
0.0033319475782123812
0.0033319475782123812
0.0033319475782123812
0.0033319475782123812
0.0033319475782123812
0.0033319475782123812
0.0033319475782123812
0.0033319475782123812
0.0033319475782123812
0.0033319475782123812
0.0033319475782123812
0.0033319475782123812
0.0033319475782123812
0.0033319475782123812
0.0033319475782123812
0.0033319475782123812
0.0033319475782123812
0.0033319475782123812
0.0033319475782123812
0.0033319475782123812
0.0033319475782123812
0.0033319475782123812
0.0033319475782123812
0.0033319475782123812
0.0033319475782123812
0.0033319475782123812
0.0033319475782123812
0.0033319475782123812
0.0033319475782123812
0.0033319475782123812
0.0033319475782123812
0.0033319475782123812
0.0033319475782123812
0.0033319475782123812
0.0033319475782123812
0.0033319475782123812
0.0033319475782123812
0.0033319475782123812
0.0033319475782123812
0.0033319475782123812
0.0033319475782123812
0.0033319475782123812
0.0033319475782123812
0.0033319475782123812
0.0033319475782123812
0.0033319475782123812
0.0033319475782123812
0.0033319475782123812
0.0033319475782123812
0.0033319475782123812
0.0033319475782123812
0.0033319475782123812
0.0033319475782123812
0.0033319475782123812
0.0033319475782123812
0.0033319475782123812
0.0033319475782123812
0.0033319475782123812
0.0033319475782123812
0.0033319475782123812
0.0033319475782123812
0.0033319475782123812
0.0033319475782123812
0.0033319475782123812
0.0033319475782123812
0.0033319475782123812
0.0033319475782123812
0.0033319475782123812
0.0033319475782123812
0.0033319475782123812
0.0033319475782123812
0.0033319475782123812
0.0033319475782123812
0.0033319475782123812
0.0033319475782123812
0.0033319475782123812
0.0033319475782123812
0.0033319475782123812
0.0033319475782123812
0.0033319475782123812
0.0033319475782123812
0.0033319475782123812
0.0033319475782123812
0.0033319475782123812
0.0033319475782123812
0.0033319475782123812
0.0033319475782123812
0.0033319475782123812
0.0033319475782123812
0.0033319475782123812
0.0033319475782123812
0.0033319475782123812
0.0033319475782123812
0.0033319475782123812
0.0033319475782123812
0.0033319475782123812
0.0033319475782123812
0.0033319475782123812
0.0033319475782123812
0.0033319475782123812
0.0033319475782123812
0.0033319475782123812
0.0033319475782123812
0.0033319475782123812
0.0033319475782123812
0.0033319475782123812
0.0033319475782123812
0.0033319475782123812
0.0033319475782123812
0.0033319475782123812
0.0033319475782123812
0.0033319475782123812
0.0033319475782123812
0.0033319475782123812
0.0033319475782123812
0.0033319475782123812
0.0033319475782123812
0.0033319475782123812
0.0033319475782123812
0.0033319475782123812
0.0033319475782123812
0.0033319475782123812
0.0033319475782123812
0.0033319475782123812
0.0033319475782123812
0.0033319475782123812
0.0033319475782123812
0.0033319475782123812
0.0033319475782123812
0.0033319475782123812
0.0033319475782123812
0.0033319475782123812
0.0033319475782123812
0.0033319475782123812
0.0033319475782123812
0.0033319475782123812
0.0033319475782123812
0.0033319475782123812
0.0033319475782123812
0.0033319475782123812
0.0033319475782123812
0.0033319475782123812
0.0033319475782123812
0.0033319475782123812
0.0033321904855250404
0.0033321904855250404
0.0033321904855250404
0.0033321904855250404
0.0033321904855250404
0.0033321904855250404
0.0033321904855250404
0.0033321904855250404
0.0033321904855250404
0.0033321904855250404
0.0033321904855250404
0.0033321904855250404
0.0033321904855250404
0.0033321904855250404
0.0033321904855250404
0.0033321904855250404
0.0033321904855250404
0.0033321904855250404
0.0033321904855250404
0.0033321904855250404
0.0033321904855250404
0.0033321904855250404
0.0033321904855250404
0.0033321904855250404
0.0033321904855250404
0.0033321904855250404
0.0033321904855250404
0.0033321904855250404
0.0033321904855250404
0.0033321904855250404
0.0033321904855250404
0.0033321904855250404
0.0033321904855250404
0.0033321904855250404
0.0033321904855250404
0.0033321904855250404
0.0033321904855250404
0.0033321904855250404
0.0033321904855250404
0.0033321904855250404
0.0033321904855250404
0.0033321904855250404
0.0033321904855250404
0.0033321904855250404
0.0033321904855250404
0.0033321904855250404
0.0033321904855250404
0.0033321904855250404
0.0033321904855250404
0.0033321904855250404
0.0033321904855250404
0.0033321904855250404
0.0033321904855250404
0.0033321904855250404
0.0033321904855250404
0.0033321904855250404
0.0033321904855250404
0.0033321904855250404
0.0033321904855250404
0.0033321904855250404
0.0033321904855250404
0.0033321904855250404
0.0033321904855250404
0.0033321904855250404
0.0033321904855250404
0.0033321904855250404
0.0033321904855250404
0.0033321904855250404
0.0033321904855250404
0.0033321904855250404
0.0033321904855250404
0.0033321904855250404
0.0033321904855250404
0.0033321904855250404
0.0033321904855250404
0.0033321904855250404
0.0033321904855250404
0.0033321904855250404
0.0033321904855250404
0.0033321904855250404
0.0033321904855250404
0.0033321904855250404
0.0033321904855250404
0.0033321904855250404
0.0033321904855250404
0.0033321904855250404
0.0033321904855250404
0.0033321904855250404
0.0033321904855250404
0.0033321904855250404
0.0033321904855250404
0.0033321904855250404
0.0033321904855250404
0.0033321904855250404
0.0033321904855250404
0.0033321904855250404
0.0033321904855250404
0.0033321904855250404
0.0033321904855250404
0.0033321904855250404
0.0033321904855250404
0.0033321904855250404
0.0033321904855250404
0.0033321904855250404
0.0033321904855250404
0.0033321904855250404
0.0033321904855250404
0.0033321904855250404
0.0033321904855250404
0.0033321904855250404
0.0033321904855250404
0.0033321904855250404
0.0033321904855250404
0.0033321904855250404
0.0033321904855250404
0.0033321904855250404
0.0033321904855250404
0.0033321904855250404
0.0033321904855250404
0.0033321904855250404
0.0033321904855250404
0.0033321904855250404
0.0033321904855250404
0.0033321904855250404
0.0033321904855250404
0.0033321904855250404
0.0033321904855250404
0.0033321904855250404
0.0033321904855250404
0.0033321904855250404
0.0033321904855250404
0.0033321904855250404
0.0033321904855250404
0.0033321904855250404
0.0033321904855250404
0.0033321904855250404
0.0033321904855250404
0.0033321904855250404
0.0033321904855250404
0.0033321904855250404
0.0033321904855250404
0.0033321904855250404
0.0033321904855250404
0.0033321904855250404
0.0033321904855250404
0.0033321904855250404
0.0033321904855250404
0.0033321904855250404
0.0033321904855250404
0.0033321904855250404
0.0033321904855250404
0.0033321904855250404
0.0033321904855250404
0.0033321904855250404
0.0033321904855250404
0.0033321904855250404
0.0033321904855250404
0.0033321904855250404
0.0033321904855250404
0.0033321904855250404
0.0033321904855250404
0.0033321904855250404
0.0033321904855250404
0.0033321904855250404
0.0033321904855250404
0.0033321904855250404
0.0033321904855250404
0.0033321904855250404
0.0033321904855250404
0.0033321904855250404
0.0033321904855250404
0.0033321904855250404
0.0033321904855250404
0.0033321904855250404
0.0033321904855250404
0.0033321904855250404
0.0033321904855250404
0.0033321904855250404
0.0033321904855250404
0.0033321904855250404
0.0033321904855250404
0.0033321904855250404
0.0033321904855250404
0.0033321904855250404
0.0033321904855250404
0.0033321904855250404
0.0033321904855250404
0.0033321904855250404
0.0033321904855250404
0.0033321904855250404
0.0033321904855250404
0.0033321904855250404
0.0033321904855250404
0.0033321904855250404
0.0033321904855250404
0.0033321904855250404
0.0033321904855250404
0.0033321904855250404
0.0033321904855250404
0.0033321904855250404
0.0033321904855250404
0.0033321904855250404
0.0033321904855250404
0.0033321904855250404
0.0033321904855250404
0.0033321904855250404
0.0033321904855250404
0.0033321904855250404
0.0033321904855250404
0.0033321904855250404
0.0033321904855250404
0.0033321904855250404
0.0033321904855250404
0.0033321904855250404
0.0033321904855250404
0.0033321904855250404
0.0033321904855250404
0.0033321904855250404
0.0033321904855250404
0.0033321904855250404
0.0033321904855250404
0.0033321904855250404
0.0033321904855250404
0.0033321904855250404
0.0033321904855250404
0.0033321904855250404
0.0033321904855250404
0.0033321904855250404
0.0033321904855250404
0.0033321904855250404
0.0033321904855250404
0.0033321904855250404
0.0033321904855250404
0.0033321904855250404
0.0033321904855250404
0.0033321904855250404
0.0033321904855250404
0.0033321904855250404
0.0033321904855250404
0.0033321904855250404
0.0033321904855250404
0.0033321904855250404
0.0033321904855250404
0.0033321904855250404
0.0033321904855250404
0.0033321904855250404
0.0033321904855250404
0.0033321904855250404
0.0033321904855250404
0.0033321904855250404
0.0033321904855250404
0.0033321904855250404
0.0033321904855250404
0.0033321904855250404
0.0033321904855250404
0.0033321904855250404
0.0033321904855250404
0.0033321904855250404
0.0033321904855250404
0.0033321904855250404
0.0033321904855250404
0.0033321904855250404
0.0033321904855250404
0.0033321904855250404
0.0033321904855250404
0.0033321904855250404
0.0033321904855250404
0.0033321904855250404
0.0033321904855250404
0.0033321904855250404
0.0033321904855250404
0.0033321904855250404
0.0033321904855250404
0.0033321904855250404
0.0033321904855250404
0.0033321904855250404
0.0033321904855250404
0.0033321904855250404
0.0033321904855250404
0.0033321904855250404
0.0033321904855250404
0.0033321904855250404
0.0033321904855250404
0.0033321904855250404
0.0033321904855250404
0.0033321904855250404
0.0033321904855250404
0.0033321904855250404
0.0033321904855250404
0.0033321904855250404
0.0033321904855250404
0.0033321904855250404
0.0033321904855250404
0.0033321904855250404
0.0033321904855250404
0.0033321904855250404
0.0033321904855250404
0.0033321904855250404
0.0033321904855250404
0.0033321904855250404
0.0033321904855250404
0.0033321904855250404
0.0033321904855250404
0.0033321904855250404
0.0033321904855250404
0.0033321904855250404
0.0033321904855250404
0.0033321904855250404
0.0033321904855250404
0.0033321904855250404
0.0033321904855250404
0.0033321904855250404
0.0033321904855250404
0.0033321904855250404
0.0033321904855250404
0.0033321904855250404
0.0033324825961949097
0.0033324825961949097
0.0033324825961949097
0.0033324825961949097
0.0033324825961949097
0.0033324825961949097
0.0033324825961949097
0.0033324825961949097
0.0033324825961949097
0.0033324825961949097
0.0033324825961949097
0.0033324825961949097
0.0033324825961949097
0.0033324825961949097
0.0033324825961949097
0.0033324825961949097
0.0033324825961949097
0.0033324825961949097
0.0033324825961949097
0.0033324825961949097
0.0033324825961949097
0.0033324825961949097
0.0033324825961949097
0.0033324825961949097
0.0033324825961949097
0.0033324825961949097
0.0033324825961949097
0.0033324825961949097
0.0033324825961949097
0.0033324825961949097
0.0033324825961949097
0.0033324825961949097
0.0033324825961949097
0.0033324825961949097
0.0033324825961949097
0.0033324825961949097
0.0033324825961949097
0.0033324825961949097
0.0033324825961949097
0.0033324825961949097
0.0033324825961949097
0.0033324825961949097
0.0033324825961949097
0.0033324825961949097
0.0033324825961949097
0.0033324825961949097
0.0033324825961949097
0.0033324825961949097
0.0033324825961949097
0.0033324825961949097
0.0033324825961949097
0.0033324825961949097
0.0033324825961949097
0.0033324825961949097
0.0033324825961949097
0.0033324825961949097
0.0033324825961949097
0.0033324825961949097
0.0033324825961949097
0.0033324825961949097
0.0033324825961949097
0.0033324825961949097
0.0033324825961949097
0.0033324825961949097
0.0033324825961949097
0.0033324825961949097
0.0033324825961949097
0.0033324825961949097
0.0033324825961949097
0.0033324825961949097
0.0033324825961949097
0.0033324825961949097
0.0033324825961949097
0.0033324825961949097
0.0033324825961949097
0.0033324825961949097
0.0033324825961949097
0.0033324825961949097
0.0033324825961949097
0.0033324825961949097
0.0033324825961949097
0.0033324825961949097
0.0033324825961949097
0.0033324825961949097
0.0033324825961949097
0.0033324825961949097
0.0033324825961949097
0.0033324825961949097
0.0033324825961949097
0.0033324825961949097
0.0033324825961949097
0.0033324825961949097
0.0033324825961949097
0.0033324825961949097
0.0033324825961949097
0.0033324825961949097
0.0033324825961949097
0.0033324825961949097
0.0033324825961949097
0.0033324825961949097
0.0033324825961949097
0.0033324825961949097
0.0033324825961949097
0.0033324825961949097
