120.75807740963313
120.62849515043875
120.79382120398915
121.08199556606502
121.21991635521475
121.3864526626862
121.58792026164463
121.83191761793263
122.12777642761384
122.48705983104223
122.48705983104223
122.92412059218319
122.92412059218319
123.45685234405468
123.45685234405468
123.45685234405468
124.10770365267216
124.10770365267216
124.10770365267216
124.90502481624098
124.90502481624098
124.90502481624098
125.88490021961893
125.88490021961893
125.88490021961893
125.88490021961893
125.88490021961893
127.09373417243405
127.09373417243405
127.09373417243405
127.09373417243405
127.09373417243405
128.59189311490024
128.59189311490024
128.59189311490024
128.59189311490024
128.59189311490024
128.59189311490024
130.45900744185133
130.45900744185133
130.45900744185133
130.45900744185133
130.45900744185133
130.45900744185133
130.45900744185133
130.45900744185133
132.6946612205197
132.6946612205197
132.6946612205197
132.6946612205197
132.6946612205197
132.6946612205197
132.6946612205197
132.6946612205197
134.99453585320867
134.99453585320867
134.99453585320867
134.99453585320867
134.99453585320867
134.99453585320867
134.99453585320867
134.99453585320867
134.99453585320867
137.34612784336102
137.34612784336102
137.34612784336102
137.34612784336102
137.34612784336102
137.34612784336102
137.34612784336102
137.34612784336102
139.69796186981145
139.69796186981145
139.69796186981145
139.69796186981145
139.69796186981145
139.69796186981145
139.69796186981145
139.69796186981145
142.10068452221924
142.10068452221924
142.10068452221924
142.10068452221924
142.10068452221924
142.10068452221924
142.10068452221924
142.10068452221924
144.52980276109543
144.52980276109543
144.52980276109543
144.52980276109543
144.52980276109543
144.52980276109543
144.52980276109543
144.52980276109543
146.9878914616509
146.9878914616509
146.9878914616509
146.9878914616509
146.9878914616509
146.9878914616509
146.9878914616509
149.46527998363476
149.46527998363476
149.46527998363476
149.46527998363476
149.46527998363476
149.46527998363476
149.46527998363476
149.46527998363476
151.9381345618865
151.9381345618865
151.9381345618865
151.9381345618865
151.9381345618865
151.9381345618865
151.9381345618865
154.38330003625936
154.38330003625936
154.38330003625936
154.38330003625936
154.38330003625936
154.38330003625936
156.8592773912055
156.8592773912055
156.8592773912055
156.8592773912055
156.8592773912055
156.8592773912055
156.8592773912055
159.33881389894535
159.33881389894535
159.33881389894535
159.33881389894535
159.33881389894535
159.33881389894535
161.82706218468027
161.82706218468027
161.82706218468027
161.82706218468027
161.82706218468027
161.82706218468027
164.31220358687634
164.31220358687634
164.31220358687634
164.31220358687634
164.31220358687634
164.31220358687634
166.76846831543634
166.76846831543634
166.76846831543634
166.76846831543634
166.76846831543634
166.76846831543634
169.18587429334107
169.18587429334107
169.18587429334107
169.18587429334107
169.18587429334107
169.18587429334107
171.61808437217627
171.61808437217627
171.61808437217627
171.61808437217627
171.61808437217627
174.03926479215846
174.03926479215846
174.03926479215846
174.03926479215846
174.03926479215846
176.45172565042577
176.45172565042577
176.45172565042577
176.45172565042577
176.45172565042577
178.82821846014403
178.82821846014403
178.82821846014403
178.82821846014403
178.82821846014403
181.1446700502346
181.1446700502346
181.1446700502346
181.1446700502346
181.1446700502346
183.45516778852422
183.45516778852422
183.45516778852422
183.45516778852422
185.7532409931053
185.7532409931053
185.7532409931053
185.7532409931053
185.7532409931053
188.03441357601693
188.03441357601693
188.03441357601693
188.03441357601693
190.2676043354629
190.2676043354629
190.2676043354629
190.2676043354629
192.43215347523392
192.43215347523392
192.43215347523392
192.43215347523392
194.5791177917662
194.5791177917662
194.5791177917662
194.5791177917662
196.70062959423962
196.70062959423962
196.70062959423962
198.78981520819963
198.78981520819963
198.78981520819963
198.78981520819963
200.8141493925787
200.8141493925787
200.8141493925787
202.77022823569442
202.77022823569442
202.77022823569442
202.77022823569442
204.7113017703
204.7113017703
204.7113017703
206.61614294918382
206.61614294918382
206.61614294918382
208.46782724960798
208.46782724960798
208.46782724960798
210.25078695066816
210.25078695066816
210.25078695066816
211.9992575629114
211.9992575629114
211.9992575629114
213.72501193229428
213.72501193229428
213.72501193229428
215.4139627151074
215.4139627151074
217.04838564189834
217.04838564189834
217.04838564189834
218.6476832489591
218.6476832489591
218.6476832489591
220.25241549922075
220.25241549922075
221.85038667065763
221.85038667065763
223.4482203097324
223.4482203097324
223.4482203097324
225.09145060722568
225.09145060722568
226.8471095888232
226.8471095888232
226.8471095888232
228.72488610119984
228.72488610119984
230.73875235825037
230.73875235825037
232.9424666793552
232.9424666793552
235.40886856284354
235.40886856284354
238.06624395377534
241.07723958093945
244.486087161558
253.6639202649192
274.7709909464829
318.34846489664045
303.0795962299174
203.30548234455816
631.0965412312443
608.2254382521463
400.3921645581946
286.36254929668235
238.07314548621744
217.68925847011798
207.14585143956117
202.32548494171127
199.59762070812735
198.5179400365528
198.28035144244265
198.71608392983404
199.4624090405209
200.3081546456005
201.79919990023913
203.11491715104367
204.6123672765555
206.21528845296555
207.95644758905019
209.8082155281584
211.0809791065517
213.0755214769828
215.17513296249084
216.6029663811367
218.8009181063549
221.03590191121395
222.53920897656158
224.83502658024867
227.1566053909492
228.71131978024604
231.05719139926825
233.43540184270816
235.82065972381127
237.41300224713063
239.8102986864919
242.2310323083
244.6541348043169
246.26753876351708
248.68680913540723
251.12742296429715
253.56395667976054
255.98988779900048
257.60016685925285
260.0119749330572
262.4183436772712
264.8054566227249
267.16944605533047
269.5058521149055
271.8149815855809
274.08703322421684
276.31256219181927
278.4812053264077
281.2322749653109
283.18684172767985
285.6446011141768
287.98940463163905
290.2649117832283
292.4605214528685
295.47276073741625
298.9537806528607
303.4442972267026
308.79402615330605
314.46936231377094
324.18290526193675
339.74814954130295
386.08877918454976
801.6901543331822
3276.4212199087124
24340.122520444183
