1201.0044871460068
1257.9585463791004
1271.143350627284
1282.6155474792613
1299.5806609855333
1310.978532194738
1324.970167556394
1342.2145735329407
1363.6138071840246
1363.6138071840246
1390.4052213447978
1420.1484691824446
1420.1484691824446
1450.5543307023597
1450.5543307023597
1481.3815793704755
1481.3815793704755
1512.2231771178213
1512.2231771178213
1543.5335369330658
1575.2411559984437
1575.2411559984437
1607.2139379137006
1607.2139379137006
1639.2037917899959
1671.5312102501268
1704.2081975093156
1704.2081975093156
1737.099078888496
1769.915448653266
1769.915448653266
1802.8096745849655
1836.088201985343
1869.5233767682903
1902.822946419693
1936.0436291497383
1969.4629265451817
2003.0016636068322
2036.3817207084157
2069.586724943478
2102.914085698282
2136.173238400303
2169.2276424016068
2202.0923591594164
2267.7737294790318
2300.145028656525
2332.339459929491
2396.551797579641
2428.1130885856837
2490.690246101788
2552.4228271209086
2613.2376703153027
2673.474216272422
2733.5841018440606
2794.4317689191885
2890.987008199669
2990.5340388364975
3177.020959704896
5824.523207121501
3538.429605073571
3056.759425323865
3939.210147448437
4681.904706444794
4951.713397395412
4696.997943122553
4094.8226795394485
