31022.504054879202
31965.88259229234
34347.69280102083
37324.01454511078
40398.40790783044
43565.609062322685
47601.65912092315
52490.97624506103
58908.55095502323
67229.21960420386
112748.28899766172
