00000 0.00000000E+00 1.60100000E-01 -2.47807621E+00 -7.11009398E-01 3.49767514E+00 6.74993096E+00 5.24404173E+00 1.61630295E+01 8.03334582E-01 6.98490994E-01 2.81392784E-01 3.53980867E-03 1.06566227E-03 1.00996559E-02 4.82011453E+02 3.13075788E+08 5.00892070E+11 3.35087352E-03 2.51155433E-10 0.00000000E+00 0.00000000E+00 0.00000000E+00 0.00000000E+00 0.00000000E+00 0.00000000E+00 0.00000000E+00 0.00000000E+00 0.00000000E+00
00001 5.00000000E+04 1.60100000E-01 -2.47745201E+00 -7.06554153E-01 3.49560357E+00 6.75100333E+00 5.23429642E+00 1.61531644E+01 7.65148996E-01 6.98490897E-01 2.81392881E-01 3.53980867E-03 1.06566227E-03 1.00996559E-02 4.89485945E+02 3.09435429E+08 5.00172668E+11 3.31973505E-03 2.59205619E-10 0.00000000E+00 0.00000000E+00 0.00000000E+00 0.00000000E+00 0.00000000E+00 0.00000000E+00 0.00000000E+00 0.00000000E+00 0.00000000E+00
00002 1.00000000E+05 1.60100000E-01 -2.47744311E+00 -7.06552994E-01 3.49560522E+00 6.75100166E+00 5.23429335E+00 1.61531596E+01 7.65147051E-01 6.98490807E-01 2.81392971E-01 3.53980867E-03 1.06566227E-03 1.00996559E-02 4.89487904E+02 3.09428258E+08 5.00162413E+11 3.31973667E-03 2.59193242E-10 0.00000000E+00 0.00000000E+00 0.00000000E+00 0.00000000E+00 0.00000000E+00 0.00000000E+00 0.00000000E+00 0.00000000E+00 0.00000000E+00
00003 1.60000000E+05 1.60100000E-01 -2.47744404E+00 -7.06553027E-01 3.49560500E+00 6.75100172E+00 5.23429346E+00 1.61531597E+01 7.65147059E-01 6.98490708E-01 2.81393070E-01 3.53980867E-03 1.06566227E-03 1.00996559E-02 4.89487848E+02 3.09428946E+08 5.00163486E+11 3.31973903E-03 2.59194085E-10 0.00000000E+00 0.00000000E+00 0.00000000E+00 0.00000000E+00 0.00000000E+00 0.00000000E+00 0.00000000E+00 0.00000000E+00 0.00000000E+00
00004 2.32000000E+05 1.60100000E-01 -2.47744405E+00 -7.06553035E-01 3.49560500E+00 6.75100174E+00 5.23429354E+00 1.61531598E+01 7.65147089E-01 6.98490599E-01 2.81393179E-01 3.53980867E-03 1.06566227E-03 1.00996559E-02 4.89487834E+02 3.09428958E+08 5.00163498E+11 3.31973997E-03 2.59194490E-10 0.00000000E+00 0.00000000E+00 0.00000000E+00 0.00000000E+00 0.00000000E+00 0.00000000E+00 0.00000000E+00 0.00000000E+00 0.00000000E+00
00005 3.18400000E+05 1.60099999E-01 -2.47744407E+00 -7.06553045E-01 3.49560500E+00 6.75100178E+00 5.23429363E+00 1.61531598E+01 7.65147123E-01 6.98490478E-01 2.81393300E-01 3.53980867E-03 1.06566227E-03 1.00996559E-02 4.89487818E+02 3.09428975E+08 5.00163515E+11 3.31974109E-03 2.59194965E-10 0.00000000E+00 0.00000000E+00 0.00000000E+00 0.00000000E+00 0.00000000E+00 0.00000000E+00 0.00000000E+00 0.00000000E+00 0.00000000E+00
00006 4.22080000E+05 1.60099999E-01 -2.47744408E+00 -7.06553057E-01 3.49560500E+00 6.75100182E+00 5.23429373E+00 1.61531599E+01 7.65147161E-01 6.98490346E-01 2.81393432E-01 3.53980867E-03 1.06566227E-03 1.00996559E-02 4.89487798E+02 3.09428995E+08 5.00163534E+11 3.31974242E-03 2.59195524E-10 0.00000000E+00 0.00000000E+00 0.00000000E+00 0.00000000E+00 0.00000000E+00 0.00000000E+00 0.00000000E+00 0.00000000E+00 0.00000000E+00
00007 5.46496000E+05 1.60099999E-01 -2.47744410E+00 -7.06553071E-01 3.49560501E+00 6.75100186E+00 5.23429385E+00 1.61531601E+01 7.65147203E-01 6.98490201E-01 2.81393577E-01 3.53980867E-03 1.06566227E-03 1.00996559E-02 4.89487775E+02 3.09429020E+08 5.00163558E+11 3.31974401E-03 2.59196177E-10 0.00000000E+00 0.00000000E+00 0.00000000E+00 0.00000000E+00 0.00000000E+00 0.00000000E+00 0.00000000E+00 0.00000000E+00 0.00000000E+00
00008 6.95795200E+05 1.60099999E-01 -2.47744413E+00 -7.06553087E-01 3.49560501E+00 6.75100191E+00 5.23429398E+00 1.61531602E+01 7.65147250E-01 6.98490043E-01 2.81393736E-01 3.53980866E-03 1.06566227E-03 1.00996559E-02 4.89487748E+02 3.09429049E+08 5.00163588E+11 3.31974588E-03 2.59196940E-10 0.00000000E+00 0.00000000E+00 0.00000000E+00 0.00000000E+00 0.00000000E+00 0.00000000E+00 0.00000000E+00 0.00000000E+00 0.00000000E+00
00009 8.74954240E+05 1.60099998E-01 -2.47744416E+00 -7.06553107E-01 3.49560501E+00 6.75100197E+00 5.23429413E+00 1.61531603E+01 7.65147301E-01 6.98489870E-01 2.81393908E-01 3.53980866E-03 1.06566227E-03 1.00996559E-02 4.89487715E+02 3.09429080E+08 5.00163615E+11 3.31974810E-03 2.59197827E-10 0.00000000E+00 0.00000000E+00 0.00000000E+00 0.00000000E+00 0.00000000E+00 0.00000000E+00 0.00000000E+00 0.00000000E+00 0.00000000E+00
00010 1.08994509E+06 1.60099998E-01 -2.47744419E+00 -7.06553131E-01 3.49560501E+00 6.75100204E+00 5.23429430E+00 1.61531605E+01 7.65147357E-01 6.98489683E-01 2.81394096E-01 3.53980866E-03 1.06566227E-03 1.00996559E-02 4.89487675E+02 3.09429122E+08 5.00163657E+11 3.31975072E-03 2.59198855E-10 0.00000000E+00 0.00000000E+00 0.00000000E+00 0.00000000E+00 0.00000000E+00 0.00000000E+00 0.00000000E+00 0.00000000E+00 0.00000000E+00
00011 1.34793411E+06 1.60099997E-01 -2.47744424E+00 -7.06553159E-01 3.49560502E+00 6.75100212E+00 5.23429448E+00 1.61531607E+01 7.65147417E-01 6.98489480E-01 2.81394298E-01 3.53980866E-03 1.06566227E-03 1.00996559E-02 4.89487629E+02 3.09429170E+08 5.00163704E+11 3.31975379E-03 2.59200041E-10 0.00000000E+00 0.00000000E+00 0.00000000E+00 0.00000000E+00 0.00000000E+00 0.00000000E+00 0.00000000E+00 0.00000000E+00 0.00000000E+00
00012 1.65752093E+06 1.60099997E-01 -2.47744435E+00 -7.06553203E-01 3.49560501E+00 6.75100194E+00 5.23429385E+00 1.61531603E+01 7.65147185E-01 6.98490658E-01 2.81393120E-01 3.53980867E-03 1.06566221E-03 1.00996559E-02 4.89487555E+02 3.09429284E+08 5.00163840E+11 3.31975115E-03 2.59197664E-10 0.00000000E+00 0.00000000E+00 0.00000000E+00 0.00000000E+00 0.00000000E+00 0.00000000E+00 0.00000000E+00 0.00000000E+00 0.00000000E+00
00013 2.02902511E+06 1.60099996E-01 -2.47744442E+00 -7.06553245E-01 3.49560501E+00 6.75100200E+00 5.23429397E+00 1.61531605E+01 7.65147226E-01 6.98490584E-01 2.81393194E-01 3.53980867E-03 1.06566221E-03 1.00996559E-02 4.89487485E+02 3.09429361E+08 5.00163918E+11 3.31975428E-03 2.59198657E-10 0.00000000E+00 0.00000000E+00 0.00000000E+00 0.00000000E+00 0.00000000E+00 0.00000000E+00 0.00000000E+00 0.00000000E+00 0.00000000E+00
00014 2.47483013E+06 1.60099995E-01 -2.47744450E+00 -7.06553296E-01 3.49560502E+00 6.75100208E+00 5.23429412E+00 1.61531607E+01 7.65147273E-01 6.98490494E-01 2.81393284E-01 3.53980867E-03 1.06566226E-03 1.00996560E-02 4.89487400E+02 3.09429447E+08 5.00164001E+11 3.31975802E-03 2.59199848E-10 0.00000000E+00 0.00000000E+00 0.00000000E+00 0.00000000E+00 0.00000000E+00 0.00000000E+00 0.00000000E+00 0.00000000E+00 0.00000000E+00
00015 3.00979616E+06 1.60099994E-01 -2.47744461E+00 -7.06553356E-01 3.49560502E+00 6.75100217E+00 5.23429430E+00 1.61531609E+01 7.65147324E-01 6.98490386E-01 2.81393392E-01 3.53980867E-03 1.06566226E-03 1.00996560E-02 4.89487301E+02 3.09429561E+08 5.00164121E+11 3.31976246E-03 2.59201267E-10 0.00000000E+00 0.00000000E+00 0.00000000E+00 0.00000000E+00 0.00000000E+00 0.00000000E+00 0.00000000E+00 0.00000000E+00 0.00000000E+00
00016 3.65175539E+06 1.60099993E-01 -2.47744473E+00 -7.06553427E-01 3.49560503E+00 6.75100227E+00 5.23429451E+00 1.61531612E+01 7.65147380E-01 6.98490256E-01 2.81393522E-01 3.53980867E-03 1.06566226E-03 1.00996560E-02 4.89487182E+02 3.09429698E+08 5.00164263E+11 3.31976773E-03 2.59202956E-10 0.00000000E+00 0.00000000E+00 0.00000000E+00 0.00000000E+00 0.00000000E+00 0.00000000E+00 0.00000000E+00 0.00000000E+00 0.00000000E+00
00017 4.42210647E+06 1.60099991E-01 -2.47744487E+00 -7.06553511E-01 3.49560503E+00 6.75100240E+00 5.23429476E+00 1.61531615E+01 7.65147440E-01 6.98490101E-01 2.81393677E-01 3.53980867E-03 1.06566228E-03 1.00996560E-02 4.89487043E+02 3.09429852E+08 5.00164420E+11 3.31977397E-03 2.59204963E-10 0.00000000E+00 0.00000000E+00 0.00000000E+00 0.00000000E+00 0.00000000E+00 0.00000000E+00 0.00000000E+00 0.00000000E+00 0.00000000E+00
00018 5.34652777E+06 1.60099989E-01 -2.47744504E+00 -7.06553610E-01 3.49560504E+00 6.75100255E+00 5.23429505E+00 1.61531619E+01 7.65147499E-01 6.98489914E-01 2.81393864E-01 3.53980867E-03 1.06566227E-03 1.00996560E-02 4.89486878E+02 3.09430034E+08 5.00164606E+11 3.31978134E-03 2.59207345E-10 0.00000000E+00 0.00000000E+00 0.00000000E+00 0.00000000E+00 0.00000000E+00 0.00000000E+00 0.00000000E+00 0.00000000E+00 0.00000000E+00
00019 6.45583332E+06 1.60099987E-01 -2.47744523E+00 -7.06553726E-01 3.49560505E+00 6.75100273E+00 5.23429540E+00 1.61531623E+01 7.65147553E-01 6.98489690E-01 2.81394088E-01 3.53980867E-03 1.06566222E-03 1.00996560E-02 4.89486686E+02 3.09430245E+08 5.00164822E+11 3.31979003E-03 2.59210164E-10 0.00000000E+00 0.00000000E+00 0.00000000E+00 0.00000000E+00 0.00000000E+00 0.00000000E+00 0.00000000E+00 0.00000000E+00 0.00000000E+00
00020 7.78699998E+06 1.60099984E-01 -2.47744546E+00 -7.06553861E-01 3.49560506E+00 6.75100295E+00 5.23429580E+00 1.61531629E+01 7.65147595E-01 6.98489422E-01 2.81394356E-01 3.53980867E-03 1.06566225E-03 1.00996560E-02 4.89486462E+02 3.09430491E+08 5.00165071E+11 3.31980021E-03 2.59213492E-10 0.00000000E+00 0.00000000E+00 0.00000000E+00 0.00000000E+00 0.00000000E+00 0.00000000E+00 0.00000000E+00 0.00000000E+00 0.00000000E+00
00021 9.38439998E+06 1.60099981E-01 -2.47744572E+00 -7.06554018E-01 3.49560508E+00 6.75100320E+00 5.23429626E+00 1.61531635E+01 7.65147613E-01 6.98489099E-01 2.81394679E-01 3.53980867E-03 1.06566219E-03 1.00996560E-02 4.89486202E+02 3.09430774E+08 5.00165359E+11 3.31981211E-03 2.59217411E-10 0.00000000E+00 0.00000000E+00 0.00000000E+00 0.00000000E+00 0.00000000E+00 0.00000000E+00 0.00000000E+00 0.00000000E+00 0.00000000E+00
00022 1.13012800E+07 1.60099977E-01 -2.47744600E+00 -7.06554198E-01 3.49560510E+00 6.75100349E+00 5.23429680E+00 1.61531642E+01 7.65147590E-01 6.98488712E-01 2.81395066E-01 3.53980868E-03 1.06566214E-03 1.00996560E-02 4.89485902E+02 3.09431087E+08 5.00165669E+11 3.31982594E-03 2.59222009E-10 0.00000000E+00 0.00000000E+00 0.00000000E+00 0.00000000E+00 0.00000000E+00 0.00000000E+00 0.00000000E+00 0.00000000E+00 0.00000000E+00
00023 1.36015360E+07 1.60099973E-01 -2.47744632E+00 -7.06554405E-01 3.49560512E+00 6.75100384E+00 5.23429741E+00 1.61531650E+01 7.65147500E-01 6.98488248E-01 2.81395530E-01 3.53980868E-03 1.06566225E-03 1.00996559E-02 4.89485560E+02 3.09431448E+08 5.00166029E+11 3.31984191E-03 2.59227381E-10 0.00000000E+00 0.00000000E+00 0.00000000E+00 0.00000000E+00 0.00000000E+00 0.00000000E+00 0.00000000E+00 0.00000000E+00 0.00000000E+00
00024 1.63618432E+07 1.60099967E-01 -2.47744667E+00 -7.06554638E-01 3.49560515E+00 6.75100424E+00 5.23429810E+00 1.61531659E+01 7.65147306E-01 6.98487691E-01 2.81396087E-01 3.53980868E-03 1.06566221E-03 1.00996560E-02 4.89485174E+02 3.09431840E+08 5.00166411E+11 3.31986023E-03 2.59233629E-10 0.00000000E+00 0.00000000E+00 0.00000000E+00 0.00000000E+00 0.00000000E+00 0.00000000E+00 0.00000000E+00 0.00000000E+00 0.00000000E+00
00025 1.96742118E+07 1.60099961E-01 -2.47744705E+00 -7.06554899E-01 3.49560518E+00 6.75100471E+00 5.23429887E+00 1.61531669E+01 7.65146958E-01 6.98487022E-01 2.81396756E-01 3.53980869E-03 1.06566235E-03 1.00996560E-02 4.89484744E+02 3.09432275E+08 5.00166835E+11 3.31988107E-03 2.59240860E-10 0.00000000E+00 0.00000000E+00 0.00000000E+00 0.00000000E+00 0.00000000E+00 0.00000000E+00 0.00000000E+00 0.00000000E+00 0.00000000E+00
00026 2.36490542E+07 1.60099953E-01 -2.47744744E+00 -7.06555186E-01 3.49560523E+00 6.75100526E+00 5.23429972E+00 1.61531680E+01 7.65146387E-01 6.98486219E-01 2.81397559E-01 3.53980870E-03 1.06566240E-03 1.00996560E-02 4.89484270E+02 3.09432725E+08 5.00167256E+11 3.31990453E-03 2.59249176E-10 0.00000000E+00 0.00000000E+00 0.00000000E+00 0.00000000E+00 0.00000000E+00 0.00000000E+00 0.00000000E+00 0.00000000E+00 0.00000000E+00
00027 2.84188650E+07 1.60099943E-01 -2.47744783E+00 -7.06555497E-01 3.49560529E+00 6.75100588E+00 5.23430063E+00 1.61531692E+01 7.65145497E-01 6.98485256E-01 2.81398522E-01 3.53980867E-03 1.06566300E-03 1.00996552E-02 4.89483760E+02 3.09433187E+08 5.00167676E+11 3.31993064E-03 2.59258676E-10 0.00000000E+00 0.00000000E+00 0.00000000E+00 0.00000000E+00 0.00000000E+00 0.00000000E+00 0.00000000E+00 0.00000000E+00 0.00000000E+00
00028 3.41426380E+07 1.60099931E-01 -2.47744820E+00 -7.06555825E-01 3.49560536E+00 6.75100660E+00 5.23430160E+00 1.61531705E+01 7.65144164E-01 6.98484101E-01 2.81399677E-01 3.53980853E-03 1.06566386E-03 1.00996545E-02 4.89483221E+02 3.09433642E+08 5.00168068E+11 3.31995933E-03 2.59269451E-10 0.00000000E+00 0.00000000E+00 0.00000000E+00 0.00000000E+00 0.00000000E+00 0.00000000E+00 0.00000000E+00 0.00000000E+00 0.00000000E+00
00029 4.10111656E+07 1.60099918E-01 -2.47744851E+00 -7.06556164E-01 3.49560545E+00 6.75100741E+00 5.23430259E+00 1.61531718E+01 7.65142228E-01 6.98482714E-01 2.81401064E-01 3.53980853E-03 1.06565991E-03 1.00996585E-02 4.89482671E+02 3.09434049E+08 5.00168380E+11 3.31999040E-03 2.59281608E-10 0.00000000E+00 0.00000000E+00 0.00000000E+00 0.00000000E+00 0.00000000E+00 0.00000000E+00 0.00000000E+00 0.00000000E+00 0.00000000E+00
00030 4.92533987E+07 1.60099901E-01 -2.47744873E+00 -7.06556499E-01 3.49560556E+00 6.75100833E+00 5.23430358E+00 1.61531731E+01 7.65139485E-01 6.98481051E-01 2.81402728E-01 3.53980845E-03 1.06565762E-03 1.00996600E-02 4.89482129E+02 3.09434376E+08 5.00168574E+11 3.32002346E-03 2.59295202E-10 0.00000000E+00 0.00000000E+00 0.00000000E+00 0.00000000E+00 0.00000000E+00 0.00000000E+00 0.00000000E+00 0.00000000E+00 0.00000000E+00
00031 5.91440784E+07 1.60099881E-01 -2.47744881E+00 -7.06556817E-01 3.49560570E+00 6.75100936E+00 5.23430450E+00 1.61531743E+01 7.65135681E-01 6.98479054E-01 2.81404725E-01 3.53980848E-03 1.06565643E-03 1.00996617E-02 4.89481622E+02 3.09434586E+08 5.00168609E+11 3.32005806E-03 2.59310346E-10 0.00000000E+00 0.00000000E+00 0.00000000E+00 0.00000000E+00 0.00000000E+00 0.00000000E+00 0.00000000E+00 0.00000000E+00 0.00000000E+00
00032 7.10128941E+07 1.60099857E-01 -2.47744861E+00 -7.06557099E-01 3.49560589E+00 6.75101053E+00 5.23430531E+00 1.61531753E+01 7.65130523E-01 6.98476658E-01 2.81407121E-01 3.53980874E-03 1.06565756E-03 1.00996594E-02 4.89481182E+02 3.09434550E+08 5.00168302E+11 3.32009362E-03 2.59327136E-10 0.00000000E+00 0.00000000E+00 0.00000000E+00 0.00000000E+00 0.00000000E+00 0.00000000E+00 0.00000000E+00 0.00000000E+00 0.00000000E+00
00033 8.52554730E+07 1.60099829E-01 -2.47744818E+00 -7.06557324E-01 3.49560611E+00 6.75101183E+00 5.23430595E+00 1.61531761E+01 7.65123653E-01 6.98473783E-01 2.81409996E-01 3.53980869E-03 1.06564342E-03 1.00996730E-02 4.89480845E+02 3.09434297E+08 5.00167722E+11 3.32012950E-03 2.59345671E-10 0.00000000E+00 0.00000000E+00 0.00000000E+00 0.00000000E+00 0.00000000E+00 0.00000000E+00 0.00000000E+00 0.00000000E+00 0.00000000E+00
00034 1.02346568E+08 1.60099794E-01 -2.47744732E+00 -7.06557473E-01 3.49560640E+00 6.75101331E+00 5.23430635E+00 1.61531766E+01 7.65114675E-01 6.98470332E-01 2.81413445E-01 3.53980870E-03 1.06564156E-03 1.00996766E-02 4.89480647E+02 3.09433653E+08 5.00166618E+11 3.32016532E-03 2.59366236E-10 0.00000000E+00 0.00000000E+00 0.00000000E+00 0.00000000E+00 0.00000000E+00 0.00000000E+00 0.00000000E+00 0.00000000E+00 0.00000000E+00
00035 1.22855881E+08 1.60099753E-01 -2.47744605E+00 -7.06557522E-01 3.49560674E+00 6.75101497E+00 5.23430645E+00 1.61531766E+01 7.65103134E-01 6.98466192E-01 2.81417584E-01 3.53980783E-03 1.06565303E-03 1.00996685E-02 4.89480627E+02 3.09432628E+08 5.00165034E+11 3.32020052E-03 2.59389028E-10 0.00000000E+00 0.00000000E+00 0.00000000E+00 0.00000000E+00 0.00000000E+00 0.00000000E+00 0.00000000E+00 0.00000000E+00 0.00000000E+00
00036 1.47467057E+08 1.60099703E-01 -2.47744424E+00 -7.06557455E-01 3.49560717E+00 6.75101686E+00 5.23430619E+00 1.61531762E+01 7.65088532E-01 6.98461225E-01 2.81422553E-01 3.53980869E-03 1.06564834E-03 1.00996725E-02 4.89480815E+02 3.09431095E+08 5.00162787E+11 3.32023524E-03 2.59414757E-10 0.00000000E+00 0.00000000E+00 0.00000000E+00 0.00000000E+00 0.00000000E+00 0.00000000E+00 0.00000000E+00 0.00000000E+00 0.00000000E+00
00037 1.77000469E+08 1.60099644E-01 -2.47744173E+00 -7.06557264E-01 3.49560770E+00 6.75101905E+00 5.23430555E+00 1.61531752E+01 7.65070318E-01 6.98455256E-01 2.81428515E-01 3.53980765E-03 1.06567193E-03 1.00996559E-02 4.89481229E+02 3.09428945E+08 5.00159718E+11 3.32027037E-03 2.59443987E-10 0.00000000E+00 0.00000000E+00 0.00000000E+00 0.00000000E+00 0.00000000E+00 0.00000000E+00 0.00000000E+00 0.00000000E+00 0.00000000E+00
00038 2.12440562E+08 1.60099573E-01 -2.47743850E+00 -7.06556932E-01 3.49560834E+00 6.75102159E+00 5.23430447E+00 1.61531736E+01 7.65047880E-01 6.98448103E-01 2.81435664E-01 3.53980872E-03 1.06568286E-03 1.00996468E-02 4.89481899E+02 3.09426130E+08 5.00155772E+11 3.32030628E-03 2.59477741E-10 0.00000000E+00 0.00000000E+00 0.00000000E+00 0.00000000E+00 0.00000000E+00 0.00000000E+00 0.00000000E+00 0.00000000E+00 0.00000000E+00
00039 2.54968675E+08 1.60099487E-01 -2.47743441E+00 -7.06556461E-01 3.49560912E+00 6.75102458E+00 5.23430296E+00 1.61531715E+01 7.65020490E-01 6.98439511E-01 2.81444261E-01 3.53980788E-03 1.06567974E-03 1.00996514E-02 4.89482826E+02 3.09422550E+08 5.00150796E+11 3.32034502E-03 2.59517106E-10 0.00000000E+00 0.00000000E+00 0.00000000E+00 0.00000000E+00 0.00000000E+00 0.00000000E+00 0.00000000E+00 0.00000000E+00 0.00000000E+00
00040 3.06002410E+08 1.60099384E-01 -2.47742956E+00 -7.06555829E-01 3.49561002E+00 6.75102812E+00 5.23430094E+00 1.61531686E+01 7.64987223E-01 6.98429207E-01 2.81454550E-01 3.53980395E-03 1.06565199E-03 1.00996930E-02 4.89484052E+02 3.09418250E+08 5.00144893E+11 3.32038748E-03 2.59563178E-10 0.00000000E+00 0.00000000E+00 0.00000000E+00 0.00000000E+00 0.00000000E+00 0.00000000E+00 0.00000000E+00 0.00000000E+00 0.00000000E+00
00041 3.67242892E+08 1.60099261E-01 -2.47742350E+00 -7.06555043E-01 3.49561114E+00 6.75103237E+00 5.23429844E+00 1.61531650E+01 7.64946989E-01 6.98416791E-01 2.81466923E-01 3.53980295E-03 1.06571681E-03 1.00996738E-02 4.89485570E+02 3.09412890E+08 5.00137519E+11 3.32043743E-03 2.59618710E-10 0.00000000E+00 0.00000000E+00 0.00000000E+00 0.00000000E+00 0.00000000E+00 0.00000000E+00 0.00000000E+00 0.00000000E+00 0.00000000E+00
00042 4.40731470E+08 1.60099113E-01 -2.47741603E+00 -7.06554064E-01 3.49561252E+00 6.75103740E+00 5.23429534E+00 1.61531606E+01 7.64898741E-01 6.98401963E-01 2.81481788E-01 3.53979647E-03 1.06561641E-03 1.00997411E-02 4.89487450E+02 3.09406303E+08 5.00128461E+11 3.32049427E-03 2.59683956E-10 0.00000000E+00 0.00000000E+00 0.00000000E+00 0.00000000E+00 0.00000000E+00 0.00000000E+00 0.00000000E+00 0.00000000E+00 0.00000000E+00
00043 5.28917764E+08 1.60098936E-01 -2.47740729E+00 -7.06552873E-01 3.49561411E+00 6.75104341E+00 5.23429157E+00 1.61531552E+01 7.64840849E-01 6.98384202E-01 2.81499597E-01 3.53980627E-03 1.06561053E-03 1.00996857E-02 4.89489736E+02 3.09398541E+08 5.00117842E+11 3.32056114E-03 2.59763135E-10 0.00000000E+00 0.00000000E+00 0.00000000E+00 0.00000000E+00 0.00000000E+00 0.00000000E+00 0.00000000E+00 0.00000000E+00 0.00000000E+00
00044 6.34741317E+08 1.60098723E-01 -2.47739674E+00 -7.06551448E-01 3.49561604E+00 6.75105062E+00 5.23428706E+00 1.61531488E+01 7.64771451E-01 6.98362903E-01 2.81520965E-01 3.53981428E-03 1.06559097E-03 1.00996645E-02 4.89492470E+02 3.09389188E+08 5.00105029E+11 3.32064144E-03 2.59857866E-10 0.00000000E+00 0.00000000E+00 0.00000000E+00 0.00000000E+00 0.00000000E+00 0.00000000E+00 0.00000000E+00 0.00000000E+00 0.00000000E+00
00045 7.61729581E+08 1.60098467E-01 -2.47738386E+00 -7.06549765E-01 3.49561841E+00 6.75105932E+00 5.23428173E+00 1.61531412E+01 7.64688123E-01 6.98337276E-01 2.81546574E-01 3.53981427E-03 1.06615015E-03 1.00990795E-02 4.89495706E+02 3.09377823E+08 5.00089394E+11 3.32074039E-03 2.59971769E-10 0.00000000E+00 0.00000000E+00 0.00000000E+00 0.00000000E+00 0.00000000E+00 0.00000000E+00 0.00000000E+00 0.00000000E+00 0.00000000E+00
00046 9.14115497E+08 1.60098161E-01 -2.47736865E+00 -7.06547722E-01 3.49562119E+00 6.75106976E+00 5.23427525E+00 1.61531320E+01 7.64587892E-01 6.98306504E-01 2.81577346E-01 3.53981425E-03 1.06615222E-03 1.00990784E-02 4.89499629E+02 3.09364351E+08 5.00070928E+11 3.32085788E-03 2.60108299E-10 0.00000000E+00 0.00000000E+00 0.00000000E+00 0.00000000E+00 0.00000000E+00 0.00000000E+00 0.00000000E+00 0.00000000E+00 0.00000000E+00
00047 1.09697860E+09 1.60097793E-01 -2.47735030E+00 -7.06545264E-01 3.49562455E+00 6.75108228E+00 5.23426746E+00 1.61531209E+01 7.64467584E-01 6.98269577E-01 2.81614273E-01 3.53981423E-03 1.06615850E-03 1.00990723E-02 4.89504346E+02 3.09348106E+08 5.00048647E+11 3.32099854E-03 2.60272153E-10 0.00000000E+00 0.00000000E+00 0.00000000E+00 0.00000000E+00 0.00000000E+00 0.00000000E+00 0.00000000E+00 0.00000000E+00 0.00000000E+00
00048 1.31641432E+09 1.60097351E-01 -2.47732829E+00 -7.06542312E-01 3.49562858E+00 6.75109730E+00 5.23425811E+00 1.61531076E+01 7.64323188E-01 6.98225260E-01 2.81658595E-01 3.53981412E-03 1.06617353E-03 1.00990520E-02 4.89510012E+02 3.09328621E+08 5.00021929E+11 3.32116716E-03 2.60468886E-10 0.00000000E+00 0.00000000E+00 0.00000000E+00 0.00000000E+00 0.00000000E+00 0.00000000E+00 0.00000000E+00 0.00000000E+00 0.00000000E+00
00049 1.57973718E+09 1.60096821E-01 -2.47730184E+00 -7.06538773E-01 3.49563342E+00 6.75111533E+00 5.23424689E+00 1.61530917E+01 7.64150008E-01 6.98172100E-01 2.81711777E-01 3.53981035E-03 1.06615912E-03 1.00990515E-02 4.89516805E+02 3.09305216E+08 4.99989824E+11 3.32136947E-03 2.60704808E-10 0.00000000E+00 0.00000000E+00 0.00000000E+00 0.00000000E+00 0.00000000E+00 0.00000000E+00 0.00000000E+00 0.00000000E+00 0.00000000E+00
00050 1.89572461E+09 1.60096186E-01 -2.47727018E+00 -7.06534522E-01 3.49563921E+00 6.75113696E+00 5.23423342E+00 1.61530725E+01 7.63942096E-01 6.98108289E-01 2.81775587E-01 3.53981974E-03 1.06615204E-03 1.00990522E-02 4.89524965E+02 3.09277179E+08 4.99951382E+11 3.32161222E-03 2.60989309E-10 0.00000000E+00 0.00000000E+00 0.00000000E+00 0.00000000E+00 0.00000000E+00 0.00000000E+00 0.00000000E+00 0.00000000E+00 0.00000000E+00
00051 2.27490954E+09 1.60095422E-01 -2.47723211E+00 -7.06529423E-01 3.49564618E+00 6.75116293E+00 5.23421726E+00 1.61530495E+01 7.63692537E-01 6.98031689E-01 2.81852180E-01 3.53981985E-03 1.06616289E-03 1.00990494E-02 4.89534754E+02 3.09243496E+08 4.99905185E+11 3.32190388E-03 2.61330491E-10 0.00000000E+00 0.00000000E+00 0.00000000E+00 0.00000000E+00 0.00000000E+00 0.00000000E+00 0.00000000E+00 0.00000000E+00 0.00000000E+00
00052 2.72993145E+09 1.60094507E-01 -2.47718645E+00 -7.06523301E-01 3.49565453E+00 6.75119410E+00 5.23419787E+00 1.61530220E+01 7.63393092E-01 6.97939778E-01 2.81944081E-01 3.53981429E-03 1.06625281E-03 1.00989684E-02 4.89546504E+02 3.09203089E+08 4.99849770E+11 3.32225363E-03 2.61740005E-10 0.00000000E+00 0.00000000E+00 0.00000000E+00 0.00000000E+00 0.00000000E+00 0.00000000E+00 0.00000000E+00 0.00000000E+00 0.00000000E+00
00053 3.27595773E+09 1.60093408E-01 -2.47713160E+00 -7.06515976E-01 3.49566458E+00 6.75123146E+00 5.23417466E+00 1.61529889E+01 7.63034250E-01 6.97829579E-01 2.82054443E-01 3.53982121E-03 1.06596974E-03 1.00990721E-02 4.89560570E+02 3.09154582E+08 4.99783215E+11 3.32267323E-03 2.62232871E-10 0.00000000E+00 0.00000000E+00 0.00000000E+00 0.00000000E+00 0.00000000E+00 0.00000000E+00 0.00000000E+00 0.00000000E+00 0.00000000E+00
00054 3.93118928E+09 1.60092089E-01 -2.47706583E+00 -7.06507176E-01 3.49567663E+00 6.75127636E+00 5.23414678E+00 1.61529493E+01 7.62603127E-01 6.97697200E-01 2.82186874E-01 3.53982200E-03 1.06594025E-03 1.00990516E-02 4.89577467E+02 3.09096412E+08 4.99703417E+11 3.32317772E-03 2.62825802E-10 0.00000000E+00 0.00000000E+00 0.00000000E+00 0.00000000E+00 0.00000000E+00 0.00000000E+00 0.00000000E+00 0.00000000E+00 0.00000000E+00
00055 4.71746714E+09 1.60090507E-01 -2.47698704E+00 -7.06496588E-01 3.49569103E+00 6.75133024E+00 5.23411323E+00 1.61529016E+01 7.62085481E-01 6.97538304E-01 2.82345804E-01 3.53984077E-03 1.06570343E-03 1.00992163E-02 4.89597791E+02 3.09026691E+08 4.99607822E+11 3.32378186E-03 2.63540337E-10 0.00000000E+00 0.00000000E+00 0.00000000E+00 0.00000000E+00 0.00000000E+00 0.00000000E+00 0.00000000E+00 0.00000000E+00 0.00000000E+00
00056 5.66100056E+09 1.60088608E-01 -2.47689237E+00 -7.06483982E-01 3.49570840E+00 6.75139468E+00 5.23407328E+00 1.61528447E+01 7.61467042E-01 6.97348281E-01 2.82536230E-01 3.53984035E-03 1.06527753E-03 1.00991348E-02 4.89622012E+02 3.08943038E+08 4.99493002E+11 3.32450553E-03 2.64395869E-10 0.00000000E+00 0.00000000E+00 0.00000000E+00 0.00000000E+00 0.00000000E+00 0.00000000E+00 0.00000000E+00 0.00000000E+00 0.00000000E+00
00057 6.79324068E+09 1.60086329E-01 -2.47677863E+00 -7.06468790E-01 3.49572924E+00 6.75147238E+00 5.23402513E+00 1.61527762E+01 7.60721636E-01 6.97119329E-01 2.82765207E-01 3.53987225E-03 1.06463913E-03 1.00997141E-02 4.89651188E+02 3.08842540E+08 4.99355094E+11 3.32537959E-03 2.65433451E-10 0.00000000E+00 0.00000000E+00 0.00000000E+00 0.00000000E+00 0.00000000E+00 0.00000000E+00 0.00000000E+00 0.00000000E+00 0.00000000E+00
00058 8.15192881E+09 1.60083594E-01 -2.47664199E+00 -7.06450545E-01 3.49575427E+00 6.75156566E+00 5.23396732E+00 1.61526940E+01 7.59826798E-01 6.96844463E-01 2.83040040E-01 3.53984733E-03 1.06483712E-03 1.00996002E-02 4.89686229E+02 3.08721872E+08 4.99189490E+11 3.32642764E-03 2.66679310E-10 0.00000000E+00 0.00000000E+00 0.00000000E+00 0.00000000E+00 0.00000000E+00 0.00000000E+00 0.00000000E+00 0.00000000E+00 0.00000000E+00
00059 9.78235458E+09 1.60080312E-01 -2.47647792E+00 -7.06428664E-01 3.49578435E+00 6.75167772E+00 5.23389798E+00 1.61525953E+01 7.58752564E-01 6.96514426E-01 2.83369995E-01 3.53985195E-03 1.06468335E-03 1.00998373E-02 4.89728258E+02 3.08577057E+08 4.98990700E+11 3.32768662E-03 2.68186177E-10 0.00000000E+00 0.00000000E+00 0.00000000E+00 0.00000000E+00 0.00000000E+00 0.00000000E+00 0.00000000E+00 0.00000000E+00 0.00000000E+00
00060 1.17388655E+10 1.60076373E-01 -2.47628096E+00 -7.06402502E-01 3.49582051E+00 6.75181213E+00 5.23381514E+00 1.61524774E+01 7.57465388E-01 6.96118578E-01 2.83766310E-01 3.53956380E-03 1.06935439E-03 1.00950074E-02 4.89778537E+02 3.08403391E+08 4.98752185E+11 3.32919760E-03 2.69982733E-10 0.00000000E+00 0.00000000E+00 0.00000000E+00 0.00000000E+00 0.00000000E+00 0.00000000E+00 0.00000000E+00 0.00000000E+00 0.00000000E+00
00061 1.30000000E+10 1.60073834E-01 -2.47615429E+00 -7.06385534E-01 3.49584369E+00 6.75189893E+00 5.23376135E+00 1.61524009E+01 7.56633381E-01 6.95863002E-01 2.84021609E-01 3.53956366E-03 1.06862393E-03 1.00959539E-02 4.89811127E+02 3.08291627E+08 4.98598828E+11 3.33017143E-03 2.71163344E-10 0.00000000E+00 0.00000000E+00 0.00000000E+00 0.00000000E+00 0.00000000E+00 0.00000000E+00 0.00000000E+00 0.00000000E+00 0.00000000E+00
