00000 0.00000000E+00 1.75600000E-01 -2.35840959E+00 -6.74562519E-01 3.50936836E+00 6.77247206E+00 5.18619743E+00 1.61190253E+01 5.03116729E-01 6.98490994E-01 2.81392784E-01 3.53980866E-03 1.06566227E-03 1.00996559E-02 5.21988682E+02 2.62907115E+08 4.17071691E+11 4.31611737E-03 8.25231613E-10 0.00000000E+00 0.00000000E+00 0.00000000E+00 0.00000000E+00 0.00000000E+00 0.00000000E+00 0.00000000E+00 0.00000000E+00 0.00000000E+00
00001 5.00000000E+04 1.75600000E-01 -2.38340094E+00 -6.76995983E-01 3.50433724E+00 6.76886807E+00 5.18704715E+00 1.61167872E+01 5.23061915E-01 6.98490882E-01 2.81392896E-01 3.53980866E-03 1.06566227E-03 1.00996559E-02 5.17619812E+02 2.80044570E+08 4.41775946E+11 4.12299145E-03 6.76397093E-10 0.00000000E+00 0.00000000E+00 0.00000000E+00 0.00000000E+00 0.00000000E+00 0.00000000E+00 0.00000000E+00 0.00000000E+00 0.00000000E+00
00002 1.00000000E+05 1.75600000E-01 -2.38341164E+00 -6.76997322E-01 3.50433525E+00 6.76886992E+00 5.18705061E+00 1.61167925E+01 5.23063981E-01 6.98490776E-01 2.81393002E-01 3.53980866E-03 1.06566227E-03 1.00996559E-02 5.17617417E+02 2.80052333E+08 4.41786831E+11 4.12298494E-03 6.76432946E-10 0.00000000E+00 0.00000000E+00 0.00000000E+00 0.00000000E+00 0.00000000E+00 0.00000000E+00 0.00000000E+00 0.00000000E+00 0.00000000E+00
00003 1.60000000E+05 1.75600000E-01 -2.38341076E+00 -6.76997295E-01 3.50433546E+00 6.76886991E+00 5.18705063E+00 1.61167925E+01 5.23064015E-01 6.98490656E-01 2.81393122E-01 3.53980866E-03 1.06566227E-03 1.00996559E-02 5.17617467E+02 2.80051743E+08 4.41785929E+11 4.12298355E-03 6.76432329E-10 0.00000000E+00 0.00000000E+00 0.00000000E+00 0.00000000E+00 0.00000000E+00 0.00000000E+00 0.00000000E+00 0.00000000E+00 0.00000000E+00
00004 2.32000000E+05 1.75600000E-01 -2.38341076E+00 -6.76997300E-01 3.50433546E+00 6.76886994E+00 5.18705071E+00 1.61167926E+01 5.23064029E-01 6.98490521E-01 2.81393257E-01 3.53980866E-03 1.06566227E-03 1.00996559E-02 5.17617457E+02 2.80051749E+08 4.41785932E+11 4.12298458E-03 6.76433393E-10 0.00000000E+00 0.00000000E+00 0.00000000E+00 0.00000000E+00 0.00000000E+00 0.00000000E+00 0.00000000E+00 0.00000000E+00 0.00000000E+00
00005 3.18400000E+05 1.75599999E-01 -2.38341076E+00 -6.76997307E-01 3.50433546E+00 6.76886997E+00 5.18705081E+00 1.61167927E+01 5.23064044E-01 6.98490370E-01 2.81393409E-01 3.53980866E-03 1.06566227E-03 1.00996559E-02 5.17617446E+02 2.80051755E+08 4.41785937E+11 4.12298580E-03 6.76434648E-10 0.00000000E+00 0.00000000E+00 0.00000000E+00 0.00000000E+00 0.00000000E+00 0.00000000E+00 0.00000000E+00 0.00000000E+00 0.00000000E+00
00006 4.22080000E+05 1.75599999E-01 -2.38341077E+00 -6.76997314E-01 3.50433546E+00 6.76887001E+00 5.18705092E+00 1.61167928E+01 5.23064059E-01 6.98490200E-01 2.81393578E-01 3.53980866E-03 1.06566227E-03 1.00996559E-02 5.17617433E+02 2.80051763E+08 4.41785941E+11 4.12298726E-03 6.76436127E-10 0.00000000E+00 0.00000000E+00 0.00000000E+00 0.00000000E+00 0.00000000E+00 0.00000000E+00 0.00000000E+00 0.00000000E+00 0.00000000E+00
00007 5.46496000E+05 1.75599999E-01 -2.38341078E+00 -6.76997324E-01 3.50433546E+00 6.76887006E+00 5.18705104E+00 1.61167929E+01 5.23064073E-01 6.98490011E-01 2.81393768E-01 3.53980866E-03 1.06566228E-03 1.00996559E-02 5.17617417E+02 2.80051775E+08 4.41785952E+11 4.12298899E-03 6.76437865E-10 0.00000000E+00 0.00000000E+00 0.00000000E+00 0.00000000E+00 0.00000000E+00 0.00000000E+00 0.00000000E+00 0.00000000E+00 0.00000000E+00
00008 6.95795200E+05 1.75599999E-01 -2.38341078E+00 -6.76997334E-01 3.50433547E+00 6.76887012E+00 5.18705118E+00 1.61167930E+01 5.23064085E-01 6.98489801E-01 2.81393978E-01 3.53980866E-03 1.06566228E-03 1.00996559E-02 5.17617398E+02 2.80051782E+08 4.41785953E+11 4.12299105E-03 6.76439902E-10 0.00000000E+00 0.00000000E+00 0.00000000E+00 0.00000000E+00 0.00000000E+00 0.00000000E+00 0.00000000E+00 0.00000000E+00 0.00000000E+00
00009 8.74954240E+05 1.75599998E-01 -2.38341079E+00 -6.76997347E-01 3.50433547E+00 6.76887018E+00 5.18705134E+00 1.61167931E+01 5.23064096E-01 6.98489568E-01 2.81394210E-01 3.53980866E-03 1.06566228E-03 1.00996559E-02 5.17617375E+02 2.80051796E+08 4.41785963E+11 4.12299349E-03 6.76442281E-10 0.00000000E+00 0.00000000E+00 0.00000000E+00 0.00000000E+00 0.00000000E+00 0.00000000E+00 0.00000000E+00 0.00000000E+00 0.00000000E+00
00010 1.08994509E+06 1.75599998E-01 -2.38341081E+00 -6.76997363E-01 3.50433548E+00 6.76887025E+00 5.18705152E+00 1.61167933E+01 5.23064102E-01 6.98489312E-01 2.81394466E-01 3.53980866E-03 1.06566228E-03 1.00996559E-02 5.17617348E+02 2.80051812E+08 4.41785974E+11 4.12299637E-03 6.76445049E-10 0.00000000E+00 0.00000000E+00 0.00000000E+00 0.00000000E+00 0.00000000E+00 0.00000000E+00 0.00000000E+00 0.00000000E+00 0.00000000E+00
00011 1.34793411E+06 1.75599997E-01 -2.38341081E+00 -6.76997381E-01 3.50433548E+00 6.76887034E+00 5.18705172E+00 1.61167935E+01 5.23064103E-01 6.98489032E-01 2.81394747E-01 3.53980866E-03 1.06566228E-03 1.00996559E-02 5.17617316E+02 2.80051828E+08 4.41785981E+11 4.12299976E-03 6.76448256E-10 0.00000000E+00 0.00000000E+00 0.00000000E+00 0.00000000E+00 0.00000000E+00 0.00000000E+00 0.00000000E+00 0.00000000E+00 0.00000000E+00
00012 1.65752093E+06 1.75599996E-01 -2.38341089E+00 -6.76997415E-01 3.50433548E+00 6.76887010E+00 5.18705082E+00 1.61167929E+01 5.23063699E-01 6.98490613E-01 2.81393166E-01 3.53980866E-03 1.06566245E-03 1.00996557E-02 5.17617257E+02 2.80051899E+08 4.41786061E+11 4.12299458E-03 6.76439923E-10 0.00000000E+00 0.00000000E+00 0.00000000E+00 0.00000000E+00 0.00000000E+00 0.00000000E+00 0.00000000E+00 0.00000000E+00 0.00000000E+00
00013 2.02902511E+06 1.75599996E-01 -2.38341094E+00 -6.76997443E-01 3.50433548E+00 6.76887015E+00 5.18705091E+00 1.61167930E+01 5.23063634E-01 6.98490529E-01 2.81393249E-01 3.53980869E-03 1.06566247E-03 1.00996556E-02 5.17617207E+02 2.80051943E+08 4.41786104E+11 4.12299751E-03 6.76442127E-10 0.00000000E+00 0.00000000E+00 0.00000000E+00 0.00000000E+00 0.00000000E+00 0.00000000E+00 0.00000000E+00 0.00000000E+00 0.00000000E+00
00014 2.47483013E+06 1.75599995E-01 -2.38341096E+00 -6.76997478E-01 3.50433549E+00 6.76887022E+00 5.18705101E+00 1.61167931E+01 5.23063554E-01 6.98490428E-01 2.81393350E-01 3.53980872E-03 1.06566264E-03 1.00996553E-02 5.17617147E+02 2.80051979E+08 4.41786128E+11 4.12300101E-03 6.76444776E-10 0.00000000E+00 0.00000000E+00 0.00000000E+00 0.00000000E+00 0.00000000E+00 0.00000000E+00 0.00000000E+00 0.00000000E+00 0.00000000E+00
00015 3.00979616E+06 1.75599993E-01 -2.38341102E+00 -6.76997519E-01 3.50433550E+00 6.76887030E+00 5.18705113E+00 1.61167933E+01 5.23063455E-01 6.98490306E-01 2.81393473E-01 3.53980872E-03 1.06566265E-03 1.00996553E-02 5.17617076E+02 2.80052035E+08 4.41786178E+11 4.12300517E-03 6.76447935E-10 0.00000000E+00 0.00000000E+00 0.00000000E+00 0.00000000E+00 0.00000000E+00 0.00000000E+00 0.00000000E+00 0.00000000E+00 0.00000000E+00
00016 3.65175539E+06 1.75599992E-01 -2.38341107E+00 -6.76997567E-01 3.50433551E+00 6.76887039E+00 5.18705127E+00 1.61167935E+01 5.23063333E-01 6.98490159E-01 2.81393619E-01 3.53980872E-03 1.06566265E-03 1.00996553E-02 5.17616992E+02 2.80052095E+08 4.41786226E+11 4.12301010E-03 6.76451697E-10 0.00000000E+00 0.00000000E+00 0.00000000E+00 0.00000000E+00 0.00000000E+00 0.00000000E+00 0.00000000E+00 0.00000000E+00 0.00000000E+00
00017 4.42210647E+06 1.75599990E-01 -2.38341113E+00 -6.76997624E-01 3.50433553E+00 6.76887051E+00 5.18705144E+00 1.61167937E+01 5.23063180E-01 6.98489983E-01 2.81393795E-01 3.53980872E-03 1.06566267E-03 1.00996553E-02 5.17616893E+02 2.80052164E+08 4.41786283E+11 4.12301594E-03 6.76456171E-10 0.00000000E+00 0.00000000E+00 0.00000000E+00 0.00000000E+00 0.00000000E+00 0.00000000E+00 0.00000000E+00 0.00000000E+00 0.00000000E+00
00018 5.34652777E+06 1.75599988E-01 -2.38341120E+00 -6.76997690E-01 3.50433554E+00 6.76887064E+00 5.18705164E+00 1.61167939E+01 5.23062987E-01 6.98489772E-01 2.81394007E-01 3.53980872E-03 1.06566266E-03 1.00996553E-02 5.17616777E+02 2.80052246E+08 4.41786348E+11 4.12302284E-03 6.76461484E-10 0.00000000E+00 0.00000000E+00 0.00000000E+00 0.00000000E+00 0.00000000E+00 0.00000000E+00 0.00000000E+00 0.00000000E+00 0.00000000E+00
00019 6.45583332E+06 1.75599986E-01 -2.38341127E+00 -6.76997768E-01 3.50433556E+00 6.76887081E+00 5.18705187E+00 1.61167942E+01 5.23062745E-01 6.98489518E-01 2.81394260E-01 3.53980872E-03 1.06566266E-03 1.00996553E-02 5.17616641E+02 2.80052338E+08 4.41786420E+11 4.12303095E-03 6.76467779E-10 0.00000000E+00 0.00000000E+00 0.00000000E+00 0.00000000E+00 0.00000000E+00 0.00000000E+00 0.00000000E+00 0.00000000E+00 0.00000000E+00
00020 7.78699998E+06 1.75599983E-01 -2.38341136E+00 -6.76997859E-01 3.50433559E+00 6.76887100E+00 5.18705214E+00 1.61167946E+01 5.23062437E-01 6.98489214E-01 2.81394564E-01 3.53980872E-03 1.06566263E-03 1.00996553E-02 5.17616484E+02 2.80052443E+08 4.41786502E+11 4.12304046E-03 6.76475222E-10 0.00000000E+00 0.00000000E+00 0.00000000E+00 0.00000000E+00 0.00000000E+00 0.00000000E+00 0.00000000E+00 0.00000000E+00 0.00000000E+00
00021 9.38439998E+06 1.75599979E-01 -2.38341145E+00 -6.76997963E-01 3.50433561E+00 6.76887122E+00 5.18705244E+00 1.61167950E+01 5.23062045E-01 6.98488849E-01 2.81394930E-01 3.53980872E-03 1.06566267E-03 1.00996553E-02 5.17616303E+02 2.80052557E+08 4.41786586E+11 4.12305156E-03 6.76483999E-10 0.00000000E+00 0.00000000E+00 0.00000000E+00 0.00000000E+00 0.00000000E+00 0.00000000E+00 0.00000000E+00 0.00000000E+00 0.00000000E+00
00022 1.13012800E+07 1.75599975E-01 -2.38341155E+00 -6.76998082E-01 3.50433565E+00 6.76887149E+00 5.18705280E+00 1.61167955E+01 5.23061542E-01 6.98488411E-01 2.81395368E-01 3.53980872E-03 1.06566258E-03 1.00996554E-02 5.17616096E+02 2.80052684E+08 4.41786675E+11 4.12306444E-03 6.76494318E-10 0.00000000E+00 0.00000000E+00 0.00000000E+00 0.00000000E+00 0.00000000E+00 0.00000000E+00 0.00000000E+00 0.00000000E+00 0.00000000E+00
00023 1.36015360E+07 1.75599969E-01 -2.38341165E+00 -6.76998218E-01 3.50433569E+00 6.76887180E+00 5.18705319E+00 1.61167960E+01 5.23060894E-01 6.98487885E-01 2.81395893E-01 3.53980872E-03 1.06566263E-03 1.00996553E-02 5.17615862E+02 2.80052820E+08 4.41786765E+11 4.12307930E-03 6.76506403E-10 0.00000000E+00 0.00000000E+00 0.00000000E+00 0.00000000E+00 0.00000000E+00 0.00000000E+00 0.00000000E+00 0.00000000E+00 0.00000000E+00
00024 1.63618432E+07 1.75599963E-01 -2.38341175E+00 -6.76998369E-01 3.50433574E+00 6.76887217E+00 5.18705364E+00 1.61167966E+01 5.23060057E-01 6.98487254E-01 2.81396524E-01 3.53980872E-03 1.06566254E-03 1.00996554E-02 5.17615600E+02 2.80052963E+08 4.41786852E+11 4.12309632E-03 6.76520501E-10 0.00000000E+00 0.00000000E+00 0.00000000E+00 0.00000000E+00 0.00000000E+00 0.00000000E+00 0.00000000E+00 0.00000000E+00 0.00000000E+00
00025 1.96742118E+07 1.75599956E-01 -2.38341183E+00 -6.76998537E-01 3.50433581E+00 6.76887259E+00 5.18705413E+00 1.61167972E+01 5.23058971E-01 6.98486497E-01 2.81397281E-01 3.53980871E-03 1.06566250E-03 1.00996555E-02 5.17615311E+02 2.80053097E+08 4.41786911E+11 4.12311566E-03 6.76536886E-10 0.00000000E+00 0.00000000E+00 0.00000000E+00 0.00000000E+00 0.00000000E+00 0.00000000E+00 0.00000000E+00 0.00000000E+00 0.00000000E+00
00026 2.36490542E+07 1.75599947E-01 -2.38341189E+00 -6.76998718E-01 3.50433588E+00 6.76887309E+00 5.18705467E+00 1.61167979E+01 5.23057561E-01 6.98485588E-01 2.81398190E-01 3.53980877E-03 1.06566191E-03 1.00996560E-02 5.17615000E+02 2.80053223E+08 4.41786949E+11 4.12313740E-03 6.76555836E-10 0.00000000E+00 0.00000000E+00 0.00000000E+00 0.00000000E+00 0.00000000E+00 0.00000000E+00 0.00000000E+00 0.00000000E+00 0.00000000E+00
00027 2.84188650E+07 1.75599936E-01 -2.38341189E+00 -6.76998911E-01 3.50433598E+00 6.76887366E+00 5.18705523E+00 1.61167986E+01 5.23055728E-01 6.98484498E-01 2.81399280E-01 3.53980876E-03 1.06566226E-03 1.00996558E-02 5.17614671E+02 2.80053316E+08 4.41786926E+11 4.12316160E-03 6.76577633E-10 0.00000000E+00 0.00000000E+00 0.00000000E+00 0.00000000E+00 0.00000000E+00 0.00000000E+00 0.00000000E+00 0.00000000E+00 0.00000000E+00
00028 3.41426380E+07 1.75599923E-01 -2.38341183E+00 -6.76999110E-01 3.50433609E+00 6.76887433E+00 5.18705581E+00 1.61167994E+01 5.23053348E-01 6.98483189E-01 2.81400588E-01 3.53980876E-03 1.06566527E-03 1.00996532E-02 5.17614334E+02 2.80053363E+08 4.41786830E+11 4.12318822E-03 6.76602601E-10 0.00000000E+00 0.00000000E+00 0.00000000E+00 0.00000000E+00 0.00000000E+00 0.00000000E+00 0.00000000E+00 0.00000000E+00 0.00000000E+00
00029 4.10111656E+07 1.75599908E-01 -2.38341165E+00 -6.76999308E-01 3.50433624E+00 6.76887509E+00 5.18705639E+00 1.61168001E+01 5.23050267E-01 6.98481620E-01 2.81402158E-01 3.53980876E-03 1.06566454E-03 1.00996537E-02 5.17614003E+02 2.80053321E+08 4.41786602E+11 4.12321706E-03 6.76631019E-10 0.00000000E+00 0.00000000E+00 0.00000000E+00 0.00000000E+00 0.00000000E+00 0.00000000E+00 0.00000000E+00 0.00000000E+00 0.00000000E+00
00030 4.92533987E+07 1.75599889E-01 -2.38341132E+00 -6.76999496E-01 3.50433642E+00 6.76887596E+00 5.18705693E+00 1.61168008E+01 5.23046292E-01 6.98479735E-01 2.81404042E-01 3.53980876E-03 1.06566513E-03 1.00996537E-02 5.17613695E+02 2.80053173E+08 4.41786223E+11 4.12324796E-03 6.76663301E-10 0.00000000E+00 0.00000000E+00 0.00000000E+00 0.00000000E+00 0.00000000E+00 0.00000000E+00 0.00000000E+00 0.00000000E+00 0.00000000E+00
00031 5.91440784E+07 1.75599867E-01 -2.38341076E+00 -6.76999663E-01 3.50433664E+00 6.76887696E+00 5.18705741E+00 1.61168014E+01 5.23041194E-01 6.98477474E-01 2.81406304E-01 3.53980876E-03 1.06566082E-03 1.00996581E-02 5.17613430E+02 2.80052851E+08 4.41785601E+11 4.12328059E-03 6.76699838E-10 0.00000000E+00 0.00000000E+00 0.00000000E+00 0.00000000E+00 0.00000000E+00 0.00000000E+00 0.00000000E+00 0.00000000E+00 0.00000000E+00
00032 7.10128941E+07 1.75599840E-01 -2.38340997E+00 -6.76999794E-01 3.50433690E+00 6.76887811E+00 5.18705777E+00 1.61168019E+01 5.23034695E-01 6.98474760E-01 2.81409018E-01 3.53980872E-03 1.06565760E-03 1.00996608E-02 5.17613234E+02 2.80052340E+08 4.41784729E+11 4.12331457E-03 6.76741124E-10 0.00000000E+00 0.00000000E+00 0.00000000E+00 0.00000000E+00 0.00000000E+00 0.00000000E+00 0.00000000E+00 0.00000000E+00 0.00000000E+00
00033 8.52554730E+07 1.75599808E-01 -2.38340891E+00 -6.76999875E-01 3.50433721E+00 6.76887941E+00 5.18705798E+00 1.61168021E+01 5.23026468E-01 6.98471505E-01 2.81412272E-01 3.53980872E-03 1.06565955E-03 1.00996598E-02 5.17613137E+02 2.80051602E+08 4.41783564E+11 4.12334952E-03 6.76787797E-10 0.00000000E+00 0.00000000E+00 0.00000000E+00 0.00000000E+00 0.00000000E+00 0.00000000E+00 0.00000000E+00 0.00000000E+00 0.00000000E+00
00034 1.02346568E+08 1.75599769E-01 -2.38340733E+00 -6.76999892E-01 3.50433761E+00 6.76888092E+00 5.18705800E+00 1.61168020E+01 5.23016159E-01 6.98467599E-01 2.81416179E-01 3.53980899E-03 1.06566143E-03 1.00996562E-02 5.17613162E+02 2.80050475E+08 4.41781865E+11 4.12338554E-03 6.76840922E-10 0.00000000E+00 0.00000000E+00 0.00000000E+00 0.00000000E+00 0.00000000E+00 0.00000000E+00 0.00000000E+00 0.00000000E+00 0.00000000E+00
00035 1.22855881E+08 1.75599723E-01 -2.38340529E+00 -6.76999835E-01 3.50433809E+00 6.76888266E+00 5.18705778E+00 1.61168017E+01 5.23003342E-01 6.98462910E-01 2.81420866E-01 3.53980872E-03 1.06565881E-03 1.00996607E-02 5.17613333E+02 2.80048977E+08 4.41779677E+11 4.12342283E-03 6.76901664E-10 0.00000000E+00 0.00000000E+00 0.00000000E+00 0.00000000E+00 0.00000000E+00 0.00000000E+00 0.00000000E+00 0.00000000E+00 0.00000000E+00
00036 1.47467057E+08 1.75599668E-01 -2.38340277E+00 -6.76999686E-01 3.50433865E+00 6.76888468E+00 5.18705728E+00 1.61168009E+01 5.22987525E-01 6.98457284E-01 2.81426493E-01 3.53980872E-03 1.06566236E-03 1.00996534E-02 5.17613681E+02 2.80047075E+08 4.41776968E+11 4.12346152E-03 6.76971596E-10 0.00000000E+00 0.00000000E+00 0.00000000E+00 0.00000000E+00 0.00000000E+00 0.00000000E+00 0.00000000E+00 0.00000000E+00 0.00000000E+00
00037 1.77000469E+08 1.75599601E-01 -2.38339942E+00 -6.76999446E-01 3.50433937E+00 6.76888706E+00 5.18705650E+00 1.61167997E+01 5.22968181E-01 6.98450528E-01 2.81433237E-01 3.53980709E-03 1.06567821E-03 1.00996507E-02 5.17614208E+02 2.80044548E+08 4.41773393E+11 4.12350349E-03 6.77053089E-10 0.00000000E+00 0.00000000E+00 0.00000000E+00 0.00000000E+00 0.00000000E+00 0.00000000E+00 0.00000000E+00 0.00000000E+00 0.00000000E+00
00038 2.12440562E+08 1.75599521E-01 -2.38339542E+00 -6.76999095E-01 3.50434019E+00 6.76888986E+00 5.18705537E+00 1.61167981E+01 5.22944654E-01 6.98442430E-01 2.81441348E-01 3.53980704E-03 1.06569547E-03 1.00996210E-02 5.17614954E+02 2.80041489E+08 4.41769125E+11 4.12354881E-03 6.77148648E-10 0.00000000E+00 0.00000000E+00 0.00000000E+00 0.00000000E+00 0.00000000E+00 0.00000000E+00 0.00000000E+00 0.00000000E+00 0.00000000E+00
00039 2.54968675E+08 1.75599425E-01 -2.38339037E+00 -6.76998637E-01 3.50434122E+00 6.76889318E+00 5.18705390E+00 1.61167960E+01 5.22916231E-01 6.98432718E-01 2.81451061E-01 3.53980704E-03 1.06574022E-03 1.00995741E-02 5.17615914E+02 2.80037634E+08 4.41763750E+11 4.12360049E-03 6.77261971E-10 0.00000000E+00 0.00000000E+00 0.00000000E+00 0.00000000E+00 0.00000000E+00 0.00000000E+00 0.00000000E+00 0.00000000E+00 0.00000000E+00
00040 3.06002410E+08 1.75599310E-01 -2.38338440E+00 -6.76998059E-01 3.50434243E+00 6.76889715E+00 5.18705206E+00 1.61167933E+01 5.22881928E-01 6.98421055E-01 2.81462728E-01 3.53980717E-03 1.06560264E-03 1.00997077E-02 5.17617118E+02 2.80033044E+08 4.41757388E+11 4.12366043E-03 6.77397057E-10 0.00000000E+00 0.00000000E+00 0.00000000E+00 0.00000000E+00 0.00000000E+00 0.00000000E+00 0.00000000E+00 0.00000000E+00 0.00000000E+00
00041 3.67242892E+08 1.75599172E-01 -2.38337721E+00 -6.76997334E-01 3.50434386E+00 6.76890187E+00 5.18704976E+00 1.61167900E+01 5.22840709E-01 6.98407097E-01 2.81476701E-01 3.53980101E-03 1.06554003E-03 1.00997793E-02 5.17618616E+02 2.80027496E+08 4.41749719E+11 4.12372959E-03 6.77556267E-10 0.00000000E+00 0.00000000E+00 0.00000000E+00 0.00000000E+00 0.00000000E+00 0.00000000E+00 0.00000000E+00 0.00000000E+00 0.00000000E+00
00042 4.40731470E+08 1.75599007E-01 -2.38336860E+00 -6.76996473E-01 3.50434558E+00 6.76890759E+00 5.18704701E+00 1.61167861E+01 5.22790961E-01 6.98390251E-01 2.81493436E-01 3.53980180E-03 1.06562373E-03 1.00997752E-02 5.17620401E+02 2.80020866E+08 4.41740554E+11 4.12381463E-03 6.77750967E-10 0.00000000E+00 0.00000000E+00 0.00000000E+00 0.00000000E+00 0.00000000E+00 0.00000000E+00 0.00000000E+00 0.00000000E+00 0.00000000E+00
00043 5.28917764E+08 1.75598808E-01 -2.38335797E+00 -6.76995429E-01 3.50434772E+00 6.76891444E+00 5.18704369E+00 1.61167813E+01 5.22731272E-01 6.98370040E-01 2.81513616E-01 3.53976088E-03 1.06552568E-03 1.00999579E-02 5.17622560E+02 2.80012703E+08 4.41729239E+11 4.12391564E-03 6.77976003E-10 0.00000000E+00 0.00000000E+00 0.00000000E+00 0.00000000E+00 0.00000000E+00 0.00000000E+00 0.00000000E+00 0.00000000E+00 0.00000000E+00
00044 6.34741317E+08 1.75598569E-01 -2.38334538E+00 -6.76994161E-01 3.50435023E+00 6.76892262E+00 5.18703967E+00 1.61167755E+01 5.22659690E-01 6.98345827E-01 2.81537799E-01 3.53976086E-03 1.06576428E-03 1.00997497E-02 5.17625179E+02 2.80003003E+08 4.41715827E+11 4.12403506E-03 6.78254293E-10 0.00000000E+00 0.00000000E+00 0.00000000E+00 0.00000000E+00 0.00000000E+00 0.00000000E+00 0.00000000E+00 0.00000000E+00 0.00000000E+00
00045 7.61729581E+08 1.75598283E-01 -2.38333002E+00 -6.76992654E-01 3.50435332E+00 6.76893240E+00 5.18703489E+00 1.61167686E+01 5.22574235E-01 6.98316896E-01 2.81566690E-01 3.53976176E-03 1.06626781E-03 1.00993128E-02 5.17628294E+02 2.79991220E+08 4.41699490E+11 4.12417818E-03 6.78587330E-10 0.00000000E+00 0.00000000E+00 0.00000000E+00 0.00000000E+00 0.00000000E+00 0.00000000E+00 0.00000000E+00 0.00000000E+00 0.00000000E+00
00046 9.14115497E+08 1.75597939E-01 -2.38331191E+00 -6.76990858E-01 3.50435695E+00 6.76894421E+00 5.18702918E+00 1.61167604E+01 5.22471375E-01 6.98282049E-01 2.81601525E-01 3.53976169E-03 1.06628376E-03 1.00993079E-02 5.17632012E+02 2.79977291E+08 4.41680208E+11 4.12435211E-03 6.78989229E-10 0.00000000E+00 0.00000000E+00 0.00000000E+00 0.00000000E+00 0.00000000E+00 0.00000000E+00 0.00000000E+00 0.00000000E+00 0.00000000E+00
00047 1.09697860E+09 1.75597527E-01 -2.38329008E+00 -6.76988691E-01 3.50436132E+00 6.76895836E+00 5.18702229E+00 1.61167505E+01 5.22347904E-01 6.98240238E-01 2.81643336E-01 3.53976165E-03 1.06628404E-03 1.00993083E-02 5.17636494E+02 2.79960505E+08 4.41656968E+11 4.12455993E-03 6.79471334E-10 0.00000000E+00 0.00000000E+00 0.00000000E+00 0.00000000E+00 0.00000000E+00 0.00000000E+00 0.00000000E+00 0.00000000E+00 0.00000000E+00
00048 1.31641432E+09 1.75597032E-01 -2.38326387E+00 -6.76986089E-01 3.50436657E+00 6.76897534E+00 5.18701403E+00 1.61167387E+01 5.22199734E-01 6.98190062E-01 2.81693524E-01 3.53976159E-03 1.06627335E-03 1.00993039E-02 5.17641874E+02 2.79940357E+08 4.41629073E+11 4.12480920E-03 6.80050271E-10 0.00000000E+00 0.00000000E+00 0.00000000E+00 0.00000000E+00 0.00000000E+00 0.00000000E+00 0.00000000E+00 0.00000000E+00 0.00000000E+00
00049 1.57973718E+09 1.75596439E-01 -2.38323239E+00 -6.76982970E-01 3.50437288E+00 6.76899572E+00 5.18700412E+00 1.61167244E+01 5.22021950E-01 6.98129854E-01 2.81753743E-01 3.53976152E-03 1.06615944E-03 1.00994045E-02 5.17648325E+02 2.79916163E+08 4.41595569E+11 4.12510857E-03 6.80745768E-10 0.00000000E+00 0.00000000E+00 0.00000000E+00 0.00000000E+00 0.00000000E+00 0.00000000E+00 0.00000000E+00 0.00000000E+00 0.00000000E+00
00050 1.89572461E+09 1.75595726E-01 -2.38319460E+00 -6.76979230E-01 3.50438046E+00 6.76902018E+00 5.18699224E+00 1.61167074E+01 5.21808584E-01 6.98057590E-01 2.81826000E-01 3.53976144E-03 1.06623370E-03 1.00993390E-02 5.17656063E+02 2.79887124E+08 4.41555352E+11 4.12546812E-03 6.81581640E-10 0.00000000E+00 0.00000000E+00 0.00000000E+00 0.00000000E+00 0.00000000E+00 0.00000000E+00 0.00000000E+00 0.00000000E+00 0.00000000E+00
00051 2.27490954E+09 1.75594872E-01 -2.38314928E+00 -6.76974735E-01 3.50438954E+00 6.76904955E+00 5.18697797E+00 1.61166868E+01 5.21552399E-01 6.97970832E-01 2.81912740E-01 3.53976071E-03 1.06626460E-03 1.00993255E-02 5.17665359E+02 2.79852298E+08 4.41507127E+11 4.12589958E-03 6.82586331E-10 0.00000000E+00 0.00000000E+00 0.00000000E+00 0.00000000E+00 0.00000000E+00 0.00000000E+00 0.00000000E+00 0.00000000E+00 0.00000000E+00
00052 2.72993145E+09 1.75593846E-01 -2.38309494E+00 -6.76969338E-01 3.50440043E+00 6.76908477E+00 5.18696082E+00 1.61166622E+01 5.21245104E-01 6.97866773E-01 2.82016804E-01 3.53977347E-03 1.06621085E-03 1.00993545E-02 5.17676521E+02 2.79810536E+08 4.41449307E+11 4.12641637E-03 6.83795474E-10 0.00000000E+00 0.00000000E+00 0.00000000E+00 0.00000000E+00 0.00000000E+00 0.00000000E+00 0.00000000E+00 0.00000000E+00 0.00000000E+00
00053 3.27595773E+09 1.75592615E-01 -2.38302959E+00 -6.76962882E-01 3.50441354E+00 6.76912707E+00 5.18694031E+00 1.61166327E+01 5.20876427E-01 6.97741880E-01 2.82141720E-01 3.53975065E-03 1.06633962E-03 1.00991966E-02 5.17689880E+02 2.79760356E+08 4.41379796E+11 4.12703806E-03 6.85242741E-10 0.00000000E+00 0.00000000E+00 0.00000000E+00 0.00000000E+00 0.00000000E+00 0.00000000E+00 0.00000000E+00 0.00000000E+00 0.00000000E+00
00054 3.93118928E+09 1.75591137E-01 -2.38295175E+00 -6.76955066E-01 3.50442909E+00 6.76917775E+00 5.18691547E+00 1.61165971E+01 5.20433691E-01 6.97592102E-01 2.82291085E-01 3.53968041E-03 1.06705372E-03 1.00989601E-02 5.17706034E+02 2.79700478E+08 4.41296980E+11 4.12777929E-03 6.86972477E-10 0.00000000E+00 0.00000000E+00 0.00000000E+00 0.00000000E+00 0.00000000E+00 0.00000000E+00 0.00000000E+00 0.00000000E+00 0.00000000E+00
00055 4.71746714E+09 1.75589364E-01 -2.38285737E+00 -6.76945785E-01 3.50444805E+00 6.76923874E+00 5.18688599E+00 1.61165547E+01 5.19902430E-01 6.97412092E-01 2.82471061E-01 3.53972240E-03 1.06694245E-03 1.00990558E-02 5.17725242E+02 2.79628077E+08 4.41196632E+11 4.12867770E-03 6.89085271E-10 0.00000000E+00 0.00000000E+00 0.00000000E+00 0.00000000E+00 0.00000000E+00 0.00000000E+00 0.00000000E+00 0.00000000E+00 0.00000000E+00
00056 5.66100056E+09 1.75587237E-01 -2.38274442E+00 -6.76934625E-01 3.50447070E+00 6.76931190E+00 5.18685054E+00 1.61165037E+01 5.19264989E-01 6.97196133E-01 2.82687050E-01 3.53972215E-03 1.06681609E-03 1.00991467E-02 5.17748336E+02 2.79541402E+08 4.41076556E+11 4.12975308E-03 6.91617624E-10 0.00000000E+00 0.00000000E+00 0.00000000E+00 0.00000000E+00 0.00000000E+00 0.00000000E+00 0.00000000E+00 0.00000000E+00 0.00000000E+00
00057 6.79324068E+09 1.75584683E-01 -2.38260871E+00 -6.76921295E-01 3.50449797E+00 6.76939963E+00 5.18680820E+00 1.61164428E+01 5.18501140E-01 6.96937174E-01 2.82946469E-01 3.53965139E-03 1.06611287E-03 1.00993994E-02 5.17775938E+02 2.79437361E+08 4.40932338E+11 4.13104478E-03 6.94653708E-10 0.00000000E+00 0.00000000E+00 0.00000000E+00 0.00000000E+00 0.00000000E+00 0.00000000E+00 0.00000000E+00 0.00000000E+00 0.00000000E+00
00058 8.15192881E+09 1.75581619E-01 -2.38244574E+00 -6.76905266E-01 3.50453069E+00 6.76950512E+00 5.18675728E+00 1.61163696E+01 5.17582974E-01 6.96625977E-01 2.83257745E-01 3.53966041E-03 1.06580721E-03 1.00996167E-02 5.17809122E+02 2.79312461E+08 4.40759215E+11 4.13259841E-03 6.98340147E-10 0.00000000E+00 0.00000000E+00 0.00000000E+00 0.00000000E+00 0.00000000E+00 0.00000000E+00 0.00000000E+00 0.00000000E+00 0.00000000E+00
00059 9.78235458E+09 1.75577941E-01 -2.38225004E+00 -6.76886009E-01 3.50456999E+00 6.76963182E+00 5.18669611E+00 1.61162817E+01 5.16480236E-01 6.96252234E-01 2.83631483E-01 3.53965998E-03 1.06552156E-03 1.00999030E-02 5.17848987E+02 2.79162551E+08 4.40551415E+11 4.13446421E-03 7.02791648E-10 0.00000000E+00 0.00000000E+00 0.00000000E+00 0.00000000E+00 0.00000000E+00 0.00000000E+00 0.00000000E+00 0.00000000E+00 0.00000000E+00
00060 1.17388655E+10 1.75573528E-01 -2.38201489E+00 -6.76862926E-01 3.50461724E+00 6.76978402E+00 5.18662279E+00 1.61161763E+01 5.15156551E-01 6.95803497E-01 2.84080216E-01 3.53965550E-03 1.06550846E-03 1.00999239E-02 5.17896784E+02 2.78982585E+08 4.40301877E+11 4.13670676E-03 7.08174309E-10 0.00000000E+00 0.00000000E+00 0.00000000E+00 0.00000000E+00 0.00000000E+00 0.00000000E+00 0.00000000E+00 0.00000000E+00 0.00000000E+00
00061 1.30000000E+10 1.75570683E-01 -2.38186319E+00 -6.76848062E-01 3.50464773E+00 6.76988222E+00 5.18657557E+00 1.61161084E+01 5.14302986E-01 6.95514084E-01 2.84369545E-01 3.53962439E-03 1.06581135E-03 1.00997330E-02 5.17927569E+02 2.78866568E+08 4.40140970E+11 4.13815426E-03 7.11663118E-10 0.00000000E+00 0.00000000E+00 0.00000000E+00 0.00000000E+00 0.00000000E+00 0.00000000E+00 0.00000000E+00 0.00000000E+00 0.00000000E+00
