0.0013344153220900016
0.0012677096317357452
0.001267709398215023
0.001267709223074509
0.0012677090187439416
0.001267708872793555
0.0012677087268431855
0.0012677085225126967
0.001267708318182241
0.001267708318182241
0.0012677080846617604
0.0012677080846617604
0.001267707851141323
0.001267707851141323
0.001267707559240837
0.001267707559240837
0.001267707559240837
0.001267707267340417
0.001267707267340417
0.001267707267340417
0.0012677069754400655
0.0012677069754400655
0.0012677069754400655
0.0012677069754400655
0.0012677067419198324
0.0012677067419198324
0.0012677067419198324
0.0012677067419198324
0.0012677067419198324
0.0012677065375896637
0.0012677065375896637
0.0012677065375896637
0.0012677065375896637
0.0012677065375896637
0.0012677065375896637
0.0012677064500196005
0.0012677064500196005
0.0012677064500196005
0.0012677064500196005
0.0012677064500196005
0.0012677064500196005
0.0012677064500196005
0.0012677065083996424
0.0012677065083996424
0.0012677065083996424
0.0012677065083996424
0.0012677065083996424
0.0012677065083996424
0.0012677065083996424
0.0012677065083996424
0.0012677068878699737
0.0012677068878699737
0.0012677068878699737
0.0012677068878699737
0.0012677068878699737
0.0012677068878699737
0.0012677068878699737
0.0012677068878699737
0.0012677068878699737
0.0012677068878699737
0.0012677076468109755
0.0012677076468109755
0.0012677076468109755
0.0012677076468109755
0.0012677076468109755
0.0012677076468109755
0.0012677076468109755
0.0012677076468109755
0.0012677076468109755
0.0012677076468109755
0.0012677076468109755
0.0012677076468109755
0.0012677089895538618
0.0012677089895538618
0.0012677089895538618
0.0012677089895538618
0.0012677089895538618
0.0012677089895538618
0.0012677089895538618
0.0012677089895538618
0.0012677089895538618
0.0012677089895538618
0.0012677089895538618
0.0012677089895538618
0.0012677089895538618
0.0012677089895538618
0.0012677110620511096
0.0012677110620511096
0.0012677110620511096
0.0012677110620511096
0.0012677110620511096
0.0012677110620511096
0.0012677110620511096
0.0012677110620511096
0.0012677110620511096
0.0012677110620511096
0.0012677110620511096
0.0012677110620511096
0.0012677110620511096
0.0012677110620511096
0.0012677110620511096
0.0012677110620511096
0.0012677110620511096
0.001267714214588631
0.001267714214588631
0.001267714214588631
0.001267714214588631
0.001267714214588631
0.001267714214588631
0.001267714214588631
0.001267714214588631
0.001267714214588631
0.001267714214588631
0.001267714214588631
0.001267714214588631
0.001267714214588631
0.001267714214588631
0.001267714214588631
0.001267714214588631
0.001267714214588631
0.001267714214588631
0.001267714214588631
0.001267714214588631
0.0012677186223162716
0.0012677186223162716
0.0012677186223162716
0.0012677186223162716
0.0012677186223162716
0.0012677186223162716
0.0012677186223162716
0.0012677186223162716
0.0012677186223162716
0.0012677186223162716
0.0012677186223162716
0.0012677186223162716
0.0012677186223162716
0.0012677186223162716
0.0012677186223162716
0.0012677186223162716
0.0012677186223162716
0.0012677186223162716
0.0012677186223162716
0.0012677186223162716
0.0012677186223162716
0.0012677186223162716
0.0012677186223162716
0.0012677186223162716
0.0012677186223162716
0.0012677245187705875
0.0012677245187705875
0.0012677245187705875
0.0012677245187705875
0.0012677245187705875
0.0012677245187705875
0.0012677245187705875
0.0012677245187705875
0.0012677245187705875
0.0012677245187705875
0.0012677245187705875
0.0012677245187705875
0.0012677245187705875
0.0012677245187705875
0.0012677245187705875
0.0012677245187705875
0.0012677245187705875
0.0012677245187705875
0.0012677245187705875
0.0012677245187705875
0.0012677245187705875
0.0012677245187705875
0.0012677245187705875
0.0012677245187705875
0.0012677245187705875
0.0012677245187705875
0.0012677245187705875
0.0012677245187705875
0.0012677245187705875
0.0012677245187705875
0.0012677326337377094
0.0012677326337377094
0.0012677326337377094
0.0012677326337377094
0.0012677326337377094
0.0012677326337377094
0.0012677326337377094
0.0012677326337377094
0.0012677326337377094
0.0012677326337377094
0.0012677326337377094
0.0012677326337377094
0.0012677326337377094
0.0012677326337377094
0.0012677326337377094
0.0012677326337377094
0.0012677326337377094
0.0012677326337377094
0.0012677326337377094
0.0012677326337377094
0.0012677326337377094
0.0012677326337377094
0.0012677326337377094
0.0012677326337377094
0.0012677326337377094
0.0012677326337377094
0.0012677326337377094
0.0012677326337377094
0.0012677326337377094
0.0012677326337377094
0.0012677326337377094
0.0012677326337377094
0.0012677326337377094
0.0012677326337377094
0.0012677326337377094
0.0012677427629242334
0.0012677427629242334
0.0012677427629242334
0.0012677427629242334
0.0012677427629242334
0.0012677427629242334
0.0012677427629242334
0.0012677427629242334
0.0012677427629242334
0.0012677427629242334
0.0012677427629242334
0.0012677427629242334
0.0012677427629242334
0.0012677427629242334
0.0012677427629242334
0.0012677427629242334
0.0012677427629242334
0.0012677427629242334
0.0012677427629242334
0.0012677427629242334
0.0012677427629242334
0.0012677427629242334
0.0012677427629242334
0.0012677427629242334
0.0012677427629242334
0.0012677427629242334
0.0012677427629242334
0.0012677427629242334
0.0012677427629242334
0.0012677427629242334
0.0012677427629242334
0.0012677427629242334
0.0012677427629242334
0.0012677427629242334
0.0012677427629242334
0.0012677427629242334
0.0012677427629242334
0.0012677427629242334
0.0012677427629242334
0.0012677427629242334
0.0012677427629242334
0.0012677427629242334
0.0012677558113039604
0.0012677558113039604
0.0012677558113039604
0.0012677558113039604
0.0012677558113039604
0.0012677558113039604
0.0012677558113039604
0.0012677558113039604
0.0012677558113039604
0.0012677558113039604
0.0012677558113039604
0.0012677558113039604
0.0012677558113039604
0.0012677558113039604
0.0012677558113039604
0.0012677558113039604
0.0012677558113039604
0.0012677558113039604
0.0012677558113039604
0.0012677558113039604
0.0012677558113039604
0.0012677558113039604
0.0012677558113039604
0.0012677558113039604
0.0012677558113039604
0.0012677558113039604
0.0012677558113039604
0.0012677558113039604
0.0012677558113039604
0.0012677558113039604
0.0012677558113039604
0.0012677558113039604
0.0012677558113039604
0.0012677558113039604
0.0012677558113039604
0.0012677558113039604
0.0012677558113039604
0.0012677558113039604
0.0012677558113039604
0.0012677558113039604
0.0012677558113039604
0.0012677558113039604
0.0012677558113039604
0.0012677558113039604
0.0012677558113039604
0.0012677558113039604
0.0012677558113039604
0.0012677558113039604
0.0012677558113039604
0.0012677558113039604
0.0012677558113039604
0.0012677558113039604
0.0012677720124992418
0.0012677720124992418
0.0012677720124992418
0.0012677720124992418
0.0012677720124992418
0.0012677720124992418
0.0012677720124992418
0.0012677720124992418
0.0012677720124992418
0.0012677720124992418
0.0012677720124992418
0.0012677720124992418
0.0012677720124992418
0.0012677720124992418
0.0012677720124992418
0.0012677720124992418
0.0012677720124992418
0.0012677720124992418
0.0012677720124992418
0.0012677720124992418
0.0012677720124992418
0.0012677720124992418
0.0012677720124992418
0.0012677720124992418
0.0012677720124992418
0.0012677720124992418
0.0012677720124992418
0.0012677720124992418
0.0012677720124992418
0.0012677720124992418
0.0012677720124992418
0.0012677720124992418
0.0012677720124992418
0.0012677720124992418
0.0012677720124992418
0.0012677720124992418
0.0012677720124992418
0.0012677720124992418
0.0012677720124992418
0.0012677720124992418
0.0012677720124992418
0.0012677720124992418
0.0012677720124992418
0.0012677720124992418
0.0012677720124992418
0.0012677720124992418
0.0012677720124992418
0.0012677720124992418
0.0012677720124992418
0.0012677720124992418
0.0012677720124992418
0.0012677720124992418
0.0012677720124992418
0.0012677720124992418
0.0012677720124992418
0.0012677720124992418
0.0012677720124992418
0.0012677720124992418
0.0012677720124992418
0.0012677720124992418
0.0012677720124992418
0.0012677919796625701
0.0012677919796625701
0.0012677919796625701
0.0012677919796625701
0.0012677919796625701
0.0012677919796625701
0.0012677919796625701
0.0012677919796625701
0.0012677919796625701
0.0012677919796625701
0.0012677919796625701
0.0012677919796625701
0.0012677919796625701
0.0012677919796625701
0.0012677919796625701
0.0012677919796625701
0.0012677919796625701
0.0012677919796625701
0.0012677919796625701
0.0012677919796625701
0.0012677919796625701
0.0012677919796625701
0.0012677919796625701
0.0012677919796625701
0.0012677919796625701
0.0012677919796625701
0.0012677919796625701
0.0012677919796625701
0.0012677919796625701
0.0012677919796625701
0.0012677919796625701
0.0012677919796625701
0.0012677919796625701
0.0012677919796625701
0.0012677919796625701
0.0012677919796625701
0.0012677919796625701
0.0012677919796625701
0.0012677919796625701
0.0012677919796625701
0.0012677919796625701
0.0012677919796625701
0.0012677919796625701
0.0012677919796625701
0.0012677919796625701
0.0012677919796625701
0.0012677919796625701
0.0012677919796625701
0.0012677919796625701
0.0012677919796625701
0.0012677919796625701
0.0012677919796625701
0.0012677919796625701
0.0012677919796625701
0.0012677919796625701
0.0012677919796625701
0.0012677919796625701
0.0012677919796625701
0.0012677919796625701
0.0012677919796625701
0.0012677919796625701
0.0012677919796625701
0.0012677919796625701
0.0012677919796625701
0.0012677919796625701
0.0012677919796625701
0.0012677919796625701
0.0012677919796625701
0.0012677919796625701
0.0012677919796625701
0.0012677919796625701
0.0012677919796625701
0.0012677919796625701
0.0012678161216674447
0.0012678161216674447
0.0012678161216674447
0.0012678161216674447
0.0012678161216674447
0.0012678161216674447
0.0012678161216674447
0.0012678161216674447
0.0012678161216674447
0.0012678161216674447
0.0012678161216674447
0.0012678161216674447
0.0012678161216674447
0.0012678161216674447
0.0012678161216674447
0.0012678161216674447
0.0012678161216674447
0.0012678161216674447
0.0012678161216674447
0.0012678161216674447
0.0012678161216674447
0.0012678161216674447
0.0012678161216674447
0.0012678161216674447
0.0012678161216674447
0.0012678161216674447
0.0012678161216674447
0.0012678161216674447
0.0012678161216674447
0.0012678161216674447
0.0012678161216674447
0.0012678161216674447
0.0012678161216674447
0.0012678161216674447
0.0012678161216674447
0.0012678161216674447
0.0012678161216674447
0.0012678161216674447
0.0012678161216674447
0.0012678161216674447
0.0012678161216674447
0.0012678161216674447
0.0012678161216674447
0.0012678161216674447
0.0012678161216674447
0.0012678161216674447
0.0012678161216674447
0.0012678161216674447
0.0012678161216674447
0.0012678161216674447
0.0012678161216674447
0.0012678161216674447
0.0012678161216674447
0.0012678161216674447
0.0012678161216674447
0.0012678161216674447
0.0012678161216674447
0.0012678161216674447
0.0012678161216674447
0.0012678161216674447
0.0012678161216674447
0.0012678161216674447
0.0012678161216674447
0.0012678161216674447
0.0012678161216674447
0.0012678161216674447
0.0012678161216674447
0.0012678161216674447
0.0012678161216674447
0.0012678161216674447
0.0012678161216674447
0.0012678161216674447
0.0012678161216674447
0.0012678161216674447
0.0012678161216674447
0.0012678161216674447
0.0012678161216674447
0.0012678161216674447
0.0012678161216674447
0.0012678161216674447
0.0012678161216674447
0.0012678161216674447
0.0012678161216674447
0.0012678161216674447
0.0012678161216674447
0.0012678161216674447
0.0012678161216674447
0.0012678161216674447
0.0012678456356739925
0.0012678456356739925
0.0012678456356739925
0.0012678456356739925
0.0012678456356739925
0.0012678456356739925
0.0012678456356739925
0.0012678456356739925
0.0012678456356739925
0.0012678456356739925
0.0012678456356739925
0.0012678456356739925
0.0012678456356739925
0.0012678456356739925
0.0012678456356739925
0.0012678456356739925
0.0012678456356739925
0.0012678456356739925
0.0012678456356739925
0.0012678456356739925
0.0012678456356739925
0.0012678456356739925
0.0012678456356739925
0.0012678456356739925
0.0012678456356739925
0.0012678456356739925
0.0012678456356739925
0.0012678456356739925
0.0012678456356739925
0.0012678456356739925
0.0012678456356739925
0.0012678456356739925
0.0012678456356739925
0.0012678456356739925
0.0012678456356739925
0.0012678456356739925
0.0012678456356739925
0.0012678456356739925
0.0012678456356739925
0.0012678456356739925
0.0012678456356739925
0.0012678456356739925
0.0012678456356739925
0.0012678456356739925
0.0012678456356739925
0.0012678456356739925
0.0012678456356739925
0.0012678456356739925
0.0012678456356739925
0.0012678456356739925
0.0012678456356739925
0.0012678456356739925
0.0012678456356739925
0.0012678456356739925
0.0012678456356739925
0.0012678456356739925
0.0012678456356739925
0.0012678456356739925
0.0012678456356739925
0.0012678456356739925
0.0012678456356739925
0.0012678456356739925
0.0012678456356739925
0.0012678456356739925
0.0012678456356739925
0.0012678456356739925
0.0012678456356739925
0.0012678456356739925
0.0012678456356739925
0.0012678456356739925
0.0012678456356739925
0.0012678456356739925
0.0012678456356739925
0.0012678456356739925
0.0012678456356739925
0.0012678456356739925
0.0012678456356739925
0.0012678456356739925
0.0012678456356739925
0.0012678456356739925
0.0012678456356739925
0.0012678456356739925
0.0012678456356739925
0.0012678456356739925
0.0012678456356739925
0.0012678456356739925
0.0012678456356739925
0.0012678456356739925
0.0012678456356739925
0.0012678456356739925
0.0012678456356739925
0.0012678456356739925
0.0012678456356739925
0.0012678456356739925
0.0012678456356739925
0.0012678456356739925
0.0012678456356739925
0.0012678456356739925
0.0012678456356739925
0.0012678456356739925
0.0012678456356739925
0.0012678456356739925
0.0012678456356739925
0.0012678456356739925
0.0012678456356739925
0.0012678456356739925
0.0012678808723857462
0.0012678808723857462
0.0012678808723857462
0.0012678808723857462
0.0012678808723857462
0.0012678808723857462
0.0012678808723857462
0.0012678808723857462
0.0012678808723857462
0.0012678808723857462
0.0012678808723857462
0.0012678808723857462
0.0012678808723857462
0.0012678808723857462
0.0012678808723857462
0.0012678808723857462
0.0012678808723857462
0.0012678808723857462
0.0012678808723857462
0.0012678808723857462
0.0012678808723857462
0.0012678808723857462
0.0012678808723857462
0.0012678808723857462
0.0012678808723857462
0.0012678808723857462
0.0012678808723857462
0.0012678808723857462
0.0012678808723857462
0.0012678808723857462
0.0012678808723857462
0.0012678808723857462
0.0012678808723857462
0.0012678808723857462
0.0012678808723857462
0.0012678808723857462
0.0012678808723857462
0.0012678808723857462
0.0012678808723857462
0.0012678808723857462
0.0012678808723857462
0.0012678808723857462
0.0012678808723857462
0.0012678808723857462
0.0012678808723857462
0.0012678808723857462
0.0012678808723857462
0.0012678808723857462
0.0012678808723857462
0.0012678808723857462
0.0012678808723857462
0.0012678808723857462
0.0012678808723857462
0.0012678808723857462
0.0012678808723857462
0.0012678808723857462
0.0012678808723857462
0.0012678808723857462
0.0012678808723857462
0.0012678808723857462
0.0012678808723857462
0.0012678808723857462
0.0012678808723857462
0.0012678808723857462
0.0012678808723857462
0.0012678808723857462
0.0012678808723857462
0.0012678808723857462
0.0012678808723857462
0.0012678808723857462
0.0012678808723857462
0.0012678808723857462
0.0012678808723857462
0.0012678808723857462
0.0012678808723857462
0.0012678808723857462
0.0012678808723857462
0.0012678808723857462
0.0012678808723857462
0.0012678808723857462
0.0012678808723857462
0.0012678808723857462
0.0012678808723857462
0.0012678808723857462
0.0012678808723857462
0.0012678808723857462
0.0012678808723857462
0.0012678808723857462
0.0012678808723857462
0.0012678808723857462
0.0012678808723857462
0.0012678808723857462
0.0012678808723857462
0.0012678808723857462
0.0012678808723857462
0.0012678808723857462
0.0012678808723857462
0.0012678808723857462
0.0012678808723857462
0.0012678808723857462
0.0012678808723857462
0.0012678808723857462
0.0012678808723857462
0.0012678808723857462
0.0012678808723857462
0.0012678808723857462
0.0012678808723857462
0.0012678808723857462
0.0012678808723857462
0.0012678808723857462
0.0012678808723857462
0.0012678808723857462
0.0012678808723857462
0.0012678808723857462
0.0012678808723857462
0.0012678808723857462
0.0012678808723857462
0.0012678808723857462
0.0012678808723857462
0.0012678808723857462
0.0012678808723857462
0.0012678808723857462
0.0012678808723857462
0.0012678808723857462
0.0012678808723857462
0.0012678808723857462
0.0012678808723857462
0.0012679239343200489
0.0012679239343200489
0.0012679239343200489
0.0012679239343200489
0.0012679239343200489
0.0012679239343200489
0.0012679239343200489
0.0012679239343200489
0.0012679239343200489
0.0012679239343200489
0.0012679239343200489
0.0012679239343200489
0.0012679239343200489
0.0012679239343200489
0.0012679239343200489
0.0012679239343200489
0.0012679239343200489
0.0012679239343200489
0.0012679239343200489
0.0012679239343200489
0.0012679239343200489
0.0012679239343200489
0.0012679239343200489
0.0012679239343200489
0.0012679239343200489
0.0012679239343200489
0.0012679239343200489
0.0012679239343200489
0.0012679239343200489
0.0012679239343200489
0.0012679239343200489
0.0012679239343200489
0.0012679239343200489
0.0012679239343200489
0.0012679239343200489
0.0012679239343200489
0.0012679239343200489
0.0012679239343200489
0.0012679239343200489
0.0012679239343200489
0.0012679239343200489
0.0012679239343200489
0.0012679239343200489
0.0012679239343200489
0.0012679239343200489
0.0012679239343200489
0.0012679239343200489
0.0012679239343200489
0.0012679239343200489
0.0012679239343200489
0.0012679239343200489
0.0012679239343200489
0.0012679239343200489
0.0012679239343200489
0.0012679239343200489
0.0012679239343200489
0.0012679239343200489
0.0012679239343200489
0.0012679239343200489
0.0012679239343200489
0.0012679239343200489
0.0012679239343200489
0.0012679239343200489
0.0012679239343200489
0.0012679239343200489
0.0012679239343200489
0.0012679239343200489
0.0012679239343200489
0.0012679239343200489
0.0012679239343200489
0.0012679239343200489
0.0012679239343200489
0.0012679239343200489
0.0012679239343200489
0.0012679239343200489
0.0012679239343200489
0.0012679239343200489
0.0012679239343200489
0.0012679239343200489
0.0012679239343200489
0.0012679239343200489
0.0012679239343200489
0.0012679239343200489
0.0012679239343200489
0.0012679239343200489
0.0012679239343200489
0.0012679239343200489
0.0012679239343200489
0.0012679239343200489
0.0012679239343200489
0.0012679239343200489
0.0012679239343200489
0.0012679239343200489
0.0012679239343200489
0.0012679239343200489
0.0012679239343200489
0.0012679239343200489
0.0012679239343200489
0.0012679239343200489
0.0012679239343200489
0.0012679239343200489
0.0012679239343200489
0.0012679239343200489
0.0012679239343200489
0.0012679239343200489
0.0012679239343200489
0.0012679239343200489
0.0012679239343200489
0.0012679239343200489
0.0012679239343200489
0.0012679239343200489
0.0012679239343200489
0.0012679239343200489
0.0012679239343200489
0.0012679239343200489
0.0012679239343200489
0.0012679239343200489
0.0012679239343200489
0.0012679239343200489
0.0012679239343200489
0.0012679239343200489
0.0012679239343200489
0.0012679239343200489
0.0012679239343200489
0.0012679239343200489
0.0012679239343200489
0.0012679239343200489
0.0012679239343200489
0.0012679239343200489
0.0012679239343200489
0.0012679239343200489
0.0012679239343200489
0.0012679239343200489
0.0012679239343200489
0.0012679239343200489
0.0012679239343200489
0.0012679239343200489
0.0012679239343200489
0.0012679239343200489
0.0012679239343200489
0.0012679239343200489
0.0012679239343200489
0.0012679239343200489
0.0012679239343200489
0.0012679239343200489
0.0012679239343200489
0.0012679239343200489
0.0012679239343200489
0.0012679239343200489
0.0012679239343200489
0.0012679239343200489
0.0012679239343200489
0.0012679239343200489
0.001267975231021003
0.001267975231021003
0.001267975231021003
0.001267975231021003
0.001267975231021003
0.001267975231021003
0.001267975231021003
0.001267975231021003
0.001267975231021003
0.001267975231021003
0.001267975231021003
0.001267975231021003
0.001267975231021003
0.001267975231021003
0.001267975231021003
0.001267975231021003
0.001267975231021003
0.001267975231021003
0.001267975231021003
0.001267975231021003
0.001267975231021003
0.001267975231021003
0.001267975231021003
0.001267975231021003
0.001267975231021003
0.001267975231021003
0.001267975231021003
0.001267975231021003
0.001267975231021003
0.001267975231021003
0.001267975231021003
0.001267975231021003
0.001267975231021003
0.001267975231021003
0.001267975231021003
0.001267975231021003
0.001267975231021003
0.001267975231021003
0.001267975231021003
0.001267975231021003
0.001267975231021003
0.001267975231021003
0.001267975231021003
0.001267975231021003
0.001267975231021003
0.001267975231021003
0.001267975231021003
0.001267975231021003
0.001267975231021003
0.001267975231021003
0.001267975231021003
0.001267975231021003
0.001267975231021003
0.001267975231021003
0.001267975231021003
0.001267975231021003
0.001267975231021003
0.001267975231021003
0.001267975231021003
0.001267975231021003
0.001267975231021003
0.001267975231021003
0.001267975231021003
0.001267975231021003
0.001267975231021003
0.001267975231021003
0.001267975231021003
0.001267975231021003
0.001267975231021003
0.001267975231021003
0.001267975231021003
0.001267975231021003
0.001267975231021003
0.001267975231021003
0.001267975231021003
0.001267975231021003
0.001267975231021003
0.001267975231021003
0.001267975231021003
0.001267975231021003
0.001267975231021003
0.001267975231021003
0.001267975231021003
0.001267975231021003
0.001267975231021003
0.001267975231021003
0.001267975231021003
0.001267975231021003
0.001267975231021003
0.001267975231021003
0.001267975231021003
0.001267975231021003
0.001267975231021003
0.001267975231021003
0.001267975231021003
0.001267975231021003
0.001267975231021003
0.001267975231021003
0.001267975231021003
0.001267975231021003
0.001267975231021003
0.001267975231021003
0.001267975231021003
0.001267975231021003
0.001267975231021003
0.001267975231021003
0.001267975231021003
0.001267975231021003
0.001267975231021003
0.001267975231021003
0.001267975231021003
0.001267975231021003
0.001267975231021003
0.001267975231021003
0.001267975231021003
0.001267975231021003
0.001267975231021003
0.001267975231021003
0.001267975231021003
0.001267975231021003
0.001267975231021003
0.001267975231021003
0.001267975231021003
0.001267975231021003
0.001267975231021003
0.001267975231021003
0.001267975231021003
0.001267975231021003
0.001267975231021003
0.001267975231021003
0.001267975231021003
0.001267975231021003
0.001267975231021003
0.001267975231021003
0.001267975231021003
0.001267975231021003
0.001267975231021003
0.001267975231021003
0.001267975231021003
0.001267975231021003
0.001267975231021003
0.001267975231021003
0.001267975231021003
0.001267975231021003
0.001267975231021003
0.001267975231021003
0.001267975231021003
0.001267975231021003
0.001267975231021003
0.001267975231021003
0.001267975231021003
0.001267975231021003
0.001267975231021003
0.001267975231021003
0.001267975231021003
0.001267975231021003
0.001267975231021003
0.001267975231021003
0.001267975231021003
0.001267975231021003
0.001267975231021003
0.001267975231021003
0.001267975231021003
0.001267975231021003
0.001267975231021003
0.001267975231021003
0.001267975231021003
0.001267975231021003
0.001267975231021003
0.001267975231021003
0.001267975231021003
0.001267975231021003
0.001267975231021003
0.001267975231021003
0.001267975231021003
0.001267975231021003
0.001267975231021003
0.001267975231021003
0.001267975231021003
0.001267975231021003
0.001267975231021003
0.001267975231021003
0.0012680359897868799
0.0012680359897868799
0.0012680359897868799
0.0012680359897868799
0.0012680359897868799
0.0012680359897868799
0.0012680359897868799
0.0012680359897868799
0.0012680359897868799
0.0012680359897868799
0.0012680359897868799
0.0012680359897868799
0.0012680359897868799
0.0012680359897868799
0.0012680359897868799
0.0012680359897868799
0.0012680359897868799
0.0012680359897868799
0.0012680359897868799
0.0012680359897868799
0.0012680359897868799
0.0012680359897868799
0.0012680359897868799
0.0012680359897868799
0.0012680359897868799
0.0012680359897868799
0.0012680359897868799
0.0012680359897868799
0.0012680359897868799
0.0012680359897868799
0.0012680359897868799
0.0012680359897868799
0.0012680359897868799
0.0012680359897868799
0.0012680359897868799
0.0012680359897868799
0.0012680359897868799
0.0012680359897868799
0.0012680359897868799
0.0012680359897868799
0.0012680359897868799
0.0012680359897868799
0.0012680359897868799
0.0012680359897868799
0.0012680359897868799
0.0012680359897868799
0.0012680359897868799
0.0012680359897868799
0.0012680359897868799
0.0012680359897868799
0.0012680359897868799
0.0012680359897868799
0.0012680359897868799
0.0012680359897868799
0.0012680359897868799
0.0012680359897868799
0.0012680359897868799
0.0012680359897868799
0.0012680359897868799
0.0012680359897868799
0.0012680359897868799
0.0012680359897868799
0.0012680359897868799
0.0012680359897868799
0.0012680359897868799
0.0012680359897868799
0.0012680359897868799
0.0012680359897868799
0.0012680359897868799
0.0012680359897868799
0.0012680359897868799
0.0012680359897868799
0.0012680359897868799
0.0012680359897868799
0.0012680359897868799
0.0012680359897868799
0.0012680359897868799
0.0012680359897868799
0.0012680359897868799
0.0012680359897868799
0.0012680359897868799
0.0012680359897868799
0.0012680359897868799
0.0012680359897868799
0.0012680359897868799
0.0012680359897868799
0.0012680359897868799
0.0012680359897868799
0.0012680359897868799
0.0012680359897868799
0.0012680359897868799
0.0012680359897868799
0.0012680359897868799
0.0012680359897868799
0.0012680359897868799
0.0012680359897868799
0.0012680359897868799
0.0012680359897868799
0.0012680359897868799
0.0012680359897868799
0.0012680359897868799
0.0012680359897868799
0.0012680359897868799
0.0012680359897868799
0.0012680359897868799
0.0012680359897868799
0.0012680359897868799
0.0012680359897868799
0.0012680359897868799
0.0012680359897868799
0.0012680359897868799
0.0012680359897868799
0.0012680359897868799
0.0012680359897868799
0.0012680359897868799
0.0012680359897868799
0.0012680359897868799
0.0012680359897868799
0.0012680359897868799
0.0012680359897868799
0.0012680359897868799
0.0012680359897868799
0.0012680359897868799
0.0012680359897868799
0.0012680359897868799
0.0012680359897868799
0.0012680359897868799
0.0012680359897868799
0.0012680359897868799
0.0012680359897868799
0.0012680359897868799
0.0012680359897868799
0.0012680359897868799
0.0012680359897868799
0.0012680359897868799
0.0012680359897868799
0.0012680359897868799
0.0012680359897868799
0.0012680359897868799
0.0012680359897868799
0.0012680359897868799
0.0012680359897868799
0.0012680359897868799
0.0012680359897868799
0.0012680359897868799
0.0012680359897868799
0.0012680359897868799
0.0012680359897868799
0.0012680359897868799
0.0012680359897868799
0.0012680359897868799
0.0012680359897868799
0.0012680359897868799
0.0012680359897868799
0.0012680359897868799
0.0012680359897868799
0.0012680359897868799
0.0012680359897868799
0.0012680359897868799
0.0012680359897868799
0.0012680359897868799
0.0012680359897868799
0.0012680359897868799
0.0012680359897868799
0.0012680359897868799
0.0012680359897868799
0.0012680359897868799
0.0012680359897868799
0.0012680359897868799
0.0012680359897868799
0.0012680359897868799
0.0012680359897868799
0.0012680359897868799
0.0012680359897868799
0.0012680359897868799
0.0012680359897868799
0.0012680359897868799
0.0012680359897868799
0.0012680359897868799
0.0012680359897868799
0.0012680359897868799
0.0012680359897868799
0.0012680359897868799
0.0012680359897868799
0.0012680359897868799
0.0012680359897868799
0.0012680359897868799
0.0012680359897868799
0.0012680359897868799
0.0012680359897868799
0.0012680359897868799
0.0012680359897868799
0.0012680359897868799
0.0012680359897868799
0.0012680359897868799
0.0012680359897868799
0.0012680359897868799
0.0012680359897868799
0.0012680359897868799
0.0012680359897868799
0.0012680359897868799
0.0012680359897868799
0.0012680359897868799
0.0012680359897868799
0.0012680359897868799
0.0012680359897868799
0.0012680359897868799
0.0012680359897868799
0.0012680359897868799
0.0012680359897868799
0.0012680359897868799
0.0012680359897868799
0.0012680359897868799
0.0012680359897868799
0.0012680359897868799
0.0012680359897868799
0.0012680359897868799
0.0012680359897868799
0.0012680359897868799
0.0012680359897868799
0.0012681091319034945
0.0012681091319034945
0.0012681091319034945
0.0012681091319034945
0.0012681091319034945
0.0012681091319034945
0.0012681091319034945
0.0012681091319034945
0.0012681091319034945
0.0012681091319034945
0.0012681091319034945
0.0012681091319034945
0.0012681091319034945
0.0012681091319034945
0.0012681091319034945
0.0012681091319034945
0.0012681091319034945
0.0012681091319034945
0.0012681091319034945
0.0012681091319034945
0.0012681091319034945
0.0012681091319034945
0.0012681091319034945
0.0012681091319034945
0.0012681091319034945
0.0012681091319034945
0.0012681091319034945
0.0012681091319034945
0.0012681091319034945
0.0012681091319034945
0.0012681091319034945
0.0012681091319034945
0.0012681091319034945
0.0012681091319034945
0.0012681091319034945
0.0012681091319034945
0.0012681091319034945
0.0012681091319034945
0.0012681091319034945
0.0012681091319034945
0.0012681091319034945
0.0012681091319034945
0.0012681091319034945
0.0012681091319034945
0.0012681091319034945
0.0012681091319034945
0.0012681091319034945
0.0012681091319034945
0.0012681091319034945
0.0012681091319034945
0.0012681091319034945
0.0012681091319034945
0.0012681091319034945
0.0012681091319034945
0.0012681091319034945
0.0012681091319034945
0.0012681091319034945
0.0012681091319034945
0.0012681091319034945
0.0012681091319034945
0.0012681091319034945
0.0012681091319034945
0.0012681091319034945
0.0012681091319034945
0.0012681091319034945
0.0012681091319034945
0.0012681091319034945
0.0012681091319034945
0.0012681091319034945
0.0012681091319034945
0.0012681091319034945
0.0012681091319034945
0.0012681091319034945
0.0012681091319034945
0.0012681091319034945
0.0012681091319034945
0.0012681091319034945
0.0012681091319034945
0.0012681091319034945
0.0012681091319034945
0.0012681091319034945
0.0012681091319034945
0.0012681091319034945
0.0012681091319034945
0.0012681091319034945
0.0012681091319034945
0.0012681091319034945
0.0012681091319034945
0.0012681091319034945
0.0012681091319034945
0.0012681091319034945
0.0012681091319034945
0.0012681091319034945
0.0012681091319034945
0.0012681091319034945
0.0012681091319034945
0.0012681091319034945
0.0012681091319034945
0.0012681091319034945
0.0012681091319034945
0.0012681091319034945
0.0012681091319034945
0.0012681091319034945
0.0012681091319034945
0.0012681091319034945
0.0012681091319034945
0.0012681091319034945
0.0012681091319034945
0.0012681091319034945
0.0012681091319034945
0.0012681091319034945
0.0012681091319034945
0.0012681091319034945
0.0012681091319034945
0.0012681091319034945
0.0012681091319034945
0.0012681091319034945
0.0012681091319034945
0.0012681091319034945
0.0012681091319034945
0.0012681091319034945
0.0012681091319034945
0.0012681091319034945
0.0012681091319034945
0.0012681091319034945
0.0012681091319034945
0.0012681091319034945
0.0012681091319034945
0.0012681091319034945
0.0012681091319034945
0.0012681091319034945
0.0012681091319034945
0.0012681091319034945
0.0012681091319034945
0.0012681091319034945
0.0012681091319034945
0.0012681091319034945
0.0012681091319034945
0.0012681091319034945
0.0012681091319034945
0.0012681091319034945
0.0012681091319034945
0.0012681091319034945
0.0012681091319034945
0.0012681091319034945
0.0012681091319034945
0.0012681091319034945
0.0012681091319034945
0.0012681091319034945
0.0012681091319034945
0.0012681091319034945
0.0012681091319034945
0.0012681091319034945
0.0012681091319034945
0.0012681091319034945
0.0012681091319034945
0.0012681091319034945
0.0012681091319034945
0.0012681091319034945
0.0012681091319034945
0.0012681091319034945
0.0012681091319034945
0.0012681091319034945
0.0012681091319034945
0.0012681091319034945
0.0012681091319034945
0.0012681091319034945
0.0012681091319034945
0.0012681091319034945
0.0012681091319034945
0.0012681091319034945
0.0012681091319034945
0.0012681091319034945
0.0012681091319034945
0.0012681091319034945
0.0012681091319034945
0.0012681091319034945
0.0012681091319034945
0.0012681091319034945
0.0012681091319034945
0.0012681091319034945
0.0012681091319034945
0.0012681091319034945
0.0012681091319034945
0.0012681091319034945
0.0012681091319034945
0.0012681091319034945
0.0012681091319034945
0.0012681091319034945
0.0012681091319034945
0.0012681091319034945
0.0012681091319034945
0.0012681091319034945
0.0012681091319034945
0.0012681091319034945
0.0012681091319034945
0.0012681091319034945
0.0012681091319034945
0.0012681091319034945
0.0012681091319034945
0.0012681091319034945
0.0012681091319034945
0.0012681091319034945
0.0012681091319034945
0.0012681091319034945
0.0012681091319034945
0.0012681091319034945
0.0012681091319034945
0.0012681091319034945
0.0012681091319034945
0.0012681091319034945
0.0012681091319034945
0.0012681091319034945
0.0012681091319034945
0.0012681091319034945
0.0012681091319034945
0.0012681091319034945
0.0012681091319034945
0.0012681091319034945
0.0012681091319034945
0.0012681091319034945
0.0012681091319034945
0.0012681091319034945
0.0012681091319034945
0.0012681091319034945
0.0012681091319034945
0.0012681091319034945
0.0012681091319034945
0.0012681091319034945
0.0012681091319034945
0.0012681091319034945
0.0012681091319034945
0.0012681091319034945
0.0012681091319034945
0.0012681091319034945
0.0012681091319034945
0.0012681091319034945
0.0012681091319034945
0.0012681091319034945
0.0012681091319034945
0.0012681091319034945
0.0012681091319034945
0.0012681091319034945
0.0012681091319034945
0.0012681091319034945
0.0012681091319034945
0.0012681091319034945
0.0012681091319034945
0.0012681091319034945
0.0012681091319034945
0.0012681091319034945
0.0012681091319034945
0.0012681091319034945
0.0012681091319034945
0.0012681091319034945
0.0012681091319034945
0.0012681091319034945
0.0012681091319034945
0.0012681091319034945
0.0012681091319034945
0.0012681091319034945
0.0012681091319034945
0.0012681091319034945
0.0012681974044348734
0.0012681974044348734
0.0012681974044348734
0.0012681974044348734
0.0012681974044348734
0.0012681974044348734
0.0012681974044348734
0.0012681974044348734
0.0012681974044348734
0.0012681974044348734
0.0012681974044348734
0.0012681974044348734
0.0012681974044348734
0.0012681974044348734
0.0012681974044348734
0.0012681974044348734
0.0012681974044348734
0.0012681974044348734
0.0012681974044348734
0.0012681974044348734
0.0012681974044348734
0.0012681974044348734
0.0012681974044348734
0.0012681974044348734
0.0012681974044348734
0.0012681974044348734
0.0012681974044348734
0.0012681974044348734
0.0012681974044348734
0.0012681974044348734
0.0012681974044348734
0.0012681974044348734
0.0012681974044348734
0.0012681974044348734
0.0012681974044348734
0.0012681974044348734
0.0012681974044348734
0.0012681974044348734
0.0012681974044348734
0.0012681974044348734
0.0012681974044348734
0.0012681974044348734
0.0012681974044348734
0.0012681974044348734
0.0012681974044348734
0.0012681974044348734
0.0012681974044348734
0.0012681974044348734
0.0012681974044348734
0.0012681974044348734
0.0012681974044348734
0.0012681974044348734
0.0012681974044348734
0.0012681974044348734
0.0012681974044348734
0.0012681974044348734
0.0012681974044348734
0.0012681974044348734
0.0012681974044348734
0.0012681974044348734
0.0012681974044348734
0.0012681974044348734
0.0012681974044348734
0.0012681974044348734
0.0012681974044348734
0.0012681974044348734
0.0012681974044348734
0.0012681974044348734
0.0012681974044348734
0.0012681974044348734
0.0012681974044348734
0.0012681974044348734
0.0012681974044348734
0.0012681974044348734
0.0012681974044348734
0.0012681974044348734
0.0012681974044348734
0.0012681974044348734
0.0012681974044348734
0.0012681974044348734
0.0012681974044348734
0.0012681974044348734
0.0012681974044348734
0.0012681974044348734
0.0012681974044348734
0.0012681974044348734
0.0012681974044348734
0.0012681974044348734
0.0012681974044348734
0.0012681974044348734
0.0012681974044348734
0.0012681974044348734
0.0012681974044348734
0.0012681974044348734
0.0012681974044348734
0.0012681974044348734
0.0012681974044348734
0.0012681974044348734
0.0012681974044348734
0.0012681974044348734
0.0012681974044348734
0.0012681974044348734
0.0012681974044348734
0.0012681974044348734
0.0012681974044348734
0.0012681974044348734
0.0012681974044348734
0.0012681974044348734
0.0012681974044348734
0.0012681974044348734
0.0012681974044348734
0.0012681974044348734
0.0012681974044348734
0.0012681974044348734
0.0012681974044348734
0.0012681974044348734
0.0012681974044348734
0.0012681974044348734
0.0012681974044348734
0.0012681974044348734
0.0012681974044348734
0.0012681974044348734
0.0012681974044348734
0.0012681974044348734
0.0012681974044348734
0.0012681974044348734
0.0012681974044348734
0.0012681974044348734
0.0012681974044348734
0.0012681974044348734
0.0012681974044348734
0.0012681974044348734
0.0012681974044348734
0.0012681974044348734
0.0012681974044348734
0.0012681974044348734
0.0012681974044348734
0.0012681974044348734
0.0012681974044348734
0.0012681974044348734
0.0012681974044348734
0.0012681974044348734
0.0012681974044348734
0.0012681974044348734
0.0012681974044348734
0.0012681974044348734
0.0012681974044348734
0.0012681974044348734
0.0012681974044348734
0.0012681974044348734
0.0012681974044348734
0.0012681974044348734
0.0012681974044348734
0.0012681974044348734
0.0012681974044348734
0.0012681974044348734
0.0012681974044348734
0.0012681974044348734
0.0012681974044348734
0.0012681974044348734
0.0012681974044348734
0.0012681974044348734
0.0012681974044348734
0.0012681974044348734
0.0012681974044348734
0.0012681974044348734
0.0012681974044348734
0.0012681974044348734
0.0012681974044348734
0.0012681974044348734
0.0012681974044348734
0.0012681974044348734
0.0012681974044348734
0.0012681974044348734
0.0012681974044348734
0.0012681974044348734
0.0012681974044348734
0.0012681974044348734
0.0012681974044348734
0.0012681974044348734
0.0012681974044348734
0.0012681974044348734
0.0012681974044348734
0.0012681974044348734
0.0012681974044348734
0.0012681974044348734
0.0012681974044348734
0.0012681974044348734
0.0012681974044348734
0.0012681974044348734
0.0012681974044348734
0.0012681974044348734
0.0012681974044348734
0.0012681974044348734
0.0012681974044348734
0.0012681974044348734
0.0012681974044348734
0.0012681974044348734
0.0012681974044348734
0.0012681974044348734
0.0012681974044348734
0.0012681974044348734
0.0012681974044348734
0.0012681974044348734
0.0012681974044348734
0.0012681974044348734
0.0012681974044348734
0.0012681974044348734
0.0012681974044348734
0.0012681974044348734
0.0012681974044348734
0.0012681974044348734
0.0012681974044348734
0.0012681974044348734
0.0012681974044348734
0.0012681974044348734
0.0012681974044348734
0.0012681974044348734
0.0012681974044348734
0.0012681974044348734
0.0012681974044348734
0.0012681974044348734
0.0012681974044348734
0.0012681974044348734
0.0012681974044348734
0.0012681974044348734
0.0012681974044348734
0.0012681974044348734
0.0012681974044348734
0.0012681974044348734
0.0012681974044348734
0.0012681974044348734
0.0012681974044348734
0.0012681974044348734
0.0012681974044348734
0.0012681974044348734
0.0012681974044348734
0.0012681974044348734
0.0012681974044348734
0.0012681974044348734
0.0012681974044348734
0.0012681974044348734
0.0012681974044348734
0.0012681974044348734
0.0012681974044348734
0.0012681974044348734
0.0012681974044348734
0.0012681974044348734
0.0012681974044348734
0.0012681974044348734
0.0012681974044348734
0.0012681974044348734
0.0012681974044348734
0.0012681974044348734
0.0012681974044348734
0.0012681974044348734
0.0012681974044348734
0.0012681974044348734
0.0012681974044348734
0.0012681974044348734
0.0012681974044348734
0.0012681974044348734
0.0012681974044348734
0.0012681974044348734
0.0012681974044348734
0.0012681974044348734
0.0012681974044348734
0.0012681974044348734
0.0012681974044348734
0.0012681974044348734
0.0012681974044348734
0.0012681974044348734
0.0012681974044348734
0.0012681974044348734
0.0012681974044348734
0.0012681974044348734
0.0012681974044348734
0.0012681974044348734
0.0012681974044348734
0.0012681974044348734
0.0012681974044348734
0.0012681974044348734
0.0012681974044348734
0.0012681974044348734
0.0012681974044348734
0.0012681974044348734
0.0012681974044348734
0.0012681974044348734
0.0012681974044348734
0.0012681974044348734
0.0012681974044348734
0.0012681974044348734
0.0012681974044348734
0.0012681974044348734
0.0012681974044348734
0.0012681974044348734
0.0012681974044348734
0.0012681974044348734
0.0012681974044348734
0.0012681974044348734
0.0012681974044348734
0.0012681974044348734
0.0012681974044348734
0.0012681974044348734
0.0012681974044348734
0.0012681974044348734
0.0012681974044348734
0.0012681974044348734
0.0012681974044348734
0.0012681974044348734
0.0012681974044348734
0.0012681974044348734
0.0012681974044348734
0.0012681974044348734
0.0012681974044348734
0.0012681974044348734
0.0012683032636536709
0.0012683032636536709
0.0012683032636536709
0.0012683032636536709
0.0012683032636536709
0.0012683032636536709
0.0012683032636536709
0.0012683032636536709
0.0012683032636536709
0.0012683032636536709
0.0012683032636536709
0.0012683032636536709
0.0012683032636536709
0.0012683032636536709
0.0012683032636536709
0.0012683032636536709
0.0012683032636536709
0.0012683032636536709
0.0012683032636536709
0.0012683032636536709
0.0012683032636536709
0.0012683032636536709
0.0012683032636536709
0.0012683032636536709
0.0012683032636536709
0.0012683032636536709
0.0012683032636536709
0.0012683032636536709
0.0012683032636536709
0.0012683032636536709
0.0012683032636536709
0.0012683032636536709
0.0012683032636536709
0.0012683032636536709
0.0012683032636536709
0.0012683032636536709
0.0012683032636536709
0.0012683032636536709
0.0012683032636536709
0.0012683032636536709
0.0012683032636536709
0.0012683032636536709
0.0012683032636536709
0.0012683032636536709
0.0012683032636536709
0.0012683032636536709
0.0012683032636536709
0.0012683032636536709
0.0012683032636536709
0.0012683032636536709
0.0012683032636536709
0.0012683032636536709
0.0012683032636536709
0.0012683032636536709
0.0012683032636536709
0.0012683032636536709
0.0012683032636536709
0.0012683032636536709
0.0012683032636536709
0.0012683032636536709
0.0012683032636536709
0.0012683032636536709
0.0012683032636536709
0.0012683032636536709
0.0012683032636536709
0.0012683032636536709
0.0012683032636536709
0.0012683032636536709
0.0012683032636536709
0.0012683032636536709
0.0012683032636536709
0.0012683032636536709
0.0012683032636536709
0.0012683032636536709
0.0012683032636536709
0.0012683032636536709
0.0012683032636536709
0.0012683032636536709
0.0012683032636536709
0.0012683032636536709
0.0012683032636536709
0.0012683032636536709
0.0012683032636536709
0.0012683032636536709
0.0012683032636536709
0.0012683032636536709
0.0012683032636536709
0.0012683032636536709
0.0012683032636536709
0.0012683032636536709
0.0012683032636536709
0.0012683032636536709
0.0012683032636536709
0.0012683032636536709
0.0012683032636536709
0.0012683032636536709
0.0012683032636536709
0.0012683032636536709
0.0012683032636536709
0.0012683032636536709
0.0012683032636536709
0.0012683032636536709
0.0012683032636536709
0.0012683032636536709
