0.008488680152901568
0.007853817404078929
0.007853815957352434
0.007853816680715643
0.007853816680715643
0.007853817042397274
0.007853817404078929
0.00785381758491976
0.007853818669964832
0.007853818669964832
0.007853819574169169
0.007853819574169169
0.00785382138257817
0.00785382138257817
0.007853824095192443
0.007853824095192443
0.007853824095192443
0.007853827531171864
0.007853827531171864
0.007853827531171864
0.007853832233040887
0.007853832233040887
0.007853832233040887
0.007853832233040887
0.00785383964753237
0.00785383964753237
0.00785383964753237
0.00785383964753237
0.00785383964753237
0.00785385013633714
0.00785385013633714
0.00785385013633714
0.00785385013633714
0.00785385013633714
0.00785385013633714
0.007853862795258118
0.007853862795258118
0.007853862795258118
0.007853862795258118
0.007853862795258118
0.007853862795258118
0.007853862795258118
0.007853880517781757
0.007853880517781757
0.007853880517781757
0.007853880517781757
0.007853880517781757
0.007853880517781757
0.007853880517781757
0.007853880517781757
0.007853902761413947
0.007853902761413947
0.007853902761413947
0.007853902761413947
0.007853902761413947
0.007853902761413947
0.007853902761413947
0.007853902761413947
0.007853902761413947
0.007853902761413947
0.007853931515470862
0.007853931515470862
0.007853931515470862
0.007853931515470862
0.007853931515470862
0.007853931515470862
0.007853931515470862
0.007853931515470862
0.007853931515470862
0.007853931515470862
0.007853931515470862
0.007853931515470862
0.007853969854377172
0.007853969854377172
0.007853969854377172
0.007853969854377172
0.007853969854377172
0.007853969854377172
0.007853969854377172
0.007853969854377172
0.007853969854377172
0.007853969854377172
0.007853969854377172
0.007853969854377172
0.007853969854377172
0.007853969854377172
0.007854018139964135
0.007854018139964135
0.007854018139964135
0.007854018139964135
0.007854018139964135
0.007854018139964135
0.007854018139964135
0.007854018139964135
0.007854018139964135
0.007854018139964135
0.007854018139964135
0.007854018139964135
0.007854018139964135
0.007854018139964135
0.007854018139964135
0.007854018139964135
0.007854018139964135
0.007854074744794236
0.007854074744794236
0.007854074744794236
0.007854074744794236
0.007854074744794236
0.007854074744794236
0.007854074744794236
0.007854074744794236
0.007854074744794236
0.007854074744794236
0.007854074744794236
0.007854074744794236
0.007854074744794236
0.007854074744794236
0.007854074744794236
0.007854074744794236
0.007854074744794236
0.007854074744794236
0.007854074744794236
0.007854074744794236
0.007854145275345089
0.007854145275345089
0.007854145275345089
0.007854145275345089
0.007854145275345089
0.007854145275345089
0.007854145275345089
0.007854145275345089
0.007854145275345089
0.007854145275345089
0.007854145275345089
0.007854145275345089
0.007854145275345089
0.007854145275345089
0.007854145275345089
0.007854145275345089
0.007854145275345089
0.007854145275345089
0.007854145275345089
0.007854145275345089
0.007854145275345089
0.007854145275345089
0.007854145275345089
0.007854145275345089
0.007854145275345089
0.007854232444747148
0.007854232444747148
0.007854232444747148
0.007854232444747148
0.007854232444747148
0.007854232444747148
0.007854232444747148
0.007854232444747148
0.007854232444747148
0.007854232444747148
0.007854232444747148
0.007854232444747148
0.007854232444747148
0.007854232444747148
0.007854232444747148
0.007854232444747148
0.007854232444747148
0.007854232444747148
0.007854232444747148
0.007854232444747148
0.007854232444747148
0.007854232444747148
0.007854232444747148
0.007854232444747148
0.007854232444747148
0.007854232444747148
0.007854232444747148
0.007854232444747148
0.007854232444747148
0.007854232444747148
0.00785433715781833
0.00785433715781833
0.00785433715781833
0.00785433715781833
0.00785433715781833
0.00785433715781833
0.00785433715781833
0.00785433715781833
0.00785433715781833
0.00785433715781833
0.00785433715781833
0.00785433715781833
0.00785433715781833
0.00785433715781833
0.00785433715781833
0.00785433715781833
0.00785433715781833
0.00785433715781833
0.00785433715781833
0.00785433715781833
0.00785433715781833
0.00785433715781833
0.00785433715781833
0.00785433715781833
0.00785433715781833
0.00785433715781833
0.00785433715781833
0.00785433715781833
0.00785433715781833
0.00785433715781833
0.00785433715781833
0.00785433715781833
0.00785433715781833
0.00785433715781833
0.00785433715781833
0.00785446484093052
0.00785446484093052
0.00785446484093052
0.00785446484093052
0.00785446484093052
0.00785446484093052
0.00785446484093052
0.00785446484093052
0.00785446484093052
0.00785446484093052
0.00785446484093052
0.00785446484093052
0.00785446484093052
0.00785446484093052
0.00785446484093052
0.00785446484093052
0.00785446484093052
0.00785446484093052
0.00785446484093052
0.00785446484093052
0.00785446484093052
0.00785446484093052
0.00785446484093052
0.00785446484093052
0.00785446484093052
0.00785446484093052
0.00785446484093052
0.00785446484093052
0.00785446484093052
0.00785446484093052
0.00785446484093052
0.00785446484093052
0.00785446484093052
0.00785446484093052
0.00785446484093052
0.00785446484093052
0.00785446484093052
0.00785446484093052
0.00785446484093052
0.00785446484093052
0.00785446484093052
0.00785446484093052
0.007854620920981924
0.007854620920981924
0.007854620920981924
0.007854620920981924
0.007854620920981924
0.007854620920981924
0.007854620920981924
0.007854620920981924
0.007854620920981924
0.007854620920981924
0.007854620920981924
0.007854620920981924
0.007854620920981924
0.007854620920981924
0.007854620920981924
0.007854620920981924
0.007854620920981924
0.007854620920981924
0.007854620920981924
0.007854620920981924
0.007854620920981924
0.007854620920981924
0.007854620920981924
0.007854620920981924
0.007854620920981924
0.007854620920981924
0.007854620920981924
0.007854620920981924
0.007854620920981924
0.007854620920981924
0.007854620920981924
0.007854620920981924
0.007854620920981924
0.007854620920981924
0.007854620920981924
0.007854620920981924
0.007854620920981924
0.007854620920981924
0.007854620920981924
0.007854620920981924
0.007854620920981924
0.007854620920981924
0.007854620920981924
0.007854620920981924
0.007854620920981924
0.007854620920981924
0.007854620920981924
0.007854620920981924
0.007854620920981924
0.007854620920981924
0.007854620920981924
0.007854620920981924
0.00785479780339872
0.00785479780339872
0.00785479780339872
0.00785479780339872
0.00785479780339872
0.00785479780339872
0.00785479780339872
0.00785479780339872
0.00785479780339872
0.00785479780339872
0.00785479780339872
0.00785479780339872
0.00785479780339872
0.00785479780339872
0.00785479780339872
0.00785479780339872
0.00785479780339872
0.00785479780339872
0.00785479780339872
0.00785479780339872
0.00785479780339872
0.00785479780339872
0.00785479780339872
0.00785479780339872
0.00785479780339872
0.00785479780339872
0.00785479780339872
0.00785479780339872
0.00785479780339872
0.00785479780339872
0.00785479780339872
0.00785479780339872
0.00785479780339872
0.00785479780339872
0.00785479780339872
0.00785479780339872
0.00785479780339872
0.00785479780339872
0.00785479780339872
0.00785479780339872
0.00785479780339872
0.00785479780339872
0.00785479780339872
0.00785479780339872
0.00785479780339872
0.00785479780339872
0.00785479780339872
0.00785479780339872
0.00785479780339872
0.00785479780339872
0.00785479780339872
0.00785479780339872
0.00785479780339872
0.00785479780339872
0.00785479780339872
0.00785479780339872
0.00785479780339872
0.00785479780339872
0.00785479780339872
0.00785479780339872
0.00785479780339872
0.00785502569459272
0.00785502569459272
0.00785502569459272
0.00785502569459272
0.00785502569459272
0.00785502569459272
0.00785502569459272
0.00785502569459272
0.00785502569459272
0.00785502569459272
0.00785502569459272
0.00785502569459272
0.00785502569459272
0.00785502569459272
0.00785502569459272
0.00785502569459272
0.00785502569459272
0.00785502569459272
0.00785502569459272
0.00785502569459272
0.00785502569459272
0.00785502569459272
0.00785502569459272
0.00785502569459272
0.00785502569459272
0.00785502569459272
0.00785502569459272
0.00785502569459272
0.00785502569459272
0.00785502569459272
0.00785502569459272
0.00785502569459272
0.00785502569459272
0.00785502569459272
0.00785502569459272
0.00785502569459272
0.00785502569459272
0.00785502569459272
0.00785502569459272
0.00785502569459272
0.00785502569459272
0.00785502569459272
0.00785502569459272
0.00785502569459272
0.00785502569459272
0.00785502569459272
0.00785502569459272
0.00785502569459272
0.00785502569459272
0.00785502569459272
0.00785502569459272
0.00785502569459272
0.00785502569459272
0.00785502569459272
0.00785502569459272
0.00785502569459272
0.00785502569459272
0.00785502569459272
0.00785502569459272
0.00785502569459272
0.00785502569459272
0.00785502569459272
0.00785502569459272
0.00785502569459272
0.00785502569459272
0.00785502569459272
0.00785502569459272
0.00785502569459272
0.00785502569459272
0.00785502569459272
0.00785502569459272
0.00785502569459272
0.00785502569459272
0.007855281085279171
0.007855281085279171
0.007855281085279171
0.007855281085279171
0.007855281085279171
0.007855281085279171
0.007855281085279171
0.007855281085279171
0.007855281085279171
0.007855281085279171
0.007855281085279171
0.007855281085279171
0.007855281085279171
0.007855281085279171
0.007855281085279171
0.007855281085279171
0.007855281085279171
0.007855281085279171
0.007855281085279171
0.007855281085279171
0.007855281085279171
0.007855281085279171
0.007855281085279171
0.007855281085279171
0.007855281085279171
0.007855281085279171
0.007855281085279171
0.007855281085279171
0.007855281085279171
0.007855281085279171
0.007855281085279171
0.007855281085279171
0.007855281085279171
0.007855281085279171
0.007855281085279171
0.007855281085279171
0.007855281085279171
0.007855281085279171
0.007855281085279171
0.007855281085279171
0.007855281085279171
0.007855281085279171
0.007855281085279171
0.007855281085279171
0.007855281085279171
0.007855281085279171
0.007855281085279171
0.007855281085279171
0.007855281085279171
0.007855281085279171
0.007855281085279171
0.007855281085279171
0.007855281085279171
0.007855281085279171
0.007855281085279171
0.007855281085279171
0.007855281085279171
0.007855281085279171
0.007855281085279171
0.007855281085279171
0.007855281085279171
0.007855281085279171
0.007855281085279171
0.007855281085279171
0.007855281085279171
0.007855281085279171
0.007855281085279171
0.007855281085279171
0.007855281085279171
0.007855281085279171
0.007855281085279171
0.007855281085279171
0.007855281085279171
0.007855281085279171
0.007855281085279171
0.007855281085279171
0.007855281085279171
0.007855281085279171
0.007855281085279171
0.007855281085279171
0.007855281085279171
0.007855281085279171
0.007855281085279171
0.007855281085279171
0.007855281085279171
0.007855281085279171
0.007855281085279171
0.007855281085279171
0.00785559762208634
0.00785559762208634
0.00785559762208634
0.00785559762208634
0.00785559762208634
0.00785559762208634
0.00785559762208634
0.00785559762208634
0.00785559762208634
0.00785559762208634
0.00785559762208634
0.00785559762208634
0.00785559762208634
0.00785559762208634
0.00785559762208634
0.00785559762208634
0.00785559762208634
0.00785559762208634
0.00785559762208634
0.00785559762208634
0.00785559762208634
0.00785559762208634
0.00785559762208634
0.00785559762208634
0.00785559762208634
0.00785559762208634
0.00785559762208634
0.00785559762208634
0.00785559762208634
0.00785559762208634
0.00785559762208634
0.00785559762208634
0.00785559762208634
0.00785559762208634
0.00785559762208634
0.00785559762208634
0.00785559762208634
0.00785559762208634
0.00785559762208634
0.00785559762208634
0.00785559762208634
0.00785559762208634
0.00785559762208634
0.00785559762208634
0.00785559762208634
0.00785559762208634
0.00785559762208634
0.00785559762208634
0.00785559762208634
0.00785559762208634
0.00785559762208634
0.00785559762208634
0.00785559762208634
0.00785559762208634
0.00785559762208634
0.00785559762208634
0.00785559762208634
0.00785559762208634
0.00785559762208634
0.00785559762208634
0.00785559762208634
0.00785559762208634
0.00785559762208634
0.00785559762208634
0.00785559762208634
0.00785559762208634
0.00785559762208634
0.00785559762208634
0.00785559762208634
0.00785559762208634
0.00785559762208634
0.00785559762208634
0.00785559762208634
0.00785559762208634
0.00785559762208634
0.00785559762208634
0.00785559762208634
0.00785559762208634
0.00785559762208634
0.00785559762208634
0.00785559762208634
0.00785559762208634
0.00785559762208634
0.00785559762208634
0.00785559762208634
0.00785559762208634
0.00785559762208634
0.00785559762208634
0.00785559762208634
0.00785559762208634
0.00785559762208634
0.00785559762208634
0.00785559762208634
0.00785559762208634
0.00785559762208634
0.00785559762208634
0.00785559762208634
0.00785559762208634
0.00785559762208634
0.00785559762208634
0.00785559762208634
0.00785559762208634
0.00785559762208634
0.00785559762208634
0.00785559762208634
0.00785559762208634
0.007855976216857958
0.007855976216857958
0.007855976216857958
0.007855976216857958
0.007855976216857958
0.007855976216857958
0.007855976216857958
0.007855976216857958
0.007855976216857958
0.007855976216857958
0.007855976216857958
0.007855976216857958
0.007855976216857958
0.007855976216857958
0.007855976216857958
0.007855976216857958
0.007855976216857958
0.007855976216857958
0.007855976216857958
0.007855976216857958
0.007855976216857958
0.007855976216857958
0.007855976216857958
0.007855976216857958
0.007855976216857958
0.007855976216857958
0.007855976216857958
0.007855976216857958
0.007855976216857958
0.007855976216857958
0.007855976216857958
0.007855976216857958
0.007855976216857958
0.007855976216857958
0.007855976216857958
0.007855976216857958
0.007855976216857958
0.007855976216857958
0.007855976216857958
0.007855976216857958
0.007855976216857958
0.007855976216857958
0.007855976216857958
0.007855976216857958
0.007855976216857958
0.007855976216857958
0.007855976216857958
0.007855976216857958
0.007855976216857958
0.007855976216857958
0.007855976216857958
0.007855976216857958
0.007855976216857958
0.007855976216857958
0.007855976216857958
0.007855976216857958
0.007855976216857958
0.007855976216857958
0.007855976216857958
0.007855976216857958
0.007855976216857958
0.007855976216857958
0.007855976216857958
0.007855976216857958
0.007855976216857958
0.007855976216857958
0.007855976216857958
0.007855976216857958
0.007855976216857958
0.007855976216857958
0.007855976216857958
0.007855976216857958
0.007855976216857958
0.007855976216857958
0.007855976216857958
0.007855976216857958
0.007855976216857958
0.007855976216857958
0.007855976216857958
0.007855976216857958
0.007855976216857958
0.007855976216857958
0.007855976216857958
0.007855976216857958
0.007855976216857958
0.007855976216857958
0.007855976216857958
0.007855976216857958
0.007855976216857958
0.007855976216857958
0.007855976216857958
0.007855976216857958
0.007855976216857958
0.007855976216857958
0.007855976216857958
0.007855976216857958
0.007855976216857958
0.007855976216857958
0.007855976216857958
0.007855976216857958
0.007855976216857958
0.007855976216857958
0.007855976216857958
0.007855976216857958
0.007855976216857958
0.007855976216857958
0.007855976216857958
0.007855976216857958
0.007855976216857958
0.007855976216857958
0.007855976216857958
0.007855976216857958
0.007855976216857958
0.007855976216857958
0.007855976216857958
0.007855976216857958
0.007855976216857958
0.007855976216857958
0.007855976216857958
0.007855976216857958
0.007855976216857958
0.007855976216857958
0.007855976216857958
0.007855976216857958
0.007855976216857958
0.007855976216857958
0.007855976216857958
0.007856432978742592
0.007856432978742592
0.007856432978742592
0.007856432978742592
0.007856432978742592
0.007856432978742592
0.007856432978742592
0.007856432978742592
0.007856432978742592
0.007856432978742592
0.007856432978742592
0.007856432978742592
0.007856432978742592
0.007856432978742592
0.007856432978742592
0.007856432978742592
0.007856432978742592
0.007856432978742592
0.007856432978742592
0.007856432978742592
0.007856432978742592
0.007856432978742592
0.007856432978742592
0.007856432978742592
0.007856432978742592
0.007856432978742592
0.007856432978742592
0.007856432978742592
0.007856432978742592
0.007856432978742592
0.007856432978742592
0.007856432978742592
0.007856432978742592
0.007856432978742592
0.007856432978742592
0.007856432978742592
0.007856432978742592
0.007856432978742592
0.007856432978742592
0.007856432978742592
0.007856432978742592
0.007856432978742592
0.007856432978742592
0.007856432978742592
0.007856432978742592
0.007856432978742592
0.007856432978742592
0.007856432978742592
0.007856432978742592
0.007856432978742592
0.007856432978742592
0.007856432978742592
0.007856432978742592
0.007856432978742592
0.007856432978742592
0.007856432978742592
0.007856432978742592
0.007856432978742592
0.007856432978742592
0.007856432978742592
0.007856432978742592
0.007856432978742592
0.007856432978742592
0.007856432978742592
0.007856432978742592
0.007856432978742592
0.007856432978742592
0.007856432978742592
0.007856432978742592
0.007856432978742592
0.007856432978742592
0.007856432978742592
0.007856432978742592
0.007856432978742592
0.007856432978742592
0.007856432978742592
0.007856432978742592
0.007856432978742592
0.007856432978742592
0.007856432978742592
0.007856432978742592
0.007856432978742592
0.007856432978742592
0.007856432978742592
0.007856432978742592
0.007856432978742592
0.007856432978742592
0.007856432978742592
0.007856432978742592
0.007856432978742592
0.007856432978742592
0.007856432978742592
0.007856432978742592
0.007856432978742592
0.007856432978742592
0.007856432978742592
0.007856432978742592
0.007856432978742592
0.007856432978742592
0.007856432978742592
0.007856432978742592
0.007856432978742592
0.007856432978742592
0.007856432978742592
0.007856432978742592
0.007856432978742592
0.007856432978742592
0.007856432978742592
0.007856432978742592
0.007856432978742592
0.007856432978742592
0.007856432978742592
0.007856432978742592
0.007856432978742592
0.007856432978742592
0.007856432978742592
0.007856432978742592
0.007856432978742592
0.007856432978742592
0.007856432978742592
0.007856432978742592
0.007856432978742592
0.007856432978742592
0.007856432978742592
0.007856432978742592
0.007856432978742592
0.007856432978742592
0.007856432978742592
0.007856432978742592
0.007856432978742592
0.007856432978742592
0.007856432978742592
0.007856432978742592
0.007856432978742592
0.007856432978742592
0.007856432978742592
0.007856432978742592
0.007856432978742592
0.007856432978742592
0.007856432978742592
0.007856432978742592
0.007856432978742592
0.007856432978742592
0.007856432978742592
0.007856432978742592
0.007856432978742592
0.007856432978742592
0.007856432978742592
0.007856432978742592
0.007856432978742592
0.007856432978742592
0.007856432978742592
0.007856432978742592
0.007856979499836646
0.007856979499836646
0.007856979499836646
0.007856979499836646
0.007856979499836646
0.007856979499836646
0.007856979499836646
0.007856979499836646
0.007856979499836646
0.007856979499836646
0.007856979499836646
0.007856979499836646
0.007856979499836646
0.007856979499836646
0.007856979499836646
0.007856979499836646
0.007856979499836646
0.007856979499836646
0.007856979499836646
0.007856979499836646
0.007856979499836646
0.007856979499836646
0.007856979499836646
0.007856979499836646
0.007856979499836646
0.007856979499836646
0.007856979499836646
0.007856979499836646
0.007856979499836646
0.007856979499836646
0.007856979499836646
0.007856979499836646
0.007856979499836646
0.007856979499836646
0.007856979499836646
0.007856979499836646
0.007856979499836646
0.007856979499836646
0.007856979499836646
0.007856979499836646
0.007856979499836646
0.007856979499836646
0.007856979499836646
0.007856979499836646
0.007856979499836646
0.007856979499836646
0.007856979499836646
0.007856979499836646
0.007856979499836646
0.007856979499836646
0.007856979499836646
0.007856979499836646
0.007856979499836646
0.007856979499836646
0.007856979499836646
0.007856979499836646
0.007856979499836646
0.007856979499836646
0.007856979499836646
0.007856979499836646
0.007856979499836646
0.007856979499836646
0.007856979499836646
0.007856979499836646
0.007856979499836646
0.007856979499836646
0.007856979499836646
0.007856979499836646
0.007856979499836646
0.007856979499836646
0.007856979499836646
0.007856979499836646
0.007856979499836646
0.007856979499836646
0.007856979499836646
0.007856979499836646
0.007856979499836646
0.007856979499836646
0.007856979499836646
0.007856979499836646
0.007856979499836646
0.007856979499836646
0.007856979499836646
0.007856979499836646
0.007856979499836646
0.007856979499836646
0.007856979499836646
0.007856979499836646
0.007856979499836646
0.007856979499836646
0.007856979499836646
0.007856979499836646
0.007856979499836646
0.007856979499836646
0.007856979499836646
0.007856979499836646
0.007856979499836646
0.007856979499836646
0.007856979499836646
0.007856979499836646
0.007856979499836646
0.007856979499836646
0.007856979499836646
0.007856979499836646
0.007856979499836646
0.007856979499836646
0.007856979499836646
0.007856979499836646
0.007856979499836646
0.007856979499836646
0.007856979499836646
0.007856979499836646
0.007856979499836646
0.007856979499836646
0.007856979499836646
0.007856979499836646
0.007856979499836646
0.007856979499836646
0.007856979499836646
0.007856979499836646
0.007856979499836646
0.007856979499836646
0.007856979499836646
0.007856979499836646
0.007856979499836646
0.007856979499836646
0.007856979499836646
0.007856979499836646
0.007856979499836646
0.007856979499836646
0.007856979499836646
0.007856979499836646
0.007856979499836646
0.007856979499836646
0.007856979499836646
0.007856979499836646
0.007856979499836646
0.007856979499836646
0.007856979499836646
0.007856979499836646
0.007856979499836646
0.007856979499836646
0.007856979499836646
0.007856979499836646
0.007856979499836646
0.007856979499836646
0.007856979499836646
0.007856979499836646
0.007856979499836646
0.007856979499836646
0.007856979499836646
0.007856979499836646
0.007856979499836646
0.007856979499836646
0.007856979499836646
0.007856979499836646
0.007856979499836646
0.007856979499836646
0.007856979499836646
0.007856979499836646
0.007856979499836646
0.007856979499836646
0.007856979499836646
0.007856979499836646
0.007856979499836646
0.007856979499836646
0.007856979499836646
0.007856979499836646
0.007856979499836646
0.007856979499836646
0.007856979499836646
0.007856979499836646
0.007856979499836646
0.007856979499836646
0.007856979499836646
0.007856979499836646
0.007856979499836646
0.007856979499836646
0.007856979499836646
0.007856979499836646
0.007856979499836646
0.007856979499836646
0.007857638234008037
0.007857638234008037
0.007857638234008037
0.007857638234008037
0.007857638234008037
0.007857638234008037
0.007857638234008037
0.007857638234008037
0.007857638234008037
0.007857638234008037
0.007857638234008037
0.007857638234008037
0.007857638234008037
0.007857638234008037
0.007857638234008037
0.007857638234008037
0.007857638234008037
0.007857638234008037
0.007857638234008037
0.007857638234008037
0.007857638234008037
0.007857638234008037
0.007857638234008037
0.007857638234008037
0.007857638234008037
0.007857638234008037
0.007857638234008037
0.007857638234008037
0.007857638234008037
0.007857638234008037
0.007857638234008037
0.007857638234008037
0.007857638234008037
0.007857638234008037
0.007857638234008037
0.007857638234008037
0.007857638234008037
0.007857638234008037
0.007857638234008037
0.007857638234008037
0.007857638234008037
0.007857638234008037
0.007857638234008037
0.007857638234008037
0.007857638234008037
0.007857638234008037
0.007857638234008037
0.007857638234008037
0.007857638234008037
0.007857638234008037
0.007857638234008037
0.007857638234008037
0.007857638234008037
0.007857638234008037
0.007857638234008037
0.007857638234008037
0.007857638234008037
0.007857638234008037
0.007857638234008037
0.007857638234008037
0.007857638234008037
0.007857638234008037
0.007857638234008037
0.007857638234008037
0.007857638234008037
0.007857638234008037
0.007857638234008037
0.007857638234008037
0.007857638234008037
0.007857638234008037
0.007857638234008037
0.007857638234008037
0.007857638234008037
0.007857638234008037
0.007857638234008037
0.007857638234008037
0.007857638234008037
0.007857638234008037
0.007857638234008037
0.007857638234008037
0.007857638234008037
0.007857638234008037
0.007857638234008037
0.007857638234008037
0.007857638234008037
0.007857638234008037
0.007857638234008037
0.007857638234008037
0.007857638234008037
0.007857638234008037
0.007857638234008037
0.007857638234008037
0.007857638234008037
0.007857638234008037
0.007857638234008037
0.007857638234008037
0.007857638234008037
0.007857638234008037
0.007857638234008037
0.007857638234008037
0.007857638234008037
0.007857638234008037
0.007857638234008037
0.007857638234008037
0.007857638234008037
0.007857638234008037
0.007857638234008037
0.007857638234008037
0.007857638234008037
0.007857638234008037
0.007857638234008037
0.007857638234008037
0.007857638234008037
0.007857638234008037
0.007857638234008037
0.007857638234008037
0.007857638234008037
0.007857638234008037
0.007857638234008037
0.007857638234008037
0.007857638234008037
0.007857638234008037
0.007857638234008037
0.007857638234008037
0.007857638234008037
0.007857638234008037
0.007857638234008037
0.007857638234008037
0.007857638234008037
0.007857638234008037
0.007857638234008037
0.007857638234008037
0.007857638234008037
0.007857638234008037
0.007857638234008037
0.007857638234008037
0.007857638234008037
0.007857638234008037
0.007857638234008037
0.007857638234008037
0.007857638234008037
0.007857638234008037
0.007857638234008037
0.007857638234008037
0.007857638234008037
0.007857638234008037
0.007857638234008037
0.007857638234008037
0.007857638234008037
0.007857638234008037
0.007857638234008037
0.007857638234008037
0.007857638234008037
0.007857638234008037
0.007857638234008037
0.007857638234008037
0.007857638234008037
0.007857638234008037
0.007857638234008037
0.007857638234008037
0.007857638234008037
0.007857638234008037
0.007857638234008037
0.007857638234008037
0.007857638234008037
0.007857638234008037
0.007857638234008037
0.007857638234008037
0.007857638234008037
0.007857638234008037
0.007857638234008037
0.007857638234008037
0.007857638234008037
0.007857638234008037
0.007857638234008037
0.007857638234008037
0.007857638234008037
0.007857638234008037
0.007857638234008037
0.007857638234008037
0.007857638234008037
0.007857638234008037
0.007857638234008037
0.007857638234008037
0.007857638234008037
0.007857638234008037
0.007857638234008037
0.007857638234008037
0.007857638234008037
0.007857638234008037
0.007857638234008037
0.007857638234008037
0.007857638234008037
0.007857638234008037
0.007857638234008037
0.007857638234008037
0.007857638234008037
0.007857638234008037
0.007857638234008037
0.007857638234008037
0.007857638234008037
0.007857638234008037
0.007857638234008037
0.007857638234008037
0.007857638234008037
0.007857638234008037
0.007857638234008037
0.007857638234008037
0.007857638234008037
0.007857638234008037
0.007857638234008037
0.007857638234008037
0.007857638234008037
0.007857638234008037
0.007857638234008037
0.007857638234008037
0.007857638234008037
0.007857638234008037
0.007857638234008037
0.007857638234008037
0.007858423504265081
0.007858423504265081
0.007858423504265081
0.007858423504265081
0.007858423504265081
0.007858423504265081
0.007858423504265081
0.007858423504265081
0.007858423504265081
0.007858423504265081
0.007858423504265081
0.007858423504265081
0.007858423504265081
0.007858423504265081
0.007858423504265081
0.007858423504265081
0.007858423504265081
0.007858423504265081
0.007858423504265081
0.007858423504265081
0.007858423504265081
0.007858423504265081
0.007858423504265081
0.007858423504265081
0.007858423504265081
0.007858423504265081
0.007858423504265081
0.007858423504265081
0.007858423504265081
0.007858423504265081
0.007858423504265081
0.007858423504265081
0.007858423504265081
0.007858423504265081
0.007858423504265081
0.007858423504265081
0.007858423504265081
0.007858423504265081
0.007858423504265081
0.007858423504265081
0.007858423504265081
0.007858423504265081
0.007858423504265081
0.007858423504265081
0.007858423504265081
0.007858423504265081
0.007858423504265081
0.007858423504265081
0.007858423504265081
0.007858423504265081
0.007858423504265081
0.007858423504265081
0.007858423504265081
0.007858423504265081
0.007858423504265081
0.007858423504265081
0.007858423504265081
0.007858423504265081
0.007858423504265081
0.007858423504265081
0.007858423504265081
0.007858423504265081
0.007858423504265081
0.007858423504265081
0.007858423504265081
0.007858423504265081
0.007858423504265081
0.007858423504265081
0.007858423504265081
0.007858423504265081
0.007858423504265081
0.007858423504265081
0.007858423504265081
0.007858423504265081
0.007858423504265081
0.007858423504265081
0.007858423504265081
0.007858423504265081
0.007858423504265081
0.007858423504265081
0.007858423504265081
0.007858423504265081
0.007858423504265081
0.007858423504265081
0.007858423504265081
0.007858423504265081
0.007858423504265081
0.007858423504265081
0.007858423504265081
0.007858423504265081
0.007858423504265081
0.007858423504265081
0.007858423504265081
0.007858423504265081
0.007858423504265081
0.007858423504265081
0.007858423504265081
0.007858423504265081
0.007858423504265081
0.007858423504265081
0.007858423504265081
0.007858423504265081
0.007858423504265081
0.007858423504265081
0.007858423504265081
0.007858423504265081
0.007858423504265081
0.007858423504265081
0.007858423504265081
0.007858423504265081
0.007858423504265081
0.007858423504265081
0.007858423504265081
0.007858423504265081
0.007858423504265081
0.007858423504265081
0.007858423504265081
0.007858423504265081
0.007858423504265081
0.007858423504265081
0.007858423504265081
0.007858423504265081
0.007858423504265081
0.007858423504265081
0.007858423504265081
0.007858423504265081
0.007858423504265081
0.007858423504265081
0.007858423504265081
0.007858423504265081
0.007858423504265081
0.007858423504265081
0.007858423504265081
0.007858423504265081
0.007858423504265081
0.007858423504265081
0.007858423504265081
0.007858423504265081
0.007858423504265081
0.007858423504265081
0.007858423504265081
0.007858423504265081
0.007858423504265081
0.007858423504265081
0.007858423504265081
0.007858423504265081
0.007858423504265081
0.007858423504265081
0.007858423504265081
0.007858423504265081
0.007858423504265081
0.007858423504265081
0.007858423504265081
0.007858423504265081
0.007858423504265081
0.007858423504265081
0.007858423504265081
0.007858423504265081
0.007858423504265081
0.007858423504265081
0.007858423504265081
0.007858423504265081
0.007858423504265081
0.007858423504265081
0.007858423504265081
0.007858423504265081
0.007858423504265081
0.007858423504265081
0.007858423504265081
0.007858423504265081
0.007858423504265081
0.007858423504265081
0.007858423504265081
0.007858423504265081
0.007858423504265081
0.007858423504265081
0.007858423504265081
0.007858423504265081
0.007858423504265081
0.007858423504265081
0.007858423504265081
0.007858423504265081
0.007858423504265081
0.007858423504265081
0.007858423504265081
0.007858423504265081
0.007858423504265081
0.007858423504265081
0.007858423504265081
0.007858423504265081
0.007858423504265081
0.007858423504265081
0.007858423504265081
0.007858423504265081
0.007858423504265081
0.007858423504265081
0.007858423504265081
0.007858423504265081
0.007858423504265081
0.007858423504265081
0.007858423504265081
0.007858423504265081
0.007858423504265081
0.007858423504265081
0.007858423504265081
0.007858423504265081
0.007858423504265081
0.007858423504265081
0.007858423504265081
0.007858423504265081
0.007858423504265081
0.007858423504265081
0.007858423504265081
0.007858423504265081
0.007858423504265081
0.007858423504265081
0.007858423504265081
0.007858423504265081
0.007858423504265081
0.007858423504265081
0.007858423504265081
0.007858423504265081
0.007858423504265081
0.007858423504265081
0.007858423504265081
0.007858423504265081
0.007858423504265081
0.007858423504265081
0.007858423504265081
0.007858423504265081
0.007858423504265081
0.007858423504265081
0.007858423504265081
0.007858423504265081
0.007858423504265081
0.007858423504265081
0.007858423504265081
0.007858423504265081
0.007858423504265081
0.007858423504265081
0.007858423504265081
0.007858423504265081
0.007858423504265081
0.007858423504265081
0.007858423504265081
0.007858423504265081
0.007858423504265081
0.007858423504265081
0.007858423504265081
0.007858423504265081
0.007858423504265081
0.007858423504265081
0.007858423504265081
0.007858423504265081
0.007858423504265081
0.007858423504265081
0.007858423504265081
0.007858423504265081
0.007858423504265081
0.007858423504265081
0.007858423504265081
0.007858423504265081
0.007858423504265081
0.007859368646694084
0.007859368646694084
0.007859368646694084
0.007859368646694084
0.007859368646694084
0.007859368646694084
0.007859368646694084
0.007859368646694084
0.007859368646694084
0.007859368646694084
0.007859368646694084
0.007859368646694084
0.007859368646694084
0.007859368646694084
0.007859368646694084
0.007859368646694084
0.007859368646694084
0.007859368646694084
0.007859368646694084
0.007859368646694084
0.007859368646694084
0.007859368646694084
0.007859368646694084
0.007859368646694084
0.007859368646694084
0.007859368646694084
0.007859368646694084
0.007859368646694084
0.007859368646694084
0.007859368646694084
0.007859368646694084
0.007859368646694084
0.007859368646694084
0.007859368646694084
0.007859368646694084
0.007859368646694084
0.007859368646694084
0.007859368646694084
0.007859368646694084
0.007859368646694084
0.007859368646694084
0.007859368646694084
0.007859368646694084
0.007859368646694084
0.007859368646694084
0.007859368646694084
0.007859368646694084
0.007859368646694084
0.007859368646694084
0.007859368646694084
0.007859368646694084
0.007859368646694084
0.007859368646694084
0.007859368646694084
0.007859368646694084
0.007859368646694084
0.007859368646694084
0.007859368646694084
0.007859368646694084
0.007859368646694084
0.007859368646694084
0.007859368646694084
0.007859368646694084
0.007859368646694084
0.007859368646694084
0.007859368646694084
0.007859368646694084
0.007859368646694084
0.007859368646694084
0.007859368646694084
0.007859368646694084
0.007859368646694084
0.007859368646694084
0.007859368646694084
0.007859368646694084
0.007859368646694084
0.007859368646694084
0.007859368646694084
0.007859368646694084
0.007859368646694084
0.007859368646694084
0.007859368646694084
0.007859368646694084
0.007859368646694084
0.007859368646694084
0.007859368646694084
0.007859368646694084
0.007859368646694084
0.007859368646694084
0.007859368646694084
0.007859368646694084
0.007859368646694084
0.007859368646694084
0.007859368646694084
0.007859368646694084
0.007859368646694084
0.007859368646694084
0.007859368646694084
0.007859368646694084
0.007859368646694084
0.007859368646694084
0.007859368646694084
0.007859368646694084
0.007859368646694084
0.007859368646694084
0.007859368646694084
0.007859368646694084
0.007859368646694084
0.007859368646694084
0.007859368646694084
0.007859368646694084
0.007859368646694084
0.007859368646694084
0.007859368646694084
0.007859368646694084
0.007859368646694084
0.007859368646694084
0.007859368646694084
0.007859368646694084
0.007859368646694084
0.007859368646694084
0.007859368646694084
0.007859368646694084
0.007859368646694084
0.007859368646694084
0.007859368646694084
0.007859368646694084
0.007859368646694084
0.007859368646694084
0.007859368646694084
0.007859368646694084
0.007859368646694084
0.007859368646694084
0.007859368646694084
0.007859368646694084
0.007859368646694084
0.007859368646694084
0.007859368646694084
0.007859368646694084
0.007859368646694084
0.007859368646694084
0.007859368646694084
0.007859368646694084
0.007859368646694084
0.007859368646694084
0.007859368646694084
0.007859368646694084
0.007859368646694084
0.007859368646694084
0.007859368646694084
0.007859368646694084
0.007859368646694084
0.007859368646694084
0.007859368646694084
0.007859368646694084
0.007859368646694084
0.007859368646694084
0.007859368646694084
0.007859368646694084
0.007859368646694084
0.007859368646694084
0.007859368646694084
0.007859368646694084
0.007859368646694084
0.007859368646694084
0.007859368646694084
0.007859368646694084
0.007859368646694084
0.007859368646694084
0.007859368646694084
0.007859368646694084
0.007859368646694084
0.007859368646694084
0.007859368646694084
0.007859368646694084
0.007859368646694084
0.007859368646694084
0.007859368646694084
0.007859368646694084
0.007859368646694084
0.007859368646694084
0.007859368646694084
0.007859368646694084
0.007859368646694084
0.007859368646694084
0.007859368646694084
0.007859368646694084
0.007859368646694084
0.007859368646694084
0.007859368646694084
0.007859368646694084
0.007859368646694084
0.007859368646694084
0.007859368646694084
0.007859368646694084
0.007859368646694084
0.007859368646694084
0.007859368646694084
0.007859368646694084
0.007859368646694084
0.007859368646694084
0.007859368646694084
0.007859368646694084
0.007859368646694084
0.007859368646694084
0.007859368646694084
0.007859368646694084
0.007859368646694084
0.007859368646694084
0.007859368646694084
0.007859368646694084
0.007859368646694084
0.007859368646694084
0.007859368646694084
0.007859368646694084
0.007859368646694084
0.007859368646694084
0.007859368646694084
0.007859368646694084
0.007859368646694084
0.007859368646694084
0.007859368646694084
0.007859368646694084
0.007859368646694084
0.007859368646694084
0.007859368646694084
0.007859368646694084
0.007859368646694084
0.007859368646694084
0.007859368646694084
0.007859368646694084
0.007859368646694084
0.007859368646694084
0.007859368646694084
0.007859368646694084
0.007859368646694084
0.007859368646694084
0.007859368646694084
0.007859368646694084
0.007859368646694084
0.007859368646694084
0.007859368646694084
0.007859368646694084
0.007859368646694084
0.007859368646694084
0.007859368646694084
0.007859368646694084
0.007859368646694084
0.007859368646694084
0.007859368646694084
0.007859368646694084
0.007859368646694084
0.007859368646694084
0.007859368646694084
0.007859368646694084
0.007859368646694084
0.007859368646694084
0.007859368646694084
0.007859368646694084
0.007859368646694084
0.007859368646694084
0.007859368646694084
0.007859368646694084
0.007859368646694084
0.007859368646694084
0.007859368646694084
0.007859368646694084
0.007859368646694084
0.007859368646694084
0.007859368646694084
0.007859368646694084
0.007859368646694084
0.007859368646694084
0.007859368646694084
0.007859368646694084
0.007859368646694084
0.007859368646694084
0.007859368646694084
0.007859368646694084
0.007859368646694084
0.007859368646694084
0.007859368646694084
0.007859368646694084
0.007859368646694084
0.007859368646694084
0.007859368646694084
0.007859368646694084
0.007859368646694084
0.007859368646694084
0.007859368646694084
0.007859368646694084
0.007859368646694084
0.007859368646694084
0.007859368646694084
0.007859368646694084
0.007859368646694084
0.007859368646694084
0.007859368646694084
0.007859368646694084
0.007859368646694084
0.007859368646694084
0.007859368646694084
0.007859368646694084
0.007859368646694084
0.007859368646694084
0.007859368646694084
0.007859368646694084
0.007859368646694084
0.007859368646694084
0.007859368646694084
0.007859368646694084
0.007859368646694084
0.007859368646694084
0.007859368646694084
0.007859368646694084
0.007859368646694084
0.007860500144141162
0.007860500144141162
0.007860500144141162
0.007860500144141162
0.007860500144141162
0.007860500144141162
0.007860500144141162
0.007860500144141162
0.007860500144141162
0.007860500144141162
0.007860500144141162
0.007860500144141162
0.007860500144141162
0.007860500144141162
0.007860500144141162
0.007860500144141162
0.007860500144141162
0.007860500144141162
0.007860500144141162
0.007860500144141162
0.007860500144141162
0.007860500144141162
0.007860500144141162
0.007860500144141162
0.007860500144141162
0.007860500144141162
0.007860500144141162
0.007860500144141162
0.007860500144141162
0.007860500144141162
0.007860500144141162
0.007860500144141162
0.007860500144141162
0.007860500144141162
0.007860500144141162
0.007860500144141162
0.007860500144141162
0.007860500144141162
0.007860500144141162
0.007860500144141162
0.007860500144141162
0.007860500144141162
0.007860500144141162
0.007860500144141162
0.007860500144141162
0.007860500144141162
0.007860500144141162
0.007860500144141162
0.007860500144141162
0.007860500144141162
0.007860500144141162
0.007860500144141162
0.007860500144141162
0.007860500144141162
0.007860500144141162
0.007860500144141162
0.007860500144141162
0.007860500144141162
0.007860500144141162
0.007860500144141162
0.007860500144141162
0.007860500144141162
0.007860500144141162
0.007860500144141162
0.007860500144141162
0.007860500144141162
0.007860500144141162
0.007860500144141162
0.007860500144141162
0.007860500144141162
0.007860500144141162
0.007860500144141162
0.007860500144141162
0.007860500144141162
0.007860500144141162
0.007860500144141162
0.007860500144141162
0.007860500144141162
0.007860500144141162
0.007860500144141162
0.007860500144141162
0.007860500144141162
0.007860500144141162
0.007860500144141162
0.007860500144141162
0.007860500144141162
0.007860500144141162
0.007860500144141162
0.007860500144141162
0.007860500144141162
0.007860500144141162
0.007860500144141162
0.007860500144141162
0.007860500144141162
0.007860500144141162
0.007860500144141162
0.007860500144141162
0.007860500144141162
0.007860500144141162
0.007860500144141162
0.007860500144141162
0.007860500144141162
0.007860500144141162
0.007860500144141162
