0.013332965642940134
0.013646935219299276
0.013646915736910835
0.013646906938421941
0.013646888084536273
0.013646876143755492
0.013646863260293211
0.013646848491461163
0.013646831837265474
0.013646831837265474
0.013646813926172046
0.013646813926172046
0.013646795072414878
0.013646795072414878
0.013646774333312081
0.013646774333312081
0.013646774333312081
0.013646753908468926
0.013646753908468926
0.013646753908468926
0.013646735683250068
0.013646735683250068
0.013646735683250068
0.013646735683250068
0.013646720286101375
0.013646720286101375
0.013646720286101375
0.013646720286101375
0.013646720286101375
0.01364670960237576
0.01364670960237576
0.01364670960237576
0.01364670960237576
0.01364670960237576
0.01364670960237576
0.013646703946289114
0.013646703946289114
0.013646703946289114
0.013646703946289114
0.013646703946289114
0.013646703946289114
0.013646703946289114
0.01364670803124035
0.01364670803124035
0.01364670803124035
0.01364670803124035
0.01364670803124035
0.01364670803124035
0.01364670803124035
0.01364670803124035
0.01364672562796732
0.01364672562796732
0.01364672562796732
0.01364672562796732
0.01364672562796732
0.01364672562796732
0.01364672562796732
0.01364672562796732
0.01364672562796732
0.01364672562796732
0.013646755165381469
0.013646755165381469
0.013646755165381469
0.013646755165381469
0.013646755165381469
0.013646755165381469
0.013646755165381469
0.013646755165381469
0.013646755165381469
0.013646755165381469
0.013646755165381469
0.013646755165381469
0.01364680575620741
0.01364680575620741
0.01364680575620741
0.01364680575620741
0.01364680575620741
0.01364680575620741
0.01364680575620741
0.01364680575620741
0.01364680575620741
0.01364680575620741
0.01364680575620741
0.01364680575620741
0.01364680575620741
0.01364680575620741
0.013646867345292127
0.013646867345292127
0.013646867345292127
0.013646867345292127
0.013646867345292127
0.013646867345292127
0.013646867345292127
0.013646867345292127
0.013646867345292127
0.013646867345292127
0.013646867345292127
0.013646867345292127
0.013646867345292127
0.013646867345292127
0.013646867345292127
0.013646867345292127
0.013646867345292127
0.013646962243303492
0.013646962243303492
0.013646962243303492
0.013646962243303492
0.013646962243303492
0.013646962243303492
0.013646962243303492
0.013646962243303492
0.013646962243303492
0.013646962243303492
0.013646962243303492
0.013646962243303492
0.013646962243303492
0.013646962243303492
0.013646962243303492
0.013646962243303492
0.013646962243303492
0.013646962243303492
0.013646962243303492
0.013646962243303492
0.013647076938800632
0.013647076938800632
0.013647076938800632
0.013647076938800632
0.013647076938800632
0.013647076938800632
0.013647076938800632
0.013647076938800632
0.013647076938800632
0.013647076938800632
0.013647076938800632
0.013647076938800632
0.013647076938800632
0.013647076938800632
0.013647076938800632
0.013647076938800632
0.013647076938800632
0.013647076938800632
0.013647076938800632
0.013647076938800632
0.013647076938800632
0.013647076938800632
0.013647076938800632
0.013647076938800632
0.013647076938800632
0.013647216145863353
0.013647216145863353
0.013647216145863353
0.013647216145863353
0.013647216145863353
0.013647216145863353
0.013647216145863353
0.013647216145863353
0.013647216145863353
0.013647216145863353
0.013647216145863353
0.013647216145863353
0.013647216145863353
0.013647216145863353
0.013647216145863353
0.013647216145863353
0.013647216145863353
0.013647216145863353
0.013647216145863353
0.013647216145863353
0.013647216145863353
0.013647216145863353
0.013647216145863353
0.013647216145863353
0.013647216145863353
0.013647216145863353
0.013647216145863353
0.013647216145863353
0.013647216145863353
0.013647216145863353
0.013647383950395282
0.013647383950395282
0.013647383950395282
0.013647383950395282
0.013647383950395282
0.013647383950395282
0.013647383950395282
0.013647383950395282
0.013647383950395282
0.013647383950395282
0.013647383950395282
0.013647383950395282
0.013647383950395282
0.013647383950395282
0.013647383950395282
0.013647383950395282
0.013647383950395282
0.013647383950395282
0.013647383950395282
0.013647383950395282
0.013647383950395282
0.013647383950395282
0.013647383950395282
0.013647383950395282
0.013647383950395282
0.013647383950395282
0.013647383950395282
0.013647383950395282
0.013647383950395282
0.013647383950395282
0.013647383950395282
0.013647383950395282
0.013647383950395282
0.013647383950395282
0.013647383950395282
0.013647603293512564
0.013647603293512564
0.013647603293512564
0.013647603293512564
0.013647603293512564
0.013647603293512564
0.013647603293512564
0.013647603293512564
0.013647603293512564
0.013647603293512564
0.013647603293512564
0.013647603293512564
0.013647603293512564
0.013647603293512564
0.013647603293512564
0.013647603293512564
0.013647603293512564
0.013647603293512564
0.013647603293512564
0.013647603293512564
0.013647603293512564
0.013647603293512564
0.013647603293512564
0.013647603293512564
0.013647603293512564
0.013647603293512564
0.013647603293512564
0.013647603293512564
0.013647603293512564
0.013647603293512564
0.013647603293512564
0.013647603293512564
0.013647603293512564
0.013647603293512564
0.013647603293512564
0.013647603293512564
0.013647603293512564
0.013647603293512564
0.013647603293512564
0.013647603293512564
0.013647603293512564
0.013647603293512564
0.013647842123838311
0.013647842123838311
0.013647842123838311
0.013647842123838311
0.013647842123838311
0.013647842123838311
0.013647842123838311
0.013647842123838311
0.013647842123838311
0.013647842123838311
0.013647842123838311
0.013647842123838311
0.013647842123838311
0.013647842123838311
0.013647842123838311
0.013647842123838311
0.013647842123838311
0.013647842123838311
0.013647842123838311
0.013647842123838311
0.013647842123838311
0.013647842123838311
0.013647842123838311
0.013647842123838311
0.013647842123838311
0.013647842123838311
0.013647842123838311
0.013647842123838311
0.013647842123838311
0.013647842123838311
0.013647842123838311
0.013647842123838311
0.013647842123838311
0.013647842123838311
0.013647842123838311
0.013647842123838311
0.013647842123838311
0.013647842123838311
0.013647842123838311
0.013647842123838311
0.013647842123838311
0.013647842123838311
0.013647842123838311
0.013647842123838311
0.013647842123838311
0.013647842123838311
0.013647842123838311
0.013647842123838311
0.013647842123838311
0.013647842123838311
0.013647842123838311
0.013647842123838311
0.013648168322535546
0.013648168322535546
0.013648168322535546
0.013648168322535546
0.013648168322535546
0.013648168322535546
0.013648168322535546
0.013648168322535546
0.013648168322535546
0.013648168322535546
0.013648168322535546
0.013648168322535546
0.013648168322535546
0.013648168322535546
0.013648168322535546
0.013648168322535546
0.013648168322535546
0.013648168322535546
0.013648168322535546
0.013648168322535546
0.013648168322535546
0.013648168322535546
0.013648168322535546
0.013648168322535546
0.013648168322535546
0.013648168322535546
0.013648168322535546
0.013648168322535546
0.013648168322535546
0.013648168322535546
0.013648168322535546
0.013648168322535546
0.013648168322535546
0.013648168322535546
0.013648168322535546
0.013648168322535546
0.013648168322535546
0.013648168322535546
0.013648168322535546
0.013648168322535546
0.013648168322535546
0.013648168322535546
0.013648168322535546
0.013648168322535546
0.013648168322535546
0.013648168322535546
0.013648168322535546
0.013648168322535546
0.013648168322535546
0.013648168322535546
0.013648168322535546
0.013648168322535546
0.013648168322535546
0.013648168322535546
0.013648168322535546
0.013648168322535546
0.013648168322535546
0.013648168322535546
0.013648168322535546
0.013648168322535546
0.013648168322535546
0.013648518413433413
0.013648518413433413
0.013648518413433413
0.013648518413433413
0.013648518413433413
0.013648518413433413
0.013648518413433413
0.013648518413433413
0.013648518413433413
0.013648518413433413
0.013648518413433413
0.013648518413433413
0.013648518413433413
0.013648518413433413
0.013648518413433413
0.013648518413433413
0.013648518413433413
0.013648518413433413
0.013648518413433413
0.013648518413433413
0.013648518413433413
0.013648518413433413
0.013648518413433413
0.013648518413433413
0.013648518413433413
0.013648518413433413
0.013648518413433413
0.013648518413433413
0.013648518413433413
0.013648518413433413
0.013648518413433413
0.013648518413433413
0.013648518413433413
0.013648518413433413
0.013648518413433413
0.013648518413433413
0.013648518413433413
0.013648518413433413
0.013648518413433413
0.013648518413433413
0.013648518413433413
0.013648518413433413
0.013648518413433413
0.013648518413433413
0.013648518413433413
0.013648518413433413
0.013648518413433413
0.013648518413433413
0.013648518413433413
0.013648518413433413
0.013648518413433413
0.013648518413433413
0.013648518413433413
0.013648518413433413
0.013648518413433413
0.013648518413433413
0.013648518413433413
0.013648518413433413
0.013648518413433413
0.013648518413433413
0.013648518413433413
0.013648518413433413
0.013648518413433413
0.013648518413433413
0.013648518413433413
0.013648518413433413
0.013648518413433413
0.013648518413433413
0.013648518413433413
0.013648518413433413
0.013648518413433413
0.013648518413433413
0.013648518413433413
0.013648956825381316
0.013648956825381316
0.013648956825381316
0.013648956825381316
0.013648956825381316
0.013648956825381316
0.013648956825381316
0.013648956825381316
0.013648956825381316
0.013648956825381316
0.013648956825381316
0.013648956825381316
0.013648956825381316
0.013648956825381316
0.013648956825381316
0.013648956825381316
0.013648956825381316
0.013648956825381316
0.013648956825381316
0.013648956825381316
0.013648956825381316
0.013648956825381316
0.013648956825381316
0.013648956825381316
0.013648956825381316
0.013648956825381316
0.013648956825381316
0.013648956825381316
0.013648956825381316
0.013648956825381316
0.013648956825381316
0.013648956825381316
0.013648956825381316
0.013648956825381316
0.013648956825381316
0.013648956825381316
0.013648956825381316
0.013648956825381316
0.013648956825381316
0.013648956825381316
0.013648956825381316
0.013648956825381316
0.013648956825381316
0.013648956825381316
0.013648956825381316
0.013648956825381316
0.013648956825381316
0.013648956825381316
0.013648956825381316
0.013648956825381316
0.013648956825381316
0.013648956825381316
0.013648956825381316
0.013648956825381316
0.013648956825381316
0.013648956825381316
0.013648956825381316
0.013648956825381316
0.013648956825381316
0.013648956825381316
0.013648956825381316
0.013648956825381316
0.013648956825381316
0.013648956825381316
0.013648956825381316
0.013648956825381316
0.013648956825381316
0.013648956825381316
0.013648956825381316
0.013648956825381316
0.013648956825381316
0.013648956825381316
0.013648956825381316
0.013648956825381316
0.013648956825381316
0.013648956825381316
0.013648956825381316
0.013648956825381316
0.013648956825381316
0.013648956825381316
0.013648956825381316
0.013648956825381316
0.013648956825381316
0.013648956825381316
0.013648956825381316
0.013648956825381316
0.013648956825381316
0.013648956825381316
0.013649481366853011
0.013649481366853011
0.013649481366853011
0.013649481366853011
0.013649481366853011
0.013649481366853011
0.013649481366853011
0.013649481366853011
0.013649481366853011
0.013649481366853011
0.013649481366853011
0.013649481366853011
0.013649481366853011
0.013649481366853011
0.013649481366853011
0.013649481366853011
0.013649481366853011
0.013649481366853011
0.013649481366853011
0.013649481366853011
0.013649481366853011
0.013649481366853011
0.013649481366853011
0.013649481366853011
0.013649481366853011
0.013649481366853011
0.013649481366853011
0.013649481366853011
0.013649481366853011
0.013649481366853011
0.013649481366853011
0.013649481366853011
0.013649481366853011
0.013649481366853011
0.013649481366853011
0.013649481366853011
0.013649481366853011
0.013649481366853011
0.013649481366853011
0.013649481366853011
0.013649481366853011
0.013649481366853011
0.013649481366853011
0.013649481366853011
0.013649481366853011
0.013649481366853011
0.013649481366853011
0.013649481366853011
0.013649481366853011
0.013649481366853011
0.013649481366853011
0.013649481366853011
0.013649481366853011
0.013649481366853011
0.013649481366853011
0.013649481366853011
0.013649481366853011
0.013649481366853011
0.013649481366853011
0.013649481366853011
0.013649481366853011
0.013649481366853011
0.013649481366853011
0.013649481366853011
0.013649481366853011
0.013649481366853011
0.013649481366853011
0.013649481366853011
0.013649481366853011
0.013649481366853011
0.013649481366853011
0.013649481366853011
0.013649481366853011
0.013649481366853011
0.013649481366853011
0.013649481366853011
0.013649481366853011
0.013649481366853011
0.013649481366853011
0.013649481366853011
0.013649481366853011
0.013649481366853011
0.013649481366853011
0.013649481366853011
0.013649481366853011
0.013649481366853011
0.013649481366853011
0.013649481366853011
0.013649481366853011
0.013649481366853011
0.013649481366853011
0.013649481366853011
0.013649481366853011
0.013649481366853011
0.013649481366853011
0.013649481366853011
0.013649481366853011
0.013649481366853011
0.013649481366853011
0.013649481366853011
0.013649481366853011
0.013649481366853011
0.013649481366853011
0.013649481366853011
0.013649481366853011
0.013649481366853011
0.01365010964886792
0.01365010964886792
0.01365010964886792
0.01365010964886792
0.01365010964886792
0.01365010964886792
0.01365010964886792
0.01365010964886792
0.01365010964886792
0.01365010964886792
0.01365010964886792
0.01365010964886792
0.01365010964886792
0.01365010964886792
0.01365010964886792
0.01365010964886792
0.01365010964886792
0.01365010964886792
0.01365010964886792
0.01365010964886792
0.01365010964886792
0.01365010964886792
0.01365010964886792
0.01365010964886792
0.01365010964886792
0.01365010964886792
0.01365010964886792
0.01365010964886792
0.01365010964886792
0.01365010964886792
0.01365010964886792
0.01365010964886792
0.01365010964886792
0.01365010964886792
0.01365010964886792
0.01365010964886792
0.01365010964886792
0.01365010964886792
0.01365010964886792
0.01365010964886792
0.01365010964886792
0.01365010964886792
0.01365010964886792
0.01365010964886792
0.01365010964886792
0.01365010964886792
0.01365010964886792
0.01365010964886792
0.01365010964886792
0.01365010964886792
0.01365010964886792
0.01365010964886792
0.01365010964886792
0.01365010964886792
0.01365010964886792
0.01365010964886792
0.01365010964886792
0.01365010964886792
0.01365010964886792
0.01365010964886792
0.01365010964886792
0.01365010964886792
0.01365010964886792
0.01365010964886792
0.01365010964886792
0.01365010964886792
0.01365010964886792
0.01365010964886792
0.01365010964886792
0.01365010964886792
0.01365010964886792
0.01365010964886792
0.01365010964886792
0.01365010964886792
0.01365010964886792
0.01365010964886792
0.01365010964886792
0.01365010964886792
0.01365010964886792
0.01365010964886792
0.01365010964886792
0.01365010964886792
0.01365010964886792
0.01365010964886792
0.01365010964886792
0.01365010964886792
0.01365010964886792
0.01365010964886792
0.01365010964886792
0.01365010964886792
0.01365010964886792
0.01365010964886792
0.01365010964886792
0.01365010964886792
0.01365010964886792
0.01365010964886792
0.01365010964886792
0.01365010964886792
0.01365010964886792
0.01365010964886792
0.01365010964886792
0.01365010964886792
0.01365010964886792
0.01365010964886792
0.01365010964886792
0.01365010964886792
0.01365010964886792
0.01365010964886792
0.01365010964886792
0.01365010964886792
0.01365010964886792
0.01365010964886792
0.01365010964886792
0.01365010964886792
0.01365010964886792
0.01365010964886792
0.01365010964886792
0.01365010964886792
0.01365010964886792
0.01365010964886792
0.01365010964886792
0.01365010964886792
0.01365010964886792
0.01365010964886792
0.01365010964886792
0.01365010964886792
0.01365010964886792
0.01365086431696994
0.01365086431696994
0.01365086431696994
0.01365086431696994
0.01365086431696994
0.01365086431696994
0.01365086431696994
0.01365086431696994
0.01365086431696994
0.01365086431696994
0.01365086431696994
0.01365086431696994
0.01365086431696994
0.01365086431696994
0.01365086431696994
0.01365086431696994
0.01365086431696994
0.01365086431696994
0.01365086431696994
0.01365086431696994
0.01365086431696994
0.01365086431696994
0.01365086431696994
0.01365086431696994
0.01365086431696994
0.01365086431696994
0.01365086431696994
0.01365086431696994
0.01365086431696994
0.01365086431696994
0.01365086431696994
0.01365086431696994
0.01365086431696994
0.01365086431696994
0.01365086431696994
0.01365086431696994
0.01365086431696994
0.01365086431696994
0.01365086431696994
0.01365086431696994
0.01365086431696994
0.01365086431696994
0.01365086431696994
0.01365086431696994
0.01365086431696994
0.01365086431696994
0.01365086431696994
0.01365086431696994
0.01365086431696994
0.01365086431696994
0.01365086431696994
0.01365086431696994
0.01365086431696994
0.01365086431696994
0.01365086431696994
0.01365086431696994
0.01365086431696994
0.01365086431696994
0.01365086431696994
0.01365086431696994
0.01365086431696994
0.01365086431696994
0.01365086431696994
0.01365086431696994
0.01365086431696994
0.01365086431696994
0.01365086431696994
0.01365086431696994
0.01365086431696994
0.01365086431696994
0.01365086431696994
0.01365086431696994
0.01365086431696994
0.01365086431696994
0.01365086431696994
0.01365086431696994
0.01365086431696994
0.01365086431696994
0.01365086431696994
0.01365086431696994
0.01365086431696994
0.01365086431696994
0.01365086431696994
0.01365086431696994
0.01365086431696994
0.01365086431696994
0.01365086431696994
0.01365086431696994
0.01365086431696994
0.01365086431696994
0.01365086431696994
0.01365086431696994
0.01365086431696994
0.01365086431696994
0.01365086431696994
0.01365086431696994
0.01365086431696994
0.01365086431696994
0.01365086431696994
0.01365086431696994
0.01365086431696994
0.01365086431696994
0.01365086431696994
0.01365086431696994
0.01365086431696994
0.01365086431696994
0.01365086431696994
0.01365086431696994
0.01365086431696994
0.01365086431696994
0.01365086431696994
0.01365086431696994
0.01365086431696994
0.01365086431696994
0.01365086431696994
0.01365086431696994
0.01365086431696994
0.01365086431696994
0.01365086431696994
0.01365086431696994
0.01365086431696994
0.01365086431696994
0.01365086431696994
0.01365086431696994
0.01365086431696994
0.01365086431696994
0.01365086431696994
0.01365086431696994
0.01365086431696994
0.01365086431696994
0.01365086431696994
0.01365086431696994
0.01365086431696994
0.01365086431696994
0.01365086431696994
0.01365086431696994
0.01365086431696994
0.01365086431696994
0.01365086431696994
0.01365086431696994
0.01365086431696994
0.01365086431696994
0.01365086431696994
0.01365086431696994
0.01365086431696994
0.01365086431696994
0.01365086431696994
0.01365086431696994
0.01365086431696994
0.01365086431696994
0.01365086431696994
0.01365086431696994
0.01365086431696994
0.013651770539585497
0.013651770539585497
0.013651770539585497
0.013651770539585497
0.013651770539585497
0.013651770539585497
0.013651770539585497
0.013651770539585497
0.013651770539585497
0.013651770539585497
0.013651770539585497
0.013651770539585497
0.013651770539585497
0.013651770539585497
0.013651770539585497
0.013651770539585497
0.013651770539585497
0.013651770539585497
0.013651770539585497
0.013651770539585497
0.013651770539585497
0.013651770539585497
0.013651770539585497
0.013651770539585497
0.013651770539585497
0.013651770539585497
0.013651770539585497
0.013651770539585497
0.013651770539585497
0.013651770539585497
0.013651770539585497
0.013651770539585497
0.013651770539585497
0.013651770539585497
0.013651770539585497
0.013651770539585497
0.013651770539585497
0.013651770539585497
0.013651770539585497
0.013651770539585497
0.013651770539585497
0.013651770539585497
0.013651770539585497
0.013651770539585497
0.013651770539585497
0.013651770539585497
0.013651770539585497
0.013651770539585497
0.013651770539585497
0.013651770539585497
0.013651770539585497
0.013651770539585497
0.013651770539585497
0.013651770539585497
0.013651770539585497
0.013651770539585497
0.013651770539585497
0.013651770539585497
0.013651770539585497
0.013651770539585497
0.013651770539585497
0.013651770539585497
0.013651770539585497
0.013651770539585497
0.013651770539585497
0.013651770539585497
0.013651770539585497
0.013651770539585497
0.013651770539585497
0.013651770539585497
0.013651770539585497
0.013651770539585497
0.013651770539585497
0.013651770539585497
0.013651770539585497
0.013651770539585497
0.013651770539585497
0.013651770539585497
0.013651770539585497
0.013651770539585497
0.013651770539585497
0.013651770539585497
0.013651770539585497
0.013651770539585497
0.013651770539585497
0.013651770539585497
0.013651770539585497
0.013651770539585497
0.013651770539585497
0.013651770539585497
0.013651770539585497
0.013651770539585497
0.013651770539585497
0.013651770539585497
0.013651770539585497
0.013651770539585497
0.013651770539585497
0.013651770539585497
0.013651770539585497
0.013651770539585497
0.013651770539585497
0.013651770539585497
0.013651770539585497
0.013651770539585497
0.013651770539585497
0.013651770539585497
0.013651770539585497
0.013651770539585497
0.013651770539585497
0.013651770539585497
0.013651770539585497
0.013651770539585497
0.013651770539585497
0.013651770539585497
0.013651770539585497
0.013651770539585497
0.013651770539585497
0.013651770539585497
0.013651770539585497
0.013651770539585497
0.013651770539585497
0.013651770539585497
0.013651770539585497
0.013651770539585497
0.013651770539585497
0.013651770539585497
0.013651770539585497
0.013651770539585497
0.013651770539585497
0.013651770539585497
0.013651770539585497
0.013651770539585497
0.013651770539585497
0.013651770539585497
0.013651770539585497
0.013651770539585497
0.013651770539585497
0.013651770539585497
0.013651770539585497
0.013651770539585497
0.013651770539585497
0.013651770539585497
0.013651770539585497
0.013651770539585497
0.013651770539585497
0.013651770539585497
0.013651770539585497
0.013651770539585497
0.013651770539585497
0.013651770539585497
0.013651770539585497
0.013651770539585497
0.013651770539585497
0.013651770539585497
0.013651770539585497
0.013651770539585497
0.013651770539585497
0.013651770539585497
0.013651770539585497
0.013651770539585497
0.013651770539585497
0.013651770539585497
0.013651770539585497
0.013651770539585497
0.013651770539585497
0.013651770539585497
0.013651770539585497
0.013651770539585497
0.013651770539585497
0.013651770539585497
0.013651770539585497
0.013651770539585497
0.013651770539585497
0.013651770539585497
0.013651770539585497
0.013651770539585497
0.013651770539585497
0.013651770539585497
0.013651770539585497
0.013651770539585497
0.013651770539585497
0.013651770539585497
0.013652859469358297
0.013652859469358297
0.013652859469358297
0.013652859469358297
0.013652859469358297
0.013652859469358297
0.013652859469358297
0.013652859469358297
0.013652859469358297
0.013652859469358297
0.013652859469358297
0.013652859469358297
0.013652859469358297
0.013652859469358297
0.013652859469358297
0.013652859469358297
0.013652859469358297
0.013652859469358297
0.013652859469358297
0.013652859469358297
0.013652859469358297
0.013652859469358297
0.013652859469358297
0.013652859469358297
0.013652859469358297
0.013652859469358297
0.013652859469358297
0.013652859469358297
0.013652859469358297
0.013652859469358297
0.013652859469358297
0.013652859469358297
0.013652859469358297
0.013652859469358297
0.013652859469358297
0.013652859469358297
0.013652859469358297
0.013652859469358297
0.013652859469358297
0.013652859469358297
0.013652859469358297
0.013652859469358297
0.013652859469358297
0.013652859469358297
0.013652859469358297
0.013652859469358297
0.013652859469358297
0.013652859469358297
0.013652859469358297
0.013652859469358297
0.013652859469358297
0.013652859469358297
0.013652859469358297
0.013652859469358297
0.013652859469358297
0.013652859469358297
0.013652859469358297
0.013652859469358297
0.013652859469358297
0.013652859469358297
0.013652859469358297
0.013652859469358297
0.013652859469358297
0.013652859469358297
0.013652859469358297
0.013652859469358297
0.013652859469358297
0.013652859469358297
0.013652859469358297
0.013652859469358297
0.013652859469358297
0.013652859469358297
0.013652859469358297
0.013652859469358297
0.013652859469358297
0.013652859469358297
0.013652859469358297
0.013652859469358297
0.013652859469358297
0.013652859469358297
0.013652859469358297
0.013652859469358297
0.013652859469358297
0.013652859469358297
0.013652859469358297
0.013652859469358297
0.013652859469358297
0.013652859469358297
0.013652859469358297
0.013652859469358297
0.013652859469358297
0.013652859469358297
0.013652859469358297
0.013652859469358297
0.013652859469358297
0.013652859469358297
0.013652859469358297
0.013652859469358297
0.013652859469358297
0.013652859469358297
0.013652859469358297
0.013652859469358297
0.013652859469358297
0.013652859469358297
0.013652859469358297
0.013652859469358297
0.013652859469358297
0.013652859469358297
0.013652859469358297
0.013652859469358297
0.013652859469358297
0.013652859469358297
0.013652859469358297
0.013652859469358297
0.013652859469358297
0.013652859469358297
0.013652859469358297
0.013652859469358297
0.013652859469358297
0.013652859469358297
0.013652859469358297
0.013652859469358297
0.013652859469358297
0.013652859469358297
0.013652859469358297
0.013652859469358297
0.013652859469358297
0.013652859469358297
0.013652859469358297
0.013652859469358297
0.013652859469358297
0.013652859469358297
0.013652859469358297
0.013652859469358297
0.013652859469358297
0.013652859469358297
0.013652859469358297
0.013652859469358297
0.013652859469358297
0.013652859469358297
0.013652859469358297
0.013652859469358297
0.013652859469358297
0.013652859469358297
0.013652859469358297
0.013652859469358297
0.013652859469358297
0.013652859469358297
0.013652859469358297
0.013652859469358297
0.013652859469358297
0.013652859469358297
0.013652859469358297
0.013652859469358297
0.013652859469358297
0.013652859469358297
0.013652859469358297
0.013652859469358297
0.013652859469358297
0.013652859469358297
0.013652859469358297
0.013652859469358297
0.013652859469358297
0.013652859469358297
0.013652859469358297
0.013652859469358297
0.013652859469358297
0.013652859469358297
0.013652859469358297
0.013652859469358297
0.013652859469358297
0.013652859469358297
0.013652859469358297
0.013652859469358297
0.013652859469358297
0.013652859469358297
0.013652859469358297
0.013652859469358297
0.013652859469358297
0.013652859469358297
0.013652859469358297
0.013652859469358297
0.013652859469358297
0.013652859469358297
0.013652859469358297
0.013652859469358297
0.013652859469358297
0.013652859469358297
0.013652859469358297
0.013652859469358297
0.013652859469358297
0.013652859469358297
0.013652859469358297
0.013652859469358297
0.013652859469358297
0.013652859469358297
0.013652859469358297
0.013652859469358297
0.013652859469358297
0.013652859469358297
0.013652859469358297
0.013652859469358297
0.013652859469358297
0.013652859469358297
0.013652859469358297
0.013652859469358297
0.013652859469358297
0.013652859469358297
0.013652859469358297
0.013652859469358297
0.013652859469358297
0.013652859469358297
0.013652859469358297
0.013652859469358297
0.013652859469358297
0.013652859469358297
0.013652859469358297
0.013652859469358297
0.013652859469358297
0.013652859469358297
0.013654167934612911
0.013654167934612911
0.013654167934612911
0.013654167934612911
0.013654167934612911
0.013654167934612911
0.013654167934612911
0.013654167934612911
0.013654167934612911
0.013654167934612911
0.013654167934612911
0.013654167934612911
0.013654167934612911
0.013654167934612911
0.013654167934612911
0.013654167934612911
0.013654167934612911
0.013654167934612911
0.013654167934612911
0.013654167934612911
0.013654167934612911
0.013654167934612911
0.013654167934612911
0.013654167934612911
0.013654167934612911
0.013654167934612911
0.013654167934612911
0.013654167934612911
0.013654167934612911
0.013654167934612911
0.013654167934612911
0.013654167934612911
0.013654167934612911
0.013654167934612911
0.013654167934612911
0.013654167934612911
0.013654167934612911
0.013654167934612911
0.013654167934612911
0.013654167934612911
0.013654167934612911
0.013654167934612911
0.013654167934612911
0.013654167934612911
0.013654167934612911
0.013654167934612911
0.013654167934612911
0.013654167934612911
0.013654167934612911
0.013654167934612911
0.013654167934612911
0.013654167934612911
0.013654167934612911
0.013654167934612911
0.013654167934612911
0.013654167934612911
0.013654167934612911
0.013654167934612911
0.013654167934612911
0.013654167934612911
0.013654167934612911
0.013654167934612911
0.013654167934612911
0.013654167934612911
0.013654167934612911
0.013654167934612911
0.013654167934612911
0.013654167934612911
0.013654167934612911
0.013654167934612911
0.013654167934612911
0.013654167934612911
0.013654167934612911
0.013654167934612911
0.013654167934612911
0.013654167934612911
0.013654167934612911
0.013654167934612911
0.013654167934612911
0.013654167934612911
0.013654167934612911
0.013654167934612911
0.013654167934612911
0.013654167934612911
0.013654167934612911
0.013654167934612911
0.013654167934612911
0.013654167934612911
0.013654167934612911
0.013654167934612911
0.013654167934612911
0.013654167934612911
0.013654167934612911
0.013654167934612911
0.013654167934612911
0.013654167934612911
0.013654167934612911
0.013654167934612911
0.013654167934612911
0.013654167934612911
0.013654167934612911
0.013654167934612911
0.013654167934612911
0.013654167934612911
0.013654167934612911
0.013654167934612911
0.013654167934612911
0.013654167934612911
0.013654167934612911
0.013654167934612911
0.013654167934612911
0.013654167934612911
0.013654167934612911
0.013654167934612911
0.013654167934612911
0.013654167934612911
0.013654167934612911
0.013654167934612911
0.013654167934612911
0.013654167934612911
0.013654167934612911
0.013654167934612911
0.013654167934612911
0.013654167934612911
0.013654167934612911
0.013654167934612911
0.013654167934612911
0.013654167934612911
0.013654167934612911
0.013654167934612911
0.013654167934612911
0.013654167934612911
0.013654167934612911
0.013654167934612911
0.013654167934612911
0.013654167934612911
0.013654167934612911
0.013654167934612911
0.013654167934612911
0.013654167934612911
0.013654167934612911
0.013654167934612911
0.013654167934612911
0.013654167934612911
0.013654167934612911
0.013654167934612911
0.013654167934612911
0.013654167934612911
0.013654167934612911
0.013654167934612911
0.013654167934612911
0.013654167934612911
0.013654167934612911
0.013654167934612911
0.013654167934612911
0.013654167934612911
0.013654167934612911
0.013654167934612911
0.013654167934612911
0.013654167934612911
0.013654167934612911
0.013654167934612911
0.013654167934612911
0.013654167934612911
0.013654167934612911
0.013654167934612911
0.013654167934612911
0.013654167934612911
0.013654167934612911
0.013654167934612911
0.013654167934612911
0.013654167934612911
0.013654167934612911
0.013654167934612911
0.013654167934612911
0.013654167934612911
0.013654167934612911
0.013654167934612911
0.013654167934612911
0.013654167934612911
0.013654167934612911
0.013654167934612911
0.013654167934612911
0.013654167934612911
0.013654167934612911
0.013654167934612911
0.013654167934612911
0.013654167934612911
0.013654167934612911
0.013654167934612911
0.013654167934612911
0.013654167934612911
0.013654167934612911
0.013654167934612911
0.013654167934612911
0.013654167934612911
0.013654167934612911
0.013654167934612911
0.013654167934612911
0.013654167934612911
0.013654167934612911
0.013654167934612911
0.013654167934612911
0.013654167934612911
0.013654167934612911
0.013654167934612911
0.013654167934612911
0.013654167934612911
0.013654167934612911
0.013654167934612911
0.013654167934612911
0.013654167934612911
0.013654167934612911
0.013654167934612911
0.013654167934612911
0.013654167934612911
0.013654167934612911
0.013654167934612911
0.013654167934612911
0.013654167934612911
0.013654167934612911
0.013654167934612911
0.013654167934612911
0.013654167934612911
0.013654167934612911
0.013654167934612911
0.013654167934612911
0.013654167934612911
0.013654167934612911
0.013654167934612911
0.013654167934612911
0.013654167934612911
0.013654167934612911
0.013654167934612911
0.013654167934612911
0.013654167934612911
0.013654167934612911
0.013654167934612911
0.013654167934612911
0.013654167934612911
0.013654167934612911
0.013654167934612911
0.013654167934612911
0.013654167934612911
0.013654167934612911
0.013654167934612911
0.013654167934612911
0.013654167934612911
0.013654167934612911
0.013654167934612911
0.013654167934612911
0.013654167934612911
0.013654167934612911
0.013654167934612911
0.013654167934612911
0.013654167934612911
0.013654167934612911
0.013654167934612911
0.013654167934612911
0.013654167934612911
0.013654167934612911
0.013654167934612911
0.013654167934612911
0.013655735617195046
0.013655735617195046
0.013655735617195046
0.013655735617195046
0.013655735617195046
0.013655735617195046
0.013655735617195046
0.013655735617195046
0.013655735617195046
0.013655735617195046
0.013655735617195046
0.013655735617195046
0.013655735617195046
0.013655735617195046
0.013655735617195046
0.013655735617195046
0.013655735617195046
0.013655735617195046
0.013655735617195046
0.013655735617195046
0.013655735617195046
0.013655735617195046
0.013655735617195046
0.013655735617195046
0.013655735617195046
0.013655735617195046
0.013655735617195046
0.013655735617195046
0.013655735617195046
0.013655735617195046
0.013655735617195046
0.013655735617195046
0.013655735617195046
0.013655735617195046
0.013655735617195046
0.013655735617195046
0.013655735617195046
0.013655735617195046
0.013655735617195046
0.013655735617195046
0.013655735617195046
0.013655735617195046
0.013655735617195046
0.013655735617195046
0.013655735617195046
0.013655735617195046
0.013655735617195046
0.013655735617195046
0.013655735617195046
0.013655735617195046
0.013655735617195046
0.013655735617195046
0.013655735617195046
0.013655735617195046
0.013655735617195046
0.013655735617195046
0.013655735617195046
0.013655735617195046
0.013655735617195046
0.013655735617195046
0.013655735617195046
0.013655735617195046
0.013655735617195046
0.013655735617195046
0.013655735617195046
0.013655735617195046
0.013655735617195046
0.013655735617195046
0.013655735617195046
0.013655735617195046
0.013655735617195046
0.013655735617195046
0.013655735617195046
0.013655735617195046
0.013655735617195046
0.013655735617195046
0.013655735617195046
0.013655735617195046
0.013655735617195046
0.013655735617195046
0.013655735617195046
0.013655735617195046
0.013655735617195046
0.013655735617195046
0.013655735617195046
0.013655735617195046
0.013655735617195046
0.013655735617195046
0.013655735617195046
0.013655735617195046
0.013655735617195046
0.013655735617195046
0.013655735617195046
0.013655735617195046
0.013655735617195046
0.013655735617195046
0.013655735617195046
0.013655735617195046
0.013655735617195046
0.013655735617195046
0.013655735617195046
0.013655735617195046
0.013655735617195046
0.013655735617195046
0.013655735617195046
0.013655735617195046
0.013655735617195046
0.013655735617195046
0.013655735617195046
0.013655735617195046
0.013655735617195046
0.013655735617195046
0.013655735617195046
0.013655735617195046
0.013655735617195046
0.013655735617195046
0.013655735617195046
0.013655735617195046
0.013655735617195046
0.013655735617195046
0.013655735617195046
0.013655735617195046
0.013655735617195046
0.013655735617195046
0.013655735617195046
0.013655735617195046
0.013655735617195046
0.013655735617195046
0.013655735617195046
0.013655735617195046
0.013655735617195046
0.013655735617195046
0.013655735617195046
0.013655735617195046
0.013655735617195046
0.013655735617195046
0.013655735617195046
0.013655735617195046
0.013655735617195046
0.013655735617195046
0.013655735617195046
0.013655735617195046
0.013655735617195046
0.013655735617195046
0.013655735617195046
0.013655735617195046
0.013655735617195046
0.013655735617195046
0.013655735617195046
0.013655735617195046
0.013655735617195046
0.013655735617195046
0.013655735617195046
0.013655735617195046
0.013655735617195046
0.013655735617195046
0.013655735617195046
0.013655735617195046
0.013655735617195046
0.013655735617195046
0.013655735617195046
0.013655735617195046
0.013655735617195046
0.013655735617195046
0.013655735617195046
0.013655735617195046
0.013655735617195046
0.013655735617195046
0.013655735617195046
0.013655735617195046
0.013655735617195046
0.013655735617195046
0.013655735617195046
0.013655735617195046
0.013655735617195046
0.013655735617195046
0.013655735617195046
0.013655735617195046
0.013655735617195046
0.013655735617195046
0.013655735617195046
0.013655735617195046
0.013655735617195046
0.013655735617195046
0.013655735617195046
0.013655735617195046
0.013655735617195046
0.013655735617195046
0.013655735617195046
0.013655735617195046
0.013655735617195046
0.013655735617195046
0.013655735617195046
0.013655735617195046
0.013655735617195046
0.013655735617195046
0.013655735617195046
0.013655735617195046
0.013655735617195046
0.013655735617195046
0.013655735617195046
0.013655735617195046
0.013655735617195046
0.013655735617195046
0.013655735617195046
0.013655735617195046
0.013655735617195046
0.013655735617195046
0.013655735617195046
0.013655735617195046
0.013655735617195046
0.013655735617195046
0.013655735617195046
0.013655735617195046
0.013655735617195046
0.013655735617195046
0.013655735617195046
0.013655735617195046
0.013655735617195046
0.013655735617195046
0.013655735617195046
0.013655735617195046
0.013655735617195046
0.013655735617195046
0.013655735617195046
0.013655735617195046
0.013655735617195046
0.013655735617195046
0.013655735617195046
0.013655735617195046
0.013655735617195046
0.013655735617195046
0.013655735617195046
0.013655735617195046
0.013655735617195046
0.013655735617195046
0.013655735617195046
0.013655735617195046
0.013655735617195046
0.013655735617195046
0.013655735617195046
0.013655735617195046
0.013655735617195046
0.013655735617195046
0.013655735617195046
0.013655735617195046
0.013655735617195046
0.013655735617195046
0.013655735617195046
0.013655735617195046
0.013655735617195046
0.013655735617195046
0.013655735617195046
0.013655735617195046
0.013655735617195046
0.013655735617195046
0.013655735617195046
0.013655735617195046
0.013655735617195046
0.013655735617195046
0.013655735617195046
0.013655735617195046
0.013655735617195046
0.013655735617195046
0.013655735617195046
0.013655735617195046
0.013655735617195046
0.013655735617195046
0.013655735617195046
0.013655735617195046
0.013655735617195046
0.013655735617195046
0.013655735617195046
0.013655735617195046
0.013655735617195046
0.013655735617195046
0.013655735617195046
0.013655735617195046
0.013655735617195046
0.013655735617195046
0.013655735617195046
0.013655735617195046
0.013655735617195046
0.013655735617195046
0.013655735617195046
0.013655735617195046
0.013655735617195046
0.013655735617195046
0.013655735617195046
0.013655735617195046
0.013655735617195046
0.013655735617195046
0.013655735617195046
0.013655735617195046
0.013655735617195046
0.013655735617195046
0.013655735617195046
0.013655735617195046
0.013655735617195046
0.013655735617195046
0.013655735617195046
0.013655735617195046
0.013655735617195046
0.013655735617195046
0.013655735617195046
0.013655735617195046
0.013655735617195046
0.013655735617195046
0.013655735617195046
0.013655735617195046
0.013655735617195046
0.013655735617195046
0.013655735617195046
0.013655735617195046
0.013655735617195046
0.013655735617195046
0.013657615124118639
0.013657615124118639
0.013657615124118639
0.013657615124118639
0.013657615124118639
0.013657615124118639
0.013657615124118639
0.013657615124118639
0.013657615124118639
0.013657615124118639
0.013657615124118639
0.013657615124118639
0.013657615124118639
0.013657615124118639
0.013657615124118639
0.013657615124118639
0.013657615124118639
0.013657615124118639
0.013657615124118639
0.013657615124118639
0.013657615124118639
0.013657615124118639
0.013657615124118639
0.013657615124118639
0.013657615124118639
0.013657615124118639
0.013657615124118639
0.013657615124118639
0.013657615124118639
0.013657615124118639
0.013657615124118639
0.013657615124118639
0.013657615124118639
0.013657615124118639
0.013657615124118639
0.013657615124118639
0.013657615124118639
0.013657615124118639
0.013657615124118639
0.013657615124118639
0.013657615124118639
0.013657615124118639
0.013657615124118639
0.013657615124118639
0.013657615124118639
0.013657615124118639
0.013657615124118639
0.013657615124118639
0.013657615124118639
0.013657615124118639
0.013657615124118639
0.013657615124118639
0.013657615124118639
0.013657615124118639
0.013657615124118639
0.013657615124118639
0.013657615124118639
0.013657615124118639
0.013657615124118639
0.013657615124118639
0.013657615124118639
0.013657615124118639
0.013657615124118639
0.013657615124118639
0.013657615124118639
0.013657615124118639
0.013657615124118639
0.013657615124118639
0.013657615124118639
0.013657615124118639
0.013657615124118639
0.013657615124118639
0.013657615124118639
0.013657615124118639
0.013657615124118639
0.013657615124118639
0.013657615124118639
0.013657615124118639
0.013657615124118639
0.013657615124118639
0.013657615124118639
0.013657615124118639
0.013657615124118639
0.013657615124118639
0.013657615124118639
0.013657615124118639
0.013657615124118639
0.013657615124118639
0.013657615124118639
0.013657615124118639
0.013657615124118639
0.013657615124118639
0.013657615124118639
0.013657615124118639
0.013657615124118639
0.013657615124118639
0.013657615124118639
0.013657615124118639
0.013657615124118639
0.013657615124118639
0.013657615124118639
0.013657615124118639
0.013657615124118639
0.013657615124118639
