654.2740416674584
656.3953563679133
661.1715534268983
665.3108254117622
671.39091461628
675.446817873413
680.3952609060085
686.4529883720556
686.4529883720556
693.8979588752799
703.085449154388
703.085449154388
714.488231793502
714.488231793502
714.488231793502
728.7905120074078
728.7905120074078
728.7905120074078
743.7236807717363
743.7236807717363
743.7236807717363
759.0539943755946
759.0539943755946
774.6301740755118
774.6301740755118
774.6301740755118
790.2835644530517
790.2835644530517
790.2835644530517
806.0012772106472
806.0012772106472
821.9385312481633
821.9385312481633
821.9385312481633
838.0433997130264
838.0433997130264
854.2200876823766
854.2200876823766
870.3239603913778
870.3239603913778
886.6487987216528
886.6487987216528
886.6487987216528
903.0927379614271
903.0927379614271
919.6182259880006
919.6182259880006
936.0660409793495
952.4887832158525
952.4887832158525
969.0734383181413
969.0734383181413
985.7101759411237
985.7101759411237
1002.2770129427093
1018.6427065532432
1018.6427065532432
1035.116258326813
1051.6325745266352
1051.6325745266352
1068.0662698202632
1084.2247328770065
1084.2247328770065
1100.4466939208041
1116.6198140628437
1132.718412273199
1148.534909421224
1148.534909421224
1164.3258777812266
1180.0270694519584
1195.5813450048147
1210.8709774280399
1226.0866112431602
1241.1902917697087
1256.0894848497542
1270.7367499992715
1299.7747921510868
1314.032782073368
1328.0549044286759
1356.0772807246233
1369.946635166115
1383.7629873815417
1412.051641474533
1426.616392620805
1457.5849317696504
1490.2385716695503
1539.9601052639412
1778.423301497856
3341.358928335807
2235.3854510001433
1584.3959003875104
1455.2875702132844
1499.590774593248
1644.7334687940474
1873.6660601947247
2035.6572673658004
2139.666070702568
2199.8046209556674
2195.688918362445
2092.197602060067
2007.4448367918387
2092.316259538667
70810.94658864569
