802.4778983329526
911.216174367165
919.2231855069396
926.137757039733
936.3024073250219
943.1061567333404
951.4345102156141
961.6711556070984
974.317560327744
974.317560327744
990.0796633201251
990.0796633201251
1009.8274223606558
1009.8274223606558
1030.9715240072549
1030.9715240072549
1052.323526727635
1052.323526727635
1052.323526727635
1074.1000331812706
1074.1000331812706
1096.1901113110794
1096.1901113110794
1118.5397438039274
1118.5397438039274
1140.9739789180123
1140.9739789180123
1163.562858761671
1163.562858761671
1186.4319131088841
1186.4319131088841
1209.5090436944033
1209.5090436944033
1232.6336798605269
1255.7014622974873
1255.7014622974873
1279.077207206636
1279.077207206636
1302.6049074271987
1326.1447795443357
1326.1447795443357
1349.4455950393744
1372.9753496523485
1396.647698365509
1396.647698365509
1420.3115867827596
1443.6885763728765
1467.1617631995562
1490.6515293728014
1514.143268054183
1514.143268054183
1537.3578508096964
1560.546629441055
1583.705263077119
1606.7127869087708
1652.1078318977613
1674.6878905326246
1697.048288168838
1719.0541217905052
1741.0088149045805
1784.4577509430662
1805.6608007106015
1847.950909165316
1868.8175332364206
1909.993415209382
1951.2609354792523
1993.033093303851
2036.9411883510443
2083.286789856719
2129.923817515077
2245.9984902771216
4550.845169145505
2976.1314551454816
2183.1658032610744
2138.5463627039567
2501.832615712346
3042.737521327009
3260.2824785908615
3361.72001610101
3273.853564162231
2905.4612657327502
3092.8106345679716
