00000 0.00000000E+00 2.31300000E-01 -2.07115983E+00 -5.87652363E-01 3.53772572E+00 6.82565829E+00 5.05368745E+00 1.60251760E+01 -1.34156970E-01 6.98490994E-01 2.81392784E-01 3.53980858E-03 1.06566237E-03 1.00996559E-02 6.14045793E+02 1.92727934E+08 2.83538525E+11 8.26653857E-03 1.38797346E-08 0.00000000E+00 0.00000000E+00 0.00000000E+00 0.00000000E+00 0.00000000E+00 0.00000000E+00 0.00000000E+00 0.00000000E+00 0.00000000E+00
00001 5.00000000E+04 2.31300000E-01 -2.10489698E+00 -5.93680930E-01 3.53230572E+00 6.82023524E+00 5.06013916E+00 1.60269714E+01 -9.24477385E-02 6.98490829E-01 2.81392949E-01 3.53980857E-03 1.06566238E-03 1.00996559E-02 6.01392363E+02 2.11208012E+08 3.06442665E+11 7.83189596E-03 1.05352559E-08 0.00000000E+00 0.00000000E+00 0.00000000E+00 0.00000000E+00 0.00000000E+00 0.00000000E+00 0.00000000E+00 0.00000000E+00 0.00000000E+00
00002 1.00000000E+05 2.31300000E-01 -2.10491932E+00 -5.93684003E-01 3.53230167E+00 6.82023884E+00 5.06014600E+00 1.60269820E+01 -9.24437649E-02 6.98490667E-01 2.81393111E-01 3.53980856E-03 1.06566239E-03 1.00996559E-02 6.01385981E+02 2.11220370E+08 3.06458427E+11 7.83189664E-03 1.05364105E-08 0.00000000E+00 0.00000000E+00 0.00000000E+00 0.00000000E+00 0.00000000E+00 0.00000000E+00 0.00000000E+00 0.00000000E+00 0.00000000E+00
00003 1.60000000E+05 2.31300000E-01 -2.10491923E+00 -5.93684006E-01 3.53230169E+00 6.82023887E+00 5.06014611E+00 1.60269820E+01 -9.24437554E-02 6.98490476E-01 2.81393302E-01 3.53980856E-03 1.06566240E-03 1.00996559E-02 6.01385976E+02 2.11220323E+08 3.06458358E+11 7.83189849E-03 1.05364284E-08 0.00000000E+00 0.00000000E+00 0.00000000E+00 0.00000000E+00 0.00000000E+00 0.00000000E+00 0.00000000E+00 0.00000000E+00 0.00000000E+00
00004 2.32000000E+05 2.31299999E-01 -2.10491922E+00 -5.93684010E-01 3.53230170E+00 6.82023891E+00 5.06014623E+00 1.60269821E+01 -9.24437440E-02 6.98490251E-01 2.81393527E-01 3.53980855E-03 1.06566240E-03 1.00996559E-02 6.01385967E+02 2.11220325E+08 3.06458357E+11 7.83190072E-03 1.05364501E-08 0.00000000E+00 0.00000000E+00 0.00000000E+00 0.00000000E+00 0.00000000E+00 0.00000000E+00 0.00000000E+00 0.00000000E+00 0.00000000E+00
00005 3.18400000E+05 2.31299999E-01 -2.10491922E+00 -5.93684015E-01 3.53230170E+00 6.82023896E+00 5.06014637E+00 1.60269822E+01 -9.24437318E-02 6.98489987E-01 2.81393791E-01 3.53980854E-03 1.06566242E-03 1.00996559E-02 6.01385956E+02 2.11220326E+08 3.06458356E+11 7.83190338E-03 1.05364761E-08 0.00000000E+00 0.00000000E+00 0.00000000E+00 0.00000000E+00 0.00000000E+00 0.00000000E+00 0.00000000E+00 0.00000000E+00 0.00000000E+00
00006 4.22080000E+05 2.31299999E-01 -2.10491922E+00 -5.93684022E-01 3.53230170E+00 6.82023902E+00 5.06014654E+00 1.60269824E+01 -9.24437190E-02 6.98489678E-01 2.81394100E-01 3.53980853E-03 1.06566243E-03 1.00996559E-02 6.01385943E+02 2.11220327E+08 3.06458353E+11 7.83190657E-03 1.05365070E-08 0.00000000E+00 0.00000000E+00 0.00000000E+00 0.00000000E+00 0.00000000E+00 0.00000000E+00 0.00000000E+00 0.00000000E+00 0.00000000E+00
00007 5.46496000E+05 2.31299998E-01 -2.10491922E+00 -5.93684029E-01 3.53230171E+00 6.82023909E+00 5.06014674E+00 1.60269825E+01 -9.24437061E-02 6.98489317E-01 2.81394462E-01 3.53980852E-03 1.06566244E-03 1.00996559E-02 6.01385928E+02 2.11220329E+08 3.06458351E+11 7.83191037E-03 1.05365438E-08 0.00000000E+00 0.00000000E+00 0.00000000E+00 0.00000000E+00 0.00000000E+00 0.00000000E+00 0.00000000E+00 0.00000000E+00 0.00000000E+00
00008 6.95795200E+05 2.31299998E-01 -2.10491921E+00 -5.93684038E-01 3.53230171E+00 6.82023917E+00 5.06014698E+00 1.60269827E+01 -9.24436941E-02 6.98488897E-01 2.81394881E-01 3.53980850E-03 1.06566246E-03 1.00996559E-02 6.01385911E+02 2.11220331E+08 3.06458348E+11 7.83191492E-03 1.05365876E-08 0.00000000E+00 0.00000000E+00 0.00000000E+00 0.00000000E+00 0.00000000E+00 0.00000000E+00 0.00000000E+00 0.00000000E+00 0.00000000E+00
00009 8.74954240E+05 2.31299997E-01 -2.10491920E+00 -5.93684049E-01 3.53230172E+00 6.82023927E+00 5.06014725E+00 1.60269829E+01 -9.24436840E-02 6.98488410E-01 2.81395368E-01 3.53980849E-03 1.06566247E-03 1.00996559E-02 6.01385890E+02 2.11220329E+08 3.06458339E+11 7.83192033E-03 1.05366397E-08 0.00000000E+00 0.00000000E+00 0.00000000E+00 0.00000000E+00 0.00000000E+00 0.00000000E+00 0.00000000E+00 0.00000000E+00 0.00000000E+00
00010 1.08994509E+06 2.31299997E-01 -2.10491920E+00 -5.93684061E-01 3.53230173E+00 6.82023939E+00 5.06014757E+00 1.60269831E+01 -9.24436778E-02 6.98487848E-01 2.81395930E-01 3.53980847E-03 1.06566249E-03 1.00996559E-02 6.01385865E+02 2.11220333E+08 3.06458337E+11 7.83192678E-03 1.05367014E-08 0.00000000E+00 0.00000000E+00 0.00000000E+00 0.00000000E+00 0.00000000E+00 0.00000000E+00 0.00000000E+00 0.00000000E+00 0.00000000E+00
00011 1.34793411E+06 2.31299996E-01 -2.10491919E+00 -5.93684076E-01 3.53230174E+00 6.82023952E+00 5.06014794E+00 1.60269834E+01 -9.24436777E-02 6.98487203E-01 2.81396575E-01 3.53980846E-03 1.06566251E-03 1.00996559E-02 6.01385836E+02 2.11220333E+08 3.06458327E+11 7.83193445E-03 1.05367744E-08 0.00000000E+00 0.00000000E+00 0.00000000E+00 0.00000000E+00 0.00000000E+00 0.00000000E+00 0.00000000E+00 0.00000000E+00 0.00000000E+00
00012 1.65752093E+06 2.31299995E-01 -2.10491922E+00 -5.93684110E-01 3.53230175E+00 6.82023908E+00 5.06014617E+00 1.60269823E+01 -9.24444933E-02 6.98490433E-01 2.81393345E-01 3.53980858E-03 1.06566235E-03 1.00996559E-02 6.01385766E+02 2.11220361E+08 3.06458345E+11 7.83191768E-03 1.05365533E-08 0.00000000E+00 0.00000000E+00 0.00000000E+00 0.00000000E+00 0.00000000E+00 0.00000000E+00 0.00000000E+00 0.00000000E+00 0.00000000E+00
00013 2.02902511E+06 2.31299994E-01 -2.10491928E+00 -5.93684134E-01 3.53230174E+00 6.82023914E+00 5.06014624E+00 1.60269824E+01 -9.24446577E-02 6.98490322E-01 2.81393457E-01 3.53980858E-03 1.06566196E-03 1.00996564E-02 6.01385716E+02 2.11220403E+08 3.06458391E+11 7.83192286E-03 1.05365899E-08 0.00000000E+00 0.00000000E+00 0.00000000E+00 0.00000000E+00 0.00000000E+00 0.00000000E+00 0.00000000E+00 0.00000000E+00 0.00000000E+00
00014 2.47483013E+06 2.31299992E-01 -2.10491937E+00 -5.93684164E-01 3.53230174E+00 6.82023922E+00 5.06014633E+00 1.60269825E+01 -9.24448543E-02 6.98490176E-01 2.81393602E-01 3.53980858E-03 1.06566427E-03 1.00996542E-02 6.01385657E+02 2.11220456E+08 3.06458449E+11 7.83192913E-03 1.05366353E-08 0.00000000E+00 0.00000000E+00 0.00000000E+00 0.00000000E+00 0.00000000E+00 0.00000000E+00 0.00000000E+00 0.00000000E+00 0.00000000E+00
00015 3.00979616E+06 2.31299991E-01 -2.10491924E+00 -5.93684199E-01 3.53230179E+00 6.82023932E+00 5.06014643E+00 1.60269826E+01 -9.24450920E-02 6.98490000E-01 2.81393778E-01 3.53980857E-03 1.06566434E-03 1.00996541E-02 6.01385586E+02 2.11220407E+08 3.06458355E+11 7.83193663E-03 1.05366897E-08 0.00000000E+00 0.00000000E+00 0.00000000E+00 0.00000000E+00 0.00000000E+00 0.00000000E+00 0.00000000E+00 0.00000000E+00 0.00000000E+00
00016 3.65175539E+06 2.31299989E-01 -2.10491924E+00 -5.93684240E-01 3.53230181E+00 6.82023943E+00 5.06014655E+00 1.60269828E+01 -9.24453812E-02 6.98489788E-01 2.81393990E-01 3.53980857E-03 1.06566434E-03 1.00996541E-02 6.01385504E+02 2.11220422E+08 3.06458350E+11 7.83194550E-03 1.05367544E-08 0.00000000E+00 0.00000000E+00 0.00000000E+00 0.00000000E+00 0.00000000E+00 0.00000000E+00 0.00000000E+00 0.00000000E+00 0.00000000E+00
00017 4.42210647E+06 2.31299986E-01 -2.10491924E+00 -5.93684288E-01 3.53230183E+00 6.82023956E+00 5.06014669E+00 1.60269830E+01 -9.24457341E-02 6.98489534E-01 2.81394244E-01 3.53980857E-03 1.06566436E-03 1.00996541E-02 6.01385407E+02 2.11220442E+08 3.06458348E+11 7.83195597E-03 1.05368313E-08 0.00000000E+00 0.00000000E+00 0.00000000E+00 0.00000000E+00 0.00000000E+00 0.00000000E+00 0.00000000E+00 0.00000000E+00 0.00000000E+00
00018 5.34652777E+06 2.31299983E-01 -2.10491922E+00 -5.93684344E-01 3.53230186E+00 6.82023972E+00 5.06014686E+00 1.60269832E+01 -9.24461657E-02 6.98489230E-01 2.81394548E-01 3.53980857E-03 1.06566430E-03 1.00996541E-02 6.01385294E+02 2.11220457E+08 3.06458335E+11 7.83196828E-03 1.05369227E-08 0.00000000E+00 0.00000000E+00 0.00000000E+00 0.00000000E+00 0.00000000E+00 0.00000000E+00 0.00000000E+00 0.00000000E+00 0.00000000E+00
00019 6.45583332E+06 2.31299980E-01 -2.10491920E+00 -5.93684409E-01 3.53230190E+00 6.82023991E+00 5.06014705E+00 1.60269834E+01 -9.24466948E-02 6.98488864E-01 2.81394914E-01 3.53980856E-03 1.06566436E-03 1.00996541E-02 6.01385164E+02 2.11220473E+08 3.06458316E+11 7.83198271E-03 1.05370308E-08 0.00000000E+00 0.00000000E+00 0.00000000E+00 0.00000000E+00 0.00000000E+00 0.00000000E+00 0.00000000E+00 0.00000000E+00 0.00000000E+00
00020 7.78699998E+06 2.31299975E-01 -2.10491919E+00 -5.93684484E-01 3.53230194E+00 6.82024014E+00 5.06014727E+00 1.60269837E+01 -9.24473456E-02 6.98488426E-01 2.81395352E-01 3.53980856E-03 1.06566440E-03 1.00996540E-02 6.01385014E+02 2.11220492E+08 3.06458297E+11 7.83199953E-03 1.05371586E-08 0.00000000E+00 0.00000000E+00 0.00000000E+00 0.00000000E+00 0.00000000E+00 0.00000000E+00 0.00000000E+00 0.00000000E+00 0.00000000E+00
00021 9.38439998E+06 2.31299970E-01 -2.10491913E+00 -5.93684569E-01 3.53230200E+00 6.82024040E+00 5.06014752E+00 1.60269840E+01 -9.24481480E-02 6.98487899E-01 2.81395879E-01 3.53980856E-03 1.06566448E-03 1.00996539E-02 6.01384845E+02 2.11220499E+08 3.06458254E+11 7.83201906E-03 1.05373093E-08 0.00000000E+00 0.00000000E+00 0.00000000E+00 0.00000000E+00 0.00000000E+00 0.00000000E+00 0.00000000E+00 0.00000000E+00 0.00000000E+00
00022 1.13012800E+07 2.31299964E-01 -2.10491908E+00 -5.93684664E-01 3.53230206E+00 6.82024072E+00 5.06014781E+00 1.60269844E+01 -9.24491406E-02 6.98487268E-01 2.81396510E-01 3.53980855E-03 1.06566452E-03 1.00996539E-02 6.01384654E+02 2.11220508E+08 3.06458208E+11 7.83204158E-03 1.05374864E-08 0.00000000E+00 0.00000000E+00 0.00000000E+00 0.00000000E+00 0.00000000E+00 0.00000000E+00 0.00000000E+00 0.00000000E+00 0.00000000E+00
00023 1.36015360E+07 2.31299957E-01 -2.10491898E+00 -5.93684771E-01 3.53230214E+00 6.82024108E+00 5.06014812E+00 1.60269848E+01 -9.24503714E-02 6.98486510E-01 2.81397268E-01 3.53980854E-03 1.06566467E-03 1.00996538E-02 6.01384442E+02 2.11220496E+08 3.06458125E+11 7.83206739E-03 1.05376939E-08 0.00000000E+00 0.00000000E+00 0.00000000E+00 0.00000000E+00 0.00000000E+00 0.00000000E+00 0.00000000E+00 0.00000000E+00 0.00000000E+00
00024 1.63618432E+07 2.31299948E-01 -2.10491883E+00 -5.93684887E-01 3.53230223E+00 6.82024151E+00 5.06014846E+00 1.60269853E+01 -9.24519015E-02 6.98485600E-01 2.81398178E-01 3.53980853E-03 1.06566550E-03 1.00996529E-02 6.01384212E+02 2.11220466E+08 3.06458011E+11 7.83209671E-03 1.05379363E-08 0.00000000E+00 0.00000000E+00 0.00000000E+00 0.00000000E+00 0.00000000E+00 0.00000000E+00 0.00000000E+00 0.00000000E+00 0.00000000E+00
00025 1.96742118E+07 2.31299938E-01 -2.10491864E+00 -5.93685012E-01 3.53230234E+00 6.82024202E+00 5.06014883E+00 1.60269857E+01 -9.24538084E-02 6.98484509E-01 2.81399269E-01 3.53980852E-03 1.06566611E-03 1.00996524E-02 6.01383966E+02 2.11220416E+08 3.06457864E+11 7.83212973E-03 1.05382182E-08 0.00000000E+00 0.00000000E+00 0.00000000E+00 0.00000000E+00 0.00000000E+00 0.00000000E+00 0.00000000E+00 0.00000000E+00 0.00000000E+00
00026 2.36490542E+07 2.31299925E-01 -2.10491838E+00 -5.93685142E-01 3.53230247E+00 6.82024260E+00 5.06014921E+00 1.60269862E+01 -9.24561885E-02 6.98483199E-01 2.81400579E-01 3.53980851E-03 1.06566563E-03 1.00996526E-02 6.01383712E+02 2.11220329E+08 3.06457663E+11 7.83216650E-03 1.05385449E-08 0.00000000E+00 0.00000000E+00 0.00000000E+00 0.00000000E+00 0.00000000E+00 0.00000000E+00 0.00000000E+00 0.00000000E+00 0.00000000E+00
00027 2.84188650E+07 2.31299910E-01 -2.10491797E+00 -5.93685274E-01 3.53230264E+00 6.82024329E+00 5.06014960E+00 1.60269867E+01 -9.24591589E-02 6.98481627E-01 2.81402151E-01 3.53980850E-03 1.06566487E-03 1.00996533E-02 6.01383457E+02 2.11220167E+08 3.06457354E+11 7.83220712E-03 1.05389227E-08 0.00000000E+00 0.00000000E+00 0.00000000E+00 0.00000000E+00 0.00000000E+00 0.00000000E+00 0.00000000E+00 0.00000000E+00 0.00000000E+00
00028 3.41426380E+07 2.31299891E-01 -2.10491739E+00 -5.93685403E-01 3.53230285E+00 6.82024408E+00 5.06014998E+00 1.60269872E+01 -9.24628635E-02 6.98479742E-01 2.81404038E-01 3.53980848E-03 1.06566470E-03 1.00996526E-02 6.01383214E+02 2.11219915E+08 3.06456922E+11 7.83225148E-03 1.05393580E-08 0.00000000E+00 0.00000000E+00 0.00000000E+00 0.00000000E+00 0.00000000E+00 0.00000000E+00 0.00000000E+00 0.00000000E+00 0.00000000E+00
00029 4.10111656E+07 2.31299870E-01 -2.10491669E+00 -5.93685521E-01 3.53230308E+00 6.82024500E+00 5.06015032E+00 1.60269876E+01 -9.24674837E-02 6.98477478E-01 2.81406301E-01 3.53980846E-03 1.06566635E-03 1.00996509E-02 6.01382997E+02 2.11219592E+08 3.06456399E+11 7.83229942E-03 1.05398588E-08 0.00000000E+00 0.00000000E+00 0.00000000E+00 0.00000000E+00 0.00000000E+00 0.00000000E+00 0.00000000E+00 0.00000000E+00 0.00000000E+00
00030 4.92533987E+07 2.31299843E-01 -2.10491571E+00 -5.93685620E-01 3.53230338E+00 6.82024607E+00 5.06015060E+00 1.60269880E+01 -9.24732273E-02 6.98474762E-01 2.81409018E-01 3.53980843E-03 1.06566510E-03 1.00996511E-02 6.01382825E+02 2.11219113E+08 3.06455669E+11 7.83235075E-03 1.05404345E-08 0.00000000E+00 0.00000000E+00 0.00000000E+00 0.00000000E+00 0.00000000E+00 0.00000000E+00 0.00000000E+00 0.00000000E+00 0.00000000E+00
00031 5.91440784E+07 2.31299812E-01 -2.10491448E+00 -5.93685691E-01 3.53230372E+00 6.82024730E+00 5.06015080E+00 1.60269882E+01 -9.24803499E-02 6.98471503E-01 2.81412278E-01 3.53980840E-03 1.06566273E-03 1.00996531E-02 6.01382719E+02 2.11218490E+08 3.06454757E+11 7.83240533E-03 1.05410969E-08 0.00000000E+00 0.00000000E+00 0.00000000E+00 0.00000000E+00 0.00000000E+00 0.00000000E+00 0.00000000E+00 0.00000000E+00 0.00000000E+00
00032 7.10128941E+07 2.31299774E-01 -2.10491289E+00 -5.93685724E-01 3.53230413E+00 6.82024874E+00 5.06015088E+00 1.60269883E+01 -9.24891483E-02 6.98467590E-01 2.81416187E-01 3.53980837E-03 1.06565539E-03 1.00996633E-02 6.01382701E+02 2.11217668E+08 3.06453592E+11 7.83246324E-03 1.05418609E-08 0.00000000E+00 0.00000000E+00 0.00000000E+00 0.00000000E+00 0.00000000E+00 0.00000000E+00 0.00000000E+00 0.00000000E+00 0.00000000E+00
00033 8.52554730E+07 2.31299729E-01 -2.10491077E+00 -5.93685711E-01 3.53230466E+00 6.82025042E+00 5.06015082E+00 1.60269881E+01 -9.24999485E-02 6.98462896E-01 2.81420883E-01 3.53980832E-03 1.06564357E-03 1.00996737E-02 6.01382786E+02 2.11216547E+08 3.06452035E+11 7.83252513E-03 1.05427466E-08 0.00000000E+00 0.00000000E+00 0.00000000E+00 0.00000000E+00 0.00000000E+00 0.00000000E+00 0.00000000E+00 0.00000000E+00 0.00000000E+00
00034 1.02346568E+08 2.31299674E-01 -2.10490810E+00 -5.93685645E-01 3.53230529E+00 6.82025239E+00 5.06015059E+00 1.60269877E+01 -9.25131375E-02 6.98457267E-01 2.81426516E-01 3.53980796E-03 1.06563893E-03 1.00996756E-02 6.01382995E+02 2.11215117E+08 3.06450078E+11 7.83259191E-03 1.05437774E-08 0.00000000E+00 0.00000000E+00 0.00000000E+00 0.00000000E+00 0.00000000E+00 0.00000000E+00 0.00000000E+00 0.00000000E+00 0.00000000E+00
00035 1.22855881E+08 2.31299609E-01 -2.10490497E+00 -5.93685516E-01 3.53230601E+00 6.82025470E+00 5.06015017E+00 1.60269871E+01 -9.25292059E-02 6.98450509E-01 2.81433279E-01 3.53980789E-03 1.06562240E-03 1.00996874E-02 6.01383347E+02 2.11213410E+08 3.06447779E+11 7.83266487E-03 1.05449866E-08 0.00000000E+00 0.00000000E+00 0.00000000E+00 0.00000000E+00 0.00000000E+00 0.00000000E+00 0.00000000E+00 0.00000000E+00 0.00000000E+00
00036 1.47467057E+08 2.31299531E-01 -2.10490107E+00 -5.93685319E-01 3.53230689E+00 6.82025745E+00 5.06014955E+00 1.60269862E+01 -9.25486817E-02 6.98442404E-01 2.81441381E-01 3.53980723E-03 1.06564147E-03 1.00996701E-02 6.01383858E+02 2.11211274E+08 3.06444922E+11 7.83274627E-03 1.05464107E-08 0.00000000E+00 0.00000000E+00 0.00000000E+00 0.00000000E+00 0.00000000E+00 0.00000000E+00 0.00000000E+00 0.00000000E+00 0.00000000E+00
00037 1.77000469E+08 2.31299437E-01 -2.10489625E+00 -5.93685055E-01 3.53230796E+00 6.82026072E+00 5.06014871E+00 1.60269849E+01 -9.25721979E-02 6.98432669E-01 2.81451120E-01 3.53980714E-03 1.06567540E-03 1.00996355E-02 6.01384527E+02 2.11208633E+08 3.06441402E+11 7.83284000E-03 1.05481068E-08 0.00000000E+00 0.00000000E+00 0.00000000E+00 0.00000000E+00 0.00000000E+00 0.00000000E+00 0.00000000E+00 0.00000000E+00 0.00000000E+00
00038 2.12440562E+08 2.31299324E-01 -2.10489046E+00 -5.93684714E-01 3.53230924E+00 6.82026462E+00 5.06014764E+00 1.60269833E+01 -9.26005302E-02 6.98420989E-01 2.81462796E-01 3.53980703E-03 1.06570179E-03 1.00996136E-02 6.01385382E+02 2.11205444E+08 3.06437165E+11 7.83294904E-03 1.05501284E-08 0.00000000E+00 0.00000000E+00 0.00000000E+00 0.00000000E+00 0.00000000E+00 0.00000000E+00 0.00000000E+00 0.00000000E+00 0.00000000E+00
00039 2.54968675E+08 2.31299189E-01 -2.10488340E+00 -5.93684299E-01 3.53231080E+00 6.82026930E+00 5.06014633E+00 1.60269814E+01 -9.26346086E-02 6.98406958E-01 2.81476797E-01 3.53980690E-03 1.06573648E-03 1.00996082E-02 6.01386422E+02 2.11201561E+08 3.06432004E+11 7.83307918E-03 1.05525542E-08 0.00000000E+00 0.00000000E+00 0.00000000E+00 0.00000000E+00 0.00000000E+00 0.00000000E+00 0.00000000E+00 0.00000000E+00 0.00000000E+00
00040 3.06002410E+08 2.31299026E-01 -2.10487477E+00 -5.93683789E-01 3.53231270E+00 6.82027489E+00 5.06014473E+00 1.60269791E+01 -9.26754206E-02 6.98390165E-01 2.81493635E-01 3.53978873E-03 1.06567565E-03 1.00996432E-02 6.01387692E+02 2.11196819E+08 3.06425699E+11 7.83323279E-03 1.05553947E-08 0.00000000E+00 0.00000000E+00 0.00000000E+00 0.00000000E+00 0.00000000E+00 0.00000000E+00 0.00000000E+00 0.00000000E+00 0.00000000E+00
00041 3.67242892E+08 2.31298831E-01 -2.10486499E+00 -5.93683147E-01 3.53231482E+00 6.82028157E+00 5.06014272E+00 1.60269761E+01 -9.27245169E-02 6.98370030E-01 2.81513797E-01 3.53978855E-03 1.06568227E-03 1.00996065E-02 6.01389278E+02 2.11191396E+08 3.06418541E+11 7.83341218E-03 1.05588467E-08 0.00000000E+00 0.00000000E+00 0.00000000E+00 0.00000000E+00 0.00000000E+00 0.00000000E+00 0.00000000E+00 0.00000000E+00 0.00000000E+00
00042 4.40731470E+08 2.31298597E-01 -2.10485239E+00 -5.93682423E-01 3.53231761E+00 6.82028962E+00 5.06014044E+00 1.60269728E+01 -9.27831613E-02 6.98345890E-01 2.81537940E-01 3.53978832E-03 1.06550041E-03 1.00997850E-02 6.01391087E+02 2.11184489E+08 3.06409340E+11 7.83363467E-03 1.05630173E-08 0.00000000E+00 0.00000000E+00 0.00000000E+00 0.00000000E+00 0.00000000E+00 0.00000000E+00 0.00000000E+00 0.00000000E+00 0.00000000E+00
00043 5.28917764E+08 2.31298316E-01 -2.10483827E+00 -5.93681512E-01 3.53232068E+00 6.82029927E+00 5.06013758E+00 1.60269686E+01 -9.28539684E-02 6.98316827E-01 2.81566994E-01 3.53978805E-03 1.06554995E-03 1.00997444E-02 6.01393343E+02 2.11176670E+08 3.06399010E+11 7.83389645E-03 1.05680163E-08 0.00000000E+00 0.00000000E+00 0.00000000E+00 0.00000000E+00 0.00000000E+00 0.00000000E+00 0.00000000E+00 0.00000000E+00 0.00000000E+00
00044 6.34741317E+08 2.31297980E-01 -2.10482077E+00 -5.93680428E-01 3.53232452E+00 6.82031086E+00 5.06013418E+00 1.60269636E+01 -9.29388900E-02 6.98281951E-01 2.81601870E-01 3.53978773E-03 1.06554243E-03 1.00997526E-02 6.01396034E+02 2.11167015E+08 3.06386213E+11 7.83421206E-03 1.05740244E-08 0.00000000E+00 0.00000000E+00 0.00000000E+00 0.00000000E+00 0.00000000E+00 0.00000000E+00 0.00000000E+00 0.00000000E+00 0.00000000E+00
00045 7.61729581E+08 2.31297575E-01 -2.10479984E+00 -5.93679123E-01 3.53232910E+00 6.82032477E+00 5.06013008E+00 1.60269576E+01 -9.30407968E-02 6.98240103E-01 2.81643736E-01 3.53978734E-03 1.06555093E-03 1.00997267E-02 6.01399270E+02 2.11155468E+08 3.06370915E+11 7.83459009E-03 1.05812352E-08 0.00000000E+00 0.00000000E+00 0.00000000E+00 0.00000000E+00 0.00000000E+00 0.00000000E+00 0.00000000E+00 0.00000000E+00 0.00000000E+00
00046 9.14115497E+08 2.31297090E-01 -2.10477459E+00 -5.93677570E-01 3.53233463E+00 6.82034148E+00 5.06012521E+00 1.60269504E+01 -9.31631133E-02 6.98189851E-01 2.81693973E-01 3.53979448E-03 1.06558669E-03 1.00996999E-02 6.01403125E+02 2.11141551E+08 3.06352461E+11 7.83504650E-03 1.05899342E-08 0.00000000E+00 0.00000000E+00 0.00000000E+00 0.00000000E+00 0.00000000E+00 0.00000000E+00 0.00000000E+00 0.00000000E+00 0.00000000E+00
00047 1.09697860E+09 2.31296508E-01 -2.10474438E+00 -5.93675699E-01 3.53234125E+00 6.82036152E+00 5.06011933E+00 1.60269418E+01 -9.33098778E-02 6.98129571E-01 2.81754261E-01 3.53979292E-03 1.06555691E-03 1.00997225E-02 6.01407770E+02 2.11124893E+08 3.06330382E+11 7.83559211E-03 1.06003413E-08 0.00000000E+00 0.00000000E+00 0.00000000E+00 0.00000000E+00 0.00000000E+00 0.00000000E+00 0.00000000E+00 0.00000000E+00 0.00000000E+00
00048 1.31641432E+09 2.31295810E-01 -2.10470797E+00 -5.93673470E-01 3.53234924E+00 6.82038559E+00 5.06011234E+00 1.60269315E+01 -9.34859193E-02 6.98057233E-01 2.81826612E-01 3.53979224E-03 1.06544355E-03 1.00998243E-02 6.01413307E+02 2.11104833E+08 3.06303772E+11 7.83624957E-03 1.06128589E-08 0.00000000E+00 0.00000000E+00 0.00000000E+00 0.00000000E+00 0.00000000E+00 0.00000000E+00 0.00000000E+00 0.00000000E+00 0.00000000E+00
00049 1.57973718E+09 2.31294971E-01 -2.10466457E+00 -5.93670772E-01 3.53235874E+00 6.82041442E+00 5.06010387E+00 1.60269191E+01 -9.36971255E-02 6.97970482E-01 2.81913455E-01 3.53979143E-03 1.06546509E-03 1.00997121E-02 6.01420002E+02 2.11080899E+08 3.06272058E+11 7.83703345E-03 1.06278710E-08 0.00000000E+00 0.00000000E+00 0.00000000E+00 0.00000000E+00 0.00000000E+00 0.00000000E+00 0.00000000E+00 0.00000000E+00 0.00000000E+00
00050 1.89572461E+09 2.31293965E-01 -2.10461234E+00 -5.93667549E-01 3.53237019E+00 6.82044907E+00 5.06009375E+00 1.60269043E+01 -9.39506931E-02 6.97866307E-01 2.82017687E-01 3.53979046E-03 1.06545094E-03 1.00996716E-02 6.01428004E+02 2.11052109E+08 3.06233889E+11 7.83797798E-03 1.06459409E-08 0.00000000E+00 0.00000000E+00 0.00000000E+00 0.00000000E+00 0.00000000E+00 0.00000000E+00 0.00000000E+00 0.00000000E+00 0.00000000E+00
00051 2.27490954E+09 2.31292758E-01 -2.10454982E+00 -5.93663665E-01 3.53238387E+00 6.82049064E+00 5.06008156E+00 1.60268864E+01 -9.42551204E-02 6.97741281E-01 2.82142756E-01 3.53978928E-03 1.06531635E-03 1.00997647E-02 6.01437642E+02 2.11017641E+08 3.06188213E+11 7.83910840E-03 1.06676539E-08 0.00000000E+00 0.00000000E+00 0.00000000E+00 0.00000000E+00 0.00000000E+00 0.00000000E+00 0.00000000E+00 0.00000000E+00 0.00000000E+00
00052 2.72993145E+09 2.31291309E-01 -2.10447434E+00 -5.93659046E-01 3.53240044E+00 6.82054059E+00 5.06006706E+00 1.60268651E+01 -9.46204046E-02 6.97591197E-01 2.82292723E-01 3.53978787E-03 1.06543762E-03 1.00997793E-02 6.01449121E+02 2.10976080E+08 3.06133081E+11 7.84047285E-03 1.06938113E-08 0.00000000E+00 0.00000000E+00 0.00000000E+00 0.00000000E+00 0.00000000E+00 0.00000000E+00 0.00000000E+00 0.00000000E+00 0.00000000E+00
00053 3.27595773E+09 2.31289570E-01 -2.10438419E+00 -5.93653454E-01 3.53242017E+00 6.82060054E+00 5.06004950E+00 1.60268394E+01 -9.50592378E-02 6.97410986E-01 2.82472876E-01 3.53978617E-03 1.06541556E-03 1.00998618E-02 6.01462999E+02 2.10926407E+08 3.06067246E+11 7.84210386E-03 1.07252759E-08 0.00000000E+00 0.00000000E+00 0.00000000E+00 0.00000000E+00 0.00000000E+00 0.00000000E+00 0.00000000E+00 0.00000000E+00 0.00000000E+00
00054 3.93118928E+09 2.31287484E-01 -2.10427585E+00 -5.93646759E-01 3.53244391E+00 6.82067249E+00 5.06002848E+00 1.60268086E+01 -9.55857092E-02 6.97194744E-01 2.82689141E-01 3.53978413E-03 1.06529571E-03 1.00999607E-02 6.01479619E+02 2.10866738E+08 3.05988140E+11 7.84406293E-03 1.07631647E-08 0.00000000E+00 0.00000000E+00 0.00000000E+00 0.00000000E+00 0.00000000E+00 0.00000000E+00 0.00000000E+00 0.00000000E+00 0.00000000E+00
00055 4.71746714E+09 2.31284980E-01 -2.10414588E+00 -5.93638736E-01 3.53247240E+00 6.82075888E+00 5.06000330E+00 1.60267716E+01 -9.62176532E-02 6.96935168E-01 2.82948711E-01 3.53978166E-03 1.06529043E-03 1.00999748E-02 6.01499543E+02 2.10795183E+08 3.05893269E+11 7.84641431E-03 1.08088304E-08 0.00000000E+00 0.00000000E+00 0.00000000E+00 0.00000000E+00 0.00000000E+00 0.00000000E+00 0.00000000E+00 0.00000000E+00 0.00000000E+00
00056 5.66100056E+09 2.31281975E-01 -2.10398993E+00 -5.93629114E-01 3.53250657E+00 6.82086258E+00 5.05997309E+00 1.60267273E+01 -9.69759887E-02 6.96623677E-01 2.83260160E-01 3.53977869E-03 1.06570674E-03 1.00996031E-02 6.01523442E+02 2.10709357E+08 3.05779471E+11 7.84923631E-03 1.08638969E-08 0.00000000E+00 0.00000000E+00 0.00000000E+00 0.00000000E+00 0.00000000E+00 0.00000000E+00 0.00000000E+00 0.00000000E+00 0.00000000E+00
00057 6.79324068E+09 2.31278368E-01 -2.10380269E+00 -5.93617555E-01 3.53254760E+00 6.82098716E+00 5.05993681E+00 1.60266741E+01 -9.78869623E-02 6.96249524E-01 2.83634245E-01 3.53977511E-03 1.06579805E-03 1.00995835E-02 6.01552147E+02 2.10606361E+08 3.05642905E+11 7.85262688E-03 1.09304262E-08 0.00000000E+00 0.00000000E+00 0.00000000E+00 0.00000000E+00 0.00000000E+00 0.00000000E+00 0.00000000E+00 0.00000000E+00 0.00000000E+00
00058 8.15192881E+09 2.31274039E-01 -2.10357790E+00 -5.93603695E-01 3.53259687E+00 6.82113676E+00 5.05989332E+00 1.60266103E+01 -9.89803981E-02 6.95800410E-01 2.84083396E-01 3.53974938E-03 1.06588821E-03 1.00994811E-02 6.01586574E+02 2.10482782E+08 3.05479028E+11 7.85669835E-03 1.10107790E-08 0.00000000E+00 0.00000000E+00 0.00000000E+00 0.00000000E+00 0.00000000E+00 0.00000000E+00 0.00000000E+00 0.00000000E+00 0.00000000E+00
00059 9.78235458E+09 2.31268844E-01 -2.10330816E+00 -5.93587064E-01 3.53265599E+00 6.82131640E+00 5.05984113E+00 1.60265337E+01 -1.00293127E-01 6.95261225E-01 2.84622739E-01 3.53974441E-03 1.06636151E-03 1.00988560E-02 6.01627888E+02 2.10334584E+08 3.05282492E+11 7.86158702E-03 1.11081316E-08 0.00000000E+00 0.00000000E+00 0.00000000E+00 0.00000000E+00 0.00000000E+00 0.00000000E+00 0.00000000E+00 0.00000000E+00 0.00000000E+00
00060 1.17388655E+10 2.31262609E-01 -2.10298432E+00 -5.93567110E-01 3.53272697E+00 6.82153236E+00 5.05977851E+00 1.60264418E+01 -1.01870353E-01 6.94613490E-01 2.85270293E-01 3.53973804E-03 1.06618563E-03 1.00992187E-02 6.01677464E+02 2.10156818E+08 3.05046719E+11 7.86746072E-03 1.12262375E-08 0.00000000E+00 0.00000000E+00 0.00000000E+00 0.00000000E+00 0.00000000E+00 0.00000000E+00 0.00000000E+00 0.00000000E+00 0.00000000E+00
00061 1.30000000E+10 2.31258589E-01 -2.10277558E+00 -5.93554255E-01 3.53277273E+00 6.82167167E+00 5.05973817E+00 1.60263826E+01 -1.02887473E-01 6.94195776E-01 2.85687986E-01 3.53973391E-03 1.06618145E-03 1.00992490E-02 6.01709409E+02 2.10042312E+08 3.04894835E+11 7.87124879E-03 1.13030856E-08 0.00000000E+00 0.00000000E+00 0.00000000E+00 0.00000000E+00 0.00000000E+00 0.00000000E+00 0.00000000E+00 0.00000000E+00 0.00000000E+00
