6.240317821345634
6.551458223314363
6.552780793659084
6.55156840719937
6.551303842275044
6.551151863322135
6.551132193053317
6.551395861022138
6.551969921249207
6.552783841503539
6.552783841503539
6.553953216925023
6.553953216925023
6.555659148406781
6.555659148406781
6.555659148406781
6.558080284034885
6.558080284034885
6.558080284034885
6.561582731699527
6.561582731699527
6.561582731699527
6.561582731699527
6.566038138830326
6.566038138830326
6.566038138830326
6.566038138830326
6.571666565441142
6.571666565441142
6.571666565441142
6.571666565441142
6.571666565441142
6.578820120691481
6.578820120691481
6.578820120691481
6.578820120691481
6.578820120691481
6.578820120691481
6.578820120691481
6.587812728491009
6.587812728491009
6.587812728491009
6.587812728491009
6.587812728491009
6.587812728491009
6.587812728491009
6.599002228127588
6.599002228127588
6.599002228127588
6.599002228127588
6.599002228127588
6.599002228127588
6.599002228127588
6.599002228127588
6.599002228127588
6.599002228127588
6.612838585101141
6.612838585101141
6.612838585101141
6.612838585101141
6.612838585101141
6.612838585101141
6.612838585101141
6.612838585101141
6.612838585101141
6.612838585101141
6.612838585101141
6.630442299157237
6.630442299157237
6.630442299157237
6.630442299157237
6.630442299157237
6.630442299157237
6.630442299157237
6.630442299157237
6.630442299157237
6.630442299157237
6.630442299157237
6.630442299157237
6.630442299157237
6.6516983647889845
6.6516983647889845
6.6516983647889845
6.6516983647889845
6.6516983647889845
6.6516983647889845
6.6516983647889845
6.6516983647889845
6.6516983647889845
6.6516983647889845
6.6516983647889845
6.6516983647889845
6.6516983647889845
6.6516983647889845
6.6516983647889845
6.6516983647889845
6.677306491324381
6.677306491324381
6.677306491324381
6.677306491324381
6.677306491324381
6.677306491324381
6.677306491324381
6.677306491324381
6.677306491324381
6.677306491324381
6.677306491324381
6.677306491324381
6.677306491324381
6.677306491324381
6.677306491324381
6.677306491324381
6.677306491324381
6.677306491324381
6.677306491324381
6.708399022708242
6.708399022708242
6.708399022708242
6.708399022708242
6.708399022708242
6.708399022708242
6.708399022708242
6.708399022708242
6.708399022708242
6.708399022708242
6.708399022708242
6.708399022708242
6.708399022708242
6.708399022708242
6.708399022708242
6.708399022708242
6.708399022708242
6.708399022708242
6.708399022708242
6.708399022708242
6.708399022708242
6.708399022708242
6.746185984315249
6.746185984315249
6.746185984315249
6.746185984315249
6.746185984315249
6.746185984315249
6.746185984315249
6.746185984315249
6.746185984315249
6.746185984315249
6.746185984315249
6.746185984315249
6.746185984315249
6.746185984315249
6.746185984315249
6.746185984315249
6.746185984315249
6.746185984315249
6.746185984315249
6.746185984315249
6.746185984315249
6.746185984315249
6.746185984315249
6.746185984315249
6.746185984315249
6.746185984315249
6.746185984315249
6.746185984315249
6.7920943636453694
6.7920943636453694
6.7920943636453694
6.7920943636453694
6.7920943636453694
6.7920943636453694
6.7920943636453694
6.7920943636453694
6.7920943636453694
6.7920943636453694
6.7920943636453694
6.7920943636453694
6.7920943636453694
6.7920943636453694
6.7920943636453694
6.7920943636453694
6.7920943636453694
6.7920943636453694
6.7920943636453694
6.7920943636453694
6.7920943636453694
6.7920943636453694
6.7920943636453694
6.7920943636453694
6.7920943636453694
6.7920943636453694
6.7920943636453694
6.7920943636453694
6.7920943636453694
6.7920943636453694
6.7920943636453694
6.7920943636453694
6.7920943636453694
6.847711518086937
6.847711518086937
6.847711518086937
6.847711518086937
6.847711518086937
6.847711518086937
6.847711518086937
6.847711518086937
6.847711518086937
6.847711518086937
6.847711518086937
6.847711518086937
6.847711518086937
6.847711518086937
6.847711518086937
6.847711518086937
6.847711518086937
6.847711518086937
6.847711518086937
6.847711518086937
6.847711518086937
6.847711518086937
6.847711518086937
6.847711518086937
6.847711518086937
6.847711518086937
6.847711518086937
6.847711518086937
6.847711518086937
6.847711518086937
6.847711518086937
6.847711518086937
6.847711518086937
6.847711518086937
6.847711518086937
6.847711518086937
6.847711518086937
6.847711518086937
6.847711518086937
6.887971048117394
6.887971048117394
6.887971048117394
6.887971048117394
6.887971048117394
6.887971048117394
6.887971048117394
6.887971048117394
6.887971048117394
6.887971048117394
6.887971048117394
6.887971048117394
6.887971048117394
6.887971048117394
6.887971048117394
6.887971048117394
6.887971048117394
6.887971048117394
6.887971048117394
6.887971048117394
6.887971048117394
6.887971048117394
6.887971048117394
6.887971048117394
6.887971048117394
6.887971048117394
6.887971048117394
6.887971048117394
6.887971048117394
6.9310399005983125
6.9310399005983125
6.9310399005983125
6.9310399005983125
6.9310399005983125
6.9310399005983125
6.9310399005983125
6.9310399005983125
6.9310399005983125
6.9310399005983125
6.9310399005983125
6.9310399005983125
6.9310399005983125
6.9310399005983125
6.9310399005983125
6.9310399005983125
6.9310399005983125
6.9310399005983125
6.9310399005983125
6.9310399005983125
6.9310399005983125
6.9310399005983125
6.9310399005983125
6.9310399005983125
6.9310399005983125
6.9310399005983125
6.9310399005983125
6.9310399005983125
6.972491347475873
6.972491347475873
6.972491347475873
6.972491347475873
6.972491347475873
6.972491347475873
6.972491347475873
6.972491347475873
6.972491347475873
6.972491347475873
6.972491347475873
6.972491347475873
6.972491347475873
6.972491347475873
6.972491347475873
6.972491347475873
6.972491347475873
6.972491347475873
6.972491347475873
6.972491347475873
6.972491347475873
6.972491347475873
6.972491347475873
6.972491347475873
6.972491347475873
6.972491347475873
6.972491347475873
6.972491347475873
7.0139031706192405
7.0139031706192405
7.0139031706192405
7.0139031706192405
7.0139031706192405
7.0139031706192405
7.0139031706192405
7.0139031706192405
7.0139031706192405
7.0139031706192405
7.0139031706192405
7.0139031706192405
7.0139031706192405
7.0139031706192405
7.0139031706192405
7.0139031706192405
7.0139031706192405
7.0139031706192405
7.0139031706192405
7.0139031706192405
7.0139031706192405
7.0139031706192405
7.0139031706192405
7.0139031706192405
7.0139031706192405
7.0139031706192405
7.0139031706192405
7.0139031706192405
7.0139031706192405
7.055532764824288
7.055532764824288
7.055532764824288
7.055532764824288
7.055532764824288
7.055532764824288
7.055532764824288
7.055532764824288
7.055532764824288
7.055532764824288
7.055532764824288
7.055532764824288
7.055532764824288
7.055532764824288
7.055532764824288
7.055532764824288
7.055532764824288
7.055532764824288
7.055532764824288
7.055532764824288
7.055532764824288
7.055532764824288
7.055532764824288
7.055532764824288
7.055532764824288
7.055532764824288
7.055532764824288
7.055532764824288
7.105987005940692
7.105987005940692
7.105987005940692
7.105987005940692
7.105987005940692
7.105987005940692
7.105987005940692
7.105987005940692
7.105987005940692
7.105987005940692
7.105987005940692
7.105987005940692
7.105987005940692
7.105987005940692
7.105987005940692
7.105987005940692
7.105987005940692
7.105987005940692
7.105987005940692
7.105987005940692
7.105987005940692
7.105987005940692
7.105987005940692
7.105987005940692
7.105987005940692
7.105987005940692
7.105987005940692
7.105987005940692
7.105987005940692
7.105987005940692
7.105987005940692
7.105987005940692
7.105987005940692
7.105987005940692
7.167087786766548
7.167087786766548
7.167087786766548
7.167087786766548
7.167087786766548
7.167087786766548
7.167087786766548
7.167087786766548
7.167087786766548
7.167087786766548
7.167087786766548
7.167087786766548
7.167087786766548
7.167087786766548
7.167087786766548
7.167087786766548
7.167087786766548
7.167087786766548
7.167087786766548
7.167087786766548
7.167087786766548
7.167087786766548
7.167087786766548
7.167087786766548
7.167087786766548
7.167087786766548
7.167087786766548
7.167087786766548
7.167087786766548
7.167087786766548
7.167087786766548
7.167087786766548
7.167087786766548
7.167087786766548
7.167087786766548
7.167087786766548
7.167087786766548
7.167087786766548
7.167087786766548
7.167087786766548
7.167087786766548
7.2411536354843085
7.2411536354843085
7.2411536354843085
7.2411536354843085
7.2411536354843085
7.2411536354843085
7.2411536354843085
7.2411536354843085
7.2411536354843085
7.2411536354843085
7.2411536354843085
7.2411536354843085
7.2411536354843085
7.2411536354843085
7.2411536354843085
7.2411536354843085
7.2411536354843085
7.2411536354843085
7.2411536354843085
7.2411536354843085
7.2411536354843085
7.2411536354843085
7.2411536354843085
7.2411536354843085
7.2411536354843085
7.2411536354843085
7.2411536354843085
7.2411536354843085
7.2411536354843085
7.2411536354843085
7.2411536354843085
7.2411536354843085
7.2411536354843085
7.2411536354843085
7.2411536354843085
7.2411536354843085
7.2411536354843085
7.2411536354843085
7.2411536354843085
7.2411536354843085
7.2411536354843085
7.2411536354843085
7.2411536354843085
7.2411536354843085
7.2411536354843085
7.2411536354843085
7.2411536354843085
7.2411536354843085
7.2411536354843085
7.294858765324511
7.294858765324511
7.294858765324511
7.294858765324511
7.294858765324511
7.294858765324511
7.294858765324511
7.294858765324511
7.294858765324511
7.294858765324511
7.294858765324511
7.294858765324511
7.294858765324511
7.294858765324511
7.294858765324511
7.294858765324511
7.294858765324511
7.294858765324511
7.294858765324511
7.294858765324511
7.294858765324511
7.294858765324511
7.294858765324511
7.294858765324511
7.294858765324511
7.294858765324511
7.294858765324511
7.294858765324511
7.294858765324511
7.294858765324511
7.294858765324511
7.294858765324511
7.294858765324511
7.294858765324511
7.294858765324511
7.294858765324511
7.354355613934561
7.354355613934561
7.354355613934561
7.354355613934561
7.354355613934561
7.354355613934561
7.354355613934561
7.354355613934561
7.354355613934561
7.354355613934561
7.354355613934561
7.354355613934561
7.354355613934561
7.354355613934561
7.354355613934561
7.354355613934561
7.354355613934561
7.354355613934561
7.354355613934561
7.354355613934561
7.354355613934561
7.354355613934561
7.354355613934561
7.354355613934561
7.354355613934561
7.354355613934561
7.354355613934561
7.354355613934561
7.354355613934561
7.354355613934561
7.354355613934561
7.354355613934561
7.354355613934561
7.354355613934561
7.354355613934561
7.409712815715917
7.409712815715917
7.409712815715917
7.409712815715917
7.409712815715917
7.409712815715917
7.409712815715917
7.409712815715917
7.409712815715917
7.409712815715917
7.409712815715917
7.409712815715917
7.409712815715917
7.409712815715917
7.409712815715917
7.409712815715917
7.409712815715917
7.409712815715917
7.409712815715917
7.409712815715917
7.409712815715917
7.409712815715917
7.409712815715917
7.409712815715917
7.409712815715917
7.409712815715917
7.409712815715917
7.409712815715917
7.409712815715917
7.409712815715917
7.409712815715917
7.409712815715917
7.409712815715917
7.409712815715917
7.409712815715917
7.465337147642391
7.465337147642391
7.465337147642391
7.465337147642391
7.465337147642391
7.465337147642391
7.465337147642391
7.465337147642391
7.465337147642391
7.465337147642391
7.465337147642391
7.465337147642391
7.465337147642391
7.465337147642391
7.465337147642391
7.465337147642391
7.465337147642391
7.465337147642391
7.465337147642391
7.465337147642391
7.465337147642391
7.465337147642391
7.465337147642391
7.465337147642391
7.465337147642391
7.465337147642391
7.465337147642391
7.465337147642391
7.465337147642391
7.465337147642391
7.465337147642391
7.465337147642391
7.465337147642391
7.465337147642391
7.465337147642391
7.465337147642391
7.521385560361783
7.521385560361783
7.521385560361783
7.521385560361783
7.521385560361783
7.521385560361783
7.521385560361783
7.521385560361783
7.521385560361783
7.521385560361783
7.521385560361783
7.521385560361783
7.521385560361783
7.521385560361783
7.521385560361783
7.521385560361783
7.521385560361783
7.521385560361783
7.521385560361783
7.521385560361783
7.521385560361783
7.521385560361783
7.521385560361783
7.521385560361783
7.521385560361783
7.521385560361783
7.521385560361783
7.521385560361783
7.521385560361783
7.521385560361783
7.521385560361783
7.521385560361783
7.521385560361783
7.521385560361783
7.521385560361783
7.589381983769077
7.589381983769077
7.589381983769077
7.589381983769077
7.589381983769077
7.589381983769077
7.589381983769077
7.589381983769077
7.589381983769077
7.589381983769077
7.589381983769077
7.589381983769077
7.589381983769077
7.589381983769077
7.589381983769077
7.589381983769077
7.589381983769077
7.589381983769077
7.589381983769077
7.589381983769077
7.589381983769077
7.589381983769077
7.589381983769077
7.589381983769077
7.589381983769077
7.589381983769077
7.589381983769077
7.589381983769077
7.589381983769077
7.589381983769077
7.589381983769077
7.589381983769077
7.589381983769077
7.589381983769077
7.589381983769077
7.589381983769077
7.589381983769077
7.589381983769077
7.589381983769077
7.589381983769077
7.589381983769077
7.589381983769077
7.589381983769077
7.672107863018589
7.672107863018589
7.672107863018589
7.672107863018589
7.672107863018589
7.672107863018589
7.672107863018589
7.672107863018589
7.672107863018589
7.672107863018589
7.672107863018589
7.672107863018589
7.672107863018589
7.672107863018589
7.672107863018589
7.672107863018589
7.672107863018589
7.672107863018589
7.672107863018589
7.672107863018589
7.672107863018589
7.672107863018589
7.672107863018589
7.672107863018589
7.672107863018589
7.672107863018589
7.672107863018589
7.672107863018589
7.672107863018589
7.672107863018589
7.672107863018589
7.672107863018589
7.672107863018589
7.672107863018589
7.672107863018589
7.672107863018589
7.672107863018589
7.672107863018589
7.672107863018589
7.672107863018589
7.672107863018589
7.672107863018589
7.672107863018589
7.672107863018589
7.672107863018589
7.672107863018589
7.672107863018589
7.672107863018589
7.672107863018589
7.672107863018589
7.772804704814866
7.772804704814866
7.772804704814866
7.772804704814866
7.772804704814866
7.772804704814866
7.772804704814866
7.772804704814866
7.772804704814866
7.772804704814866
7.772804704814866
7.772804704814866
7.772804704814866
7.772804704814866
7.772804704814866
7.772804704814866
7.772804704814866
7.772804704814866
7.772804704814866
7.772804704814866
7.772804704814866
7.772804704814866
7.772804704814866
7.772804704814866
7.772804704814866
7.772804704814866
7.772804704814866
7.772804704814866
7.772804704814866
7.772804704814866
7.772804704814866
7.772804704814866
7.772804704814866
7.772804704814866
7.772804704814866
7.772804704814866
7.772804704814866
7.772804704814866
7.772804704814866
7.772804704814866
7.772804704814866
7.772804704814866
7.772804704814866
7.772804704814866
7.772804704814866
7.772804704814866
7.772804704814866
7.772804704814866
7.772804704814866
7.772804704814866
7.772804704814866
7.772804704814866
7.772804704814866
7.772804704814866
7.772804704814866
7.772804704814866
7.772804704814866
7.772804704814866
7.772804704814866
7.772804704814866
7.772804704814866
7.772804704814866
7.820833046828599
7.820833046828599
7.820833046828599
7.820833046828599
7.820833046828599
7.820833046828599
7.820833046828599
7.820833046828599
7.820833046828599
7.820833046828599
7.820833046828599
7.820833046828599
7.820833046828599
7.820833046828599
7.820833046828599
7.820833046828599
7.820833046828599
7.820833046828599
7.820833046828599
7.820833046828599
7.820833046828599
7.820833046828599
7.820833046828599
7.820833046828599
7.820833046828599
7.820833046828599
7.820833046828599
7.820833046828599
7.820833046828599
7.868802245642268
7.868802245642268
7.868802245642268
7.868802245642268
7.868802245642268
7.868802245642268
7.868802245642268
7.868802245642268
7.868802245642268
7.868802245642268
7.868802245642268
7.868802245642268
7.868802245642268
7.868802245642268
7.868802245642268
7.868802245642268
7.868802245642268
7.868802245642268
7.868802245642268
7.868802245642268
7.868802245642268
7.868802245642268
7.868802245642268
7.868802245642268
7.868802245642268
7.868802245642268
7.868802245642268
7.868802245642268
7.868802245642268
7.925243671125715
7.925243671125715
7.925243671125715
7.925243671125715
7.925243671125715
7.925243671125715
7.925243671125715
7.925243671125715
7.925243671125715
7.925243671125715
7.925243671125715
7.925243671125715
7.925243671125715
7.925243671125715
7.925243671125715
7.925243671125715
7.925243671125715
7.925243671125715
7.925243671125715
7.925243671125715
7.925243671125715
7.925243671125715
7.925243671125715
7.925243671125715
7.925243671125715
7.925243671125715
7.925243671125715
7.925243671125715
7.925243671125715
7.974755044765417
7.974755044765417
7.974755044765417
7.974755044765417
7.974755044765417
7.974755044765417
7.974755044765417
7.974755044765417
7.974755044765417
7.974755044765417
7.974755044765417
7.974755044765417
7.974755044765417
7.974755044765417
7.974755044765417
7.974755044765417
7.974755044765417
7.974755044765417
7.974755044765417
7.974755044765417
7.974755044765417
7.974755044765417
7.974755044765417
7.974755044765417
7.974755044765417
7.974755044765417
7.974755044765417
7.974755044765417
7.974755044765417
8.024450160268561
8.024450160268561
8.024450160268561
8.024450160268561
8.024450160268561
8.024450160268561
8.024450160268561
8.024450160268561
8.024450160268561
8.024450160268561
8.024450160268561
8.024450160268561
8.024450160268561
8.024450160268561
8.024450160268561
8.024450160268561
8.024450160268561
8.024450160268561
8.024450160268561
8.024450160268561
8.024450160268561
8.024450160268561
8.024450160268561
8.024450160268561
8.024450160268561
8.024450160268561
8.024450160268561
8.024450160268561
8.084474657733983
8.084474657733983
8.084474657733983
8.084474657733983
8.084474657733983
8.084474657733983
8.084474657733983
8.084474657733983
8.084474657733983
8.084474657733983
8.084474657733983
8.084474657733983
8.084474657733983
8.084474657733983
8.084474657733983
8.084474657733983
8.084474657733983
8.084474657733983
8.084474657733983
8.084474657733983
8.084474657733983
8.084474657733983
8.084474657733983
8.084474657733983
8.084474657733983
8.084474657733983
8.084474657733983
8.084474657733983
8.084474657733983
8.084474657733983
8.084474657733983
8.084474657733983
8.084474657733983
8.084474657733983
8.084474657733983
8.15709022435424
8.15709022435424
8.15709022435424
8.15709022435424
8.15709022435424
8.15709022435424
8.15709022435424
8.15709022435424
8.15709022435424
8.15709022435424
8.15709022435424
8.15709022435424
8.15709022435424
8.15709022435424
8.15709022435424
8.15709022435424
8.15709022435424
8.15709022435424
8.15709022435424
8.15709022435424
8.15709022435424
8.15709022435424
8.15709022435424
8.15709022435424
8.15709022435424
8.15709022435424
8.15709022435424
8.15709022435424
8.15709022435424
8.15709022435424
8.15709022435424
8.15709022435424
8.15709022435424
8.15709022435424
8.15709022435424
8.15709022435424
8.15709022435424
8.15709022435424
8.15709022435424
8.15709022435424
8.15709022435424
8.15709022435424
8.245014106098427
8.245014106098427
8.245014106098427
8.245014106098427
8.245014106098427
8.245014106098427
8.245014106098427
8.245014106098427
8.245014106098427
8.245014106098427
8.245014106098427
8.245014106098427
8.245014106098427
8.245014106098427
8.245014106098427
8.245014106098427
8.245014106098427
8.245014106098427
8.245014106098427
8.245014106098427
8.245014106098427
8.245014106098427
8.245014106098427
8.245014106098427
8.245014106098427
8.245014106098427
8.245014106098427
8.245014106098427
8.245014106098427
8.245014106098427
8.245014106098427
8.245014106098427
8.245014106098427
8.245014106098427
8.245014106098427
8.245014106098427
8.245014106098427
8.245014106098427
8.245014106098427
8.245014106098427
8.245014106098427
8.245014106098427
8.245014106098427
8.245014106098427
8.245014106098427
8.245014106098427
8.245014106098427
8.245014106098427
8.245014106098427
8.245014106098427
8.33529513737216
8.33529513737216
8.33529513737216
8.33529513737216
8.33529513737216
8.33529513737216
8.33529513737216
8.33529513737216
8.33529513737216
8.33529513737216
8.33529513737216
8.33529513737216
8.33529513737216
8.33529513737216
8.33529513737216
8.33529513737216
8.33529513737216
8.33529513737216
8.33529513737216
8.33529513737216
8.33529513737216
8.33529513737216
8.33529513737216
8.33529513737216
8.33529513737216
8.33529513737216
8.33529513737216
8.33529513737216
8.33529513737216
8.33529513737216
8.33529513737216
8.33529513737216
8.33529513737216
8.33529513737216
8.33529513737216
8.33529513737216
8.33529513737216
8.33529513737216
8.33529513737216
8.33529513737216
8.33529513737216
8.33529513737216
8.33529513737216
8.33529513737216
8.33529513737216
8.33529513737216
8.33529513737216
8.33529513737216
8.33529513737216
8.33529513737216
8.33529513737216
8.42046034602406
8.42046034602406
8.42046034602406
8.42046034602406
8.42046034602406
8.42046034602406
8.42046034602406
8.42046034602406
8.42046034602406
8.42046034602406
8.42046034602406
8.42046034602406
8.42046034602406
8.42046034602406
8.42046034602406
8.42046034602406
8.42046034602406
8.42046034602406
8.42046034602406
8.42046034602406
8.42046034602406
8.42046034602406
8.42046034602406
8.42046034602406
8.42046034602406
8.42046034602406
8.42046034602406
8.42046034602406
8.42046034602406
8.42046034602406
8.42046034602406
8.42046034602406
8.42046034602406
8.42046034602406
8.42046034602406
8.42046034602406
8.42046034602406
8.42046034602406
8.42046034602406
8.42046034602406
8.42046034602406
8.42046034602406
8.42046034602406
8.42046034602406
8.42046034602406
8.42046034602406
8.42046034602406
8.42046034602406
8.500440366825755
8.500440366825755
8.500440366825755
8.500440366825755
8.500440366825755
8.500440366825755
8.500440366825755
8.500440366825755
8.500440366825755
8.500440366825755
8.500440366825755
8.500440366825755
8.500440366825755
8.500440366825755
8.500440366825755
8.500440366825755
8.500440366825755
8.500440366825755
8.500440366825755
8.500440366825755
8.500440366825755
8.500440366825755
8.500440366825755
8.500440366825755
8.500440366825755
8.500440366825755
8.500440366825755
8.500440366825755
8.500440366825755
8.500440366825755
8.500440366825755
8.500440366825755
8.500440366825755
8.500440366825755
8.500440366825755
8.500440366825755
8.500440366825755
8.500440366825755
8.500440366825755
8.500440366825755
8.500440366825755
8.500440366825755
8.500440366825755
8.500440366825755
8.500440366825755
8.57602137910923
8.57602137910923
8.57602137910923
8.57602137910923
8.57602137910923
8.57602137910923
8.57602137910923
8.57602137910923
8.57602137910923
8.57602137910923
8.57602137910923
8.57602137910923
8.57602137910923
8.57602137910923
8.57602137910923
8.57602137910923
8.57602137910923
8.57602137910923
8.57602137910923
8.57602137910923
8.57602137910923
8.57602137910923
8.57602137910923
8.57602137910923
8.57602137910923
8.57602137910923
8.57602137910923
8.57602137910923
8.57602137910923
8.57602137910923
8.57602137910923
8.57602137910923
8.57602137910923
8.57602137910923
8.57602137910923
8.57602137910923
8.57602137910923
8.57602137910923
8.57602137910923
8.57602137910923
8.57602137910923
8.57602137910923
8.57602137910923
8.647136169147634
8.647136169147634
8.647136169147634
8.647136169147634
8.647136169147634
8.647136169147634
8.647136169147634
8.647136169147634
8.647136169147634
8.647136169147634
8.647136169147634
8.647136169147634
8.647136169147634
8.647136169147634
8.647136169147634
8.647136169147634
8.647136169147634
8.647136169147634
8.647136169147634
8.647136169147634
8.647136169147634
8.647136169147634
8.647136169147634
8.647136169147634
8.647136169147634
8.647136169147634
8.647136169147634
8.647136169147634
8.647136169147634
8.647136169147634
8.647136169147634
8.647136169147634
8.647136169147634
8.647136169147634
8.647136169147634
8.647136169147634
8.647136169147634
8.647136169147634
8.647136169147634
8.647136169147634
8.647136169147634
8.713343595162968
8.713343595162968
8.713343595162968
8.713343595162968
8.713343595162968
8.713343595162968
8.713343595162968
8.713343595162968
8.713343595162968
8.713343595162968
8.713343595162968
8.713343595162968
8.713343595162968
8.713343595162968
8.713343595162968
8.713343595162968
8.713343595162968
8.713343595162968
8.713343595162968
8.713343595162968
8.713343595162968
8.713343595162968
8.713343595162968
8.713343595162968
8.713343595162968
8.713343595162968
8.713343595162968
8.713343595162968
8.713343595162968
8.713343595162968
8.713343595162968
8.713343595162968
8.713343595162968
8.713343595162968
8.713343595162968
8.713343595162968
8.713343595162968
8.713343595162968
8.774242093077639
8.774242093077639
8.774242093077639
8.774242093077639
8.774242093077639
8.774242093077639
8.774242093077639
8.774242093077639
8.774242093077639
8.774242093077639
8.774242093077639
8.774242093077639
8.774242093077639
8.774242093077639
8.774242093077639
8.774242093077639
8.774242093077639
8.774242093077639
8.774242093077639
8.774242093077639
8.774242093077639
8.774242093077639
8.774242093077639
8.774242093077639
8.774242093077639
8.774242093077639
8.774242093077639
8.774242093077639
8.774242093077639
8.774242093077639
8.774242093077639
8.774242093077639
8.774242093077639
8.774242093077639
8.774242093077639
8.829458852949074
8.829458852949074
8.829458852949074
8.829458852949074
8.829458852949074
8.829458852949074
8.829458852949074
8.829458852949074
8.829458852949074
8.829458852949074
8.829458852949074
8.829458852949074
8.829458852949074
8.829458852949074
8.829458852949074
8.829458852949074
8.829458852949074
8.829458852949074
8.829458852949074
8.829458852949074
8.829458852949074
8.829458852949074
8.829458852949074
8.829458852949074
8.829458852949074
8.829458852949074
8.829458852949074
8.829458852949074
8.829458852949074
8.829458852949074
8.829458852949074
8.829458852949074
8.879645686301675
8.879645686301675
8.879645686301675
8.879645686301675
8.879645686301675
8.879645686301675
8.879645686301675
8.879645686301675
8.879645686301675
8.879645686301675
8.879645686301675
8.879645686301675
8.879645686301675
8.879645686301675
8.879645686301675
8.879645686301675
8.879645686301675
8.879645686301675
8.879645686301675
8.879645686301675
8.879645686301675
8.879645686301675
8.879645686301675
8.879645686301675
8.879645686301675
8.879645686301675
8.879645686301675
8.879645686301675
8.879645686301675
8.879645686301675
8.926284507607221
8.926284507607221
8.926284507607221
8.926284507607221
8.926284507607221
8.926284507607221
8.926284507607221
8.926284507607221
8.926284507607221
8.926284507607221
8.926284507607221
8.926284507607221
8.926284507607221
8.926284507607221
8.926284507607221
8.926284507607221
8.926284507607221
8.926284507607221
8.926284507607221
8.926284507607221
8.926284507607221
8.926284507607221
8.926284507607221
8.926284507607221
8.926284507607221
8.926284507607221
8.926284507607221
8.926284507607221
8.970100833403256
8.970100833403256
8.970100833403256
8.970100833403256
8.970100833403256
8.970100833403256
8.970100833403256
8.970100833403256
8.970100833403256
8.970100833403256
8.970100833403256
8.970100833403256
8.970100833403256
8.970100833403256
8.970100833403256
8.970100833403256
8.970100833403256
8.970100833403256
8.970100833403256
8.970100833403256
8.970100833403256
8.970100833403256
8.970100833403256
8.970100833403256
8.970100833403256
8.970100833403256
8.970100833403256
9.010914190660593
9.010914190660593
9.010914190660593
9.010914190660593
9.010914190660593
9.010914190660593
9.010914190660593
9.010914190660593
9.010914190660593
9.010914190660593
9.010914190660593
9.010914190660593
9.010914190660593
9.010914190660593
9.010914190660593
9.010914190660593
9.010914190660593
9.010914190660593
9.010914190660593
9.010914190660593
9.010914190660593
9.010914190660593
9.010914190660593
9.010914190660593
9.010914190660593
9.049354507780135
9.049354507780135
9.049354507780135
9.049354507780135
9.049354507780135
9.049354507780135
9.049354507780135
9.049354507780135
9.049354507780135
9.049354507780135
9.049354507780135
9.049354507780135
9.049354507780135
9.049354507780135
9.049354507780135
9.049354507780135
9.049354507780135
9.049354507780135
9.049354507780135
9.049354507780135
9.049354507780135
9.049354507780135
9.049354507780135
9.049354507780135
9.049354507780135
9.085517348688938
9.085517348688938
9.085517348688938
9.085517348688938
9.085517348688938
9.085517348688938
9.085517348688938
9.085517348688938
9.085517348688938
9.085517348688938
9.085517348688938
9.085517348688938
9.085517348688938
9.085517348688938
9.085517348688938
9.085517348688938
9.085517348688938
9.085517348688938
9.085517348688938
9.085517348688938
9.085517348688938
9.085517348688938
9.085517348688938
9.085517348688938
9.119247021391432
9.119247021391432
9.119247021391432
9.119247021391432
9.119247021391432
9.119247021391432
9.119247021391432
9.119247021391432
9.119247021391432
9.119247021391432
9.119247021391432
9.119247021391432
9.119247021391432
9.119247021391432
9.119247021391432
9.119247021391432
9.119247021391432
9.119247021391432
9.119247021391432
9.119247021391432
9.119247021391432
9.119247021391432
9.150875211256919
9.150875211256919
9.150875211256919
9.150875211256919
9.150875211256919
9.150875211256919
9.150875211256919
9.150875211256919
9.150875211256919
9.150875211256919
9.150875211256919
9.150875211256919
9.150875211256919
9.150875211256919
9.150875211256919
9.150875211256919
9.150875211256919
9.150875211256919
9.150875211256919
9.150875211256919
9.150875211256919
9.150875211256919
9.18059371039919
9.18059371039919
9.18059371039919
9.18059371039919
9.18059371039919
9.18059371039919
9.18059371039919
9.18059371039919
9.18059371039919
9.18059371039919
9.18059371039919
9.18059371039919
9.18059371039919
9.18059371039919
9.18059371039919
9.18059371039919
9.18059371039919
9.18059371039919
9.18059371039919
9.18059371039919
9.18059371039919
9.18059371039919
9.208583807998803
9.208583807998803
9.208583807998803
9.208583807998803
9.208583807998803
9.208583807998803
9.208583807998803
9.208583807998803
9.208583807998803
9.208583807998803
9.208583807998803
9.208583807998803
9.208583807998803
9.208583807998803
9.208583807998803
9.208583807998803
9.208583807998803
9.208583807998803
9.208583807998803
9.208583807998803
9.23496655595899
9.23496655595899
9.23496655595899
9.23496655595899
9.23496655595899
9.23496655595899
9.23496655595899
9.23496655595899
9.23496655595899
9.23496655595899
9.23496655595899
9.23496655595899
9.23496655595899
9.23496655595899
9.23496655595899
9.23496655595899
9.23496655595899
9.23496655595899
9.23496655595899
9.23496655595899
9.259824656824115
9.259824656824115
9.259824656824115
9.259824656824115
9.259824656824115
9.259824656824115
9.259824656824115
9.259824656824115
9.259824656824115
9.259824656824115
9.259824656824115
9.259824656824115
9.259824656824115
9.259824656824115
9.259824656824115
9.259824656824115
9.259824656824115
9.259824656824115
9.259824656824115
9.259824656824115
9.283187578305371
9.283187578305371
9.283187578305371
9.283187578305371
9.283187578305371
9.283187578305371
9.283187578305371
9.283187578305371
9.283187578305371
9.283187578305371
9.283187578305371
9.283187578305371
9.283187578305371
9.283187578305371
9.283187578305371
9.283187578305371
9.283187578305371
9.283187578305371
9.283187578305371
9.283187578305371
9.305070823150865
9.305070823150865
9.305070823150865
9.305070823150865
9.305070823150865
9.305070823150865
9.305070823150865
9.305070823150865
9.305070823150865
9.305070823150865
9.305070823150865
9.305070823150865
9.305070823150865
9.305070823150865
9.305070823150865
9.305070823150865
9.305070823150865
9.305070823150865
9.305070823150865
9.32528434249128
9.32528434249128
9.32528434249128
9.32528434249128
9.32528434249128
9.32528434249128
9.32528434249128
9.32528434249128
9.32528434249128
9.32528434249128
9.32528434249128
9.32528434249128
9.32528434249128
9.32528434249128
9.32528434249128
9.32528434249128
9.32528434249128
9.32528434249128
9.32528434249128
9.343148896300468
9.343148896300468
9.343148896300468
9.343148896300468
9.343148896300468
9.343148896300468
9.343148896300468
9.343148896300468
9.343148896300468
9.343148896300468
9.343148896300468
9.343148896300468
9.343148896300468
9.343148896300468
9.343148896300468
9.343148896300468
9.343148896300468
9.343148896300468
9.359260772945872
9.359260772945872
9.359260772945872
9.359260772945872
9.359260772945872
9.359260772945872
9.359260772945872
9.359260772945872
9.359260772945872
9.359260772945872
9.359260772945872
9.359260772945872
9.359260772945872
9.359260772945872
9.359260772945872
9.359260772945872
9.359260772945872
9.359260772945872
9.374095831395197
9.374095831395197
9.374095831395197
9.374095831395197
9.374095831395197
9.374095831395197
9.374095831395197
9.374095831395197
9.374095831395197
9.374095831395197
9.374095831395197
9.374095831395197
9.374095831395197
9.374095831395197
9.374095831395197
9.374095831395197
9.374095831395197
9.374095831395197
9.387733688004712
9.387733688004712
9.387733688004712
9.387733688004712
9.387733688004712
9.387733688004712
9.387733688004712
9.387733688004712
9.387733688004712
9.387733688004712
9.387733688004712
9.387733688004712
9.387733688004712
9.387733688004712
9.387733688004712
9.387733688004712
9.387733688004712
9.400130567987881
9.400130567987881
9.400130567987881
9.400130567987881
9.400130567987881
9.400130567987881
9.400130567987881
9.400130567987881
9.400130567987881
9.400130567987881
9.400130567987881
9.400130567987881
9.400130567987881
9.400130567987881
9.400130567987881
9.400130567987881
9.400130567987881
9.400130567987881
9.411635669299072
9.411635669299072
9.411635669299072
9.411635669299072
9.411635669299072
9.411635669299072
9.411635669299072
9.411635669299072
9.411635669299072
9.411635669299072
9.411635669299072
9.411635669299072
9.411635669299072
9.411635669299072
9.411635669299072
9.411635669299072
9.411635669299072
9.422222074315776
9.422222074315776
9.422222074315776
9.422222074315776
9.422222074315776
9.422222074315776
9.422222074315776
9.422222074315776
9.422222074315776
9.422222074315776
9.422222074315776
9.422222074315776
9.422222074315776
9.422222074315776
9.422222074315776
9.422222074315776
9.422222074315776
9.431950654982442
9.431950654982442
9.431950654982442
9.431950654982442
9.431950654982442
9.431950654982442
9.431950654982442
9.431950654982442
9.431950654982442
9.431950654982442
9.431950654982442
9.431950654982442
9.431950654982442
9.431950654982442
9.431950654982442
9.431950654982442
9.431950654982442
9.441403378285113
9.441403378285113
9.441403378285113
9.441403378285113
9.441403378285113
9.441403378285113
9.441403378285113
9.441403378285113
9.441403378285113
9.441403378285113
9.441403378285113
9.441403378285113
9.441403378285113
9.441403378285113
9.441403378285113
9.441403378285113
9.441403378285113
9.450675055798571
9.450675055798571
9.450675055798571
9.450675055798571
9.450675055798571
9.450675055798571
9.450675055798571
9.450675055798571
9.450675055798571
9.450675055798571
9.450675055798571
9.450675055798571
9.450675055798571
9.450675055798571
9.450675055798571
9.450675055798571
9.450675055798571
9.459910879644438
9.459910879644438
9.459910879644438
9.459910879644438
9.459910879644438
9.459910879644438
9.459910879644438
9.459910879644438
9.459910879644438
9.459910879644438
9.459910879644438
9.459910879644438
9.459910879644438
9.459910879644438
9.459910879644438
9.459910879644438
9.459910879644438
9.469276630730878
9.469276630730878
9.469276630730878
9.469276630730878
9.469276630730878
9.469276630730878
9.469276630730878
9.469276630730878
9.469276630730878
9.469276630730878
9.469276630730878
9.469276630730878
9.469276630730878
9.469276630730878
9.469276630730878
9.469276630730878
9.469276630730878
9.480944493666001
9.480944493666001
9.480944493666001
9.480944493666001
9.480944493666001
9.480944493666001
9.480944493666001
9.480944493666001
9.480944493666001
9.480944493666001
