8013.409009984613
7953.433605938818
8255.103068777313
8532.587292180433
8917.914823213127
9113.132400842602
9511.843803395574
9917.83799639438
10331.502378161167
10750.137026088953
11176.194211122398
11820.902085107107
12255.774455833598
12911.260392387612
13786.499518770517
14440.122583027678
15519.577714788806
16578.02613655816
17826.89637481623
19500.31783631054
25782.992364587986
23055.002306303082
