230.08724287713284
240.16563784310054
240.96514082914632
241.64333447624787
242.6258500677095
243.2741702742391
244.05806293703867
245.0073652300489
246.15985079480805
246.15985079480805
247.56521921922675
247.56521921922675
249.2835782737639
249.2835782737639
251.39162774158922
251.39162774158922
251.39162774158922
253.9883811416909
253.9883811416909
253.9883811416909
257.203142215089
257.203142215089
257.203142215089
257.203142215089
261.2073721343505
261.2073721343505
261.2073721343505
261.2073721343505
261.2073721343505
266.06136202634127
266.06136202634127
266.06136202634127
266.06136202634127
266.06136202634127
266.06136202634127
271.03631872042735
271.03631872042735
271.03631872042735
271.03631872042735
271.03631872042735
276.1189543081596
276.1189543081596
276.1189543081596
276.1189543081596
276.1189543081596
281.20577153251895
281.20577153251895
281.20577153251895
281.20577153251895
281.20577153251895
286.39315248553464
286.39315248553464
286.39315248553464
286.39315248553464
286.39315248553464
291.64027561900673
291.64027561900673
291.64027561900673
291.64027561900673
291.64027561900673
296.9476003025028
296.9476003025028
296.9476003025028
296.9476003025028
296.9476003025028
302.27075445586837
302.27075445586837
302.27075445586837
302.27075445586837
307.5513374624616
307.5513374624616
307.5513374624616
307.5513374624616
307.5513374624616
312.8992844599654
312.8992844599654
312.8992844599654
312.8992844599654
318.2759403916609
318.2759403916609
318.2759403916609
318.2759403916609
323.68400569823746
323.68400569823746
323.68400569823746
323.68400569823746
329.08616905324743
329.08616905324743
329.08616905324743
329.08616905324743
334.42157660990654
334.42157660990654
334.42157660990654
339.7703597365452
339.7703597365452
339.7703597365452
339.7703597365452
345.1400359473414
345.1400359473414
345.1400359473414
350.51173293331686
350.51173293331686
350.51173293331686
350.51173293331686
355.8502784540644
355.8502784540644
355.8502784540644
361.09457189232927
361.09457189232927
361.09457189232927
366.32845979357734
366.32845979357734
366.32845979357734
371.5637351667967
371.5637351667967
371.5637351667967
376.77964274871954
376.77964274871954
376.77964274871954
381.9247209627263
381.9247209627263
386.94917940722274
386.94917940722274
386.94917940722274
391.9794146192409
391.9794146192409
396.97769890403777
396.97769890403777
396.97769890403777
401.9241851874273
401.9241851874273
406.75797820305417
406.75797820305417
411.4991666167329
411.4991666167329
416.2150309311232
416.2150309311232
420.8782083200831
420.8782083200831
420.8782083200831
425.43661056892006
429.8667758011941
429.8667758011941
434.2657915504276
434.2657915504276
438.60965756731173
438.60965756731173
442.856812652732
442.856812652732
446.97912396165265
451.0740051993351
451.0740051993351
455.11945426886734
459.0964346061668
459.0964346061668
462.98745112433494
466.8853104536208
466.8853104536208
470.79348034016874
474.71925782685884
478.6950206427856
478.6950206427856
482.8719077551034
487.29575712066446
491.9200339391837
491.9200339391837
496.9409775869752
502.4187052639233
508.12788647316205
520.9701496836782
537.9544321855124
671.4719419435429
382.5704836613687
1327.3130978252834
917.0278176314283
622.7732786346583
509.93887323000547
466.53467710239755
451.60733799990726
448.0191832674452
450.12352370286385
455.3051157365688
462.76743499989897
470.6575936028988
478.7432238506788
489.0298962477592
496.8971090210554
506.98170778350135
515.7887673426334
526.601922160309
535.82125840298
545.091023284064
554.3267031150821
563.4416925699473
572.2193635828613
580.4212845344902
587.8398854547385
594.0333668714748
599.5699662833955
603.7738647344717
607.6655977661007
611.6482676010172
616.4964072422221
622.8995828051028
638.6394908125245
674.9285041194391
1621.0972535210142
33502.06832467783
