3184.5392792597563
3232.4071593564113
3298.730226842995
3357.6151051472675
3446.9630660486637
3508.583850088801
3585.9155705842554
3664.7114914545455
3744.915389996134
3826.175354819121
3908.00211422812
3990.615085866219
4074.3610366053704
4158.944453458039
4243.778712713161
4415.3918328910895
4502.518334852837
4589.6268756891595
4765.5488970876
4854.128064914066
5031.552285139162
5210.597658747008
5388.702776860988
5568.0772252727675
5745.8439907989095
5923.590664372276
6187.524335174442
6361.506862317098
6705.222752286663
6959.266695469034
7297.0111522669295
7648.833547693883
8266.729174840852
10807.415534882046
8843.184784594283
13662.805000405531
10800.488280517766
