00000 0.00000000E+00 6.97400000E-01 -8.55576337E-01 -1.81755886E-01 3.63867336E+00 7.01377460E+00 4.87863393E+00 1.60244306E+01 -1.34436650E+00 6.98487254E-01 2.81392784E-01 3.51736888E-03 1.09184232E-03 1.00996555E-02 1.43678677E+03 4.18868129E+07 5.20397129E+10 1.37182054E-01 3.04857978E-04 0.00000000E+00 0.00000000E+00 2.34396393E-10 0.00000000E+00 0.00000000E+00 0.00000000E+00 0.00000000E+00 0.00000000E+00 0.00000000E+00
00001 5.00000000E+04 6.97400000E-01 -8.84423769E-01 -1.81616795E-01 3.63139195E+00 7.00925015E+00 4.87721694E+00 1.60185543E+01 -1.33090999E+00 6.98486499E-01 2.81393710E-01 3.51839531E-03 1.09064480E-03 1.00996555E-02 1.43747717E+03 4.47492394E+07 5.56137685E+10 1.29981570E-01 2.45384552E-04 0.00000000E+00 0.00000000E+00 1.24496618E-10 0.00000000E+00 0.00000000E+00 0.00000000E+00 0.00000000E+00 0.00000000E+00 0.00000000E+00
00002 1.00000000E+05 6.97399999E-01 -8.84485589E-01 -1.81640832E-01 3.63138852E+00 7.00924603E+00 4.87721106E+00 1.60185439E+01 -1.33090982E+00 6.98485563E-01 2.81394637E-01 3.51833766E-03 1.09071205E-03 1.00996555E-02 1.43735784E+03 4.47580868E+07 5.56216853E+10 1.29974608E-01 2.45331918E-04 0.00000000E+00 0.00000000E+00 1.23344883E-10 0.00000000E+00 0.00000000E+00 0.00000000E+00 0.00000000E+00 0.00000000E+00 0.00000000E+00
00003 1.60000000E+05 6.97399998E-01 -8.84486089E-01 -1.81640544E-01 3.63138825E+00 7.00924631E+00 4.87721179E+00 1.60185446E+01 -1.33090971E+00 6.98484440E-01 2.81395748E-01 3.51826831E-03 1.09079296E-03 1.00996555E-02 1.43735927E+03 4.47581084E+07 5.56217492E+10 1.29974855E-01 2.45332969E-04 0.00000000E+00 0.00000000E+00 1.23344884E-10 0.00000000E+00 0.00000000E+00 0.00000000E+00 0.00000000E+00 0.00000000E+00 0.00000000E+00
00004 2.32000000E+05 6.97399996E-01 -8.84477408E-01 -1.81639210E-01 3.63138975E+00 7.00924665E+00 4.87721270E+00 1.60185454E+01 -1.33090958E+00 6.98483092E-01 2.81397082E-01 3.51818509E-03 1.09089005E-03 1.00996555E-02 1.43736589E+03 4.47570761E+07 5.56206373E+10 1.29975176E-01 2.45334378E-04 0.00000000E+00 0.00000000E+00 1.23345647E-10 0.00000000E+00 0.00000000E+00 0.00000000E+00 0.00000000E+00 0.00000000E+00 0.00000000E+00
00005 3.18400000E+05 6.97399995E-01 -8.84463748E-01 -1.81637466E-01 3.63139229E+00 7.00924706E+00 4.87721379E+00 1.60185463E+01 -1.33090942E+00 6.98481475E-01 2.81398683E-01 3.51808523E-03 1.09100656E-03 1.00996555E-02 1.43737455E+03 4.47554885E+07 5.56188878E+10 1.29975579E-01 2.45336160E-04 0.00000000E+00 0.00000000E+00 1.23346567E-10 0.00000000E+00 0.00000000E+00 0.00000000E+00 0.00000000E+00 0.00000000E+00 0.00000000E+00
00006 4.22080000E+05 6.97399993E-01 -8.84450236E-01 -1.81635524E-01 3.63139470E+00 7.00924757E+00 4.87721512E+00 1.60185475E+01 -1.33090924E+00 6.98479534E-01 2.81400604E-01 3.51796540E-03 1.09114637E-03 1.00996555E-02 1.43738420E+03 4.47538956E+07 5.56171573E+10 1.29976078E-01 2.45338374E-04 0.00000000E+00 0.00000000E+00 1.23347690E-10 0.00000000E+00 0.00000000E+00 0.00000000E+00 0.00000000E+00 0.00000000E+00 0.00000000E+00
00007 5.46496000E+05 6.97399990E-01 -8.84435161E-01 -1.81633503E-01 3.63139746E+00 7.00924818E+00 4.87721672E+00 1.60185490E+01 -1.33090902E+00 6.98477205E-01 2.81402909E-01 3.51782160E-03 1.09131413E-03 1.00996555E-02 1.43739423E+03 4.47521337E+07 5.56152265E+10 1.29976695E-01 2.45341118E-04 0.00000000E+00 0.00000000E+00 1.23349046E-10 0.00000000E+00 0.00000000E+00 0.00000000E+00 0.00000000E+00 0.00000000E+00 0.00000000E+00
00008 6.95795200E+05 6.97399987E-01 -8.84419919E-01 -1.81631489E-01 3.63140026E+00 7.00924893E+00 4.87721865E+00 1.60185507E+01 -1.33090876E+00 6.98474410E-01 2.81405675E-01 3.51764905E-03 1.09151545E-03 1.00996555E-02 1.43740423E+03 4.47503552E+07 5.56132744E+10 1.29977455E-01 2.45344499E-04 0.00000000E+00 0.00000000E+00 1.23350689E-10 0.00000000E+00 0.00000000E+00 0.00000000E+00 0.00000000E+00 0.00000000E+00 0.00000000E+00
00009 8.74954240E+05 6.97399984E-01 -8.84405253E-01 -1.81629548E-01 3.63140296E+00 7.00924983E+00 4.87722099E+00 1.60185529E+01 -1.33090843E+00 6.98471056E-01 2.81408995E-01 3.51744198E-03 1.09175702E-03 1.00996555E-02 1.43741388E+03 4.47486435E+07 5.56113962E+10 1.29978388E-01 2.45348639E-04 0.00000000E+00 0.00000000E+00 1.23352674E-10 0.00000000E+00 0.00000000E+00 0.00000000E+00 0.00000000E+00 0.00000000E+00 0.00000000E+00
00010 1.08994509E+06 6.97399980E-01 -8.84391300E-01 -1.81627733E-01 3.63140554E+00 7.00925092E+00 4.87722380E+00 1.60185554E+01 -1.33090803E+00 6.98467031E-01 2.81412978E-01 3.51719351E-03 1.09204691E-03 1.00996555E-02 1.43742289E+03 4.47470183E+07 5.56096091E+10 1.29979528E-01 2.45353669E-04 0.00000000E+00 0.00000000E+00 1.23355065E-10 0.00000000E+00 0.00000000E+00 0.00000000E+00 0.00000000E+00 0.00000000E+00 0.00000000E+00
00011 1.34793411E+06 6.97399975E-01 -8.84378414E-01 -1.81626090E-01 3.63140794E+00 7.00925223E+00 4.87722719E+00 1.60185585E+01 -1.33090752E+00 6.98462201E-01 2.81417758E-01 3.51689536E-03 1.09239477E-03 1.00996555E-02 1.43743105E+03 4.47455207E+07 5.56079587E+10 1.29980911E-01 2.45359726E-04 0.00000000E+00 0.00000000E+00 1.23357939E-10 0.00000000E+00 0.00000000E+00 0.00000000E+00 0.00000000E+00 0.00000000E+00 0.00000000E+00
00012 1.65752093E+06 6.97399969E-01 -8.84366600E-01 -1.81624654E-01 3.63141017E+00 7.00925379E+00 4.87723127E+00 1.60185622E+01 -1.33090686E+00 6.98456406E-01 2.81423494E-01 3.51653758E-03 1.09281219E-03 1.00996555E-02 1.43743819E+03 4.47441549E+07 5.56064457E+10 1.29982579E-01 2.45366952E-04 0.00000000E+00 0.00000000E+00 1.23361378E-10 0.00000000E+00 0.00000000E+00 0.00000000E+00 0.00000000E+00 0.00000000E+00 0.00000000E+00
00013 2.02902511E+06 6.97399962E-01 -8.84355993E-01 -1.81623446E-01 3.63141222E+00 7.00925565E+00 4.87723616E+00 1.60185667E+01 -1.33090601E+00 6.98449451E-01 2.81430378E-01 3.51610826E-03 1.09331307E-03 1.00996555E-02 1.43744419E+03 4.47429366E+07 5.56050869E+10 1.29984578E-01 2.45375474E-04 0.00000000E+00 0.00000000E+00 1.23365480E-10 0.00000000E+00 0.00000000E+00 0.00000000E+00 0.00000000E+00 0.00000000E+00 0.00000000E+00
00014 2.47483013E+06 6.97399953E-01 -8.84346604E-01 -1.81622469E-01 3.63141408E+00 7.00925785E+00 4.87724202E+00 1.60185720E+01 -1.33090489E+00 6.98441105E-01 2.81438638E-01 3.51559310E-03 1.09391407E-03 1.00996555E-02 1.43744905E+03 4.47418676E+07 5.56038842E+10 1.29986954E-01 2.45385398E-04 0.00000000E+00 0.00000000E+00 1.23370353E-10 0.00000000E+00 0.00000000E+00 0.00000000E+00 0.00000000E+00 0.00000000E+00 0.00000000E+00
00015 3.00979616E+06 6.97399943E-01 -8.84338735E-01 -1.81621698E-01 3.63141566E+00 7.00926044E+00 4.87724902E+00 1.60185782E+01 -1.33090344E+00 6.98431089E-01 2.81448550E-01 3.51497494E-03 1.09463529E-03 1.00996555E-02 1.43745289E+03 4.47409761E+07 5.56028759E+10 1.29989751E-01 2.45396764E-04 0.00000000E+00 0.00000000E+00 1.23376117E-10 0.00000000E+00 0.00000000E+00 0.00000000E+00 0.00000000E+00 0.00000000E+00 0.00000000E+00
00016 3.65175539E+06 6.97399930E-01 -8.84331474E-01 -1.81621114E-01 3.63141719E+00 7.00926346E+00 4.87725737E+00 1.60185856E+01 -1.33090153E+00 6.98419070E-01 2.81460445E-01 3.51423319E-03 1.09550064E-03 1.00996555E-02 1.43745580E+03 4.47401664E+07 5.56019452E+10 1.29993016E-01 2.45409581E-04 0.00000000E+00 0.00000000E+00 1.23382901E-10 0.00000000E+00 0.00000000E+00 0.00000000E+00 0.00000000E+00 0.00000000E+00 0.00000000E+00
00017 4.42210647E+06 6.97399915E-01 -8.84324621E-01 -1.81620693E-01 3.63141869E+00 7.00926698E+00 4.87726730E+00 1.60185943E+01 -1.33089903E+00 6.98404648E-01 2.81474720E-01 3.51334318E-03 1.09653895E-03 1.00996555E-02 1.43745791E+03 4.47394152E+07 5.56010667E+10 1.29996794E-01 2.45423766E-04 0.00000000E+00 0.00000000E+00 1.23390855E-10 0.00000000E+00 0.00000000E+00 0.00000000E+00 0.00000000E+00 0.00000000E+00 0.00000000E+00
00018 5.34652777E+06 6.97399897E-01 -8.84318202E-01 -1.81620389E-01 3.63142014E+00 7.00927104E+00 4.87727909E+00 1.60186044E+01 -1.33089575E+00 6.98387340E-01 2.81491849E-01 3.51227528E-03 1.09778485E-03 1.00996555E-02 1.43745944E+03 4.47387203E+07 5.56002435E+10 1.30001116E-01 2.45439093E-04 0.00000000E+00 0.00000000E+00 1.23400139E-10 0.00000000E+00 0.00000000E+00 0.00000000E+00 0.00000000E+00 0.00000000E+00 0.00000000E+00
00019 6.45583332E+06 6.97399876E-01 -8.84311810E-01 -1.81620158E-01 3.63142162E+00 7.00927570E+00 4.87729307E+00 1.60186162E+01 -1.33089144E+00 6.98366571E-01 2.81512405E-01 3.51099398E-03 1.09927990E-03 1.00996553E-02 1.43746061E+03 4.47380352E+07 5.55994234E+10 1.30006009E-01 2.45455173E-04 0.00000000E+00 0.00000000E+00 1.23410927E-10 0.00000000E+00 0.00000000E+00 0.00000000E+00 0.00000000E+00 0.00000000E+00 0.00000000E+00
00020 7.78699998E+06 6.97399850E-01 -8.84305138E-01 -1.81619950E-01 3.63142319E+00 7.00928103E+00 4.87730963E+00 1.60186298E+01 -1.33088580E+00 6.98341647E-01 2.81537073E-01 3.50945672E-03 1.10107332E-03 1.00996554E-02 1.43746166E+03 4.47373233E+07 5.55985673E+10 1.30011483E-01 2.45471414E-04 0.00000000E+00 0.00000000E+00 1.23423413E-10 0.00000000E+00 0.00000000E+00 0.00000000E+00 0.00000000E+00 0.00000000E+00 0.00000000E+00
00021 9.38439998E+06 6.97399819E-01 -8.84297796E-01 -1.81619708E-01 3.63142490E+00 7.00928707E+00 4.87732923E+00 1.60186456E+01 -1.33087840E+00 6.98311737E-01 2.81566675E-01 3.50761243E-03 1.10322485E-03 1.00996555E-02 1.43746290E+03 4.47365380E+07 5.55976249E+10 1.30017537E-01 2.45487001E-04 0.00000000E+00 0.00000000E+00 1.23437812E-10 0.00000000E+00 0.00000000E+00 0.00000000E+00 0.00000000E+00 0.00000000E+00 0.00000000E+00
00022 1.13012800E+07 6.97399782E-01 -8.84289961E-01 -1.81619275E-01 3.63142664E+00 7.00929389E+00 4.87735244E+00 1.60186637E+01 -1.33086869E+00 6.98275845E-01 2.81602198E-01 3.50539997E-03 1.10580584E-03 1.00996557E-02 1.43746508E+03 4.47356816E+07 5.55966189E+10 1.30024143E-01 2.45500781E-04 0.00000000E+00 0.00000000E+00 1.23454366E-10 0.00000000E+00 0.00000000E+00 0.00000000E+00 0.00000000E+00 0.00000000E+00 0.00000000E+00
00023 1.36015360E+07 6.97399738E-01 -8.84280463E-01 -1.81618502E-01 3.63142863E+00 7.00930157E+00 4.87737997E+00 1.60186847E+01 -1.33085594E+00 6.98232774E-01 2.81644827E-01 3.50274608E-03 1.10890207E-03 1.00996557E-02 1.43746897E+03 4.47346179E+07 5.55953995E+10 1.30031289E-01 2.45511502E-04 0.00000000E+00 0.00000000E+00 1.33669875E-10 0.00000000E+00 0.00000000E+00 0.00000000E+00 0.00000000E+00 0.00000000E+00 0.00000000E+00
00024 1.63618432E+07 6.97399684E-01 -8.84268059E-01 -1.81617227E-01 3.63143110E+00 7.00931024E+00 4.87741273E+00 1.60187090E+01 -1.33083927E+00 6.98181088E-01 2.81695983E-01 3.49956299E-03 1.11261556E-03 1.00996558E-02 1.43747535E+03 4.47332020E+07 5.55938073E+10 1.30039008E-01 2.45517944E-04 0.00000000E+00 0.00000000E+00 1.33693497E-10 0.00000000E+00 0.00000000E+00 0.00000000E+00 0.00000000E+00 0.00000000E+00 0.00000000E+00
00025 1.96742118E+07 6.97399620E-01 -8.84252319E-01 -1.81615128E-01 3.63143398E+00 7.00932007E+00 4.87745183E+00 1.60187375E+01 -1.33081763E+00 6.98119064E-01 2.81757371E-01 3.49574569E-03 1.11706943E-03 1.00996555E-02 1.43748584E+03 4.47313564E+07 5.55917874E+10 1.30047369E-01 2.45518925E-04 0.00000000E+00 0.00000000E+00 1.33720761E-10 0.00000000E+00 0.00000000E+00 0.00000000E+00 0.00000000E+00 0.00000000E+00 0.00000000E+00
00026 2.36490542E+07 6.97399543E-01 -8.84231533E-01 -1.81611883E-01 3.63143756E+00 7.00933131E+00 4.87749866E+00 1.60187709E+01 -1.33078983E+00 6.98044634E-01 2.81831038E-01 3.49116852E-03 1.12240954E-03 1.00996554E-02 1.43750203E+03 4.47288715E+07 5.55891207E+10 1.30056557E-01 2.45513705E-04 0.00000000E+00 0.00000000E+00 1.33752439E-10 0.00000000E+00 0.00000000E+00 0.00000000E+00 0.00000000E+00 0.00000000E+00 0.00000000E+00
00027 2.84188650E+07 6.97399451E-01 -8.84203735E-01 -1.81607277E-01 3.63144220E+00 7.00934437E+00 4.87755495E+00 1.60188108E+01 -1.33075462E+00 6.97955318E-01 2.81919439E-01 3.48568117E-03 1.12881155E-03 1.00996553E-02 1.43752500E+03 4.47255223E+07 5.55855552E+10 1.30066917E-01 2.45502281E-04 0.00000000E+00 0.00000000E+00 1.33789594E-10 0.00000000E+00 0.00000000E+00 0.00000000E+00 0.00000000E+00 0.00000000E+00 0.00000000E+00
00028 3.41426380E+07 6.97399340E-01 -8.84167785E-01 -1.81601041E-01 3.63144807E+00 7.00935975E+00 4.87762271E+00 1.60188585E+01 -1.33071071E+00 6.97848138E-01 2.82025523E-01 3.47910399E-03 1.13648501E-03 1.00996552E-02 1.43755607E+03 4.47211639E+07 5.55809453E+10 1.30078914E-01 2.45485053E-04 0.00000000E+00 0.00000000E+00 1.33833580E-10 0.00000000E+00 0.00000000E+00 0.00000000E+00 0.00000000E+00 0.00000000E+00 0.00000000E+00
00029 4.10111656E+07 6.97399207E-01 -8.84122137E-01 -1.81593003E-01 3.63145546E+00 7.00937807E+00 4.87770435E+00 1.60189160E+01 -1.33065674E+00 6.97719522E-01 2.82152825E-01 3.47122243E-03 1.14568036E-03 1.00996550E-02 1.43759612E+03 4.47156189E+07 5.55750930E+10 1.30093136E-01 2.45462750E-04 0.00000000E+00 0.00000000E+00 1.33886070E-10 0.00000000E+00 0.00000000E+00 0.00000000E+00 0.00000000E+00 0.00000000E+00 0.00000000E+00
00030 4.92533987E+07 6.97399047E-01 -8.84065486E-01 -1.81583002E-01 3.63146463E+00 7.00940007E+00 4.87780266E+00 1.60189854E+01 -1.33059116E+00 6.97565183E-01 2.82305591E-01 3.46178045E-03 1.15669603E-03 1.00996549E-02 1.43764594E+03 4.47087364E+07 5.55678314E+10 1.30110238E-01 2.45435910E-04 0.00000000E+00 0.00000000E+00 1.33949037E-10 0.00000000E+00 0.00000000E+00 0.00000000E+00 0.00000000E+00 0.00000000E+00 0.00000000E+00
00031 5.91440784E+07 6.97398856E-01 -8.83996430E-01 -1.81570817E-01 3.63147580E+00 7.00942654E+00 4.87792091E+00 1.60190689E+01 -1.33051207E+00 6.97379974E-01 2.82488915E-01 3.45047293E-03 1.16988827E-03 1.00996547E-02 1.43770664E+03 4.47003492E+07 5.55589811E+10 1.30130906E-01 2.45404457E-04 0.00000000E+00 0.00000000E+00 1.34024751E-10 0.00000000E+00 0.00000000E+00 0.00000000E+00 0.00000000E+00 0.00000000E+00 0.00000000E+00
00032 7.10128941E+07 6.97398626E-01 -8.83913211E-01 -1.81556086E-01 3.63148924E+00 7.00945840E+00 4.87806300E+00 1.60191695E+01 -1.33041703E+00 6.97157721E-01 2.82708912E-01 3.43693674E-03 1.18568078E-03 1.00996544E-02 1.43778003E+03 4.46902393E+07 5.55483177E+10 1.30155853E-01 2.45367500E-04 0.00000000E+00 0.00000000E+00 1.34115825E-10 0.00000000E+00 0.00000000E+00 0.00000000E+00 0.00000000E+00 0.00000000E+00 0.00000000E+00
00033 8.52554730E+07 6.97398350E-01 -8.83812903E-01 -1.81538519E-01 3.63150553E+00 7.00949672E+00 4.87823366E+00 1.60192903E+01 -1.33030300E+00 6.96891014E-01 2.82972920E-01 3.42074048E-03 1.20457663E-03 1.00996542E-02 1.43786756E+03 4.46780758E+07 5.55354673E+10 1.30185944E-01 2.45323920E-04 0.00000000E+00 0.00000000E+00 1.34225375E-10 0.00000000E+00 0.00000000E+00 0.00000000E+00 0.00000000E+00 0.00000000E+00 0.00000000E+00
00034 1.02346568E+08 6.97398018E-01 -8.83692833E-01 -1.81517391E-01 3.63152498E+00 7.00954275E+00 4.87843853E+00 1.60194355E+01 -1.33016614E+00 6.96570961E-01 2.83289745E-01 3.40137289E-03 1.22717247E-03 1.00996538E-02 1.43797283E+03 4.46635100E+07 5.55200890E+10 1.30222109E-01 2.45271622E-04 0.00000000E+00 0.00000000E+00 1.34357066E-10 0.00000000E+00 0.00000000E+00 0.00000000E+00 0.00000000E+00 0.00000000E+00 0.00000000E+00
00035 1.22855881E+08 6.97397621E-01 -8.83548639E-01 -1.81492074E-01 3.63154837E+00 7.00959803E+00 4.87868450E+00 1.60196098E+01 -1.33000182E+00 6.96186891E-01 2.83669958E-01 3.37822944E-03 1.25417321E-03 1.00996537E-02 1.43809898E+03 4.46460296E+07 5.55016267E+10 1.30265560E-01 2.45208661E-04 0.00000000E+00 0.00000000E+00 1.34515377E-10 0.00000000E+00 0.00000000E+00 0.00000000E+00 0.00000000E+00 0.00000000E+00 0.00000000E+00
00036 1.47467057E+08 6.97397144E-01 -8.83375659E-01 -1.81461659E-01 3.63157641E+00 7.00966439E+00 4.87897982E+00 1.60198191E+01 -1.32980448E+00 6.95725996E-01 2.84126248E-01 3.35059781E-03 1.28641041E-03 1.00996533E-02 1.43825056E+03 4.46250642E+07 5.54794869E+10 1.30317732E-01 2.45132515E-04 0.00000000E+00 0.00000000E+00 1.34705713E-10 0.00000000E+00 0.00000000E+00 0.00000000E+00 0.00000000E+00 0.00000000E+00 0.00000000E+00
00037 1.77000469E+08 6.97396571E-01 -8.83168127E-01 -1.81425060E-01 3.63160999E+00 7.00974407E+00 4.87933441E+00 1.60200705E+01 -1.32956737E+00 6.95172907E-01 2.84673844E-01 3.31764192E-03 1.32485950E-03 1.00996527E-02 1.43843296E+03 4.45999129E+07 5.54529363E+10 1.30380367E-01 2.45040088E-04 0.00000000E+00 0.00000000E+00 1.34934608E-10 0.00000000E+00 0.00000000E+00 0.00000000E+00 0.00000000E+00 0.00000000E+00 0.00000000E+00
00038 2.12440562E+08 6.97395883E-01 -8.82918726E-01 -1.81381227E-01 3.63165043E+00 7.00983979E+00 4.87976032E+00 1.60203725E+01 -1.32928240E+00 6.94509180E-01 2.85331028E-01 3.27838539E-03 1.37065939E-03 1.00996519E-02 1.43865146E+03 4.45697214E+07 5.54210459E+10 1.30455637E-01 2.44927852E-04 0.00000000E+00 0.00000000E+00 1.46100836E-10 0.00000000E+00 0.00000000E+00 0.00000000E+00 0.00000000E+00 0.00000000E+00 0.00000000E+00
00039 2.54968675E+08 6.97395057E-01 -8.82619584E-01 -1.81328413E-01 3.63169881E+00 7.00995472E+00 4.88027191E+00 1.60207353E+01 -1.32893968E+00 6.93712677E-01 2.86119750E-01 3.23169525E-03 1.42513186E-03 1.00996511E-02 1.43891477E+03 4.45335108E+07 5.53828195E+10 1.30546026E-01 2.44790858E-04 0.00000000E+00 0.00000000E+00 1.46458467E-10 0.00000000E+00 0.00000000E+00 0.00000000E+00 0.00000000E+00 0.00000000E+00 0.00000000E+00
00040 3.06002410E+08 6.97394065E-01 -8.82260106E-01 -1.81265126E-01 3.63175703E+00 7.01009280E+00 4.88088650E+00 1.60211714E+01 -1.32852768E+00 6.92756829E-01 2.87066360E-01 3.17626691E-03 1.48979985E-03 1.00996493E-02 1.43923035E+03 4.44900542E+07 5.53369178E+10 1.30654695E-01 2.44624217E-04 0.00000000E+00 0.00000000E+00 1.46889293E-10 0.00000000E+00 0.00000000E+00 0.00000000E+00 0.00000000E+00 0.00000000E+00 0.00000000E+00
00041 3.67242892E+08 6.97392875E-01 -8.81829200E-01 -1.81188499E-01 3.63182645E+00 7.01025870E+00 4.88162501E+00 1.60216955E+01 -1.32803198E+00 6.91609748E-01 2.88202499E-01 3.11061495E-03 1.56639499E-03 1.00996479E-02 1.43961253E+03 4.44379401E+07 5.52819455E+10 1.30785133E-01 2.44420099E-04 0.00000000E+00 0.00000000E+00 1.47408634E-10 0.00000000E+00 0.00000000E+00 0.00000000E+00 0.00000000E+00 0.00000000E+00 0.00000000E+00
00042 4.40731470E+08 6.97391444E-01 -8.81310935E-01 -1.81096851E-01 3.63191019E+00 7.01045816E+00 4.88251271E+00 1.60223259E+01 -1.32743558E+00 6.90233159E-01 2.89566164E-01 3.03306870E-03 1.65686532E-03 1.00996481E-02 1.44006978E+03 4.43753942E+07 5.52159009E+10 1.30942112E-01 2.44170916E-04 0.00000000E+00 0.00000000E+00 1.59676414E-10 0.00000000E+00 0.00000000E+00 0.00000000E+00 0.00000000E+00 0.00000000E+00 0.00000000E+00
00043 5.28917764E+08 6.97389726E-01 -8.80688712E-01 -1.80986488E-01 3.63201056E+00 7.01069793E+00 4.88358002E+00 1.60230842E+01 -1.32671730E+00 6.88581120E-01 2.91202989E-01 2.94178510E-03 1.76336436E-03 1.00996464E-02 1.44062058E+03 4.43003848E+07 5.51367127E+10 1.31130891E-01 2.43864024E-04 0.00000000E+00 0.00000000E+00 1.60491454E-10 0.00000000E+00 0.00000000E+00 0.00000000E+00 0.00000000E+00 0.00000000E+00 0.00000000E+00
00044 6.34741317E+08 6.97387662E-01 -8.79941263E-01 -1.80853526E-01 3.63213094E+00 7.01098635E+00 4.88486386E+00 1.60239969E+01 -1.32585169E+00 6.86598481E-01 2.93167795E-01 2.83478100E-03 1.88820591E-03 1.00996425E-02 1.44128445E+03 4.42104073E+07 5.50417376E+10 1.31358018E-01 2.43485397E-04 0.00000000E+00 0.00000000E+00 1.73885681E-10 0.00000000E+00 0.00000000E+00 0.00000000E+00 0.00000000E+00 0.00000000E+00 0.00000000E+00
00045 7.61729581E+08 6.97385181E-01 -8.79043520E-01 -1.80692852E-01 3.63227504E+00 7.01133335E+00 4.88640907E+00 1.60250964E+01 -1.32480697E+00 6.84219033E-01 2.95526445E-01 2.71000058E-03 2.03379922E-03 1.00996273E-02 1.44208708E+03 4.41024797E+07 5.49278813E+10 1.31631362E-01 2.43013967E-04 0.00000000E+00 0.00000000E+00 1.75168930E-10 0.00000000E+00 0.00000000E+00 0.00000000E+00 0.00000000E+00 0.00000000E+00 0.00000000E+00
00046 9.14115497E+08 6.97382198E-01 -8.77963575E-01 -1.80500062E-01 3.63244863E+00 7.01175118E+00 4.88826959E+00 1.60264215E+01 -1.32354601E+00 6.81363294E-01 2.98358090E-01 2.56542987E-03 2.20246413E-03 1.00996272E-02 1.44305073E+03 4.39730468E+07 5.47912292E+10 1.31960922E-01 2.42429259E-04 0.00000000E+00 0.00000000E+00 1.90005409E-10 0.00000000E+00 0.00000000E+00 0.00000000E+00 0.00000000E+00 0.00000000E+00 0.00000000E+00
00047 1.09697860E+09 6.97378610E-01 -8.76666295E-01 -1.80266659E-01 3.63265625E+00 7.01225443E+00 4.89051125E+00 1.60280197E+01 -1.32202161E+00 6.77935823E-01 3.01757871E-01 2.39928482E-03 2.39630077E-03 1.00996259E-02 1.44421822E+03 4.38178846E+07 5.46275257E+10 1.32357968E-01 2.41698846E-04 0.00000000E+00 0.00000000E+00 2.06159482E-10 0.00000000E+00 0.00000000E+00 0.00000000E+00 0.00000000E+00 0.00000000E+00 0.00000000E+00
00048 1.31641432E+09 6.97374293E-01 -8.75105852E-01 -1.79984644E-01 3.63290536E+00 7.01286110E+00 4.89321461E+00 1.60299494E+01 -1.32017560E+00 6.73822009E-01 3.05840187E-01 2.21029285E-03 2.61679652E-03 1.00996201E-02 1.44563012E+03 4.36318444E+07 5.44312614E+10 1.32837156E-01 2.40782838E-04 0.00000000E+00 0.00000000E+00 2.23850639E-10 0.00000000E+00 0.00000000E+00 0.00000000E+00 0.00000000E+00 0.00000000E+00 0.00000000E+00
00049 1.57973718E+09 6.97369095E-01 -8.73228363E-01 -1.79642907E-01 3.63320386E+00 7.01359299E+00 4.89647789E+00 1.60322823E+01 -1.31793595E+00 6.68884204E-01 3.10742627E-01 1.99809847E-03 2.86436459E-03 1.00996113E-02 1.44734282E+03 4.34088091E+07 5.41960546E+10 1.33416097E-01 2.39629508E-04 0.00000000E+00 0.00000000E+00 2.43359964E-10 0.00000000E+00 0.00000000E+00 0.00000000E+00 0.00000000E+00 0.00000000E+00 0.00000000E+00
00050 1.89572461E+09 6.97362833E-01 -8.70967740E-01 -1.79229168E-01 3.63356215E+00 7.01447800E+00 4.90042267E+00 1.60351086E+01 -1.31521492E+00 6.62956970E-01 3.16630813E-01 1.76379638E-03 3.13770933E-03 1.00996161E-02 1.44941907E+03 4.31415466E+07 5.39141980E+10 1.34116470E-01 2.38188463E-04 0.00000000E+00 0.00000000E+00 2.65055903E-10 0.00000000E+00 0.00000000E+00 0.00000000E+00 0.00000000E+00 0.00000000E+00 0.00000000E+00
00051 2.27490954E+09 6.97355281E-01 -8.68245729E-01 -1.78725412E-01 3.63399077E+00 7.01554863E+00 4.90519741E+00 1.60385371E+01 -1.31189879E+00 6.55841520E-01 3.23704069E-01 1.51062677E-03 3.43308156E-03 1.00996072E-02 1.45195098E+03 4.28213680E+07 5.35767586E+10 1.34964810E-01 2.36379036E-04 0.00000000E+00 0.00000000E+00 3.08686710E-10 0.00000000E+00 0.00000000E+00 0.00000000E+00 0.00000000E+00 0.00000000E+00 0.00000000E+00
00052 2.72993145E+09 6.97346167E-01 -8.64963958E-01 -1.78111800E-01 3.63450441E+00 7.01684630E+00 4.91098736E+00 1.60427058E+01 -1.30784532E+00 6.47298827E-01 3.32202445E-01 1.24471225E-03 3.74331878E-03 1.00996022E-02 1.45504094E+03 4.24378919E+07 5.31727337E+10 1.35994794E-01 2.34120633E-04 0.00000000E+00 0.00000000E+00 3.37793783E-10 0.00000000E+00 0.00000000E+00 0.00000000E+00 0.00000000E+00 0.00000000E+00 0.00000000E+00
00053 3.27595773E+09 6.97335152E-01 -8.61004592E-01 -1.77361572E-01 3.63511913E+00 7.01842248E+00 4.91802385E+00 1.60477883E+01 -1.30287208E+00 6.37041300E-01 3.42415135E-01 9.75678279E-04 4.05724481E-03 1.00995470E-02 1.45882764E+03 4.19788453E+07 5.26893405E+10 1.37247993E-01 2.31327478E-04 0.00000000E+00 0.00000000E+00 3.94660113E-10 0.00000000E+00 0.00000000E+00 0.00000000E+00 0.00000000E+00 0.00000000E+00 0.00000000E+00
00054 3.93118928E+09 6.97321820E-01 -8.56222949E-01 -1.76441525E-01 3.63585452E+00 7.02034313E+00 4.92659929E+00 1.60540077E+01 -1.29674499E+00 6.24722511E-01 3.54690779E-01 7.16748922E-04 4.35935327E-03 1.00995126E-02 1.46348477E+03 4.14297384E+07 5.21114090E+10 1.38776784E-01 2.27942872E-04 0.00000000E+00 0.00000000E+00 4.89863395E-10 0.00000000E+00 0.00000000E+00 0.00000000E+00 0.00000000E+00 0.00000000E+00 0.00000000E+00
00055 4.71746714E+09 6.97305647E-01 -8.50195546E-01 -1.75359594E-01 3.63682041E+00 7.02272696E+00 4.93710218E+00 1.60617002E+01 -1.28925056E+00 6.09919986E-01 3.69454449E-01 4.83583882E-04 4.63139747E-03 1.00994888E-02 1.46898087E+03 4.07551703E+07 5.13919788E+10 1.40725873E-01 2.24331276E-04 0.00000000E+00 0.00000000E+00 5.75202348E-10 0.00000000E+00 0.00000000E+00 0.00000000E+00 0.00000000E+00 0.00000000E+00 0.00000000E+00
00056 5.59675186E+09 6.97287332E-01 -8.43150557E-01 -1.74157994E-01 3.63798085E+00 7.02548741E+00 4.94913172E+00 1.60705976E+01 -1.28063788E+00 5.93336750E-01 3.86007270E-01 3.01050200E-04 4.84438810E-03 1.00994472E-02 1.47510944E+03 3.99864924E+07 5.05637115E+10 1.43038197E-01 2.20766183E-04 0.00000000E+00 0.00000000E+00 7.13845022E-10 0.00000000E+00 0.00000000E+00 0.00000000E+00 0.00000000E+00 0.00000000E+00 0.00000000E+00
00057 6.43651721E+09 6.97269624E-01 -8.36367942E-01 -1.72965762E-01 3.63908039E+00 7.02817963E+00 4.96089560E+00 1.60793420E+01 -1.27205633E+00 5.77471833E-01 4.01852548E-01 1.83198916E-04 4.98191946E-03 1.00994054E-02 1.48121501E+03 3.92569364E+07 4.97789006E+10 1.45301057E-01 2.17321675E-04 0.00000000E+00 0.00000000E+00 8.32021497E-10 0.00000000E+00 0.00000000E+00 0.00000000E+00 0.00000000E+00 0.00000000E+00 0.00000000E+00
00058 7.21934249E+09 6.97252925E-01 -8.30024890E-01 -1.71809168E-01 3.64008786E+00 7.03073268E+00 4.97210705E+00 1.60877072E+01 -1.26371379E+00 5.62661177E-01 4.16651158E-01 1.10904681E-04 5.06637581E-03 1.00992894E-02 1.48716171E+03 3.85829967E+07 4.90559677E+10 1.47449690E-01 2.14147028E-04 0.00000000E+00 0.00000000E+00 1.01172770E-09 0.00000000E+00 0.00000000E+00 0.00000000E+00 0.00000000E+00 0.00000000E+00 0.00000000E+00
00059 7.98275579E+09 6.97236452E-01 -8.23819543E-01 -1.70639073E-01 3.64105415E+00 7.03326524E+00 4.98327686E+00 1.60960732E+01 -1.25524783E+00 5.48199774E-01 4.31105147E-01 6.63865607E-05 5.11837379E-03 1.00992238E-02 1.49320168E+03 3.79314978E+07 4.83588806E+10 1.49582366E-01 2.11286277E-04 0.00000000E+00 0.00000000E+00 1.16485779E-09 0.00000000E+00 0.00000000E+00 0.00000000E+00 0.00000000E+00 0.00000000E+00 0.00000000E+00
00060 8.74626100E+09 6.97219782E-01 -8.17505509E-01 -1.69446116E-01 3.64203618E+00 7.03585578E+00 4.99469572E+00 1.61046737E+01 -1.24647830E+00 5.33719145E-01 4.45581341E-01 3.97280475E-05 5.14953463E-03 1.00991566E-02 1.49938478E+03 3.72796850E+07 4.76597568E+10 1.51783140E-01 2.08923715E-04 0.00000000E+00 0.00000000E+00 1.33768949E-09 0.00000000E+00 0.00000000E+00 0.00000000E+00 0.00000000E+00 0.00000000E+00 0.00000000E+00
00061 9.50207429E+09 6.97203075E-01 -8.10768679E-01 -1.68327875E-01 3.64316126E+00 7.03853784E+00 5.00627914E+00 1.61135078E+01 -1.23764709E+00 5.19358749E-01 4.59939251E-01 2.47449250E-05 5.16706163E-03 1.00990989E-02 1.50520503E+03 3.66097151E+07 4.69250328E+10 1.54162954E-01 2.07703046E-04 0.00000000E+00 0.00000000E+00 1.53222715E-09 0.00000000E+00 0.00000000E+00 0.00000000E+00 0.00000000E+00 0.00000000E+00 0.00000000E+00
00062 1.02312145E+10 6.97186761E-01 -8.04243160E-01 -1.67201437E-01 3.64422943E+00 7.04117276E+00 5.01770452E+00 1.61222564E+01 -1.22877802E+00 5.05484234E-01 4.73812479E-01 1.69439731E-05 5.17623328E-03 1.00990154E-02 1.51109024E+03 3.59686442E+07 4.62241468E+10 1.56506584E-01 2.06869994E-04 0.00000000E+00 0.00000000E+00 1.67375273E-09 0.00000000E+00 0.00000000E+00 0.00000000E+00 0.00000000E+00 0.00000000E+00 0.00000000E+00
00063 1.09439656E+10 6.97170621E-01 -7.97837107E-01 -1.66051907E-01 3.64525617E+00 7.04379245E+00 5.02911959E+00 1.61310311E+01 -1.21974830E+00 4.91907204E-01 4.87388880E-01 1.30812085E-05 5.18078294E-03 1.00989574E-02 1.51711926E+03 3.53466596E+07 4.55462680E+10 1.58841880E-01 2.06426048E-04 0.00000000E+00 0.00000000E+00 1.90400795E-09 0.00000000E+00 0.00000000E+00 0.00000000E+00 0.00000000E+00 0.00000000E+00 0.00000000E+00
00064 1.16482324E+10 6.97154480E-01 -7.91480264E-01 -1.64866745E-01 3.64625280E+00 7.04642537E+00 5.04064572E+00 1.61399274E+01 -1.21046100E+00 4.78483158E-01 5.00812635E-01 1.13049780E-05 5.18297459E-03 1.00988333E-02 1.52335980E+03 3.47365164E+07 4.48834156E+10 1.61193633E-01 2.06380055E-04 0.00000000E+00 0.00000000E+00 2.07354545E-09 0.00000000E+00 0.00000000E+00 0.00000000E+00 0.00000000E+00 0.00000000E+00 0.00000000E+00
00065 1.23434790E+10 6.97138352E-01 -7.85178633E-01 -1.63649627E-01 3.64721965E+00 7.04907036E+00 5.05227345E+00 1.61489410E+01 -1.20092321E+00 4.65226074E-01 5.14069615E-01 1.05869241E-05 5.18392304E-03 1.00987064E-02 1.52979484E+03 3.41387345E+07 4.42358341E+10 1.63559158E-01 2.06732607E-04 0.00000000E+00 0.00000000E+00 2.34665644E-09 0.00000000E+00 0.00000000E+00 0.00000000E+00 0.00000000E+00 0.00000000E+00 0.00000000E+00
00066 1.30000000E+10 6.97122939E-01 -7.78934851E-01 -1.62524291E-01 3.64821793E+00 7.05165123E+00 5.06350330E+00 1.61577244E+01 -1.19168296E+00 4.52700399E-01 5.26595275E-01 1.03729706E-05 5.18430012E-03 1.00985582E-02 1.53576936E+03 3.35628705E+07 4.36034484E+10 1.65934161E-01 2.07823973E-04 0.00000000E+00 0.00000000E+00 2.54404021E-09 0.00000000E+00 0.00000000E+00 0.00000000E+00 0.00000000E+00 0.00000000E+00 0.00000000E+00
