9572.873499998024
10613.16362804724
11067.954624821694
11489.994214230514
12003.313526033047
12528.848565202337
13064.423194127176
13884.249840717423
14442.680369610143
15289.368921527694
16147.612167443953
17012.847143984418
18170.128555652544
19607.565749858062
21023.40709402876
22684.01730890925
25160.595166306295
39500.9190247966
30852.519821329526
