00000 0.00000000E+00 4.01700000E-01 -1.64701807E+00 -4.29725032E-01 3.56479749E+00 6.89910893E+00 4.84892096E+00 1.58822321E+01 -9.83099577E-01 6.98490975E-01 2.81392784E-01 3.53969331E-03 1.06579685E-03 1.00996559E-02 8.03949292E+02 1.52169627E+08 1.85437054E+11 2.27386812E-02 6.93841366E-07 0.00000000E+00 0.00000000E+00 0.00000000E+00 0.00000000E+00 0.00000000E+00 0.00000000E+00 0.00000000E+00 0.00000000E+00 0.00000000E+00
00001 5.00000000E+04 4.01700000E-01 -1.64318884E+00 -4.25380374E-01 3.56358247E+00 6.89910691E+00 4.84811684E+00 1.58814051E+01 -9.85159821E-01 6.98490717E-01 2.81393043E-01 3.53969822E-03 1.06579112E-03 1.00996559E-02 8.16104257E+02 1.49332415E+08 1.83809218E+11 2.26903014E-02 6.90850051E-07 0.00000000E+00 0.00000000E+00 0.00000000E+00 0.00000000E+00 0.00000000E+00 0.00000000E+00 0.00000000E+00 0.00000000E+00 0.00000000E+00
00002 1.00000000E+05 4.01700000E-01 -1.64318836E+00 -4.25380251E-01 3.56358253E+00 6.89910680E+00 4.84811673E+00 1.58814048E+01 -9.85159850E-01 6.98490457E-01 2.81393302E-01 3.53969797E-03 1.06579141E-03 1.00996559E-02 8.16104604E+02 1.49332206E+08 1.83809013E+11 2.26903111E-02 6.90848841E-07 0.00000000E+00 0.00000000E+00 0.00000000E+00 0.00000000E+00 0.00000000E+00 0.00000000E+00 0.00000000E+00 0.00000000E+00 0.00000000E+00
00003 1.60000000E+05 4.01699999E-01 -1.64318833E+00 -4.25380269E-01 3.56358255E+00 6.89910687E+00 4.84811692E+00 1.58814049E+01 -9.85159852E-01 6.98490147E-01 2.81393613E-01 3.53969766E-03 1.06579178E-03 1.00996559E-02 8.16104555E+02 1.49332202E+08 1.83809000E+11 2.26903234E-02 6.90851126E-07 0.00000000E+00 0.00000000E+00 0.00000000E+00 0.00000000E+00 0.00000000E+00 0.00000000E+00 0.00000000E+00 0.00000000E+00 0.00000000E+00
00004 2.32000000E+05 4.01699999E-01 -1.64318836E+00 -4.25380289E-01 3.56358255E+00 6.89910696E+00 4.84811714E+00 1.58814051E+01 -9.85159852E-01 6.98489773E-01 2.81393986E-01 3.53969728E-03 1.06579222E-03 1.00996559E-02 8.16104498E+02 1.49332219E+08 1.83809014E+11 2.26903381E-02 6.90853871E-07 0.00000000E+00 0.00000000E+00 0.00000000E+00 0.00000000E+00 0.00000000E+00 0.00000000E+00 0.00000000E+00 0.00000000E+00 0.00000000E+00
00005 3.18400000E+05 4.01699998E-01 -1.64318841E+00 -4.25380313E-01 3.56358255E+00 6.89910706E+00 4.84811741E+00 1.58814053E+01 -9.85159848E-01 6.98489326E-01 2.81394434E-01 3.53969683E-03 1.06579274E-03 1.00996559E-02 8.16104432E+02 1.49332244E+08 1.83809034E+11 2.26903558E-02 6.90857164E-07 0.00000000E+00 0.00000000E+00 0.00000000E+00 0.00000000E+00 0.00000000E+00 0.00000000E+00 0.00000000E+00 0.00000000E+00 0.00000000E+00
00006 4.22080000E+05 4.01699998E-01 -1.64318846E+00 -4.25380341E-01 3.56358255E+00 6.89910719E+00 4.84811773E+00 1.58814056E+01 -9.85159842E-01 6.98488788E-01 2.81394971E-01 3.53969629E-03 1.06579337E-03 1.00996559E-02 8.16104355E+02 1.49332268E+08 1.83809053E+11 2.26903769E-02 6.90861107E-07 0.00000000E+00 0.00000000E+00 0.00000000E+00 0.00000000E+00 0.00000000E+00 0.00000000E+00 0.00000000E+00 0.00000000E+00 0.00000000E+00
00007 5.46496000E+05 4.01699997E-01 -1.64318851E+00 -4.25380373E-01 3.56358256E+00 6.89910733E+00 4.84811812E+00 1.58814059E+01 -9.85159831E-01 6.98488144E-01 2.81395616E-01 3.53969565E-03 1.06579413E-03 1.00996559E-02 8.16104265E+02 1.49332297E+08 1.83809075E+11 2.26904021E-02 6.90865825E-07 0.00000000E+00 0.00000000E+00 0.00000000E+00 0.00000000E+00 0.00000000E+00 0.00000000E+00 0.00000000E+00 0.00000000E+00 0.00000000E+00
00008 6.95795200E+05 4.01699996E-01 -1.64318857E+00 -4.25380411E-01 3.56358256E+00 6.89910751E+00 4.84811859E+00 1.58814063E+01 -9.85159813E-01 6.98487370E-01 2.81396389E-01 3.53969487E-03 1.06579503E-03 1.00996559E-02 8.16104159E+02 1.49332330E+08 1.83809100E+11 2.26904322E-02 6.90871463E-07 0.00000000E+00 0.00000000E+00 0.00000000E+00 0.00000000E+00 0.00000000E+00 0.00000000E+00 0.00000000E+00 0.00000000E+00 0.00000000E+00
00009 8.74954240E+05 4.01699995E-01 -1.64318864E+00 -4.25380455E-01 3.56358256E+00 6.89910772E+00 4.84811915E+00 1.58814068E+01 -9.85159785E-01 6.98486441E-01 2.81397318E-01 3.53969394E-03 1.06579612E-03 1.00996559E-02 8.16104034E+02 1.49332369E+08 1.83809129E+11 2.26904682E-02 6.90878194E-07 0.00000000E+00 0.00000000E+00 0.00000000E+00 0.00000000E+00 0.00000000E+00 0.00000000E+00 0.00000000E+00 0.00000000E+00 0.00000000E+00
00010 1.08994509E+06 4.01699994E-01 -1.64318872E+00 -4.25380507E-01 3.56358257E+00 6.89910797E+00 4.84811982E+00 1.58814073E+01 -9.85159743E-01 6.98485327E-01 2.81398432E-01 3.53969282E-03 1.06579742E-03 1.00996559E-02 8.16103888E+02 1.49332415E+08 1.83809164E+11 2.26905109E-02 6.90886220E-07 0.00000000E+00 0.00000000E+00 0.00000000E+00 0.00000000E+00 0.00000000E+00 0.00000000E+00 0.00000000E+00 0.00000000E+00 0.00000000E+00
00011 1.34793411E+06 4.01699992E-01 -1.64318882E+00 -4.25380569E-01 3.56358258E+00 6.89910826E+00 4.84812063E+00 1.58814080E+01 -9.85159681E-01 6.98483990E-01 2.81399768E-01 3.53969148E-03 1.06579899E-03 1.00996559E-02 8.16103718E+02 1.49332468E+08 1.83809204E+11 2.26905618E-02 6.90895778E-07 0.00000000E+00 0.00000000E+00 0.00000000E+00 0.00000000E+00 0.00000000E+00 0.00000000E+00 0.00000000E+00 0.00000000E+00 0.00000000E+00
00012 1.65752093E+06 4.01699990E-01 -1.64318893E+00 -4.25380644E-01 3.56358259E+00 6.89910860E+00 4.84812158E+00 1.58814087E+01 -9.85159588E-01 6.98482386E-01 2.81401372E-01 3.53968986E-03 1.06580087E-03 1.00996559E-02 8.16103506E+02 1.49332530E+08 1.83809249E+11 2.26906175E-02 6.90906649E-07 0.00000000E+00 0.00000000E+00 0.00000000E+00 0.00000000E+00 0.00000000E+00 0.00000000E+00 0.00000000E+00 0.00000000E+00 0.00000000E+00
00013 2.02902511E+06 4.01699988E-01 -1.64318906E+00 -4.25380729E-01 3.56358260E+00 6.89910901E+00 4.84812273E+00 1.58814097E+01 -9.85159455E-01 6.98480461E-01 2.81403297E-01 3.53968793E-03 1.06580313E-03 1.00996559E-02 8.16103270E+02 1.49332603E+08 1.83809305E+11 2.26906872E-02 6.90919949E-07 0.00000000E+00 0.00000000E+00 0.00000000E+00 0.00000000E+00 0.00000000E+00 0.00000000E+00 0.00000000E+00 0.00000000E+00 0.00000000E+00
00014 2.47483013E+06 4.01699985E-01 -1.64318921E+00 -4.25380827E-01 3.56358261E+00 6.89910950E+00 4.84812412E+00 1.58814108E+01 -9.85159265E-01 6.98478151E-01 2.81405607E-01 3.53968561E-03 1.06580584E-03 1.00996559E-02 8.16102997E+02 1.49332685E+08 1.83809365E+11 2.26907698E-02 6.90935747E-07 0.00000000E+00 0.00000000E+00 0.00000000E+00 0.00000000E+00 0.00000000E+00 0.00000000E+00 0.00000000E+00 0.00000000E+00 0.00000000E+00
00015 3.00979616E+06 4.01699982E-01 -1.64318937E+00 -4.25380939E-01 3.56358262E+00 6.89911007E+00 4.84812578E+00 1.58814121E+01 -9.85158998E-01 6.98475378E-01 2.81408379E-01 3.53968283E-03 1.06580908E-03 1.00996559E-02 8.16102685E+02 1.49332777E+08 1.83809433E+11 2.26908670E-02 6.90954426E-07 0.00000000E+00 0.00000000E+00 0.00000000E+00 0.00000000E+00 0.00000000E+00 0.00000000E+00 0.00000000E+00 0.00000000E+00 0.00000000E+00
00016 3.65175539E+06 4.01699978E-01 -1.64318955E+00 -4.25381066E-01 3.56358264E+00 6.89911074E+00 4.84812778E+00 1.58814137E+01 -9.85158626E-01 6.98472051E-01 2.81411705E-01 3.53967948E-03 1.06581299E-03 1.00996559E-02 8.16102331E+02 1.49332881E+08 1.83809509E+11 2.26909809E-02 6.90976438E-07 0.00000000E+00 0.00000000E+00 0.00000000E+00 0.00000000E+00 0.00000000E+00 0.00000000E+00 0.00000000E+00 0.00000000E+00 0.00000000E+00
00017 4.42210647E+06 4.01699973E-01 -1.64318975E+00 -4.25381208E-01 3.56358266E+00 6.89911153E+00 4.84813017E+00 1.58814155E+01 -9.85158112E-01 6.98468059E-01 2.81415697E-01 3.53967547E-03 1.06581767E-03 1.00996559E-02 8.16101933E+02 1.49332994E+08 1.83809590E+11 2.26911138E-02 6.91002300E-07 0.00000000E+00 0.00000000E+00 0.00000000E+00 0.00000000E+00 0.00000000E+00 0.00000000E+00 0.00000000E+00 0.00000000E+00 0.00000000E+00
00018 5.34652777E+06 4.01699967E-01 -1.64318996E+00 -4.25381366E-01 3.56358269E+00 6.89911245E+00 4.84813303E+00 1.58814177E+01 -9.85157408E-01 6.98463269E-01 2.81420487E-01 3.53967066E-03 1.06582327E-03 1.00996559E-02 8.16101496E+02 1.49333116E+08 1.83809676E+11 2.26912679E-02 6.91032577E-07 0.00000000E+00 0.00000000E+00 0.00000000E+00 0.00000000E+00 0.00000000E+00 0.00000000E+00 0.00000000E+00 0.00000000E+00 0.00000000E+00
00019 6.45583332E+06 4.01699961E-01 -1.64319017E+00 -4.25381536E-01 3.56358272E+00 6.89911351E+00 4.84813645E+00 1.58814203E+01 -9.85156453E-01 6.98457520E-01 2.81426235E-01 3.53966489E-03 1.06583001E-03 1.00996559E-02 8.16101024E+02 1.49333243E+08 1.83809763E+11 2.26914454E-02 6.91067883E-07 0.00000000E+00 0.00000000E+00 0.00000000E+00 0.00000000E+00 0.00000000E+00 0.00000000E+00 0.00000000E+00 0.00000000E+00 0.00000000E+00
00020 7.78699998E+06 4.01699952E-01 -1.64319034E+00 -4.25381713E-01 3.56358277E+00 6.89911475E+00 4.84814055E+00 1.58814234E+01 -9.85155167E-01 6.98450621E-01 2.81433132E-01 3.53965796E-03 1.06583811E-03 1.00996558E-02 8.16100532E+02 1.49333356E+08 1.83809831E+11 2.26916485E-02 6.91108875E-07 0.00000000E+00 0.00000000E+00 0.00000000E+00 0.00000000E+00 0.00000000E+00 0.00000000E+00 0.00000000E+00 0.00000000E+00 0.00000000E+00
00021 9.38439998E+06 4.01699943E-01 -1.64319050E+00 -4.25381891E-01 3.56358282E+00 6.89911617E+00 4.84814545E+00 1.58814270E+01 -9.85153445E-01 6.98442343E-01 2.81441409E-01 3.53964964E-03 1.06584782E-03 1.00996558E-02 8.16100041E+02 1.49333464E+08 1.83809893E+11 2.26918788E-02 6.91156243E-07 0.00000000E+00 0.00000000E+00 0.00000000E+00 0.00000000E+00 0.00000000E+00 0.00000000E+00 0.00000000E+00 0.00000000E+00 0.00000000E+00
00022 1.13012800E+07 4.01699931E-01 -1.64319057E+00 -4.25382055E-01 3.56358288E+00 6.89911780E+00 4.84815131E+00 1.58814312E+01 -9.85151155E-01 6.98432409E-01 2.81451341E-01 3.53963966E-03 1.06585945E-03 1.00996558E-02 8.16099589E+02 1.49333534E+08 1.83809915E+11 2.26921376E-02 6.91210706E-07 0.00000000E+00 0.00000000E+00 0.00000000E+00 0.00000000E+00 0.00000000E+00 0.00000000E+00 0.00000000E+00 0.00000000E+00 0.00000000E+00
00023 1.36015360E+07 4.01699917E-01 -1.64319053E+00 -4.25382189E-01 3.56358296E+00 6.89911967E+00 4.84815830E+00 1.58814361E+01 -9.85148125E-01 6.98420488E-01 2.81463260E-01 3.53962768E-03 1.06587345E-03 1.00996558E-02 8.16099228E+02 1.49333555E+08 1.83809892E+11 2.26924246E-02 6.91272946E-07 0.00000000E+00 0.00000000E+00 0.00000000E+00 0.00000000E+00 0.00000000E+00 0.00000000E+00 0.00000000E+00 0.00000000E+00 0.00000000E+00
00024 1.63618432E+07 4.01699900E-01 -1.64319029E+00 -4.25382265E-01 3.56358306E+00 6.89912179E+00 4.84816665E+00 1.58814419E+01 -9.85144136E-01 6.98406183E-01 2.81477563E-01 3.53961331E-03 1.06589021E-03 1.00996558E-02 8.16099030E+02 1.49333489E+08 1.83809786E+11 2.26927396E-02 6.91343742E-07 0.00000000E+00 0.00000000E+00 0.00000000E+00 0.00000000E+00 0.00000000E+00 0.00000000E+00 0.00000000E+00 0.00000000E+00 0.00000000E+00
00025 1.96742118E+07 4.01699879E-01 -1.64318981E+00 -4.25382250E-01 3.56358317E+00 6.89912419E+00 4.84817663E+00 1.58814486E+01 -9.85138908E-01 6.98389016E-01 2.81494726E-01 3.53959605E-03 1.06591046E-03 1.00996557E-02 8.16099092E+02 1.49333304E+08 1.83809573E+11 2.26930802E-02 6.91423795E-07 0.00000000E+00 0.00000000E+00 0.00000000E+00 0.00000000E+00 0.00000000E+00 0.00000000E+00 0.00000000E+00 0.00000000E+00 0.00000000E+00
00026 2.36490542E+07 4.01699855E-01 -1.64318887E+00 -4.25382098E-01 3.56358333E+00 6.89912690E+00 4.84818856E+00 1.58814564E+01 -9.85132088E-01 6.98368417E-01 2.81515323E-01 3.53957535E-03 1.06593465E-03 1.00996556E-02 8.16099546E+02 1.49332911E+08 1.83809165E+11 2.26934442E-02 6.91513979E-07 0.00000000E+00 0.00000000E+00 0.00000000E+00 0.00000000E+00 0.00000000E+00 0.00000000E+00 0.00000000E+00 0.00000000E+00 0.00000000E+00
00027 2.84188650E+07 4.01699825E-01 -1.64318717E+00 -4.25381757E-01 3.56358358E+00 6.89912996E+00 4.84820284E+00 1.58814656E+01 -9.85123237E-01 6.98343698E-01 2.81540038E-01 3.53955050E-03 1.06596370E-03 1.00996556E-02 8.16100537E+02 1.49332185E+08 1.83808430E+11 2.26938291E-02 6.91615362E-07 0.00000000E+00 0.00000000E+00 0.00000000E+00 0.00000000E+00 0.00000000E+00 0.00000000E+00 0.00000000E+00 0.00000000E+00 0.00000000E+00
00028 3.41426380E+07 4.01699790E-01 -1.64318500E+00 -4.25381162E-01 3.56358383E+00 6.89913340E+00 4.84821994E+00 1.58814764E+01 -9.85111810E-01 6.98314034E-01 2.81569696E-01 3.53952067E-03 1.06599859E-03 1.00996555E-02 8.16102249E+02 1.49331210E+08 1.83807497E+11 2.26942307E-02 6.91729078E-07 0.00000000E+00 0.00000000E+00 0.00000000E+00 0.00000000E+00 0.00000000E+00 0.00000000E+00 0.00000000E+00 0.00000000E+00 0.00000000E+00
00029 4.10111656E+07 4.01699748E-01 -1.64318200E+00 -4.25380238E-01 3.56358411E+00 6.89913727E+00 4.84824046E+00 1.58814891E+01 -9.85097154E-01 6.98278439E-01 2.81605285E-01 3.53948487E-03 1.06604038E-03 1.00996555E-02 8.16104899E+02 1.49329829E+08 1.83806208E+11 2.26946468E-02 6.91856810E-07 0.00000000E+00 0.00000000E+00 0.00000000E+00 0.00000000E+00 0.00000000E+00 0.00000000E+00 0.00000000E+00 0.00000000E+00 0.00000000E+00
00030 4.92533987E+07 4.01699697E-01 -1.64317763E+00 -4.25378912E-01 3.56358454E+00 6.89914168E+00 4.84826512E+00 1.58815042E+01 -9.85078512E-01 6.98235725E-01 2.81647992E-01 3.53944191E-03 1.06609055E-03 1.00996555E-02 8.16108687E+02 1.49327832E+08 1.83804334E+11 2.26950817E-02 6.92001363E-07 0.00000000E+00 0.00000000E+00 0.00000000E+00 0.00000000E+00 0.00000000E+00 0.00000000E+00 0.00000000E+00 0.00000000E+00 0.00000000E+00
00031 5.91440784E+07 4.01699636E-01 -1.64317199E+00 -4.25377112E-01 3.56358506E+00 6.89914673E+00 4.84829480E+00 1.58815221E+01 -9.85055019E-01 6.98184469E-01 2.81699239E-01 3.53939034E-03 1.06615013E-03 1.00996558E-02 8.16113823E+02 1.49325227E+08 1.83801917E+11 2.26955425E-02 6.92166378E-07 0.00000000E+00 0.00000000E+00 0.00000000E+00 0.00000000E+00 0.00000000E+00 0.00000000E+00 0.00000000E+00 0.00000000E+00 0.00000000E+00
00032 7.10128941E+07 4.01699563E-01 -1.64316486E+00 -4.25374747E-01 3.56358566E+00 6.89915256E+00 4.84833051E+00 1.58815435E+01 -9.85025691E-01 6.98122964E-01 2.81760734E-01 3.53932843E-03 1.06622235E-03 1.00996559E-02 8.16120564E+02 1.49321909E+08 1.83798868E+11 2.26960386E-02 6.92356469E-07 0.00000000E+00 0.00000000E+00 0.00000000E+00 0.00000000E+00 0.00000000E+00 0.00000000E+00 0.00000000E+00 0.00000000E+00 0.00000000E+00
00033 8.52554730E+07 4.01699476E-01 -1.64315610E+00 -4.25371749E-01 3.56358635E+00 6.89915938E+00 4.84837351E+00 1.58815691E+01 -9.84989447E-01 6.98049160E-01 2.81834526E-01 3.53925412E-03 1.06630827E-03 1.00996567E-02 8.16129102E+02 1.49317801E+08 1.83795119E+11 2.26965919E-02 6.92578376E-07 0.00000000E+00 0.00000000E+00 0.00000000E+00 0.00000000E+00 0.00000000E+00 0.00000000E+00 0.00000000E+00 0.00000000E+00 0.00000000E+00
00034 1.02346568E+08 4.01699370E-01 -1.64314462E+00 -4.25368012E-01 3.56358735E+00 6.89916743E+00 4.84842525E+00 1.58815998E+01 -9.84945045E-01 6.97960598E-01 2.81923073E-01 3.53916491E-03 1.06641233E-03 1.00996567E-02 8.16139743E+02 1.49312491E+08 1.83790213E+11 2.26972220E-02 6.92839741E-07 0.00000000E+00 0.00000000E+00 0.00000000E+00 0.00000000E+00 0.00000000E+00 0.00000000E+00 0.00000000E+00 0.00000000E+00 0.00000000E+00
00035 1.22855881E+08 4.01699244E-01 -1.64313089E+00 -4.25363449E-01 3.56358850E+00 6.89917701E+00 4.84848749E+00 1.58816368E+01 -9.84891067E-01 6.97854328E-01 2.82029325E-01 3.53905782E-03 1.06653732E-03 1.00996566E-02 8.16152736E+02 1.49306109E+08 1.83784347E+11 2.26979608E-02 6.93150602E-07 0.00000000E+00 0.00000000E+00 0.00000000E+00 0.00000000E+00 0.00000000E+00 0.00000000E+00 0.00000000E+00 0.00000000E+00 0.00000000E+00
00036 1.47467057E+08 4.01699093E-01 -1.64311437E+00 -4.25357919E-01 3.56358986E+00 6.89918846E+00 4.84856230E+00 1.58816813E+01 -9.84825803E-01 6.97726812E-01 2.82156820E-01 3.53892923E-03 1.06668736E-03 1.00996566E-02 8.16168477E+02 1.49298414E+08 1.83777284E+11 2.26988371E-02 6.93521987E-07 0.00000000E+00 0.00000000E+00 0.00000000E+00 0.00000000E+00 0.00000000E+00 0.00000000E+00 0.00000000E+00 0.00000000E+00 0.00000000E+00
00037 1.77000469E+08 4.01698911E-01 -1.64309456E+00 -4.25351250E-01 3.56359148E+00 6.89920216E+00 4.84865215E+00 1.58817347E+01 -9.84747163E-01 6.97573803E-01 2.82309803E-01 3.53877482E-03 1.06686745E-03 1.00996567E-02 8.16187463E+02 1.49289176E+08 1.83768818E+11 2.26998823E-02 6.93966812E-07 0.00000000E+00 0.00000000E+00 0.00000000E+00 0.00000000E+00 0.00000000E+00 0.00000000E+00 0.00000000E+00 0.00000000E+00 0.00000000E+00
00038 2.12440562E+08 4.01698693E-01 -1.64307067E+00 -4.25343239E-01 3.56359345E+00 6.89921861E+00 4.84876003E+00 1.58817988E+01 -9.84652617E-01 6.97390207E-01 2.82493368E-01 3.53858938E-03 1.06708382E-03 1.00996566E-02 8.16210266E+02 1.49278051E+08 1.83758612E+11 2.27011372E-02 6.94500830E-07 0.00000000E+00 0.00000000E+00 0.00000000E+00 0.00000000E+00 0.00000000E+00 0.00000000E+00 0.00000000E+00 0.00000000E+00 0.00000000E+00
00039 2.54968675E+08 4.01698431E-01 -1.64304198E+00 -4.25333626E-01 3.56359581E+00 6.89923834E+00 4.84888953E+00 1.58818758E+01 -9.84539062E-01 6.97169913E-01 2.82713625E-01 3.53836664E-03 1.06734362E-03 1.00996567E-02 8.16237633E+02 1.49264691E+08 1.83746353E+11 2.27026444E-02 6.95142301E-07 0.00000000E+00 0.00000000E+00 0.00000000E+00 0.00000000E+00 0.00000000E+00 0.00000000E+00 0.00000000E+00 0.00000000E+00 0.00000000E+00
00040 3.06002410E+08 4.01698117E-01 -1.64300757E+00 -4.25322090E-01 3.56359865E+00 6.89926202E+00 4.84904497E+00 1.58819682E+01 -9.84402717E-01 6.96905590E-01 2.82977903E-01 3.53809904E-03 1.06765605E-03 1.00996565E-02 8.16270476E+02 1.49248665E+08 1.83731650E+11 2.27044538E-02 6.95912933E-07 0.00000000E+00 0.00000000E+00 0.00000000E+00 0.00000000E+00 0.00000000E+00 0.00000000E+00 0.00000000E+00 0.00000000E+00 0.00000000E+00
00041 3.67242892E+08 4.01697740E-01 -1.64296633E+00 -4.25308240E-01 3.56360203E+00 6.89929044E+00 4.84923154E+00 1.58820792E+01 -9.84239004E-01 6.96588447E-01 2.83294992E-01 3.53777748E-03 1.06803097E-03 1.00996567E-02 8.16309906E+02 1.49229456E+08 1.83714034E+11 2.27066232E-02 6.96838674E-07 0.00000000E+00 0.00000000E+00 0.00000000E+00 0.00000000E+00 0.00000000E+00 0.00000000E+00 0.00000000E+00 0.00000000E+00 0.00000000E+00
00042 4.40731470E+08 4.01697287E-01 -1.64291679E+00 -4.25291623E-01 3.56360611E+00 6.89932455E+00 4.84945548E+00 1.58822124E+01 -9.84042441E-01 6.96207940E-01 2.83675436E-01 3.53739097E-03 1.06848180E-03 1.00996568E-02 8.16357217E+02 1.49206390E+08 1.83692872E+11 2.27092283E-02 6.97951479E-07 0.00000000E+00 0.00000000E+00 0.00000000E+00 0.00000000E+00 0.00000000E+00 0.00000000E+00 0.00000000E+00 0.00000000E+00 0.00000000E+00
00043 5.28917764E+08 4.01696745E-01 -1.64285723E+00 -4.25271706E-01 3.56361104E+00 6.89936552E+00 4.84972432E+00 1.58823723E+01 -9.83806413E-01 6.95751422E-01 2.84131876E-01 3.53692623E-03 1.06902737E-03 1.00996534E-02 8.16413930E+02 1.49178681E+08 1.83667430E+11 2.27123593E-02 6.99289784E-07 0.00000000E+00 0.00000000E+00 0.00000000E+00 0.00000000E+00 0.00000000E+00 0.00000000E+00 0.00000000E+00 0.00000000E+00 0.00000000E+00
00044 6.34741317E+08 4.01696093E-01 -1.64278597E+00 -4.25247774E-01 3.56361689E+00 6.89941467E+00 4.85004704E+00 1.58825644E+01 -9.83522862E-01 6.95203732E-01 2.84679473E-01 3.53636721E-03 1.06967825E-03 1.00996545E-02 8.16482077E+02 1.49145504E+08 1.83637000E+11 2.27161065E-02 7.00898427E-07 0.00000000E+00 0.00000000E+00 0.00000000E+00 0.00000000E+00 0.00000000E+00 0.00000000E+00 0.00000000E+00 0.00000000E+00 0.00000000E+00
00045 7.61729581E+08 4.01695311E-01 -1.64270040E+00 -4.25219075E-01 3.56362393E+00 6.89947368E+00 4.85043448E+00 1.58827950E+01 -9.83182307E-01 6.94546694E-01 2.85336399E-01 3.53569447E-03 1.07046306E-03 1.00996545E-02 8.16563807E+02 1.49105687E+08 1.83600464E+11 2.27206109E-02 7.02834852E-07 0.00000000E+00 0.00000000E+00 0.00000000E+00 0.00000000E+00 0.00000000E+00 0.00000000E+00 0.00000000E+00 0.00000000E+00 0.00000000E+00
00046 9.14115497E+08 4.01694373E-01 -1.64259758E+00 -4.25184628E-01 3.56363242E+00 6.89954455E+00 4.85089965E+00 1.58830720E+01 -9.82773220E-01 6.93758523E-01 2.86124435E-01 3.53488439E-03 1.07140817E-03 1.00996545E-02 8.16661920E+02 1.49057870E+08 1.83556573E+11 2.27260229E-02 7.05166988E-07 0.00000000E+00 0.00000000E+00 0.00000000E+00 0.00000000E+00 0.00000000E+00 0.00000000E+00 0.00000000E+00 0.00000000E+00 0.00000000E+00
00047 1.09697860E+09 4.01693246E-01 -1.64247377E+00 -4.25143170E-01 3.56364264E+00 6.89962973E+00 4.85145823E+00 1.58834048E+01 -9.82281955E-01 6.92813112E-01 2.87069684E-01 3.53390827E-03 1.07254689E-03 1.00996546E-02 8.16780011E+02 1.49000323E+08 1.83503738E+11 2.27325445E-02 7.07981054E-07 0.00000000E+00 0.00000000E+00 0.00000000E+00 0.00000000E+00 0.00000000E+00 0.00000000E+00 0.00000000E+00 0.00000000E+00 0.00000000E+00
00048 1.31641432E+09 4.01691895E-01 -1.64232565E+00 -4.25093254E-01 3.56365471E+00 6.89973195E+00 4.85212897E+00 1.58838045E+01 -9.81691380E-01 6.91679188E-01 2.88203411E-01 3.53273111E-03 1.07392022E-03 1.00996546E-02 8.16922214E+02 1.48931392E+08 1.83440544E+11 2.27403540E-02 7.11371902E-07 0.00000000E+00 0.00000000E+00 0.00000000E+00 0.00000000E+00 0.00000000E+00 0.00000000E+00 0.00000000E+00 0.00000000E+00 0.00000000E+00
00049 1.57973718E+09 4.01690272E-01 -1.64214245E+00 -4.25031748E-01 3.56366976E+00 6.89985632E+00 4.85293679E+00 1.58842887E+01 -9.80981843E-01 6.90319269E-01 2.89563093E-01 3.53130995E-03 1.07557820E-03 1.00996550E-02 8.17097424E+02 1.48846299E+08 1.83362441E+11 2.27499776E-02 7.15517180E-07 0.00000000E+00 0.00000000E+00 0.00000000E+00 0.00000000E+00 0.00000000E+00 0.00000000E+00 0.00000000E+00 0.00000000E+00 0.00000000E+00
00050 1.89572461E+09 4.01688325E-01 -1.64192066E+00 -4.24957305E-01 3.56368799E+00 6.90000616E+00 4.85390751E+00 1.58848714E+01 -9.80129411E-01 6.88688499E-01 2.91193577E-01 3.52959212E-03 1.07758139E-03 1.00996559E-02 8.17309523E+02 1.48743360E+08 1.83267931E+11 2.27616650E-02 7.20543633E-07 0.00000000E+00 0.00000000E+00 0.00000000E+00 0.00000000E+00 0.00000000E+00 0.00000000E+00 0.00000000E+00 0.00000000E+00 0.00000000E+00
00051 2.27490954E+09 4.01685987E-01 -1.64165484E+00 -4.24868118E-01 3.56370985E+00 6.90018641E+00 4.85507481E+00 1.58855732E+01 -9.79102122E-01 6.86733205E-01 2.93148528E-01 3.52751262E-03 1.07999324E-03 1.00996654E-02 8.17563704E+02 1.48620092E+08 1.83154727E+11 2.27756700E-02 7.26634311E-07 0.00000000E+00 0.00000000E+00 0.00000000E+00 0.00000000E+00 0.00000000E+00 0.00000000E+00 0.00000000E+00 0.00000000E+00 0.00000000E+00
00052 2.72993145E+09 4.01683181E-01 -1.64133621E+00 -4.24761101E-01 3.56373599E+00 6.90040290E+00 4.85647788E+00 1.58864174E+01 -9.77864507E-01 6.84389213E-01 2.95492099E-01 3.52499090E-03 1.08294095E-03 1.00996606E-02 8.17868808E+02 1.48472431E+08 1.83019125E+11 2.27924782E-02 7.34015308E-07 0.00000000E+00 0.00000000E+00 0.00000000E+00 0.00000000E+00 0.00000000E+00 0.00000000E+00 0.00000000E+00 0.00000000E+00 0.00000000E+00
00053 3.27595773E+09 4.01679813E-01 -1.64095408E+00 -4.24632728E-01 3.56376734E+00 6.90066301E+00 4.85816479E+00 1.58874333E+01 -9.76372739E-01 6.81579855E-01 2.98300948E-01 3.52192651E-03 1.08651151E-03 1.00996634E-02 8.18234949E+02 1.48295519E+08 1.82856625E+11 2.28126543E-02 7.42982253E-07 0.00000000E+00 0.00000000E+00 0.00000000E+00 0.00000000E+00 0.00000000E+00 0.00000000E+00 0.00000000E+00 0.00000000E+00 0.00000000E+00
00054 3.93118928E+09 4.01675769E-01 -1.64049550E+00 -4.24478673E-01 3.56380496E+00 6.90097554E+00 4.86019367E+00 1.58886564E+01 -9.74572920E-01 6.78213628E-01 3.01666554E-01 3.51819332E-03 1.09086833E-03 1.00996602E-02 8.18674560E+02 1.48083492E+08 1.82661806E+11 2.28368908E-02 7.53899355E-07 0.00000000E+00 0.00000000E+00 0.00000000E+00 0.00000000E+00 0.00000000E+00 0.00000000E+00 0.00000000E+00 0.00000000E+00 0.00000000E+00
00055 4.71746714E+09 4.01670913E-01 -1.63994308E+00 -4.24292439E-01 3.56384995E+00 6.90135146E+00 4.86263448E+00 1.58901298E+01 -9.72401393E-01 6.74181454E-01 3.05697967E-01 3.51363161E-03 1.09619740E-03 1.00996540E-02 8.19206275E+02 1.47828271E+08 1.82427404E+11 2.28661420E-02 7.67237671E-07 0.00000000E+00 0.00000000E+00 0.00000000E+00 0.00000000E+00 0.00000000E+00 0.00000000E+00 0.00000000E+00 0.00000000E+00 0.00000000E+00
00056 5.66100056E+09 4.01665082E-01 -1.63928138E+00 -4.24069187E-01 3.56390375E+00 6.90180388E+00 4.86557423E+00 1.58919082E+01 -9.69773881E-01 6.69353511E-01 3.10524980E-01 3.50803730E-03 1.10272279E-03 1.00996546E-02 8.19844149E+02 1.47523066E+08 1.82147020E+11 2.29012016E-02 7.83590984E-07 0.00000000E+00 0.00000000E+00 0.00000000E+00 0.00000000E+00 0.00000000E+00 0.00000000E+00 0.00000000E+00 0.00000000E+00 0.00000000E+00
00057 6.79324068E+09 4.01658078E-01 -1.63846644E+00 -4.23794509E-01 3.56397014E+00 6.90235450E+00 4.86912405E+00 1.58940694E+01 -9.66595127E-01 6.63575156E-01 3.16302185E-01 3.50114473E-03 1.11076132E-03 1.00996573E-02 8.20629460E+02 1.47148272E+08 1.81802376E+11 2.29444332E-02 8.03948556E-07 0.00000000E+00 0.00000000E+00 0.00000000E+00 0.00000000E+00 0.00000000E+00 0.00000000E+00 0.00000000E+00 0.00000000E+00 0.00000000E+00
00058 8.15192881E+09 4.01649665E-01 -1.63747846E+00 -4.23461217E-01 3.56405049E+00 6.90302122E+00 4.87341031E+00 1.58966915E+01 -9.62737483E-01 6.56663222E-01 3.23212696E-01 3.49260653E-03 1.12072370E-03 1.00996565E-02 8.21583277E+02 1.46695132E+08 1.81385464E+11 2.29969590E-02 8.29278576E-07 0.00000000E+00 0.00000000E+00 0.00000000E+00 0.00000000E+00 0.00000000E+00 0.00000000E+00 0.00000000E+00 0.00000000E+00 0.00000000E+00
00059 9.78235458E+09 4.01639556E-01 -1.63628930E+00 -4.23058504E-01 3.56414642E+00 6.90382518E+00 4.87858339E+00 1.58998662E+01 -9.58048992E-01 6.48401790E-01 3.31472354E-01 3.48196313E-03 1.13314198E-03 1.00996559E-02 8.22737184E+02 1.46151060E+08 1.80884933E+11 2.30603759E-02 8.60851231E-07 0.00000000E+00 0.00000000E+00 0.00000000E+00 0.00000000E+00 0.00000000E+00 0.00000000E+00 0.00000000E+00 0.00000000E+00 0.00000000E+00
00060 1.17388655E+10 4.01627407E-01 -1.63483694E+00 -4.22566470E-01 3.56426350E+00 6.90480319E+00 4.88484570E+00 1.59037365E+01 -9.52335570E-01 6.38535726E-01 3.41336188E-01 3.46858900E-03 1.14873827E-03 1.00996636E-02 8.24149017E+02 1.45489383E+08 1.80275577E+11 2.31380207E-02 9.00808715E-07 0.00000000E+00 0.00000000E+00 0.00000000E+00 0.00000000E+00 0.00000000E+00 0.00000000E+00 0.00000000E+00 0.00000000E+00 0.00000000E+00
00061 1.30000000E+10 4.01619567E-01 -1.63388284E+00 -4.22241819E-01 3.56433970E+00 6.90544304E+00 4.88892019E+00 1.59062715E+01 -9.48598651E-01 6.32195155E-01 3.47675278E-01 3.45970131E-03 1.15910619E-03 1.00996640E-02 8.25081710E+02 1.45055965E+08 1.79876452E+11 2.31889740E-02 9.27905103E-07 0.00000000E+00 0.00000000E+00 0.00000000E+00 0.00000000E+00 0.00000000E+00 0.00000000E+00 0.00000000E+00 0.00000000E+00 0.00000000E+00
