00000 0.00000000E+00 2.11000000E-01 -2.18049970E+00 -6.22314400E-01 3.52772177E+00 6.80521784E+00 5.10645873E+00 1.60624001E+01 1.08109219E-01 6.98490994E-01 2.81392784E-01 3.53980864E-03 1.06566230E-03 1.00996559E-02 5.70366872E+02 2.23439639E+08 3.32704572E+11 6.57602440E-03 4.82448145E-09 0.00000000E+00 0.00000000E+00 0.00000000E+00 0.00000000E+00 0.00000000E+00 0.00000000E+00 0.00000000E+00 0.00000000E+00 0.00000000E+00
00001 5.00000000E+04 2.11000000E-01 -2.19471216E+00 -6.21153785E-01 3.52358835E+00 6.80364072E+00 5.10160073E+00 1.60557790E+01 1.00748029E-01 6.98490847E-01 2.81392931E-01 3.53980863E-03 1.06566230E-03 1.00996559E-02 5.72657846E+02 2.30256590E+08 3.43772579E+11 6.36789305E-03 4.36571089E-09 0.00000000E+00 0.00000000E+00 0.00000000E+00 0.00000000E+00 0.00000000E+00 0.00000000E+00 0.00000000E+00 0.00000000E+00 0.00000000E+00
00002 1.00000000E+05 2.11000000E-01 -2.19471276E+00 -6.21153854E-01 3.52358823E+00 6.80364083E+00 5.10160096E+00 1.60557793E+01 1.00748143E-01 6.98490704E-01 2.81393074E-01 3.53980863E-03 1.06566231E-03 1.00996559E-02 5.72657709E+02 2.30256941E+08 3.43773049E+11 6.36789488E-03 4.36572715E-09 0.00000000E+00 0.00000000E+00 0.00000000E+00 0.00000000E+00 0.00000000E+00 0.00000000E+00 0.00000000E+00 0.00000000E+00 0.00000000E+00
00003 1.60000000E+05 2.11000000E-01 -2.19471269E+00 -6.21153862E-01 3.52358826E+00 6.80364086E+00 5.10160106E+00 1.60557794E+01 1.00748174E-01 6.98490538E-01 2.81393241E-01 3.53980863E-03 1.06566231E-03 1.00996559E-02 5.72657694E+02 2.30256907E+08 3.43772993E+11 6.36789679E-03 4.36573505E-09 0.00000000E+00 0.00000000E+00 0.00000000E+00 0.00000000E+00 0.00000000E+00 0.00000000E+00 0.00000000E+00 0.00000000E+00 0.00000000E+00
00004 2.32000000E+05 2.10999999E-01 -2.19471271E+00 -6.21153872E-01 3.52358826E+00 6.80364091E+00 5.10160119E+00 1.60557795E+01 1.00748209E-01 6.98490344E-01 2.81393435E-01 3.53980862E-03 1.06566232E-03 1.00996559E-02 5.72657676E+02 2.30256921E+08 3.43773006E+11 6.36789908E-03 4.36574448E-09 0.00000000E+00 0.00000000E+00 0.00000000E+00 0.00000000E+00 0.00000000E+00 0.00000000E+00 0.00000000E+00 0.00000000E+00 0.00000000E+00
00005 3.18400000E+05 2.10999999E-01 -2.19471271E+00 -6.21153883E-01 3.52358826E+00 6.80364095E+00 5.10160133E+00 1.60557796E+01 1.00748250E-01 6.98490119E-01 2.81393660E-01 3.53980862E-03 1.06566232E-03 1.00996559E-02 5.72657654E+02 2.30256928E+08 3.43773008E+11 6.36790182E-03 4.36575570E-09 0.00000000E+00 0.00000000E+00 0.00000000E+00 0.00000000E+00 0.00000000E+00 0.00000000E+00 0.00000000E+00 0.00000000E+00 0.00000000E+00
00006 4.22080000E+05 2.10999999E-01 -2.19471272E+00 -6.21153896E-01 3.52358826E+00 6.80364101E+00 5.10160150E+00 1.60557798E+01 1.00748296E-01 6.98489859E-01 2.81393920E-01 3.53980862E-03 1.06566232E-03 1.00996559E-02 5.72657627E+02 2.30256943E+08 3.43773020E+11 6.36790510E-03 4.36576906E-09 0.00000000E+00 0.00000000E+00 0.00000000E+00 0.00000000E+00 0.00000000E+00 0.00000000E+00 0.00000000E+00 0.00000000E+00 0.00000000E+00
00007 5.46496000E+05 2.10999999E-01 -2.19471274E+00 -6.21153912E-01 3.52358827E+00 6.80364108E+00 5.10160170E+00 1.60557799E+01 1.00748349E-01 6.98489559E-01 2.81394219E-01 3.53980861E-03 1.06566233E-03 1.00996559E-02 5.72657596E+02 2.30256957E+08 3.43773029E+11 6.36790901E-03 4.36578494E-09 0.00000000E+00 0.00000000E+00 0.00000000E+00 0.00000000E+00 0.00000000E+00 0.00000000E+00 0.00000000E+00 0.00000000E+00 0.00000000E+00
00008 6.95795200E+05 2.10999998E-01 -2.19471276E+00 -6.21153932E-01 3.52358827E+00 6.80364116E+00 5.10160192E+00 1.60557801E+01 1.00748407E-01 6.98489217E-01 2.81394562E-01 3.53980861E-03 1.06566234E-03 1.00996559E-02 5.72657559E+02 2.30256977E+08 3.43773044E+11 6.36791368E-03 4.36580376E-09 0.00000000E+00 0.00000000E+00 0.00000000E+00 0.00000000E+00 0.00000000E+00 0.00000000E+00 0.00000000E+00 0.00000000E+00 0.00000000E+00
00009 8.74954240E+05 2.10999998E-01 -2.19471278E+00 -6.21153955E-01 3.52358828E+00 6.80364126E+00 5.10160219E+00 1.60557804E+01 1.00748473E-01 6.98488825E-01 2.81394953E-01 3.53980860E-03 1.06566234E-03 1.00996559E-02 5.72657514E+02 2.30257001E+08 3.43773063E+11 6.36791924E-03 4.36582605E-09 0.00000000E+00 0.00000000E+00 0.00000000E+00 0.00000000E+00 0.00000000E+00 0.00000000E+00 0.00000000E+00 0.00000000E+00 0.00000000E+00
00010 1.08994509E+06 2.10999997E-01 -2.19471281E+00 -6.21153982E-01 3.52358829E+00 6.80364137E+00 5.10160250E+00 1.60557806E+01 1.00748544E-01 6.98488380E-01 2.81395398E-01 3.53980860E-03 1.06566235E-03 1.00996559E-02 5.72657461E+02 2.30257027E+08 3.43773081E+11 6.36792586E-03 4.36585237E-09 0.00000000E+00 0.00000000E+00 0.00000000E+00 0.00000000E+00 0.00000000E+00 0.00000000E+00 0.00000000E+00 0.00000000E+00 0.00000000E+00
00011 1.34793411E+06 2.10999996E-01 -2.19471283E+00 -6.21154014E-01 3.52358830E+00 6.80364150E+00 5.10160285E+00 1.60557809E+01 1.00748621E-01 6.98487877E-01 2.81395901E-01 3.53980859E-03 1.06566235E-03 1.00996559E-02 5.72657399E+02 2.30257057E+08 3.43773102E+11 6.36793372E-03 4.36588337E-09 0.00000000E+00 0.00000000E+00 0.00000000E+00 0.00000000E+00 0.00000000E+00 0.00000000E+00 0.00000000E+00 0.00000000E+00 0.00000000E+00
00012 1.65752093E+06 2.10999995E-01 -2.19471292E+00 -6.21154067E-01 3.52358830E+00 6.80364115E+00 5.10160146E+00 1.60557801E+01 1.00748049E-01 6.98490499E-01 2.81393279E-01 3.53980864E-03 1.06566227E-03 1.00996559E-02 5.72657294E+02 2.30257129E+08 3.43773168E+11 6.36792424E-03 4.36580923E-09 0.00000000E+00 0.00000000E+00 0.00000000E+00 0.00000000E+00 0.00000000E+00 0.00000000E+00 0.00000000E+00 0.00000000E+00 0.00000000E+00
00013 2.02902511E+06 2.10999994E-01 -2.19471308E+00 -6.21154117E-01 3.52358828E+00 6.80364123E+00 5.10160160E+00 1.60557802E+01 1.00748032E-01 6.98490396E-01 2.81393383E-01 3.53980863E-03 1.06566214E-03 1.00996559E-02 5.72657198E+02 2.30257241E+08 3.43773298E+11 6.36793132E-03 4.36582985E-09 0.00000000E+00 0.00000000E+00 0.00000000E+00 0.00000000E+00 0.00000000E+00 0.00000000E+00 0.00000000E+00 0.00000000E+00 0.00000000E+00
00014 2.47483013E+06 2.10999993E-01 -2.19471299E+00 -6.21154175E-01 3.52358834E+00 6.80364133E+00 5.10160178E+00 1.60557805E+01 1.00748010E-01 6.98490266E-01 2.81393513E-01 3.53980863E-03 1.06566154E-03 1.00996565E-02 5.72657084E+02 2.30257220E+08 3.43773222E+11 6.36793982E-03 4.36585487E-09 0.00000000E+00 0.00000000E+00 0.00000000E+00 0.00000000E+00 0.00000000E+00 0.00000000E+00 0.00000000E+00 0.00000000E+00 0.00000000E+00
00015 3.00979616E+06 2.10999992E-01 -2.19471315E+00 -6.21154245E-01 3.52358833E+00 6.80364145E+00 5.10160198E+00 1.60557807E+01 1.00747979E-01 6.98490108E-01 2.81393670E-01 3.53980863E-03 1.06566152E-03 1.00996565E-02 5.72656948E+02 2.30257338E+08 3.43773346E+11 6.36794989E-03 4.36588463E-09 0.00000000E+00 0.00000000E+00 0.00000000E+00 0.00000000E+00 0.00000000E+00 0.00000000E+00 0.00000000E+00 0.00000000E+00 0.00000000E+00
00016 3.65175539E+06 2.10999990E-01 -2.19471324E+00 -6.21154327E-01 3.52358835E+00 6.80364159E+00 5.10160223E+00 1.60557811E+01 1.00747935E-01 6.98489920E-01 2.81393858E-01 3.53980863E-03 1.06566150E-03 1.00996565E-02 5.72656788E+02 2.30257426E+08 3.43773415E+11 6.36796180E-03 4.36591999E-09 0.00000000E+00 0.00000000E+00 0.00000000E+00 0.00000000E+00 0.00000000E+00 0.00000000E+00 0.00000000E+00 0.00000000E+00 0.00000000E+00
00017 4.42210647E+06 2.10999988E-01 -2.19471335E+00 -6.21154423E-01 3.52358837E+00 6.80364175E+00 5.10160251E+00 1.60557814E+01 1.00747871E-01 6.98489694E-01 2.81394085E-01 3.53980863E-03 1.06566154E-03 1.00996565E-02 5.72656601E+02 2.30257531E+08 3.43773500E+11 6.36797585E-03 4.36596192E-09 0.00000000E+00 0.00000000E+00 0.00000000E+00 0.00000000E+00 0.00000000E+00 0.00000000E+00 0.00000000E+00 0.00000000E+00 0.00000000E+00
00018 5.34652777E+06 2.10999985E-01 -2.19471347E+00 -6.21154536E-01 3.52358840E+00 6.80364195E+00 5.10160285E+00 1.60557819E+01 1.00747780E-01 6.98489422E-01 2.81394356E-01 3.53980863E-03 1.06566156E-03 1.00996565E-02 5.72656382E+02 2.30257649E+08 3.43773591E+11 6.36799237E-03 4.36601152E-09 0.00000000E+00 0.00000000E+00 0.00000000E+00 0.00000000E+00 0.00000000E+00 0.00000000E+00 0.00000000E+00 0.00000000E+00 0.00000000E+00
00019 6.45583332E+06 2.10999982E-01 -2.19471362E+00 -6.21154667E-01 3.52358843E+00 6.80364219E+00 5.10160324E+00 1.60557824E+01 1.00747651E-01 6.98489096E-01 2.81394682E-01 3.53980863E-03 1.06566153E-03 1.00996565E-02 5.72656127E+02 2.30257787E+08 3.43773698E+11 6.36801170E-03 4.36607005E-09 0.00000000E+00 0.00000000E+00 0.00000000E+00 0.00000000E+00 0.00000000E+00 0.00000000E+00 0.00000000E+00 0.00000000E+00 0.00000000E+00
00020 7.78699998E+06 2.10999978E-01 -2.19471376E+00 -6.21154818E-01 3.52358847E+00 6.80364246E+00 5.10160369E+00 1.60557830E+01 1.00747468E-01 6.98488705E-01 2.81395073E-01 3.53980863E-03 1.06566151E-03 1.00996565E-02 5.72655832E+02 2.30257937E+08 3.43773808E+11 6.36803424E-03 4.36613889E-09 0.00000000E+00 0.00000000E+00 0.00000000E+00 0.00000000E+00 0.00000000E+00 0.00000000E+00 0.00000000E+00 0.00000000E+00 0.00000000E+00
00021 9.38439998E+06 2.10999974E-01 -2.19471393E+00 -6.21154993E-01 3.52358851E+00 6.80364278E+00 5.10160420E+00 1.60557837E+01 1.00747209E-01 6.98488236E-01 2.81395542E-01 3.53980863E-03 1.06566167E-03 1.00996564E-02 5.72655494E+02 2.30258109E+08 3.43773934E+11 6.36806035E-03 4.36621956E-09 0.00000000E+00 0.00000000E+00 0.00000000E+00 0.00000000E+00 0.00000000E+00 0.00000000E+00 0.00000000E+00 0.00000000E+00 0.00000000E+00
00022 1.13012800E+07 2.10999968E-01 -2.19471412E+00 -6.21155191E-01 3.52358856E+00 6.80364316E+00 5.10160479E+00 1.60557845E+01 1.00746846E-01 6.98487673E-01 2.81396105E-01 3.53980863E-03 1.06566165E-03 1.00996564E-02 5.72655109E+02 2.30258300E+08 3.43774071E+11 6.36809042E-03 4.36631374E-09 0.00000000E+00 0.00000000E+00 0.00000000E+00 0.00000000E+00 0.00000000E+00 0.00000000E+00 0.00000000E+00 0.00000000E+00 0.00000000E+00
00023 1.36015360E+07 2.10999962E-01 -2.19471430E+00 -6.21155414E-01 3.52358863E+00 6.80364360E+00 5.10160545E+00 1.60557853E+01 1.00746337E-01 6.98486997E-01 2.81396781E-01 3.53980862E-03 1.06566191E-03 1.00996561E-02 5.72654677E+02 2.30258502E+08 3.43774208E+11 6.36812477E-03 4.36642317E-09 0.00000000E+00 0.00000000E+00 0.00000000E+00 0.00000000E+00 0.00000000E+00 0.00000000E+00 0.00000000E+00 0.00000000E+00 0.00000000E+00
00024 1.63618432E+07 2.10999954E-01 -2.19471447E+00 -6.21155662E-01 3.52358871E+00 6.80364412E+00 5.10160619E+00 1.60557863E+01 1.00745628E-01 6.98486187E-01 2.81397592E-01 3.53980862E-03 1.06566240E-03 1.00996557E-02 5.72654197E+02 2.30258706E+08 3.43774329E+11 6.36816367E-03 4.36654967E-09 0.00000000E+00 0.00000000E+00 0.00000000E+00 0.00000000E+00 0.00000000E+00 0.00000000E+00 0.00000000E+00 0.00000000E+00 0.00000000E+00
00025 1.96742118E+07 2.10999944E-01 -2.19471463E+00 -6.21155933E-01 3.52358881E+00 6.80364471E+00 5.10160699E+00 1.60557874E+01 1.00744649E-01 6.98485214E-01 2.81398565E-01 3.53980874E-03 1.06566223E-03 1.00996556E-02 5.72653672E+02 2.30258915E+08 3.43774441E+11 6.36820725E-03 4.36669520E-09 0.00000000E+00 0.00000000E+00 0.00000000E+00 0.00000000E+00 0.00000000E+00 0.00000000E+00 0.00000000E+00 0.00000000E+00 0.00000000E+00
00026 2.36490542E+07 2.10999933E-01 -2.19471474E+00 -6.21156225E-01 3.52358893E+00 6.80364539E+00 5.10160786E+00 1.60557885E+01 1.00743305E-01 6.98484046E-01 2.81399732E-01 3.53980867E-03 1.06566247E-03 1.00996555E-02 5.72653111E+02 2.30259101E+08 3.43774506E+11 6.36825554E-03 4.36686124E-09 0.00000000E+00 0.00000000E+00 0.00000000E+00 0.00000000E+00 0.00000000E+00 0.00000000E+00 0.00000000E+00 0.00000000E+00 0.00000000E+00
00027 2.84188650E+07 2.10999919E-01 -2.19471473E+00 -6.21156532E-01 3.52358908E+00 6.80364617E+00 5.10160877E+00 1.60557897E+01 1.00741478E-01 6.98482645E-01 2.81401133E-01 3.53980866E-03 1.06566293E-03 1.00996553E-02 5.72652521E+02 2.30259231E+08 3.43774478E+11 6.36830842E-03 4.36705013E-09 0.00000000E+00 0.00000000E+00 0.00000000E+00 0.00000000E+00 0.00000000E+00 0.00000000E+00 0.00000000E+00 0.00000000E+00 0.00000000E+00
00028 3.41426380E+07 2.10999903E-01 -2.19471463E+00 -6.21156846E-01 3.52358926E+00 6.80364706E+00 5.10160969E+00 1.60557909E+01 1.00739015E-01 6.98480963E-01 2.81402815E-01 3.53980865E-03 1.06566288E-03 1.00996553E-02 5.72651923E+02 2.30259308E+08 3.43774371E+11 6.36836539E-03 4.36726330E-09 0.00000000E+00 0.00000000E+00 0.00000000E+00 0.00000000E+00 0.00000000E+00 0.00000000E+00 0.00000000E+00 0.00000000E+00 0.00000000E+00
00029 4.10111656E+07 2.10999884E-01 -2.19471436E+00 -6.21157156E-01 3.52358948E+00 6.80364807E+00 5.10161061E+00 1.60557921E+01 1.00735729E-01 6.98478945E-01 2.81404832E-01 3.53980864E-03 1.06566257E-03 1.00996560E-02 5.72651336E+02 2.30259288E+08 3.43774128E+11 6.36842589E-03 4.36750282E-09 0.00000000E+00 0.00000000E+00 0.00000000E+00 0.00000000E+00 0.00000000E+00 0.00000000E+00 0.00000000E+00 0.00000000E+00 0.00000000E+00
00030 4.92533987E+07 2.10999860E-01 -2.19471385E+00 -6.21157449E-01 3.52358976E+00 6.80364921E+00 5.10161147E+00 1.60557932E+01 1.00731393E-01 6.98476524E-01 2.81407253E-01 3.53980863E-03 1.06566347E-03 1.00996558E-02 5.72650789E+02 2.30259123E+08 3.43773689E+11 6.36848913E-03 4.36777080E-09 0.00000000E+00 0.00000000E+00 0.00000000E+00 0.00000000E+00 0.00000000E+00 0.00000000E+00 0.00000000E+00 0.00000000E+00 0.00000000E+00
00031 5.91440784E+07 2.10999832E-01 -2.19471305E+00 -6.21157709E-01 3.52359009E+00 6.80365050E+00 5.10161222E+00 1.60557942E+01 1.00725743E-01 6.98473621E-01 2.81410159E-01 3.53980862E-03 1.06565917E-03 1.00996580E-02 5.72650313E+02 2.30258773E+08 3.43773005E+11 6.36855416E-03 4.36806971E-09 0.00000000E+00 0.00000000E+00 0.00000000E+00 0.00000000E+00 0.00000000E+00 0.00000000E+00 0.00000000E+00 0.00000000E+00 0.00000000E+00
00032 7.10128941E+07 2.10999799E-01 -2.19471185E+00 -6.21157922E-01 3.52359049E+00 6.80365196E+00 5.10161284E+00 1.60557949E+01 1.00718468E-01 6.98470134E-01 2.81413647E-01 3.53980860E-03 1.06566290E-03 1.00996533E-02 5.72649937E+02 2.30258178E+08 3.43772004E+11 6.36862060E-03 4.36840453E-09 0.00000000E+00 0.00000000E+00 0.00000000E+00 0.00000000E+00 0.00000000E+00 0.00000000E+00 0.00000000E+00 0.00000000E+00 0.00000000E+00
00033 8.52554730E+07 2.10999758E-01 -2.19471029E+00 -6.21158070E-01 3.52359096E+00 6.80365362E+00 5.10161326E+00 1.60557954E+01 1.00709204E-01 6.98465951E-01 2.81417830E-01 3.53980887E-03 1.06566541E-03 1.00996508E-02 5.72649699E+02 2.30257341E+08 3.43770702E+11 6.36868758E-03 4.36878021E-09 0.00000000E+00 0.00000000E+00 0.00000000E+00 0.00000000E+00 0.00000000E+00 0.00000000E+00 0.00000000E+00 0.00000000E+00 0.00000000E+00
00034 1.02346568E+08 2.10999710E-01 -2.19470805E+00 -6.21158144E-01 3.52359156E+00 6.80365552E+00 5.10161345E+00 1.60557956E+01 1.00697575E-01 6.98460931E-01 2.81422850E-01 3.53980885E-03 1.06565470E-03 1.00996616E-02 5.72649619E+02 2.30256085E+08 3.43768848E+11 6.36875573E-03 4.36920519E-09 0.00000000E+00 0.00000000E+00 0.00000000E+00 0.00000000E+00 0.00000000E+00 0.00000000E+00 0.00000000E+00 0.00000000E+00 0.00000000E+00
00035 1.22855881E+08 2.10999651E-01 -2.19470501E+00 -6.21158138E-01 3.52359231E+00 6.80365772E+00 5.10161339E+00 1.60557955E+01 1.00683166E-01 6.98454911E-01 2.81428879E-01 3.53980882E-03 1.06564956E-03 1.00996591E-02 5.72649709E+02 2.30254344E+08 3.43766348E+11 6.36882634E-03 4.36969182E-09 0.00000000E+00 0.00000000E+00 0.00000000E+00 0.00000000E+00 0.00000000E+00 0.00000000E+00 0.00000000E+00 0.00000000E+00 0.00000000E+00
00036 1.47467057E+08 2.10999582E-01 -2.19470138E+00 -6.21158046E-01 3.52359317E+00 6.80366029E+00 5.10161307E+00 1.60557949E+01 1.00665425E-01 6.98447680E-01 2.81436106E-01 3.53980879E-03 1.06562545E-03 1.00996878E-02 5.72649986E+02 2.30252220E+08 3.43763363E+11 6.36890108E-03 4.37025556E-09 0.00000000E+00 0.00000000E+00 0.00000000E+00 0.00000000E+00 0.00000000E+00 0.00000000E+00 0.00000000E+00 0.00000000E+00 0.00000000E+00
00037 1.77000469E+08 2.10999498E-01 -2.19469684E+00 -6.21157866E-01 3.52359422E+00 6.80366331E+00 5.10161248E+00 1.60557940E+01 1.00643761E-01 6.98438992E-01 2.81444779E-01 3.53980875E-03 1.06561890E-03 1.00997082E-02 5.72650457E+02 2.30249534E+08 3.43759634E+11 6.36898265E-03 4.37091589E-09 0.00000000E+00 0.00000000E+00 0.00000000E+00 0.00000000E+00 0.00000000E+00 0.00000000E+00 0.00000000E+00 0.00000000E+00 0.00000000E+00
00038 2.12440562E+08 2.10999397E-01 -2.19469122E+00 -6.21157593E-01 3.52359549E+00 6.80366688E+00 5.10161160E+00 1.60557927E+01 1.00617508E-01 6.98428574E-01 2.81455185E-01 3.53980870E-03 1.06565623E-03 1.00996820E-02 5.72651133E+02 2.30246186E+08 3.43755014E+11 6.36907382E-03 4.37169409E-09 0.00000000E+00 0.00000000E+00 0.00000000E+00 0.00000000E+00 0.00000000E+00 0.00000000E+00 0.00000000E+00 0.00000000E+00 0.00000000E+00
00039 2.54968675E+08 2.10999276E-01 -2.19468460E+00 -6.21157218E-01 3.52359696E+00 6.80367113E+00 5.10161040E+00 1.60557909E+01 1.00585761E-01 6.98416071E-01 2.81467652E-01 3.53980864E-03 1.06572571E-03 1.00996477E-02 5.72652037E+02 2.30242216E+08 3.43749580E+11 6.36917773E-03 4.37261682E-09 0.00000000E+00 0.00000000E+00 0.00000000E+00 0.00000000E+00 0.00000000E+00 0.00000000E+00 0.00000000E+00 0.00000000E+00 0.00000000E+00
00040 3.06002410E+08 2.10999132E-01 -2.19467622E+00 -6.21156763E-01 3.52359882E+00 6.80367623E+00 5.10160895E+00 1.60557888E+01 1.00547614E-01 6.98401056E-01 2.81482633E-01 3.53980857E-03 1.06590645E-03 1.00994954E-02 5.72653135E+02 2.30237217E+08 3.43742714E+11 6.36930187E-03 4.37372392E-09 0.00000000E+00 0.00000000E+00 0.00000000E+00 0.00000000E+00 0.00000000E+00 0.00000000E+00 0.00000000E+00 0.00000000E+00 0.00000000E+00
00041 3.67242892E+08 2.10998958E-01 -2.19466663E+00 -6.21156175E-01 3.52360093E+00 6.80368230E+00 5.10160709E+00 1.60557860E+01 1.00501702E-01 6.98383066E-01 2.81500627E-01 3.53980848E-03 1.06566642E-03 1.00997311E-02 5.72654533E+02 2.30231440E+08 3.43734836E+11 6.36944542E-03 4.37503954E-09 0.00000000E+00 0.00000000E+00 0.00000000E+00 0.00000000E+00 0.00000000E+00 0.00000000E+00 0.00000000E+00 0.00000000E+00 0.00000000E+00
00042 4.40731470E+08 2.10998749E-01 -2.19465466E+00 -6.21155485E-01 3.52360357E+00 6.80368959E+00 5.10160489E+00 1.60557828E+01 1.00446734E-01 6.98361500E-01 2.81522233E-01 3.53979620E-03 1.06508237E-03 1.01002892E-02 5.72656181E+02 2.30224278E+08 3.43725029E+11 6.36961906E-03 4.37660514E-09 0.00000000E+00 0.00000000E+00 0.00000000E+00 0.00000000E+00 0.00000000E+00 0.00000000E+00 0.00000000E+00 0.00000000E+00 0.00000000E+00
00043 5.28917764E+08 2.10998499E-01 -2.19464052E+00 -6.21154650E-01 3.52360669E+00 6.80369832E+00 5.10160223E+00 1.60557789E+01 1.00380816E-01 6.98335643E-01 2.81548155E-01 3.53979608E-03 1.06468063E-03 1.01006096E-02 5.72658172E+02 2.30215790E+08 3.43713425E+11 6.36982621E-03 4.37849892E-09 0.00000000E+00 0.00000000E+00 0.00000000E+00 0.00000000E+00 0.00000000E+00 0.00000000E+00 0.00000000E+00 0.00000000E+00 0.00000000E+00
00044 6.34741317E+08 2.10998199E-01 -2.19462337E+00 -6.21153671E-01 3.52361049E+00 6.80370885E+00 5.10159912E+00 1.60557743E+01 1.00301658E-01 6.98304548E-01 2.81579245E-01 3.53979593E-03 1.06468530E-03 1.01006098E-02 5.72660516E+02 2.30205525E+08 3.43699363E+11 6.37007874E-03 4.38078508E-09 0.00000000E+00 0.00000000E+00 0.00000000E+00 0.00000000E+00 0.00000000E+00 0.00000000E+00 0.00000000E+00 0.00000000E+00 0.00000000E+00
00045 7.61729581E+08 2.10997838E-01 -2.19460290E+00 -6.21152482E-01 3.52361501E+00 6.80372146E+00 5.10159534E+00 1.60557687E+01 1.00206629E-01 6.98267247E-01 2.81616560E-01 3.53979575E-03 1.06466612E-03 1.01006161E-02 5.72663357E+02 2.30193258E+08 3.43682578E+11 6.37037974E-03 4.38352511E-09 0.00000000E+00 0.00000000E+00 0.00000000E+00 0.00000000E+00 0.00000000E+00 0.00000000E+00 0.00000000E+00 0.00000000E+00 0.00000000E+00
00046 9.14115497E+08 2.10997406E-01 -2.19457835E+00 -6.21151051E-01 3.52362043E+00 6.80373659E+00 5.10159079E+00 1.60557620E+01 1.00092572E-01 6.98222487E-01 2.81661331E-01 3.53979554E-03 1.06456382E-03 1.01007014E-02 5.72666775E+02 2.30178545E+08 3.43662448E+11 6.37074048E-03 4.38681439E-09 0.00000000E+00 0.00000000E+00 0.00000000E+00 0.00000000E+00 0.00000000E+00 0.00000000E+00 0.00000000E+00 0.00000000E+00 0.00000000E+00
00047 1.09697860E+09 2.10996887E-01 -2.19454884E+00 -6.21149338E-01 3.52362696E+00 6.80375476E+00 5.10158535E+00 1.60557540E+01 9.99556756E-02 6.98168755E-01 2.81715062E-01 3.53979528E-03 1.06457004E-03 1.01006978E-02 5.72670868E+02 2.30160864E+08 3.43638250E+11 6.37117417E-03 4.39076791E-09 0.00000000E+00 0.00000000E+00 0.00000000E+00 0.00000000E+00 0.00000000E+00 0.00000000E+00 0.00000000E+00 0.00000000E+00 0.00000000E+00
00048 1.31641432E+09 2.10996264E-01 -2.19451349E+00 -6.21147274E-01 3.52363476E+00 6.80377657E+00 5.10157879E+00 1.60557444E+01 9.97912747E-02 6.98104244E-01 2.81779546E-01 3.53978468E-03 1.06471767E-03 1.01005876E-02 5.72675795E+02 2.30139679E+08 3.43609267E+11 6.37169414E-03 4.39550528E-09 0.00000000E+00 0.00000000E+00 0.00000000E+00 0.00000000E+00 0.00000000E+00 0.00000000E+00 0.00000000E+00 0.00000000E+00 0.00000000E+00
00049 1.57973718E+09 2.10995516E-01 -2.19447114E+00 -6.21144786E-01 3.52364410E+00 6.80380273E+00 5.10157089E+00 1.60557327E+01 9.95939261E-02 6.98026829E-01 2.81856917E-01 3.53978432E-03 1.06496835E-03 1.01003828E-02 5.72681731E+02 2.30114289E+08 3.43574544E+11 6.37231665E-03 4.40120965E-09 0.00000000E+00 0.00000000E+00 0.00000000E+00 0.00000000E+00 0.00000000E+00 0.00000000E+00 0.00000000E+00 0.00000000E+00 0.00000000E+00
00050 1.89572461E+09 2.10994619E-01 -2.19442007E+00 -6.21141830E-01 3.52365539E+00 6.80383413E+00 5.10156149E+00 1.60557189E+01 9.93574352E-02 6.97934001E-01 2.81949757E-01 3.53978387E-03 1.06471135E-03 1.01006344E-02 5.72688794E+02 2.30083710E+08 3.43532687E+11 6.37306577E-03 4.40806472E-09 0.00000000E+00 0.00000000E+00 0.00000000E+00 0.00000000E+00 0.00000000E+00 0.00000000E+00 0.00000000E+00 0.00000000E+00 0.00000000E+00
00051 2.27490954E+09 2.10993543E-01 -2.19435914E+00 -6.21138247E-01 3.52366884E+00 6.80387186E+00 5.10155010E+00 1.60557021E+01 9.90729141E-02 6.97822415E-01 2.82061116E-01 3.53978334E-03 1.06503080E-03 1.01005426E-02 5.72697342E+02 2.30047185E+08 3.43482737E+11 6.37396352E-03 4.41631595E-09 0.00000000E+00 0.00000000E+00 0.00000000E+00 0.00000000E+00 0.00000000E+00 0.00000000E+00 0.00000000E+00 0.00000000E+00 0.00000000E+00
00052 2.72993145E+09 2.10992251E-01 -2.19428628E+00 -6.21133886E-01 3.52368487E+00 6.80391714E+00 5.10153624E+00 1.60556818E+01 9.87308524E-02 6.97688418E-01 2.82194589E-01 3.53978270E-03 1.06548409E-03 1.01007067E-02 5.72707722E+02 2.30003469E+08 3.43423017E+11 6.37503602E-03 4.42623509E-09 0.00000000E+00 0.00000000E+00 0.00000000E+00 0.00000000E+00 0.00000000E+00 0.00000000E+00 0.00000000E+00 0.00000000E+00 0.00000000E+00
00053 3.27595773E+09 2.10990701E-01 -2.19419777E+00 -6.21128791E-01 3.52370445E+00 6.80397150E+00 5.10152004E+00 1.60556579E+01 9.83217324E-02 6.97527796E-01 2.82355186E-01 3.53978214E-03 1.06568102E-03 1.01005313E-02 5.72719904E+02 2.29950523E+08 3.43350512E+11 6.37633418E-03 4.43817864E-09 0.00000000E+00 0.00000000E+00 0.00000000E+00 0.00000000E+00 0.00000000E+00 0.00000000E+00 0.00000000E+00 0.00000000E+00 0.00000000E+00
00054 3.93118928E+09 2.10988841E-01 -2.19409233E+00 -6.21122571E-01 3.52372770E+00 6.80403684E+00 5.10150027E+00 1.60556288E+01 9.78290020E-02 6.97334619E-01 2.82547822E-01 3.53978121E-03 1.06635180E-03 1.01004127E-02 5.72734732E+02 2.29887353E+08 3.43264133E+11 6.37788780E-03 4.45257361E-09 0.00000000E+00 0.00000000E+00 0.00000000E+00 0.00000000E+00 0.00000000E+00 0.00000000E+00 0.00000000E+00 0.00000000E+00 0.00000000E+00
00055 4.71746714E+09 2.10986608E-01 -2.19396522E+00 -6.21115209E-01 3.52375580E+00 6.80411515E+00 5.10147687E+00 1.60555944E+01 9.72394908E-02 6.97103227E-01 2.82779200E-01 3.53978010E-03 1.06636083E-03 1.01004200E-02 5.72752327E+02 2.29811319E+08 3.43160049E+11 6.37975462E-03 4.46988985E-09 0.00000000E+00 0.00000000E+00 0.00000000E+00 0.00000000E+00 0.00000000E+00 0.00000000E+00 0.00000000E+00 0.00000000E+00 0.00000000E+00
00056 5.66100056E+09 2.10983929E-01 -2.19381294E+00 -6.21106407E-01 3.52378946E+00 6.80420907E+00 5.10144891E+00 1.60555531E+01 9.65327717E-02 6.96825732E-01 2.83056956E-01 3.53977875E-03 1.06634068E-03 1.01001724E-02 5.72773376E+02 2.29720264E+08 3.43035392E+11 6.38199407E-03 4.49074734E-09 0.00000000E+00 0.00000000E+00 0.00000000E+00 0.00000000E+00 0.00000000E+00 0.00000000E+00 0.00000000E+00 0.00000000E+00 0.00000000E+00
00057 6.79324068E+09 2.10980713E-01 -2.19362993E+00 -6.21095794E-01 3.52382991E+00 6.80432212E+00 5.10141518E+00 1.60555035E+01 9.56821098E-02 6.96491891E-01 2.83390458E-01 3.53977625E-03 1.06655466E-03 1.01002659E-02 5.72798737E+02 2.29610870E+08 3.42885641E+11 6.38469038E-03 4.51597929E-09 0.00000000E+00 0.00000000E+00 0.00000000E+00 0.00000000E+00 0.00000000E+00 0.00000000E+00 0.00000000E+00 0.00000000E+00 0.00000000E+00
00058 8.15192881E+09 2.10976854E-01 -2.19341057E+00 -6.21083061E-01 3.52387839E+00 6.80445770E+00 5.10137472E+00 1.60554439E+01 9.46620317E-02 6.96091515E-01 2.83790790E-01 3.53977428E-03 1.06678337E-03 1.01001031E-02 5.72829168E+02 2.29479799E+08 3.42706224E+11 6.38791981E-03 4.54642506E-09 0.00000000E+00 0.00000000E+00 0.00000000E+00 0.00000000E+00 0.00000000E+00 0.00000000E+00 0.00000000E+00 0.00000000E+00 0.00000000E+00
00059 9.78235458E+09 2.10972223E-01 -2.19314711E+00 -6.21067820E-01 3.52393663E+00 6.80462058E+00 5.10132629E+00 1.60553725E+01 9.34373648E-02 6.95610769E-01 2.84271467E-01 3.53977210E-03 1.06688426E-03 1.01000739E-02 5.72865609E+02 2.29322512E+08 3.42490868E+11 6.39180179E-03 4.58327237E-09 0.00000000E+00 0.00000000E+00 0.00000000E+00 0.00000000E+00 0.00000000E+00 0.00000000E+00 0.00000000E+00 0.00000000E+00 0.00000000E+00
00060 1.17388655E+10 2.10966664E-01 -2.19283048E+00 -6.21049555E-01 3.52400666E+00 6.80481636E+00 5.10126824E+00 1.60552870E+01 9.19662634E-02 6.95033265E-01 2.84848829E-01 3.53976922E-03 1.06555712E-03 1.01014787E-02 5.72909297E+02 2.29133669E+08 3.42232243E+11 6.39647073E-03 4.62794279E-09 0.00000000E+00 0.00000000E+00 0.00000000E+00 0.00000000E+00 0.00000000E+00 0.00000000E+00 0.00000000E+00 0.00000000E+00 0.00000000E+00
00061 1.30000000E+10 2.10963080E-01 -2.19262592E+00 -6.21037857E-01 3.52405194E+00 6.80494266E+00 5.10123108E+00 1.60552322E+01 9.10183513E-02 6.94660939E-01 2.85221410E-01 3.53976736E-03 1.06537586E-03 1.01014083E-02 5.72937313E+02 2.29011823E+08 3.42065279E+11 6.39948786E-03 4.65699252E-09 0.00000000E+00 0.00000000E+00 0.00000000E+00 0.00000000E+00 0.00000000E+00 0.00000000E+00 0.00000000E+00 0.00000000E+00 0.00000000E+00
