2168.8538114993617
2372.8050063637943
2414.6049132404587
2451.509440461044
2506.9812163335537
2544.8849301464825
2592.200380314719
2649.21978621464
2649.21978621464
2707.2701823059074
2766.1038427598946
2825.2587588879733
2885.2824890653396
2946.0414977928626
2946.0414977928626
3007.1627285790782
3068.5270777330984
3130.790951735838
3193.661184891468
3256.7145915507567
3383.528196416941
3447.8298873161593
3512.1845652280417
3576.5146637803227
3706.3238134095054
3771.147941158261
3901.2638187510292
3966.480193581029
4095.8144136447318
4225.59334615405
4353.75182987887
4481.563145106953
4607.7194674826005
4732.959083476889
4918.057250490816
5100.560226465939
5283.033444281424
5535.440921473963
5790.639386777261
11288.491492090276
6837.920228654098
6505.383143162517
9808.458073053736
9739.388948549746
