1784.4495332303543
1733.0148733515389
1750.5367395827323
1781.7347896877466
1797.0119700864382
1838.8952881604873
1867.6627629358936
1867.6627629358936
1903.5963789239925
1945.1368880617676
1945.1368880617676
1987.0057322772727
2029.6525559139998
2029.6525559139998
2072.8862463670944
2116.5427266420425
2116.5427266420425
2160.31111434593
2204.7003954636184
2249.58713659667
2294.7224790404434
2294.7224790404434
2339.7303037585393
2385.395743700802
2431.4996982046728
2477.7435827121603
2523.7243616209767
2570.140824064495
2616.864405638586
2663.684907546173
2710.1445169266563
2803.8498961421024
2850.6172574425823
2897.066938774888
2990.489142720187
3036.8836960387684
3128.945725743724
3175.009068010083
3265.771389603844
3355.9992878617177
3444.780388484799
3532.782415431691
3662.781736291933
3748.852989615983
3878.9518618592497
4015.841653115286
4198.874072462575
5523.5931200066325
6028.4455133557885
4383.463856855619
6181.053320154343
6990.807282837432
7190.2561131506
5761.49739686719
