78.04744493694736
85.10734450601662
85.20978117353741
85.3010073625427
85.43517630826291
85.5242333885757
85.63221345879101
85.76327562104163
85.92254060425769
85.92254060425769
86.11632735938795
86.11632735938795
86.35247109170123
86.35247109170123
86.6406875422034
86.6406875422034
86.99310456553428
86.99310456553428
86.99310456553428
86.99310456553428
87.42490518987003
87.42490518987003
87.42490518987003
87.95518775140353
87.95518775140353
87.95518775140353
87.95518775140353
87.95518775140353
88.60797264696475
88.60797264696475
88.60797264696475
88.60797264696475
88.60797264696475
89.41248804816122
89.41248804816122
89.41248804816122
89.41248804816122
89.41248804816122
89.41248804816122
89.41248804816122
90.40599908951235
90.40599908951235
90.40599908951235
90.40599908951235
90.40599908951235
90.40599908951235
90.40599908951235
90.40599908951235
91.64749312312588
91.64749312312588
91.64749312312588
91.64749312312588
91.64749312312588
91.64749312312588
91.64749312312588
91.64749312312588
91.64749312312588
93.11589244384507
93.11589244384507
93.11589244384507
93.11589244384507
93.11589244384507
93.11589244384507
93.11589244384507
93.11589244384507
93.11589244384507
93.11589244384507
93.11589244384507
94.63678761005502
94.63678761005502
94.63678761005502
94.63678761005502
94.63678761005502
94.63678761005502
94.63678761005502
94.63678761005502
94.63678761005502
94.63678761005502
94.63678761005502
96.21288335639078
96.21288335639078
96.21288335639078
96.21288335639078
96.21288335639078
96.21288335639078
96.21288335639078
96.21288335639078
96.21288335639078
96.21288335639078
97.81955436922247
97.81955436922247
97.81955436922247
97.81955436922247
97.81955436922247
97.81955436922247
97.81955436922247
97.81955436922247
97.81955436922247
97.81955436922247
97.81955436922247
99.45367139246514
99.45367139246514
99.45367139246514
99.45367139246514
99.45367139246514
99.45367139246514
99.45367139246514
99.45367139246514
99.45367139246514
99.45367139246514
101.09723084720187
101.09723084720187
101.09723084720187
101.09723084720187
101.09723084720187
101.09723084720187
101.09723084720187
101.09723084720187
101.09723084720187
101.09723084720187
102.72630332102631
102.72630332102631
102.72630332102631
102.72630332102631
102.72630332102631
102.72630332102631
102.72630332102631
102.72630332102631
102.72630332102631
104.3817178670026
104.3817178670026
104.3817178670026
104.3817178670026
104.3817178670026
104.3817178670026
104.3817178670026
104.3817178670026
104.3817178670026
106.04623397362224
106.04623397362224
106.04623397362224
106.04623397362224
106.04623397362224
106.04623397362224
106.04623397362224
106.04623397362224
106.04623397362224
107.72283885649257
107.72283885649257
107.72283885649257
107.72283885649257
107.72283885649257
107.72283885649257
107.72283885649257
107.72283885649257
107.72283885649257
109.40626197989123
109.40626197989123
109.40626197989123
109.40626197989123
109.40626197989123
109.40626197989123
109.40626197989123
109.40626197989123
111.08867582049423
111.08867582049423
111.08867582049423
111.08867582049423
111.08867582049423
111.08867582049423
111.08867582049423
111.08867582049423
111.08867582049423
112.75021793525616
112.75021793525616
112.75021793525616
112.75021793525616
112.75021793525616
112.75021793525616
112.75021793525616
112.75021793525616
114.39649018221134
114.39649018221134
114.39649018221134
114.39649018221134
114.39649018221134
114.39649018221134
114.39649018221134
116.05066675893819
116.05066675893819
116.05066675893819
116.05066675893819
116.05066675893819
116.05066675893819
116.05066675893819
116.05066675893819
117.6988311637082
117.6988311637082
117.6988311637082
117.6988311637082
117.6988311637082
117.6988311637082
117.6988311637082
119.3425408752329
119.3425408752329
119.3425408752329
119.3425408752329
119.3425408752329
119.3425408752329
119.3425408752329
120.9706822535071
120.9706822535071
120.9706822535071
120.9706822535071
120.9706822535071
120.9706822535071
122.56477153070519
122.56477153070519
122.56477153070519
122.56477153070519
122.56477153070519
122.56477153070519
122.56477153070519
124.13284525810694
124.13284525810694
124.13284525810694
124.13284525810694
124.13284525810694
124.13284525810694
125.69865480446282
125.69865480446282
125.69865480446282
125.69865480446282
125.69865480446282
125.69865480446282
127.24855813313839
127.24855813313839
127.24855813313839
127.24855813313839
127.24855813313839
127.24855813313839
128.786651046093
128.786651046093
128.786651046093
128.786651046093
128.786651046093
128.786651046093
130.28647377834716
130.28647377834716
130.28647377834716
130.28647377834716
130.28647377834716
131.73814079456704
131.73814079456704
131.73814079456704
131.73814079456704
131.73814079456704
131.73814079456704
133.18809278728915
133.18809278728915
133.18809278728915
133.18809278728915
133.18809278728915
134.61367165103903
134.61367165103903
134.61367165103903
134.61367165103903
134.61367165103903
136.01524558337553
136.01524558337553
136.01524558337553
136.01524558337553
136.01524558337553
137.3687005423876
137.3687005423876
137.3687005423876
137.3687005423876
138.6755254109814
138.6755254109814
138.6755254109814
138.6755254109814
138.6755254109814
139.97330592476465
139.97330592476465
139.97330592476465
139.97330592476465
141.2429533629601
141.2429533629601
141.2429533629601
141.2429533629601
141.2429533629601
142.47352844297757
142.47352844297757
142.47352844297757
142.47352844297757
143.65518640148974
143.65518640148974
143.65518640148974
143.65518640148974
144.81326654302603
144.81326654302603
144.81326654302603
144.81326654302603
145.95493034429896
145.95493034429896
145.95493034429896
145.95493034429896
147.0715941890607
147.0715941890607
147.0715941890607
148.1486983240846
148.1486983240846
148.1486983240846
148.1486983240846
149.20239689062737
149.20239689062737
149.20239689062737
149.20239689062737
150.2610848430928
150.2610848430928
150.2610848430928
151.3170618743034
151.3170618743034
151.3170618743034
151.3170618743034
152.37076219549937
152.37076219549937
152.37076219549937
153.45647219494563
153.45647219494563
153.45647219494563
154.60863645635123
154.60863645635123
154.60863645635123
154.60863645635123
155.8260313519627
155.8260313519627
155.8260313519627
157.12074511281259
157.12074511281259
158.5208929299912
158.5208929299912
158.5208929299912
160.13160256393533
160.13160256393533
161.9280477748175
163.9477383581904
166.3058552472234
169.06816538134092
172.59318372736223
179.80062208584337
204.81699026477764
210.81511225396542
172.56550630603752
146.793302100508
331.31179695744333
532.5912290420216
346.0145648427354
229.25338664318366
182.5549275559747
159.52385642914115
147.7014095812213
141.7463942152654
138.13119850034164
136.14888531095013
134.81829485517864
134.28533285635282
133.8888896683823
133.87101000975747
134.04498177631774
134.2337583587444
134.73109207199772
135.17399209289073
135.65440473963105
136.4970860108196
137.13711537098368
137.80559164346442
138.51335542796974
139.27098911400662
140.05486201929693
140.8531844209783
141.68623499046168
142.55781819637582
143.44288123311566
144.34040183062535
145.2600435399699
146.18985993427884
147.12574669650616
148.06843289912126
149.03022255197396
149.99791765239357
150.96898319420396
151.94304654207517
152.92811308978045
153.42622164231815
154.92593291011593
155.92823033098585
156.93219888915934
157.94394817146042
158.96744715827208
159.9932903502837
161.02015115750513
162.0470129531474
163.07442654852937
164.11326282091952
165.157370584547
166.20124778412782
167.26207877388794
168.31990214853434
169.37878764054253
170.98351466061106
172.05777799753386
173.13118437168063
174.2030321510286
175.2729192121904
176.8763998452408
177.95375234517186
179.03060529508716
180.10519918831014
181.176823049845
182.778113269142
183.84159953932516
184.9057471935817
185.97173380695273
187.56474458639562
188.62177178302656
190.19922806731603
191.24414589558342
192.28024197735328
193.8006681512071
195.29186371078023
196.2686385829392
197.77243014536143
199.3002621724945
200.83582748392269
202.37487802296445
203.91607819674726
205.9817578035877
207.6667326830866
210.8614506596385
212.6366541481718
217.43750696346368
219.75475449097678
225.44695298458896
230.77693441968339
243.99409166892568
264.1939815620054
471.28882274733627
734.4788594812927
2016.58466361293
12919.728281985734
31753.33096032764
